{
    "clips": [
        {
            "Name": "anim_workout_mediumenergy_trans_01",
            "keyframes": {
                "LiftHeightKeyFrame": [
                    {
                        "triggerTime_ms": 0,
                        "durationTime_ms": 165,
                        "height_mm": 53,
                        "heightVariability_mm": 0
                    },
                    {
                        "triggerTime_ms": 660,
                        "durationTime_ms": 198,
                        "height_mm": 50,
                        "heightVariability_mm": 0
                    },
                    {
                        "triggerTime_ms": 858,
                        "durationTime_ms": 330,
                        "height_mm": 63,
                        "heightVariability_mm": 0
                    },
                    {
                        "triggerTime_ms": 1287,
                        "durationTime_ms": 396,
                        "height_mm": 77,
                        "heightVariability_mm": 0
                    },
                    {
                        "triggerTime_ms": 1683,
                        "durationTime_ms": 363,
                        "height_mm": 53,
                        "heightVariability_mm": 0
                    }
                ],
                "ProceduralFaceKeyFrame": [
                    {
                        "triggerTime_ms": 0,
                        "faceAngle": 0.0,
                        "faceCenterX": 0.0,
                        "faceCenterY": 4.415130615234375,
                        "faceScaleX": 1.0,
                        "faceScaleY": 1.0,
                        "leftEye": [
                            9.169666290283203,
                            0.0,
                            1.214332938194275,
                            0.9052804112434387,
                            0.0,
                            0.5,
                            0.5,
                            0.607566773891449,
                            0.607566773891449,
                            0.607566773891449,
                            0.607566773891449,
                            0.5,
                            0.5,
                            0.13810034096240997,
                            0.0,
                            0.0,
                            0.4857596457004547,
                            0.0,
                            0.0
                        ],
                        "rightEye": [
                            -10.206374168395996,
                            0.0,
                            1.2220369577407837,
                            0.9052804112434387,
                            0.0,
                            0.5,
                            0.5,
                            0.607566773891449,
                            0.607566773891449,
                            0.607566773891449,
                            0.607566773891449,
                            0.5,
                            0.5,
                            0.1380992829799652,
                            0.0,
                            0.0,
                            0.47168365120887756,
                            0.0,
                            0.0
                        ]
                    },
                    {
                        "triggerTime_ms": 231,
                        "faceAngle": 0.0,
                        "faceCenterX": 0.0,
                        "faceCenterY": 4.415130615234375,
                        "faceScaleX": 1.0,
                        "faceScaleY": 1.0,
                        "leftEye": [
                            9.169666290283203,
                            0.0,
                            1.214332938194275,
                            0.9052804112434387,
                            0.0,
                            0.5,
                            0.5,
                            0.607566773891449,
                            0.607566773891449,
                            0.607566773891449,
                            0.607566773891449,
                            0.5,
                            0.5,
                            0.13810034096240997,
                            0.0,
                            0.0,
                            0.4857596457004547,
                            0.0,
                            0.0
                        ],
                        "rightEye": [
                            -10.206374168395996,
                            0.0,
                            1.2220369577407837,
                            0.9052804112434387,
                            0.0,
                            0.5,
                            0.5,
                            0.607566773891449,
                            0.607566773891449,
                            0.607566773891449,
                            0.607566773891449,
                            0.5,
                            0.5,
                            0.1380992829799652,
                            0.0,
                            0.0,
                            0.47168365120887756,
                            0.0,
                            0.0
                        ]
                    },
                    {
                        "triggerTime_ms": 264,
                        "faceAngle": 0.0,
                        "faceCenterX": 0.0,
                        "faceCenterY": 4.415130615234375,
                        "faceScaleX": 0.9798282980918884,
                        "faceScaleY": 1.3632280826568604,
                        "leftEye": [
                            9.77674388885498,
                            0.0,
                            1.214332938194275,
                            0.9052804112434387,
                            0.0,
                            0.5,
                            0.5,
                            0.607566773891449,
                            0.607566773891449,
                            0.607566773891449,
                            0.607566773891449,
                            0.5,
                            0.5,
                            0.13810034096240997,
                            0.0,
                            0.0,
                            0.4857596457004547,
                            0.0,
                            0.0
                        ],
                        "rightEye": [
                            -10.840831756591797,
                            0.0,
                            1.2220369577407837,
                            0.9052804112434387,
                            0.0,
                            0.5,
                            0.5,
                            0.607566773891449,
                            0.607566773891449,
                            0.607566773891449,
                            0.607566773891449,
                            0.5,
                            0.5,
                            0.1380992829799652,
                            0.0,
                            0.0,
                            0.47168365120887756,
                            0.0,
                            0.0
                        ]
                    },
                    {
                        "triggerTime_ms": 297,
                        "faceAngle": 0.0,
                        "faceCenterX": 0.0,
                        "faceCenterY": 4.415130615234375,
                        "faceScaleX": 1.0781718492507935,
                        "faceScaleY": 0.890038251876831,
                        "leftEye": [
                            9.169666290283203,
                            0.0,
                            1.214332938194275,
                            0.9052804112434387,
                            0.0,
                            0.5,
                            0.5,
                            0.607566773891449,
                            0.607566773891449,
                            0.607566773891449,
                            0.607566773891449,
                            0.5,
                            0.5,
                            0.2775540351867676,
                            0.0,
                            0.0,
                            0.4857596457004547,
                            0.0,
                            0.0
                        ],
                        "rightEye": [
                            -10.206374168395996,
                            0.0,
                            1.2220369577407837,
                            0.9052804112434387,
                            0.0,
                            0.5,
                            0.5,
                            0.607566773891449,
                            0.607566773891449,
                            0.607566773891449,
                            0.607566773891449,
                            0.5,
                            0.5,
                            0.27755191922187805,
                            0.0,
                            0.0,
                            0.47168365120887756,
                            0.0,
                            0.0
                        ]
                    },
                    {
                        "triggerTime_ms": 330,
                        "faceAngle": 0.0,
                        "faceCenterX": 3.5788731575012207,
                        "faceCenterY": 4.731814861297607,
                        "faceScaleX": 1.189428448677063,
                        "faceScaleY": 0.862740695476532,
                        "leftEye": [
                            9.169666290283203,
                            0.0,
                            1.214332938194275,
                            0.9052804112434387,
                            0.0,
                            0.5,
                            0.5,
                            0.4947323203086853,
                            0.4947323203086853,
                            0.4947323203086853,
                            0.4947323203086853,
                            0.5,
                            0.5,
                            0.17425498366355896,
                            0.0,
                            0.0,
                            0.4857596457004547,
                            0.0,
                            0.0
                        ],
                        "rightEye": [
                            -10.206374168395996,
                            0.0,
                            1.2220369577407837,
                            0.9052804112434387,
                            0.0,
                            0.5,
                            0.5,
                            0.4947323203086853,
                            0.4947323203086853,
                            0.4947323203086853,
                            0.4947323203086853,
                            0.5,
                            0.5,
                            0.1742536574602127,
                            0.0,
                            0.0,
                            0.47168365120887756,
                            0.0,
                            0.0
                        ]
                    },
                    {
                        "triggerTime_ms": 363,
                        "faceAngle": 0.0,
                        "faceCenterX": 4.1752095222473145,
                        "faceCenterY": 2.8300845623016357,
                        "faceScaleX": 1.1307522058486938,
                        "faceScaleY": 1.0,
                        "leftEye": [
                            9.169666290283203,
                            0.0,
                            1.214332938194275,
                            0.9052804112434387,
                            0.0,
                            0.5,
                            0.5,
                            0.5524287819862366,
                            0.5524287819862366,
                            0.5524287819862366,
                            0.5524287819862366,
                            0.5,
                            0.5,
                            0.13810034096240997,
                            0.0,
                            0.0,
                            0.4857596457004547,
                            0.0,
                            0.0
                        ],
                        "rightEye": [
                            -10.206374168395996,
                            0.0,
                            1.2220369577407837,
                            0.9052804112434387,
                            0.0,
                            0.5,
                            0.5,
                            0.5524287819862366,
                            0.5524287819862366,
                            0.5524287819862366,
                            0.5524287819862366,
                            0.5,
                            0.5,
                            0.1380992829799652,
                            0.0,
                            0.0,
                            0.47168365120887756,
                            0.0,
                            0.0
                        ]
                    },
                    {
                        "triggerTime_ms": 429,
                        "faceAngle": 0.0,
                        "faceCenterX": 2.4517078399658203,
                        "faceCenterY": 2.8300845623016357,
                        "faceScaleX": 1.0,
                        "faceScaleY": 1.0,
                        "leftEye": [
                            9.169666290283203,
                            0.0,
                            1.214332938194275,
                            0.9052804112434387,
                            0.0,
                            0.5,
                            0.5,
                            0.607566773891449,
                            0.607566773891449,
                            0.607566773891449,
                            0.607566773891449,
                            0.5,
                            0.5,
                            0.13810034096240997,
                            0.0,
                            0.0,
                            0.4857596457004547,
                            0.0,
                            0.0
                        ],
                        "rightEye": [
                            -10.206374168395996,
                            0.0,
                            1.2220369577407837,
                            0.9052804112434387,
                            0.0,
                            0.5,
                            0.5,
                            0.607566773891449,
                            0.607566773891449,
                            0.607566773891449,
                            0.607566773891449,
                            0.5,
                            0.5,
                            0.1380992829799652,
                            0.0,
                            0.0,
                            0.47168365120887756,
                            0.0,
                            0.0
                        ]
                    },
                    {
                        "triggerTime_ms": 561,
                        "faceAngle": 0.0,
                        "faceCenterX": 2.4517078399658203,
                        "faceCenterY": 2.8300845623016357,
                        "faceScaleX": 1.0,
                        "faceScaleY": 1.0,
                        "leftEye": [
                            9.169666290283203,
                            0.0,
                            1.214332938194275,
                            0.9052804112434387,
                            0.0,
                            0.5,
                            0.5,
                            0.607566773891449,
                            0.607566773891449,
                            0.607566773891449,
                            0.607566773891449,
                            0.5,
                            0.5,
                            0.13810034096240997,
                            0.0,
                            0.0,
                            0.4857596457004547,
                            0.0,
                            0.0
                        ],
                        "rightEye": [
                            -10.206374168395996,
                            0.0,
                            1.2220369577407837,
                            0.9052804112434387,
                            0.0,
                            0.5,
                            0.5,
                            0.607566773891449,
                            0.607566773891449,
                            0.607566773891449,
                            0.607566773891449,
                            0.5,
                            0.5,
                            0.1380992829799652,
                            0.0,
                            0.0,
                            0.47168365120887756,
                            0.0,
                            0.0
                        ]
                    },
                    {
                        "triggerTime_ms": 1056,
                        "faceAngle": 0.0,
                        "faceCenterX": 2.4517078399658203,
                        "faceCenterY": 2.8300845623016357,
                        "faceScaleX": 1.0,
                        "faceScaleY": 1.0,
                        "leftEye": [
                            9.169666290283203,
                            0.0,
                            1.214332938194275,
                            0.9052804112434387,
                            0.0,
                            0.5,
                            0.5,
                            0.607566773891449,
                            0.607566773891449,
                            0.607566773891449,
                            0.607566773891449,
                            0.5,
                            0.5,
                            0.13810034096240997,
                            0.0,
                            0.0,
                            0.4857596457004547,
                            0.0,
                            0.0
                        ],
                        "rightEye": [
                            -10.206374168395996,
                            0.0,
                            1.2220369577407837,
                            0.9052804112434387,
                            0.0,
                            0.5,
                            0.5,
                            0.607566773891449,
                            0.607566773891449,
                            0.607566773891449,
                            0.607566773891449,
                            0.5,
                            0.5,
                            0.1380992829799652,
                            0.0,
                            0.0,
                            0.47168365120887756,
                            0.0,
                            0.0
                        ]
                    },
                    {
                        "triggerTime_ms": 1122,
                        "faceAngle": 0.0,
                        "faceCenterX": 2.4517078399658203,
                        "faceCenterY": -0.47242748737335205,
                        "faceScaleX": 0.8518241047859192,
                        "faceScaleY": 0.9697167277336121,
                        "leftEye": [
                            9.566393852233887,
                            0.0,
                            1.214332938194275,
                            0.9052804112434387,
                            0.0,
                            0.4308491051197052,
                            0.4308491051197052,
                            0.5233873724937439,
                            0.5233873724937439,
                            0.5233873724937439,
                            0.5233873724937439,
                            0.4308491051197052,
                            0.4308491051197052,
                            0.09958511590957642,
                            0.0,
                            0.0,
                            0.3035402297973633,
                            0.0,
                            0.0
                        ],
                        "rightEye": [
                            -10.588273048400879,
                            0.0,
                            1.2220369577407837,
                            0.9052804112434387,
                            0.0,
                            0.4308491051197052,
                            0.4308491051197052,
                            0.5233873724937439,
                            0.5233873724937439,
                            0.5233873724937439,
                            0.5233873724937439,
                            0.4308491051197052,
                            0.4308491051197052,
                            0.09958436340093613,
                            0.0,
                            0.0,
                            0.29474446177482605,
                            0.0,
                            0.0
                        ]
                    },
                    {
                        "triggerTime_ms": 1188,
                        "faceAngle": 0.0,
                        "faceCenterX": 2.4517078399658203,
                        "faceCenterY": 0.6176658272743225,
                        "faceScaleX": 0.994056761264801,
                        "faceScaleY": 0.883192777633667,
                        "leftEye": [
                            10.930442810058594,
                            0.0,
                            1.214332938194275,
                            0.9052804112434387,
                            0.0,
                            0.8194624781608582,
                            0.8194624781608582,
                            0.8434538841247559,
                            0.8434538841247559,
                            0.8434538841247559,
                            0.8434538841247559,
                            0.8194624781608582,
                            0.8194624781608582,
                            0.21105235815048218,
                            0.0,
                            0.0,
                            0.3601857125759125,
                            0.0,
                            0.0
                        ],
                        "rightEye": [
                            -12.038908958435059,
                            0.0,
                            1.2220369577407837,
                            0.9052804112434387,
                            0.0,
                            0.8194624781608582,
                            0.8194624781608582,
                            0.8434538841247559,
                            0.8434538841247559,
                            0.8434538841247559,
                            0.8434538841247559,
                            0.8194624781608582,
                            0.8194624781608582,
                            0.21105074882507324,
                            0.0,
                            0.0,
                            0.34974849224090576,
                            0.0,
                            0.0
                        ]
                    },
                    {
                        "triggerTime_ms": 1221,
                        "faceAngle": 0.0,
                        "faceCenterX": 2.4517078399658203,
                        "faceCenterY": 2.8300845623016357,
                        "faceScaleX": 1.0438380241394043,
                        "faceScaleY": 0.9134761095046997,
                        "leftEye": [
                            11.25170612335205,
                            0.0,
                            1.214332938194275,
                            0.9052804112434387,
                            0.0,
                            0.9554768204689026,
                            0.9554768204689026,
                            0.9554768204689026,
                            0.9554768204689026,
                            0.9554768204689026,
                            0.9554768204689026,
                            0.9554768204689026,
                            0.9554768204689026,
                            0.2847791910171509,
                            0.0,
                            0.0,
                            0.4857596457004547,
                            0.0,
                            0.0
                        ],
                        "rightEye": [
                            -12.383356094360352,
                            0.0,
                            1.2220369577407837,
                            0.9052804112434387,
                            0.0,
                            0.9554768204689026,
                            0.9554768204689026,
                            0.9554768204689026,
                            0.9554768204689026,
                            0.9554768204689026,
                            0.9554768204689026,
                            0.9554768204689026,
                            0.9554768204689026,
                            0.2847770154476166,
                            0.0,
                            0.0,
                            0.47168365120887756,
                            0.0,
                            0.0
                        ]
                    },
                    {
                        "triggerTime_ms": 1287,
                        "faceAngle": 0.0,
                        "faceCenterX": 2.4517078399658203,
                        "faceCenterY": 4.434723854064941,
                        "faceScaleX": 1.0438380241394043,
                        "faceScaleY": 1.0,
                        "leftEye": [
                            11.25170612335205,
                            0.0,
                            1.214332938194275,
                            0.9052804112434387,
                            0.0,
                            0.9554768204689026,
                            0.9554768204689026,
                            0.9554768204689026,
                            0.9554768204689026,
                            0.9554768204689026,
                            0.9554768204689026,
                            0.9554768204689026,
                            0.9554768204689026,
                            0.2847791910171509,
                            0.0,
                            0.0,
                            0.4857596457004547,
                            0.0,
                            0.0
                        ],
                        "rightEye": [
                            -12.383356094360352,
                            0.0,
                            1.2220369577407837,
                            0.9052804112434387,
                            0.0,
                            0.9554768204689026,
                            0.9554768204689026,
                            0.9554768204689026,
                            0.9554768204689026,
                            0.9554768204689026,
                            0.9554768204689026,
                            0.9554768204689026,
                            0.9554768204689026,
                            0.2847770154476166,
                            0.0,
                            0.0,
                            0.47168365120887756,
                            0.0,
                            0.0
                        ]
                    },
                    {
                        "triggerTime_ms": 1353,
                        "faceAngle": 0.0,
                        "faceCenterX": 2.4517078399658203,
                        "faceCenterY": 4.611506938934326,
                        "faceScaleX": 1.0438380241394043,
                        "faceScaleY": 1.0,
                        "leftEye": [
                            11.25170612335205,
                            0.0,
                            1.214332938194275,
                            0.9052804112434387,
                            0.0,
                            0.9554768204689026,
                            0.9554768204689026,
                            0.9554768204689026,
                            0.9554768204689026,
                            0.9554768204689026,
                            0.9554768204689026,
                            0.9554768204689026,
                            0.9554768204689026,
                            0.2847791910171509,
                            0.0,
                            0.0,
                            0.4857596457004547,
                            0.0,
                            0.0
                        ],
                        "rightEye": [
                            -12.383356094360352,
                            0.0,
                            1.2220369577407837,
                            0.9052804112434387,
                            0.0,
                            0.9554768204689026,
                            0.9554768204689026,
                            0.9554768204689026,
                            0.9554768204689026,
                            0.9554768204689026,
                            0.9554768204689026,
                            0.9554768204689026,
                            0.9554768204689026,
                            0.2847770154476166,
                            0.0,
                            0.0,
                            0.47168365120887756,
                            0.0,
                            0.0
                        ]
                    },
                    {
                        "triggerTime_ms": 1551,
                        "faceAngle": 0.0,
                        "faceCenterX": 2.4517078399658203,
                        "faceCenterY": 4.611506938934326,
                        "faceScaleX": 1.0438380241394043,
                        "faceScaleY": 1.0,
                        "leftEye": [
                            11.25170612335205,
                            0.0,
                            1.214332938194275,
                            0.9052804112434387,
                            0.0,
                            0.9554768204689026,
                            0.9554768204689026,
                            0.9554768204689026,
                            0.9554768204689026,
                            0.9554768204689026,
                            0.9554768204689026,
                            0.9554768204689026,
                            0.9554768204689026,
                            0.2847791910171509,
                            0.0,
                            0.0,
                            0.4857596457004547,
                            0.0,
                            0.0
                        ],
                        "rightEye": [
                            -12.383356094360352,
                            0.0,
                            1.2220369577407837,
                            0.9052804112434387,
                            0.0,
                            0.9554768204689026,
                            0.9554768204689026,
                            0.9554768204689026,
                            0.9554768204689026,
                            0.9554768204689026,
                            0.9554768204689026,
                            0.9554768204689026,
                            0.9554768204689026,
                            0.2847770154476166,
                            0.0,
                            0.0,
                            0.47168365120887756,
                            0.0,
                            0.0
                        ]
                    },
                    {
                        "triggerTime_ms": 1584,
                        "faceAngle": 0.0,
                        "faceCenterX": 2.2933123111724854,
                        "faceCenterY": 5.185431480407715,
                        "faceScaleX": 0.9141614437103271,
                        "faceScaleY": 0.3572832942008972,
                        "leftEye": [
                            9.169666290283203,
                            0.0,
                            1.214396357536316,
                            0.9052804112434387,
                            0.0,
                            0.49983835220336914,
                            0.49983835220336914,
                            0.6073600053787231,
                            0.6073600053787231,
                            0.6074188947677612,
                            0.6074188947677612,
                            0.4998972415924072,
                            0.4998972415924072,
                            0.06902008503675461,
                            0.0,
                            0.0,
                            0.24277402460575104,
                            0.0,
                            0.0
                        ],
                        "rightEye": [
                            -10.207036972045898,
                            0.0002584406756795943,
                            1.2220733165740967,
                            0.9052578806877136,
                            0.0,
                            0.49482834339141846,
                            0.49482834339141846,
                            0.6012611389160156,
                            0.6012611389160156,
                            0.6013200283050537,
                            0.6013200283050537,
                            0.49488720297813416,
                            0.49488720297813416,
                            0.06901956349611282,
                            0.0,
                            0.0,
                            0.2357390969991684,
                            0.0,
                            0.0
                        ]
                    },
                    {
                        "triggerTime_ms": 1635,
                        "faceAngle": 0.0,
                        "faceCenterX": 1.424462080001831,
                        "faceCenterY": -1.0359894037246704,
                        "faceScaleX": 0.8074038624763489,
                        "faceScaleY": 0.48470214009284973,
                        "leftEye": [
                            9.169666290283203,
                            0.0,
                            1.214375376701355,
                            0.9052804112434387,
                            0.0,
                            0.4998919367790222,
                            0.4998919367790222,
                            0.6074286103248596,
                            0.6074286103248596,
                            0.6074679493904114,
                            0.6074679493904114,
                            0.49993130564689636,
                            0.49993130564689636,
                            0.010225262492895126,
                            0.0,
                            0.0,
                            0.3088938295841217,
                            0.0,
                            0.0
                        ],
                        "rightEye": [
                            -10.206816673278809,
                            0.0002072047209367156,
                            1.222061276435852,
                            0.9052653908729553,
                            0.0,
                            0.45788758993148804,
                            0.45788758993148804,
                            0.5562953948974609,
                            0.5562953948974609,
                            0.5563347935676575,
                            0.5563347935676575,
                            0.4579269289970398,
                            0.4579269289970398,
                            0.010225185193121433,
                            0.0,
                            0.0,
                            0.27463454008102417,
                            0.0,
                            0.0
                        ]
                    },
                    {
                        "triggerTime_ms": 1663,
                        "faceAngle": 0.0,
                        "faceCenterX": 0.9519106149673462,
                        "faceCenterY": -2.120185613632202,
                        "faceScaleX": 0.7639374136924744,
                        "faceScaleY": 0.5970560908317566,
                        "leftEye": [
                            9.169666290283203,
                            0.0,
                            1.2143651247024536,
                            0.9052804112434387,
                            0.0,
                            0.4999179542064667,
                            0.4999179542064667,
                            0.6074618697166443,
                            0.6074618697166443,
                            0.6074917316436768,
                            0.6074917316436768,
                            0.49994784593582153,
                            0.49994784593582153,
                            0.0,
                            0.0,
                            0.0,
                            0.35286325216293335,
                            0.0,
                            0.0
                        ],
                        "rightEye": [
                            -10.206770896911621,
                            0.00018565535719972104,
                            1.222055435180664,
                            0.9052689671516418,
                            0.0,
                            0.43995359539985657,
                            0.43995359539985657,
                            0.5344655513763428,
                            0.5344655513763428,
                            0.5344954133033752,
                            0.5344954133033752,
                            0.4399834871292114,
                            0.4399834871292114,
                            0.0,
                            0.0,
                            0.0,
                            0.31391292810440063,
                            0.0,
                            0.0
                        ]
                    },
                    {
                        "triggerTime_ms": 1716,
                        "faceAngle": 0.0,
                        "faceCenterX": 0.001257230993360281,
                        "faceCenterY": -0.007114328909665346,
                        "faceScaleX": 0.7098109722137451,
                        "faceScaleY": 0.9143263697624207,
                        "leftEye": [
                            9.169666290283203,
                            0.0,
                            1.2143447399139404,
                            0.9052804112434387,
                            0.0,
                            0.4999697804450989,
                            0.4999697804450989,
                            0.6075281500816345,
                            0.6075281500816345,
                            0.607539176940918,
                            0.607539176940918,
                            0.4999808073043823,
                            0.4999808073043823,
                            0.04890744015574455,
                            0.0,
                            0.0,
                            0.4369979798793793,
                            0.0,
                            0.0
                        ],
                        "rightEye": [
                            -10.206572532653809,
                            9.282779501518235e-05,
                            1.222043752670288,
                            0.9052761793136597,
                            0.0,
                            0.40422967076301575,
                            0.40422967076301575,
                            0.49098095297813416,
                            0.49098095297813416,
                            0.4909919500350952,
                            0.4909919500350952,
                            0.4042406678199768,
                            0.4042406678199768,
                            0.03182169795036316,
                            0.0,
                            0.0,
                            0.40665674209594727,
                            0.0,
                            0.0
                        ]
                    },
                    {
                        "triggerTime_ms": 1782,
                        "faceAngle": 0.0,
                        "faceCenterX": -0.21523618698120117,
                        "faceCenterY": 2.1059625148773193,
                        "faceScaleX": 0.7731090188026428,
                        "faceScaleY": 1.0,
                        "leftEye": [
                            9.169666290283203,
                            0.0,
                            1.214332938194275,
                            0.9052804112434387,
                            0.0,
                            0.5,
                            0.5,
                            0.607566773891449,
                            0.607566773891449,
                            0.607566773891449,
                            0.607566773891449,
                            0.5,
                            0.5,
                            0.09781500697135925,
                            0.0,
                            0.0,
                            0.4857596457004547,
                            0.0,
                            0.0
                        ],
                        "rightEye": [
                            -10.206374168395996,
                            0.0,
                            1.2220369577407837,
                            0.9052804112434387,
                            0.0,
                            0.38340264558792114,
                            0.38340264558792114,
                            0.4656294584274292,
                            0.4656294584274292,
                            0.4656294584274292,
                            0.4656294584274292,
                            0.38340264558792114,
                            0.38340264558792114,
                            0.06977298110723495,
                            0.0,
                            0.0,
                            0.47168365120887756,
                            0.0,
                            0.0
                        ]
                    },
                    {
                        "triggerTime_ms": 1815,
                        "faceAngle": 0.0,
                        "faceCenterX": 0.0,
                        "faceCenterY": 4.415130615234375,
                        "faceScaleX": 0.8577274084091187,
                        "faceScaleY": 1.0,
                        "leftEye": [
                            9.169666290283203,
                            0.0,
                            1.214332938194275,
                            0.9052804112434387,
                            0.0,
                            0.5,
                            0.5,
                            0.607566773891449,
                            0.607566773891449,
                            0.607566773891449,
                            0.607566773891449,
                            0.5,
                            0.5,
                            0.13810034096240997,
                            0.0,
                            0.0,
                            0.4857596457004547,
                            0.0,
                            0.0
                        ],
                        "rightEye": [
                            -10.206374168395996,
                            0.0,
                            1.2220369577407837,
                            0.9052804112434387,
                            0.0,
                            0.5,
                            0.5,
                            0.607566773891449,
                            0.607566773891449,
                            0.607566773891449,
                            0.607566773891449,
                            0.5,
                            0.5,
                            0.1380992829799652,
                            0.0,
                            0.0,
                            0.47168365120887756,
                            0.0,
                            0.0
                        ]
                    },
                    {
                        "triggerTime_ms": 1881,
                        "faceAngle": 0.0,
                        "faceCenterX": 0.0,
                        "faceCenterY": 4.415130615234375,
                        "faceScaleX": 1.0,
                        "faceScaleY": 1.0,
                        "leftEye": [
                            9.169666290283203,
                            0.0,
                            1.214332938194275,
                            0.9052804112434387,
                            0.0,
                            0.5,
                            0.5,
                            0.607566773891449,
                            0.607566773891449,
                            0.607566773891449,
                            0.607566773891449,
                            0.5,
                            0.5,
                            0.13810034096240997,
                            0.0,
                            0.0,
                            0.4857596457004547,
                            0.0,
                            0.0
                        ],
                        "rightEye": [
                            -10.206374168395996,
                            0.0,
                            1.2220369577407837,
                            0.9052804112434387,
                            0.0,
                            0.5,
                            0.5,
                            0.607566773891449,
                            0.607566773891449,
                            0.607566773891449,
                            0.607566773891449,
                            0.5,
                            0.5,
                            0.1380992829799652,
                            0.0,
                            0.0,
                            0.47168365120887756,
                            0.0,
                            0.0
                        ]
                    },
                    {
                        "triggerTime_ms": 2079,
                        "faceAngle": 0.0,
                        "faceCenterX": 0.0,
                        "faceCenterY": 4.415130615234375,
                        "faceScaleX": 1.0,
                        "faceScaleY": 1.0,
                        "leftEye": [
                            9.169666290283203,
                            0.0,
                            1.214332938194275,
                            0.9052804112434387,
                            0.0,
                            0.5,
                            0.5,
                            0.607566773891449,
                            0.607566773891449,
                            0.607566773891449,
                            0.607566773891449,
                            0.5,
                            0.5,
                            0.13810034096240997,
                            0.0,
                            0.0,
                            0.4857596457004547,
                            0.0,
                            0.0
                        ],
                        "rightEye": [
                            -10.206374168395996,
                            0.0,
                            1.2220369577407837,
                            0.9052804112434387,
                            0.0,
                            0.5,
                            0.5,
                            0.607566773891449,
                            0.607566773891449,
                            0.607566773891449,
                            0.607566773891449,
                            0.5,
                            0.5,
                            0.1380992829799652,
                            0.0,
                            0.0,
                            0.47168365120887756,
                            0.0,
                            0.0
                        ]
                    },
                    {
                        "triggerTime_ms": 2112,
                        "faceAngle": 0.0,
                        "faceCenterX": 0.0,
                        "faceCenterY": 2.1059625148773193,
                        "faceScaleX": 0.912903368473053,
                        "faceScaleY": 1.0,
                        "leftEye": [
                            9.169666290283203,
                            0.0,
                            1.214332938194275,
                            0.9052804112434387,
                            0.0,
                            0.5,
                            0.5,
                            0.607566773891449,
                            0.607566773891449,
                            0.607566773891449,
                            0.607566773891449,
                            0.5,
                            0.5,
                            0.08132520318031311,
                            0.0,
                            0.0,
                            0.47419676184654236,
                            0.0,
                            0.0
                        ],
                        "rightEye": [
                            -10.206374168395996,
                            0.0,
                            1.2220369577407837,
                            0.9052804112434387,
                            0.0,
                            0.38340264558792114,
                            0.38340264558792114,
                            0.4656294584274292,
                            0.4656294584274292,
                            0.4656294584274292,
                            0.4656294584274292,
                            0.38340264558792114,
                            0.38340264558792114,
                            0.02306954562664032,
                            0.0,
                            0.0,
                            0.46045583486557007,
                            0.0,
                            0.0
                        ]
                    },
                    {
                        "triggerTime_ms": 2211,
                        "faceAngle": 0.0,
                        "faceCenterX": 0.0,
                        "faceCenterY": 5.62597131729126,
                        "faceScaleX": 0.9332780838012695,
                        "faceScaleY": 1.0,
                        "leftEye": [
                            9.169666290283203,
                            0.0,
                            1.214332938194275,
                            0.9052804112434387,
                            0.0,
                            0.5,
                            0.5,
                            0.607566773891449,
                            0.607566773891449,
                            0.607566773891449,
                            0.607566773891449,
                            0.5,
                            0.5,
                            0.11592061072587967,
                            0.0,
                            0.0,
                            0.4827618896961212,
                            0.0,
                            0.0
                        ],
                        "rightEye": [
                            -10.206374168395996,
                            0.0,
                            1.2220369577407837,
                            0.9052804112434387,
                            0.0,
                            0.46977105736732483,
                            0.46977105736732483,
                            0.5707682371139526,
                            0.5707682371139526,
                            0.5707682371139526,
                            0.5707682371139526,
                            0.46977105736732483,
                            0.46977105736732483,
                            0.10827676206827164,
                            0.0,
                            0.0,
                            0.4687727689743042,
                            0.0,
                            0.0
                        ]
                    },
                    {
                        "triggerTime_ms": 2310,
                        "faceAngle": 0.0,
                        "faceCenterX": 0.0,
                        "faceCenterY": 4.415130615234375,
                        "faceScaleX": 1.0,
                        "faceScaleY": 1.0,
                        "leftEye": [
                            9.169666290283203,
                            0.0,
                            1.214332938194275,
                            0.9052804112434387,
                            0.0,
                            0.5,
                            0.5,
                            0.607566773891449,
                            0.607566773891449,
                            0.607566773891449,
                            0.607566773891449,
                            0.5,
                            0.5,
                            0.13810034096240997,
                            0.0,
                            0.0,
                            0.4857596457004547,
                            0.0,
                            0.0
                        ],
                        "rightEye": [
                            -10.206374168395996,
                            0.0,
                            1.2220369577407837,
                            0.9052804112434387,
                            0.0,
                            0.5,
                            0.5,
                            0.607566773891449,
                            0.607566773891449,
                            0.607566773891449,
                            0.607566773891449,
                            0.5,
                            0.5,
                            0.1380992829799652,
                            0.0,
                            0.0,
                            0.47168365120887756,
                            0.0,
                            0.0
                        ]
                    }
                ],
                "HeadAngleKeyFrame": [
                    {
                        "triggerTime_ms": 0,
                        "durationTime_ms": 165,
                        "angle_deg": 0,
                        "angleVariability_deg": 0
                    },
                    {
                        "triggerTime_ms": 363,
                        "durationTime_ms": 66,
                        "angle_deg": 5,
                        "angleVariability_deg": 0
                    },
                    {
                        "triggerTime_ms": 429,
                        "durationTime_ms": 132,
                        "angle_deg": -9,
                        "angleVariability_deg": 0
                    },
                    {
                        "triggerTime_ms": 561,
                        "durationTime_ms": 297,
                        "angle_deg": -17,
                        "angleVariability_deg": 0
                    },
                    {
                        "triggerTime_ms": 990,
                        "durationTime_ms": 165,
                        "angle_deg": 6,
                        "angleVariability_deg": 0
                    },
                    {
                        "triggerTime_ms": 1155,
                        "durationTime_ms": 330,
                        "angle_deg": 16,
                        "angleVariability_deg": 0
                    },
                    {
                        "triggerTime_ms": 1749,
                        "durationTime_ms": 132,
                        "angle_deg": -11,
                        "angleVariability_deg": 0
                    },
                    {
                        "triggerTime_ms": 1881,
                        "durationTime_ms": 132,
                        "angle_deg": 9,
                        "angleVariability_deg": 0
                    },
                    {
                        "triggerTime_ms": 2013,
                        "durationTime_ms": 99,
                        "angle_deg": 6,
                        "angleVariability_deg": 0
                    }
                ],
                "RobotAudioKeyFrame": [
                    {
                        "triggerTime_ms": 297,
                        "audioEventId": [
                            1701725212
                        ],
                        "volume": 1.0,
                        "probability": [
                            1.0
                        ],
                        "hasAlts": true
                    },
                    {
                        "triggerTime_ms": 858,
                        "audioEventId": [
                            2216609612
                        ],
                        "volume": 1.0,
                        "probability": [
                            1.0
                        ],
                        "hasAlts": true
                    }
                ],
                "BackpackLightsKeyFrame": [],
                "FaceAnimationKeyFrame": [],
                "EventKeyFrame": [],
                "BodyMotionKeyFrame": [
                    {
                        "triggerTime_ms": 462,
                        "durationTime_ms": 165,
                        "radius_mm": "STRAIGHT",
                        "speed": -44
                    },
                    {
                        "triggerTime_ms": 627,
                        "durationTime_ms": 132,
                        "radius_mm": "STRAIGHT",
                        "speed": -16
                    },
                    {
                        "triggerTime_ms": 759,
                        "durationTime_ms": 363,
                        "radius_mm": "STRAIGHT",
                        "speed": 36
                    },
                    {
                        "triggerTime_ms": 1122,
                        "durationTime_ms": 594,
                        "radius_mm": "STRAIGHT",
                        "speed": 18
                    },
                    {
                        "triggerTime_ms": 1716,
                        "durationTime_ms": 231,
                        "radius_mm": "STRAIGHT",
                        "speed": -49
                    }
                ],
                "RecordHeadingKeyFrame": [],
                "TurnToRecordedHeadingKeyFrame": []
            }
        }
    ]
}