{
    "clips": [
        {
            "Name": "anim_pounce_fail_01",
            "keyframes": {
                "LiftHeightKeyFrame": [
                    {
                        "triggerTime_ms": 132,
                        "durationTime_ms": 198,
                        "height_mm": 62,
                        "heightVariability_mm": 0
                    },
                    {
                        "triggerTime_ms": 330,
                        "durationTime_ms": 132,
                        "height_mm": 74,
                        "heightVariability_mm": 0
                    },
                    {
                        "triggerTime_ms": 825,
                        "durationTime_ms": 99,
                        "height_mm": 64,
                        "heightVariability_mm": 0
                    },
                    {
                        "triggerTime_ms": 924,
                        "durationTime_ms": 132,
                        "height_mm": 75,
                        "heightVariability_mm": 0
                    },
                    {
                        "triggerTime_ms": 1353,
                        "durationTime_ms": 99,
                        "height_mm": 71,
                        "heightVariability_mm": 0
                    },
                    {
                        "triggerTime_ms": 1452,
                        "durationTime_ms": 198,
                        "height_mm": 75,
                        "heightVariability_mm": 0
                    },
                    {
                        "triggerTime_ms": 1980,
                        "durationTime_ms": 66,
                        "height_mm": 75,
                        "heightVariability_mm": 0
                    },
                    {
                        "triggerTime_ms": 2046,
                        "durationTime_ms": 66,
                        "height_mm": 69,
                        "heightVariability_mm": 0
                    },
                    {
                        "triggerTime_ms": 2112,
                        "durationTime_ms": 231,
                        "height_mm": 8,
                        "heightVariability_mm": 0
                    },
                    {
                        "triggerTime_ms": 2343,
                        "durationTime_ms": 132,
                        "height_mm": 1,
                        "heightVariability_mm": 0
                    },
                    {
                        "triggerTime_ms": 2475,
                        "durationTime_ms": 165,
                        "height_mm": 0,
                        "heightVariability_mm": 0
                    }
                ],
                "ProceduralFaceKeyFrame": [
                    {
                        "triggerTime_ms": 33,
                        "faceAngle": 0.0,
                        "faceCenterX": 0.0,
                        "faceCenterY": 27.77531623840332,
                        "faceScaleX": 1.0,
                        "faceScaleY": 1.0,
                        "leftEye": [
                            9.169666290283203,
                            0.0,
                            1.214332938194275,
                            0.9052804112434387,
                            0.0,
                            0.5,
                            0.5,
                            0.8551031351089478,
                            0.8551031351089478,
                            0.8551031351089478,
                            0.8551031351089478,
                            0.5,
                            0.5,
                            0.1376146823167801,
                            0.0,
                            0.0,
                            0.5015674233436584,
                            4.583662509918213,
                            0.0
                        ],
                        "rightEye": [
                            -10.206374168395996,
                            0.0,
                            1.2220369577407837,
                            0.9052804112434387,
                            0.0,
                            0.5,
                            0.5,
                            0.8551031351089478,
                            0.8551031351089478,
                            0.8551031351089478,
                            0.8551031351089478,
                            0.5,
                            0.5,
                            0.1487082988023758,
                            0.0,
                            0.0,
                            0.48703333735466003,
                            4.583662509918213,
                            0.0
                        ]
                    },
                    {
                        "triggerTime_ms": 99,
                        "faceAngle": 0.0,
                        "faceCenterX": 0.0,
                        "faceCenterY": 22.846355438232422,
                        "faceScaleX": 1.1875923871994019,
                        "faceScaleY": 0.9053523540496826,
                        "leftEye": [
                            9.169666290283203,
                            0.41177618503570557,
                            1.2351809740066528,
                            0.8581515550613403,
                            0.0,
                            0.4588361978530884,
                            0.4588361978530884,
                            0.4588361978530884,
                            0.4588361978530884,
                            0.7083501219749451,
                            0.45744627714157104,
                            0.4588361978530884,
                            0.4588361978530884,
                            0.0,
                            0.0,
                            0.0,
                            0.6194850206375122,
                            8.835654258728027,
                            0.0
                        ],
                        "rightEye": [
                            -10.206374168395996,
                            0.0,
                            1.3010450601577759,
                            0.8780421018600464,
                            0.0,
                            0.4588361978530884,
                            0.4588361978530884,
                            0.4588361978530884,
                            0.4588361978530884,
                            0.7083501219749451,
                            0.45744627714157104,
                            0.4588361978530884,
                            0.4588361978530884,
                            0.0,
                            0.0,
                            0.0,
                            0.5744492411613464,
                            8.835654258728027,
                            0.0
                        ]
                    },
                    {
                        "triggerTime_ms": 132,
                        "faceAngle": 0.0,
                        "faceCenterX": 0.0,
                        "faceCenterY": 27.77531623840332,
                        "faceScaleX": 1.0,
                        "faceScaleY": 1.0,
                        "leftEye": [
                            9.169666290283203,
                            0.0,
                            1.214332938194275,
                            0.9052804112434387,
                            0.0,
                            0.5,
                            0.5,
                            0.8551031351089478,
                            0.8551031351089478,
                            0.8551031351089478,
                            0.8551031351089478,
                            0.5,
                            0.5,
                            0.1376146823167801,
                            0.0,
                            0.0,
                            0.5015674233436584,
                            4.583662509918213,
                            0.0
                        ],
                        "rightEye": [
                            -10.206374168395996,
                            0.0,
                            1.2220369577407837,
                            0.9052804112434387,
                            0.0,
                            0.5,
                            0.5,
                            0.8551031351089478,
                            0.8551031351089478,
                            0.8551031351089478,
                            0.8551031351089478,
                            0.5,
                            0.5,
                            0.1487082988023758,
                            0.0,
                            0.0,
                            0.48703333735466003,
                            4.583662509918213,
                            0.0
                        ]
                    },
                    {
                        "triggerTime_ms": 594,
                        "faceAngle": 0.0,
                        "faceCenterX": 0.0,
                        "faceCenterY": 27.77531623840332,
                        "faceScaleX": 1.0,
                        "faceScaleY": 1.0,
                        "leftEye": [
                            9.169666290283203,
                            0.0,
                            1.214332938194275,
                            0.9052804112434387,
                            0.0,
                            0.5,
                            0.5,
                            0.8551031351089478,
                            0.8551031351089478,
                            0.8551031351089478,
                            0.8551031351089478,
                            0.5,
                            0.5,
                            0.1376146823167801,
                            0.0,
                            0.0,
                            0.5015674233436584,
                            4.583662509918213,
                            0.0
                        ],
                        "rightEye": [
                            -10.206374168395996,
                            0.0,
                            1.2220369577407837,
                            0.9052804112434387,
                            0.0,
                            0.5,
                            0.5,
                            0.8551031351089478,
                            0.8551031351089478,
                            0.8551031351089478,
                            0.8551031351089478,
                            0.5,
                            0.5,
                            0.1487082988023758,
                            0.0,
                            0.0,
                            0.48703333735466003,
                            4.583662509918213,
                            0.0
                        ]
                    },
                    {
                        "triggerTime_ms": 660,
                        "faceAngle": 0.0,
                        "faceCenterX": 0.0,
                        "faceCenterY": 29.08905601501465,
                        "faceScaleX": 1.3440043926239014,
                        "faceScaleY": 1.4357293844223022,
                        "leftEye": [
                            9.169666290283203,
                            0.41177618503570557,
                            1.2351809740066528,
                            0.8581515550613403,
                            0.0,
                            0.4588361978530884,
                            0.4588361978530884,
                            0.4588361978530884,
                            0.4588361978530884,
                            0.7083501219749451,
                            0.45744627714157104,
                            0.4588361978530884,
                            0.4588361978530884,
                            0.0,
                            0.0,
                            0.0,
                            0.6461080312728882,
                            8.835654258728027,
                            0.0
                        ],
                        "rightEye": [
                            -10.206374168395996,
                            0.0,
                            1.3010450601577759,
                            0.8780421018600464,
                            0.0,
                            0.4588361978530884,
                            0.4588361978530884,
                            0.4588361978530884,
                            0.4588361978530884,
                            0.7083501219749451,
                            0.45744627714157104,
                            0.4588361978530884,
                            0.4588361978530884,
                            0.0,
                            0.0,
                            0.0,
                            0.5876840949058533,
                            8.835654258728027,
                            0.0
                        ]
                    },
                    {
                        "triggerTime_ms": 693,
                        "faceAngle": 0.0,
                        "faceCenterX": 0.0,
                        "faceCenterY": 29.08905601501465,
                        "faceScaleX": 1.0647106170654297,
                        "faceScaleY": 0.8773699998855591,
                        "leftEye": [
                            9.169666290283203,
                            0.0,
                            1.2143490314483643,
                            0.9052907824516296,
                            0.0,
                            0.49865958094596863,
                            0.49865958094596863,
                            0.49865958094596863,
                            0.49865958094596863,
                            0.49865958094596863,
                            0.49865958094596863,
                            0.49865958094596863,
                            0.49865958094596863,
                            0.0,
                            0.0,
                            0.0,
                            0.6461080312728882,
                            8.835654258728027,
                            0.0
                        ],
                        "rightEye": [
                            -10.206374168395996,
                            0.0,
                            1.2220369577407837,
                            0.9052804112434387,
                            0.0,
                            0.49865958094596863,
                            0.49865958094596863,
                            0.49865958094596863,
                            0.49865958094596863,
                            0.49865958094596863,
                            0.49865958094596863,
                            0.49865958094596863,
                            0.49865958094596863,
                            0.0,
                            0.0,
                            0.0,
                            0.5876840949058533,
                            8.835654258728027,
                            0.0
                        ]
                    },
                    {
                        "triggerTime_ms": 759,
                        "faceAngle": 0.0,
                        "faceCenterX": 0.0,
                        "faceCenterY": 28.140539169311523,
                        "faceScaleX": 1.6229983568191528,
                        "faceScaleY": 0.19377803802490234,
                        "leftEye": [
                            9.169666290283203,
                            0.0,
                            1.4222936630249023,
                            0.9052844643592834,
                            0.0,
                            0.2033555656671524,
                            0.2033555656671524,
                            0.2033555656671524,
                            0.2033555656671524,
                            0.14815467596054077,
                            0.2033555656671524,
                            0.2033555656671524,
                            0.2033555656671524,
                            0.0,
                            0.0,
                            0.0,
                            0.34933242201805115,
                            4.777189254760742,
                            0.0
                        ],
                        "rightEye": [
                            -10.206374168395996,
                            0.0,
                            1.4374661445617676,
                            0.9052804112434387,
                            0.0,
                            0.2033555656671524,
                            0.2033555656671524,
                            0.2033555656671524,
                            0.2033555656671524,
                            0.14815467596054077,
                            0.2033555656671524,
                            0.2033555656671524,
                            0.2033555656671524,
                            0.0,
                            0.0,
                            0.0,
                            0.3177442252635956,
                            4.777189254760742,
                            0.0
                        ]
                    },
                    {
                        "triggerTime_ms": 792,
                        "faceAngle": 0.0,
                        "faceCenterX": 0.0,
                        "faceCenterY": 30.60109519958496,
                        "faceScaleX": 1.818399429321289,
                        "faceScaleY": 0.07466530054807663,
                        "leftEye": [
                            9.169666290283203,
                            0.0,
                            1.558449149131775,
                            0.9052804112434387,
                            0.0,
                            0.009999999776482582,
                            0.009999999776482582,
                            0.009999999776482582,
                            0.009999999776482582,
                            0.009999999776482582,
                            0.009999999776482582,
                            0.009999999776482582,
                            0.009999999776482582,
                            0.0,
                            0.0,
                            0.0,
                            0.0,
                            0.0,
                            0.0
                        ],
                        "rightEye": [
                            -10.206374168395996,
                            0.0,
                            1.5785222053527832,
                            0.9052804112434387,
                            0.0,
                            0.009999999776482582,
                            0.009999999776482582,
                            0.009999999776482582,
                            0.009999999776482582,
                            0.009999999776482582,
                            0.009999999776482582,
                            0.009999999776482582,
                            0.009999999776482582,
                            0.0,
                            0.0,
                            0.0,
                            0.0,
                            0.0,
                            0.0
                        ]
                    },
                    {
                        "triggerTime_ms": 825,
                        "faceAngle": 0.0,
                        "faceCenterX": 0.0,
                        "faceCenterY": 22.516925811767578,
                        "faceScaleX": 1.0791771411895752,
                        "faceScaleY": 0.12755794823169708,
                        "leftEye": [
                            8.053230285644531,
                            0.0,
                            1.5301036834716797,
                            0.9313855767250061,
                            0.0,
                            0.08066903054714203,
                            0.08066903054714203,
                            0.0758393183350563,
                            0.0758393183350563,
                            0.10805073380470276,
                            0.10805073380470276,
                            0.08066903054714203,
                            0.08066903054714203,
                            0.0,
                            0.0,
                            0.0,
                            0.0,
                            0.0,
                            0.0
                        ],
                        "rightEye": [
                            -9.61903190612793,
                            0.0,
                            1.5491578578948975,
                            0.9313855767250061,
                            0.0,
                            0.08066903054714203,
                            0.08066903054714203,
                            0.0758393183350563,
                            0.0758393183350563,
                            0.10805073380470276,
                            0.10805073380470276,
                            0.08066903054714203,
                            0.08066903054714203,
                            0.0,
                            0.0,
                            0.0,
                            0.0,
                            0.0,
                            0.0
                        ]
                    },
                    {
                        "triggerTime_ms": 858,
                        "faceAngle": 0.0,
                        "faceCenterX": 0.0,
                        "faceCenterY": 7.503407001495361,
                        "faceScaleX": 0.8776485919952393,
                        "faceScaleY": 0.672606885433197,
                        "leftEye": [
                            5.109125137329102,
                            0.0,
                            1.4021838903427124,
                            1.0491943359375,
                            0.0,
                            0.32007983326911926,
                            0.32007983326911926,
                            0.2988881766796112,
                            0.2988881766796112,
                            0.44022461771965027,
                            0.44022461771965027,
                            0.32007983326911926,
                            0.32007983326911926,
                            0.0,
                            0.0,
                            0.0,
                            0.0,
                            0.0,
                            0.0
                        ],
                        "rightEye": [
                            -8.070175170898438,
                            0.0,
                            1.416640043258667,
                            1.0491943359375,
                            0.0,
                            0.32007983326911926,
                            0.32007983326911926,
                            0.2988881766796112,
                            0.2988881766796112,
                            0.44022461771965027,
                            0.44022461771965027,
                            0.32007983326911926,
                            0.32007983326911926,
                            0.0,
                            0.0,
                            0.0,
                            0.0,
                            0.0,
                            0.0
                        ]
                    },
                    {
                        "triggerTime_ms": 891,
                        "faceAngle": 0.0,
                        "faceCenterX": 0.0,
                        "faceCenterY": -0.580761194229126,
                        "faceScaleX": 1.138314127922058,
                        "faceScaleY": 1.138314127922058,
                        "leftEye": [
                            9.169666290283203,
                            0.0,
                            1.3474910259246826,
                            1.0995641946792603,
                            0.0,
                            0.5359443426132202,
                            0.5359443426132202,
                            0.5,
                            0.5,
                            0.7397288680076599,
                            0.7397288680076599,
                            0.5359443426132202,
                            0.5359443426132202,
                            0.0,
                            0.0,
                            0.0,
                            0.0,
                            0.0,
                            0.0
                        ],
                        "rightEye": [
                            -10.206374168395996,
                            0.0,
                            1.3599814176559448,
                            1.0995641946792603,
                            0.0,
                            0.5359443426132202,
                            0.5359443426132202,
                            0.5,
                            0.5,
                            0.7397288680076599,
                            0.7397288680076599,
                            0.5359443426132202,
                            0.5359443426132202,
                            0.0,
                            0.0,
                            0.0,
                            0.0,
                            0.0,
                            0.0
                        ]
                    },
                    {
                        "triggerTime_ms": 957,
                        "faceAngle": 0.0,
                        "faceCenterX": 0.0,
                        "faceCenterY": -0.580761194229126,
                        "faceScaleX": 1.083794355392456,
                        "faceScaleY": 1.1341856718063354,
                        "leftEye": [
                            9.169666290283203,
                            0.0,
                            1.308741807937622,
                            1.0427294969558716,
                            0.0,
                            0.49499204754829407,
                            0.49499204754829407,
                            0.46960610151290894,
                            0.46960610151290894,
                            0.6389161348342896,
                            0.6389161348342896,
                            0.49499204754829407,
                            0.49499204754829407,
                            0.0,
                            0.0,
                            0.0,
                            0.0,
                            0.0,
                            0.0
                        ],
                        "rightEye": [
                            -10.206374168395996,
                            0.0,
                            1.3194611072540283,
                            1.042494535446167,
                            0.0,
                            0.49499204754829407,
                            0.49499204754829407,
                            0.46960610151290894,
                            0.46960610151290894,
                            0.6389161348342896,
                            0.6389161348342896,
                            0.49499204754829407,
                            0.49499204754829407,
                            0.0,
                            0.0,
                            0.0,
                            0.0,
                            0.0,
                            0.0
                        ]
                    },
                    {
                        "triggerTime_ms": 1089,
                        "faceAngle": 0.0,
                        "faceCenterX": 0.0,
                        "faceCenterY": -0.580761194229126,
                        "faceScaleX": 1.083794355392456,
                        "faceScaleY": 1.1341856718063354,
                        "leftEye": [
                            9.169666290283203,
                            0.0,
                            1.308741807937622,
                            1.0427294969558716,
                            0.0,
                            0.49499204754829407,
                            0.49499204754829407,
                            0.46960610151290894,
                            0.46960610151290894,
                            0.6389161348342896,
                            0.6389161348342896,
                            0.49499204754829407,
                            0.49499204754829407,
                            0.0,
                            0.0,
                            0.0,
                            0.0,
                            0.0,
                            0.0
                        ],
                        "rightEye": [
                            -10.206374168395996,
                            0.0,
                            1.3194611072540283,
                            1.042494535446167,
                            0.0,
                            0.49499204754829407,
                            0.49499204754829407,
                            0.46960610151290894,
                            0.46960610151290894,
                            0.6389161348342896,
                            0.6389161348342896,
                            0.49499204754829407,
                            0.49499204754829407,
                            0.0,
                            0.0,
                            0.0,
                            0.0,
                            0.0,
                            0.0
                        ]
                    },
                    {
                        "triggerTime_ms": 1287,
                        "faceAngle": 0.0,
                        "faceCenterX": 0.0,
                        "faceCenterY": -0.580761194229126,
                        "faceScaleX": 1.083794355392456,
                        "faceScaleY": 1.1341856718063354,
                        "leftEye": [
                            9.169666290283203,
                            0.0,
                            1.308741807937622,
                            1.0427294969558716,
                            0.0,
                            0.49499204754829407,
                            0.49499204754829407,
                            0.46960610151290894,
                            0.46960610151290894,
                            0.6389161348342896,
                            0.6389161348342896,
                            0.49499204754829407,
                            0.49499204754829407,
                            0.0,
                            0.0,
                            0.0,
                            0.0,
                            0.0,
                            0.0
                        ],
                        "rightEye": [
                            -10.206374168395996,
                            0.0,
                            1.3194611072540283,
                            1.042494535446167,
                            0.0,
                            0.49499204754829407,
                            0.49499204754829407,
                            0.46960610151290894,
                            0.46960610151290894,
                            0.6389161348342896,
                            0.6389161348342896,
                            0.49499204754829407,
                            0.49499204754829407,
                            0.0,
                            0.0,
                            0.0,
                            0.0,
                            0.0,
                            0.0
                        ]
                    },
                    {
                        "triggerTime_ms": 1320,
                        "faceAngle": 0.0,
                        "faceCenterX": 0.04629500210285187,
                        "faceCenterY": -0.580761194229126,
                        "faceScaleX": 1.080779790878296,
                        "faceScaleY": 1.1324310302734375,
                        "leftEye": [
                            9.169666290283203,
                            0.0,
                            1.2757601737976074,
                            0.9191944003105164,
                            0.0,
                            0.4954799711704254,
                            0.4954799711704254,
                            0.46996819972991943,
                            0.46996819972991943,
                            0.6401172280311584,
                            0.6401172280311584,
                            0.49499204754829407,
                            0.49499204754829407,
                            0.0,
                            0.0,
                            0.0,
                            0.0,
                            0.0,
                            0.0
                        ],
                        "rightEye": [
                            -10.518107414245605,
                            0.0,
                            1.360466718673706,
                            0.9737036824226379,
                            0.0,
                            0.4954799711704254,
                            0.4954799711704254,
                            0.46996819972991943,
                            0.46996819972991943,
                            0.6401172280311584,
                            0.6401172280311584,
                            0.4954799711704254,
                            0.4954799711704254,
                            0.0,
                            0.0,
                            0.0,
                            0.0,
                            0.0,
                            0.0
                        ]
                    },
                    {
                        "triggerTime_ms": 1353,
                        "faceAngle": 0.0,
                        "faceCenterX": 2.829510450363159,
                        "faceCenterY": -0.580761194229126,
                        "faceScaleX": 1.067934513092041,
                        "faceScaleY": 1.1249545812606812,
                        "leftEye": [
                            9.169666290283203,
                            0.0,
                            1.2427784204483032,
                            0.9768890738487244,
                            0.0,
                            0.49771273136138916,
                            0.49771273136138916,
                            0.47162529826164246,
                            0.47162529826164246,
                            0.6456136703491211,
                            0.6456136703491211,
                            0.49499204754829407,
                            0.49499204754829407,
                            0.0,
                            0.0,
                            0.0,
                            0.0,
                            0.0,
                            0.0
                        ],
                        "rightEye": [
                            -10.829842567443848,
                            0.0,
                            1.401472568511963,
                            1.0852439403533936,
                            0.0,
                            0.49771273136138916,
                            0.49771273136138916,
                            0.47162529826164246,
                            0.47162529826164246,
                            0.6456136703491211,
                            0.6456136703491211,
                            0.49771273136138916,
                            0.49771273136138916,
                            0.0,
                            0.0,
                            0.0,
                            0.0,
                            0.0,
                            0.0
                        ]
                    },
                    {
                        "triggerTime_ms": 1650,
                        "faceAngle": 0.0,
                        "faceCenterX": 2.829510450363159,
                        "faceCenterY": -0.580761194229126,
                        "faceScaleX": 1.067934513092041,
                        "faceScaleY": 1.1249545812606812,
                        "leftEye": [
                            9.169666290283203,
                            0.0,
                            1.2427784204483032,
                            0.9718277454376221,
                            0.0,
                            0.49771273136138916,
                            0.49771273136138916,
                            0.47162529826164246,
                            0.47162529826164246,
                            0.6456136703491211,
                            0.6456136703491211,
                            0.49499204754829407,
                            0.49499204754829407,
                            0.0,
                            0.0,
                            0.0,
                            0.0,
                            0.0,
                            0.0
                        ],
                        "rightEye": [
                            -10.829842567443848,
                            0.0,
                            1.401472568511963,
                            1.0852439403533936,
                            0.0,
                            0.49771273136138916,
                            0.49771273136138916,
                            0.47162529826164246,
                            0.47162529826164246,
                            0.6456136703491211,
                            0.6456136703491211,
                            0.49771273136138916,
                            0.49771273136138916,
                            0.0,
                            0.0,
                            0.0,
                            0.0,
                            0.0,
                            0.0
                        ]
                    },
                    {
                        "triggerTime_ms": 1683,
                        "faceAngle": 0.0,
                        "faceCenterX": 4.944448947906494,
                        "faceCenterY": -0.7054919600486755,
                        "faceScaleX": 1.067934513092041,
                        "faceScaleY": 1.1249545812606812,
                        "leftEye": [
                            9.169666290283203,
                            0.0,
                            1.2427784204483032,
                            0.8546251058578491,
                            0.0,
                            0.49771273136138916,
                            0.49771273136138916,
                            0.47162529826164246,
                            0.47162529826164246,
                            0.6456136703491211,
                            0.6456136703491211,
                            0.49499204754829407,
                            0.49499204754829407,
                            0.0,
                            0.0,
                            0.0,
                            0.0,
                            0.0,
                            0.0
                        ],
                        "rightEye": [
                            -10.829842567443848,
                            0.0,
                            1.401472568511963,
                            0.9868859648704529,
                            0.0,
                            0.49771273136138916,
                            0.49771273136138916,
                            0.47162529826164246,
                            0.47162529826164246,
                            0.6456136703491211,
                            0.6456136703491211,
                            0.49771273136138916,
                            0.49771273136138916,
                            0.0,
                            0.0,
                            0.0,
                            0.0,
                            0.0,
                            0.0
                        ]
                    },
                    {
                        "triggerTime_ms": 1716,
                        "faceAngle": 0.0,
                        "faceCenterX": 7.05938720703125,
                        "faceCenterY": -0.8302227854728699,
                        "faceScaleX": 1.067934513092041,
                        "faceScaleY": 1.1249545812606812,
                        "leftEye": [
                            9.169666290283203,
                            0.0,
                            1.2427784204483032,
                            0.9170324206352234,
                            0.0,
                            0.49771273136138916,
                            0.49771273136138916,
                            0.47162529826164246,
                            0.47162529826164246,
                            0.6456136703491211,
                            0.6456136703491211,
                            0.49499204754829407,
                            0.49499204754829407,
                            0.0,
                            0.0,
                            0.0,
                            0.0,
                            0.0,
                            0.0
                        ],
                        "rightEye": [
                            -10.829842567443848,
                            0.0,
                            1.401472568511963,
                            1.1314972639083862,
                            0.0,
                            0.49771273136138916,
                            0.49771273136138916,
                            0.47162529826164246,
                            0.47162529826164246,
                            0.6456136703491211,
                            0.6456136703491211,
                            0.49771273136138916,
                            0.49771273136138916,
                            0.0,
                            0.0,
                            0.0,
                            0.0,
                            0.0,
                            0.0
                        ]
                    },
                    {
                        "triggerTime_ms": 2046,
                        "faceAngle": 0.0,
                        "faceCenterX": 7.05938720703125,
                        "faceCenterY": -0.8302227854728699,
                        "faceScaleX": 1.067934513092041,
                        "faceScaleY": 1.1249545812606812,
                        "leftEye": [
                            9.169666290283203,
                            0.0,
                            1.2427784204483032,
                            0.9170324206352234,
                            0.0,
                            0.49771273136138916,
                            0.49771273136138916,
                            0.47162529826164246,
                            0.47162529826164246,
                            0.6456136703491211,
                            0.6456136703491211,
                            0.49499204754829407,
                            0.49499204754829407,
                            0.0,
                            0.0,
                            0.0,
                            0.0,
                            0.0,
                            0.0
                        ],
                        "rightEye": [
                            -10.829842567443848,
                            0.0,
                            1.401472568511963,
                            1.1314972639083862,
                            0.0,
                            0.49771273136138916,
                            0.49771273136138916,
                            0.47162529826164246,
                            0.47162529826164246,
                            0.6456136703491211,
                            0.6456136703491211,
                            0.49771273136138916,
                            0.49771273136138916,
                            0.0,
                            0.0,
                            0.0,
                            0.0,
                            0.0,
                            0.0
                        ]
                    },
                    {
                        "triggerTime_ms": 2112,
                        "faceAngle": 0.0,
                        "faceCenterX": 7.05938720703125,
                        "faceCenterY": -0.15402625501155853,
                        "faceScaleX": 1.2156956195831299,
                        "faceScaleY": 1.2483594417572021,
                        "leftEye": [
                            9.169666290283203,
                            0.0,
                            1.2408150434494019,
                            0.9513895511627197,
                            0.0,
                            0.49777814745903015,
                            0.49777814745903015,
                            0.47349250316619873,
                            0.47349250316619873,
                            0.6446831226348877,
                            0.6446831226348877,
                            0.4952453374862671,
                            0.4952453374862671,
                            0.0,
                            0.0,
                            0.0,
                            0.0,
                            0.0,
                            0.0
                        ],
                        "rightEye": [
                            -10.786781311035156,
                            0.0,
                            1.401472568511963,
                            1.0787787437438965,
                            0.0,
                            0.49777814745903015,
                            0.49777814745903015,
                            0.47349250316619873,
                            0.47349250316619873,
                            0.6446831226348877,
                            0.6446831226348877,
                            0.49777814745903015,
                            0.49777814745903015,
                            0.0,
                            0.0,
                            0.0,
                            0.0,
                            0.0,
                            0.0
                        ]
                    },
                    {
                        "triggerTime_ms": 2178,
                        "faceAngle": 0.0,
                        "faceCenterX": 0.0,
                        "faceCenterY": 2.200147867202759,
                        "faceScaleX": 1.0647106170654297,
                        "faceScaleY": 0.8773699998855591,
                        "leftEye": [
                            9.169666290283203,
                            0.0,
                            1.2143490314483643,
                            0.9052907824516296,
                            0.0,
                            0.49865958094596863,
                            0.49865958094596863,
                            0.49865958094596863,
                            0.49865958094596863,
                            0.49865958094596863,
                            0.49865958094596863,
                            0.49865958094596863,
                            0.49865958094596863,
                            0.0,
                            0.0,
                            0.0,
                            0.0,
                            0.0,
                            0.0
                        ],
                        "rightEye": [
                            -10.206374168395996,
                            0.0,
                            1.401472568511963,
                            1.0420811176300049,
                            0.0,
                            0.49865958094596863,
                            0.49865958094596863,
                            0.49865958094596863,
                            0.49865958094596863,
                            0.49865958094596863,
                            0.49865958094596863,
                            0.49865958094596863,
                            0.49865958094596863,
                            0.0,
                            0.0,
                            0.0,
                            0.0,
                            0.0,
                            0.0
                        ]
                    },
                    {
                        "triggerTime_ms": 2211,
                        "faceAngle": 0.0,
                        "faceCenterX": 0.0,
                        "faceCenterY": 15.694999694824219,
                        "faceScaleX": 1.6229994297027588,
                        "faceScaleY": 0.18684783577919006,
                        "leftEye": [
                            9.169666290283203,
                            0.0,
                            1.4692384004592896,
                            0.9052807688713074,
                            0.0,
                            0.13668900728225708,
                            0.13668900728225708,
                            0.13668900728225708,
                            0.13668900728225708,
                            0.1131478101015091,
                            0.1131478101015091,
                            0.13668900728225708,
                            0.13668900728225708,
                            0.0,
                            0.0,
                            0.0,
                            0.0,
                            0.0,
                            0.0
                        ],
                        "rightEye": [
                            -10.206374168395996,
                            0.0,
                            1.5326206684112549,
                            0.9340818524360657,
                            0.0,
                            0.13668900728225708,
                            0.13668900728225708,
                            0.13668900728225708,
                            0.13668900728225708,
                            0.1131478101015091,
                            0.1131478101015091,
                            0.13668900728225708,
                            0.13668900728225708,
                            0.0,
                            0.0,
                            0.0,
                            0.0,
                            0.0,
                            0.0
                        ]
                    },
                    {
                        "triggerTime_ms": 2244,
                        "faceAngle": 0.0,
                        "faceCenterX": 0.0,
                        "faceCenterY": 20.021202087402344,
                        "faceScaleX": 1.818399429321289,
                        "faceScaleY": 0.07466530054807663,
                        "leftEye": [
                            9.169666290283203,
                            0.0,
                            1.558449149131775,
                            0.9052804112434387,
                            0.0,
                            0.009999999776482582,
                            0.009999999776482582,
                            0.009999999776482582,
                            0.009999999776482582,
                            0.009999999776482582,
                            0.009999999776482582,
                            0.009999999776482582,
                            0.009999999776482582,
                            0.0,
                            0.0,
                            0.0,
                            0.0,
                            0.0,
                            0.0
                        ],
                        "rightEye": [
                            -10.206374168395996,
                            0.0,
                            1.5785222053527832,
                            0.9052804112434387,
                            0.0,
                            0.009999999776482582,
                            0.009999999776482582,
                            0.009999999776482582,
                            0.009999999776482582,
                            0.009999999776482582,
                            0.009999999776482582,
                            0.009999999776482582,
                            0.009999999776482582,
                            0.0,
                            0.0,
                            0.0,
                            0.0,
                            0.0,
                            0.0
                        ]
                    },
                    {
                        "triggerTime_ms": 2277,
                        "faceAngle": 0.0,
                        "faceCenterX": 0.0,
                        "faceCenterY": 14.836691856384277,
                        "faceScaleX": 0.8950501084327698,
                        "faceScaleY": 0.15624117851257324,
                        "leftEye": [
                            8.926401138305664,
                            0.03334111347794533,
                            1.5514239072799683,
                            0.9052804112434387,
                            0.0,
                            0.020509185269474983,
                            0.020509185269474983,
                            0.020509185269474983,
                            0.020509185269474983,
                            0.02174549177289009,
                            0.02174549177289009,
                            0.020509185269474983,
                            0.020509185269474983,
                            0.0,
                            0.0,
                            0.0,
                            0.0,
                            0.0,
                            0.0
                        ],
                        "rightEye": [
                            -10.15589714050293,
                            -0.011149732396006584,
                            1.5684468746185303,
                            0.9037678241729736,
                            0.0,
                            0.020509185269474983,
                            0.020509185269474983,
                            0.020509185269474983,
                            0.020509185269474983,
                            0.02174549177289009,
                            0.02174549177289009,
                            0.020509185269474983,
                            0.020509185269474983,
                            0.008793892338871956,
                            0.2327290028333664,
                            0.0,
                            0.0,
                            0.0,
                            0.0
                        ]
                    },
                    {
                        "triggerTime_ms": 2310,
                        "faceAngle": 0.0,
                        "faceCenterX": 0.0,
                        "faceCenterY": 13.396078109741211,
                        "faceScaleX": 0.8272813558578491,
                        "faceScaleY": 0.25627976655960083,
                        "leftEye": [
                            6.754033088684082,
                            0.3352159559726715,
                            1.4484881162643433,
                            0.9052804112434387,
                            0.0,
                            0.09944606572389603,
                            0.09944606572389603,
                            0.09944606572389603,
                            0.09944606572389603,
                            0.10195779800415039,
                            0.10195779800415039,
                            0.09944606572389603,
                            0.09944606572389603,
                            0.0,
                            0.0,
                            0.0,
                            0.0,
                            0.0,
                            0.0
                        ],
                        "rightEye": [
                            -9.73027515411377,
                            -0.11210089921951294,
                            1.4537664651870728,
                            0.9036803245544434,
                            0.0,
                            0.09944606572389603,
                            0.09944606572389603,
                            0.09944606572389603,
                            0.09944606572389603,
                            0.10195779800415039,
                            0.10195779800415039,
                            0.09944606572389603,
                            0.09944606572389603,
                            0.05126221105456352,
                            1.3962154388427734,
                            0.0,
                            0.0,
                            0.0,
                            0.0
                        ]
                    },
                    {
                        "triggerTime_ms": 2343,
                        "faceAngle": 0.0,
                        "faceCenterX": 0.0,
                        "faceCenterY": 3.0762076377868652,
                        "faceScaleX": 0.8017946481704712,
                        "faceScaleY": 1.121889591217041,
                        "leftEye": [
                            7.562316417694092,
                            0.26875928044319153,
                            1.3801157474517822,
                            0.9052804112434387,
                            0.0,
                            0.2639355957508087,
                            0.2639355957508087,
                            0.2639355957508087,
                            0.2639355957508087,
                            0.2639355957508087,
                            0.2639355957508087,
                            0.2639355957508087,
                            0.2639355957508087,
                            0.0,
                            0.0,
                            0.0,
                            0.0,
                            0.0,
                            0.0
                        ],
                        "rightEye": [
                            -10.167296409606934,
                            -0.08987685292959213,
                            1.3937788009643555,
                            0.9052804112434387,
                            0.0,
                            0.2639355957508087,
                            0.2639355957508087,
                            0.2639355957508087,
                            0.2639355957508087,
                            0.2639355957508087,
                            0.2639355957508087,
                            0.2639355957508087,
                            0.2639355957508087,
                            0.1323840618133545,
                            3.4434525966644287,
                            0.0,
                            0.0,
                            0.0,
                            0.0
                        ]
                    },
                    {
                        "triggerTime_ms": 2409,
                        "faceAngle": 0.0,
                        "faceCenterX": 0.0,
                        "faceCenterY": -0.4064018130302429,
                        "faceScaleX": 0.8892763257026672,
                        "faceScaleY": 1.1987351179122925,
                        "leftEye": [
                            9.289982795715332,
                            0.19031645357608795,
                            1.2921713590621948,
                            0.9052804112434387,
                            0.0,
                            0.34130167961120605,
                            0.34130167961120605,
                            0.34130167961120605,
                            0.34130167961120605,
                            0.34130167961120605,
                            0.34130167961120605,
                            0.34130167961120605,
                            0.34130167961120605,
                            0.011232689954340458,
                            0.0,
                            0.0,
                            0.0,
                            0.0,
                            0.0
                        ],
                        "rightEye": [
                            -10.68313980102539,
                            -0.06364447623491287,
                            1.3374933004379272,
                            0.9052804112434387,
                            0.0,
                            0.34130167961120605,
                            0.34130167961120605,
                            0.34130167961120605,
                            0.34130167961120605,
                            0.34130167961120605,
                            0.34130167961120605,
                            0.34130167961120605,
                            0.34130167961120605,
                            0.18777181208133698,
                            4.492562770843506,
                            0.0,
                            0.0,
                            0.0,
                            0.0
                        ]
                    },
                    {
                        "triggerTime_ms": 2508,
                        "faceAngle": 0.0,
                        "faceCenterX": 0.0,
                        "faceCenterY": -6.3072829246521,
                        "faceScaleX": 1.194000005722046,
                        "faceScaleY": 1.0446174144744873,
                        "leftEye": [
                            13.770123481750488,
                            0.0,
                            1.0708458423614502,
                            0.9052804112434387,
                            0.0,
                            0.5,
                            0.5,
                            0.5,
                            0.5,
                            0.5,
                            0.5,
                            0.5,
                            0.5,
                            0.03191094100475311,
                            0.0,
                            0.0,
                            0.0,
                            0.0,
                            0.0
                        ],
                        "rightEye": [
                            -11.934667587280273,
                            0.0,
                            1.2220369577407837,
                            0.9052804112434387,
                            0.0,
                            0.5,
                            0.5,
                            0.5,
                            0.5,
                            0.5,
                            0.5,
                            0.5,
                            0.5,
                            0.31971806287765503,
                            6.644565582275391,
                            0.0,
                            0.0,
                            0.0,
                            0.0
                        ]
                    },
                    {
                        "triggerTime_ms": 3102,
                        "faceAngle": 0.0,
                        "faceCenterX": 0.0,
                        "faceCenterY": -6.3072829246521,
                        "faceScaleX": 1.194000005722046,
                        "faceScaleY": 1.0446174144744873,
                        "leftEye": [
                            13.770123481750488,
                            0.0,
                            1.0708458423614502,
                            0.9052804112434387,
                            0.0,
                            0.5,
                            0.5,
                            0.5,
                            0.5,
                            0.5,
                            0.5,
                            0.5,
                            0.5,
                            0.03191094100475311,
                            0.0,
                            0.0,
                            0.0,
                            0.0,
                            0.0
                        ],
                        "rightEye": [
                            -11.934667587280273,
                            0.0,
                            1.2220369577407837,
                            0.9052804112434387,
                            0.0,
                            0.5,
                            0.5,
                            0.5,
                            0.5,
                            0.5,
                            0.5,
                            0.5,
                            0.5,
                            0.31971806287765503,
                            6.644565582275391,
                            0.0,
                            0.0,
                            0.0,
                            0.0
                        ]
                    },
                    {
                        "triggerTime_ms": 3135,
                        "faceAngle": 0.0,
                        "faceCenterX": 0.0,
                        "faceCenterY": -6.318877220153809,
                        "faceScaleX": 1.2092050313949585,
                        "faceScaleY": 0.9873297810554504,
                        "leftEye": [
                            13.45238208770752,
                            0.0,
                            1.0807404518127441,
                            0.7824677228927612,
                            0.0,
                            0.499739408493042,
                            0.499739408493042,
                            0.499739408493042,
                            0.499739408493042,
                            0.499739408493042,
                            0.499739408493042,
                            0.499739408493042,
                            0.499739408493042,
                            0.029706943780183792,
                            0.0,
                            0.0,
                            0.0,
                            0.0,
                            0.0
                        ],
                        "rightEye": [
                            -11.815299034118652,
                            0.0,
                            1.2220369577407837,
                            0.6555510759353638,
                            0.0,
                            0.499739408493042,
                            0.499739408493042,
                            0.499739408493042,
                            0.499739408493042,
                            0.499739408493042,
                            0.499739408493042,
                            0.499739408493042,
                            0.499739408493042,
                            0.2976360619068146,
                            6.18564510345459,
                            0.0,
                            0.0,
                            0.0,
                            0.0
                        ]
                    },
                    {
                        "triggerTime_ms": 3168,
                        "faceAngle": 0.0,
                        "faceCenterX": 0.0,
                        "faceCenterY": -6.475154876708984,
                        "faceScaleX": 1.414148211479187,
                        "faceScaleY": 0.21516789495944977,
                        "leftEye": [
                            9.169666290283203,
                            0.0,
                            1.2144556045532227,
                            0.9053593873977661,
                            0.0,
                            0.4897795021533966,
                            0.4897795021533966,
                            0.4897795021533966,
                            0.4897795021533966,
                            0.4897795021533966,
                            0.4897795021533966,
                            0.4897795021533966,
                            0.4897795021533966,
                            0.0,
                            0.0,
                            0.0,
                            0.0,
                            0.0,
                            0.0
                        ],
                        "rightEye": [
                            -10.206374168395996,
                            0.0,
                            1.2220369577407837,
                            0.9052804112434387,
                            0.0,
                            0.4897795021533966,
                            0.4897795021533966,
                            0.4897795021533966,
                            0.4897795021533966,
                            0.4897795021533966,
                            0.4897795021533966,
                            0.4897795021533966,
                            0.4897795021533966,
                            0.0,
                            0.0,
                            0.0,
                            0.0,
                            0.0,
                            0.0
                        ]
                    },
                    {
                        "triggerTime_ms": 3267,
                        "faceAngle": 0.0,
                        "faceCenterX": 0.0,
                        "faceCenterY": 27.77531623840332,
                        "faceScaleX": 1.0,
                        "faceScaleY": 1.0,
                        "leftEye": [
                            9.169666290283203,
                            0.0,
                            1.214332938194275,
                            0.9052804112434387,
                            0.0,
                            0.5,
                            0.5,
                            0.8551031351089478,
                            0.8551031351089478,
                            0.8551031351089478,
                            0.8551031351089478,
                            0.5,
                            0.5,
                            0.1376146823167801,
                            0.0,
                            0.0,
                            0.5015674233436584,
                            4.583662509918213,
                            0.0
                        ],
                        "rightEye": [
                            -10.206374168395996,
                            0.0,
                            1.2220369577407837,
                            0.9052804112434387,
                            0.0,
                            0.5,
                            0.5,
                            0.8551031351089478,
                            0.8551031351089478,
                            0.8551031351089478,
                            0.8551031351089478,
                            0.5,
                            0.5,
                            0.1487082988023758,
                            0.0,
                            0.0,
                            0.48703333735466003,
                            4.583662509918213,
                            0.0
                        ]
                    }
                ],
                "HeadAngleKeyFrame": [
                    {
                        "triggerTime_ms": 0,
                        "durationTime_ms": 66,
                        "angle_deg": -5,
                        "angleVariability_deg": 0
                    },
                    {
                        "triggerTime_ms": 66,
                        "durationTime_ms": 132,
                        "angle_deg": -16,
                        "angleVariability_deg": 0
                    },
                    {
                        "triggerTime_ms": 198,
                        "durationTime_ms": 462,
                        "angle_deg": -17,
                        "angleVariability_deg": 0
                    },
                    {
                        "triggerTime_ms": 660,
                        "durationTime_ms": 66,
                        "angle_deg": -15,
                        "angleVariability_deg": 0
                    },
                    {
                        "triggerTime_ms": 726,
                        "durationTime_ms": 66,
                        "angle_deg": -20,
                        "angleVariability_deg": 0
                    },
                    {
                        "triggerTime_ms": 792,
                        "durationTime_ms": 99,
                        "angle_deg": -10,
                        "angleVariability_deg": 0
                    },
                    {
                        "triggerTime_ms": 891,
                        "durationTime_ms": 198,
                        "angle_deg": -12,
                        "angleVariability_deg": 0
                    },
                    {
                        "triggerTime_ms": 1089,
                        "durationTime_ms": 198,
                        "angle_deg": -12,
                        "angleVariability_deg": 0
                    },
                    {
                        "triggerTime_ms": 1287,
                        "durationTime_ms": 132,
                        "angle_deg": -11,
                        "angleVariability_deg": 0
                    },
                    {
                        "triggerTime_ms": 1749,
                        "durationTime_ms": 132,
                        "angle_deg": -8,
                        "angleVariability_deg": 0
                    },
                    {
                        "triggerTime_ms": 1881,
                        "durationTime_ms": 132,
                        "angle_deg": -7,
                        "angleVariability_deg": 0
                    },
                    {
                        "triggerTime_ms": 2211,
                        "durationTime_ms": 99,
                        "angle_deg": -11,
                        "angleVariability_deg": 0
                    },
                    {
                        "triggerTime_ms": 2310,
                        "durationTime_ms": 66,
                        "angle_deg": -6,
                        "angleVariability_deg": 0
                    },
                    {
                        "triggerTime_ms": 2376,
                        "durationTime_ms": 132,
                        "angle_deg": 15,
                        "angleVariability_deg": 0
                    },
                    {
                        "triggerTime_ms": 2508,
                        "durationTime_ms": 132,
                        "angle_deg": 15,
                        "angleVariability_deg": 0
                    },
                    {
                        "triggerTime_ms": 2640,
                        "durationTime_ms": 132,
                        "angle_deg": 14,
                        "angleVariability_deg": 0
                    },
                    {
                        "triggerTime_ms": 3102,
                        "durationTime_ms": 198,
                        "angle_deg": -15,
                        "angleVariability_deg": 0
                    }
                ],
                "RobotAudioKeyFrame": [
                    {
                        "triggerTime_ms": 132,
                        "audioEventId": [
                            1701725212
                        ],
                        "volume": 1.0,
                        "probability": [
                            1.0
                        ],
                        "hasAlts": true
                    },
                    {
                        "triggerTime_ms": 792,
                        "audioEventId": [
                            2666670780
                        ],
                        "volume": 1.0,
                        "probability": [
                            1.0
                        ],
                        "hasAlts": true
                    },
                    {
                        "triggerTime_ms": 858,
                        "audioEventId": [
                            3765708529
                        ],
                        "volume": 1.0,
                        "probability": [
                            1.0
                        ],
                        "hasAlts": true
                    },
                    {
                        "triggerTime_ms": 1452,
                        "audioEventId": [
                            3560778311
                        ],
                        "volume": 1.0,
                        "probability": [
                            1.0
                        ],
                        "hasAlts": true
                    },
                    {
                        "triggerTime_ms": 2079,
                        "audioEventId": [
                            3613386685
                        ],
                        "volume": 1.0,
                        "probability": [
                            1.0
                        ],
                        "hasAlts": true
                    },
                    {
                        "triggerTime_ms": 2343,
                        "audioEventId": [
                            4228327806
                        ],
                        "volume": 1.0,
                        "probability": [
                            1.0
                        ],
                        "hasAlts": true
                    },
                    {
                        "triggerTime_ms": 3168,
                        "audioEventId": [
                            2666670780
                        ],
                        "volume": 1.0,
                        "probability": [
                            1.0
                        ],
                        "hasAlts": true
                    }
                ],
                "BackpackLightsKeyFrame": [],
                "FaceAnimationKeyFrame": [],
                "EventKeyFrame": [],
                "BodyMotionKeyFrame": [
                    {
                        "triggerTime_ms": 0,
                        "durationTime_ms": 66,
                        "radius_mm": "STRAIGHT",
                        "speed": -1
                    },
                    {
                        "triggerTime_ms": 66,
                        "durationTime_ms": 66,
                        "radius_mm": "STRAIGHT",
                        "speed": -1
                    },
                    {
                        "triggerTime_ms": 132,
                        "durationTime_ms": 396,
                        "radius_mm": "STRAIGHT",
                        "speed": -17
                    },
                    {
                        "triggerTime_ms": 528,
                        "durationTime_ms": 99,
                        "radius_mm": "STRAIGHT",
                        "speed": -1
                    },
                    {
                        "triggerTime_ms": 627,
                        "durationTime_ms": 66,
                        "radius_mm": "STRAIGHT",
                        "speed": -1
                    },
                    {
                        "triggerTime_ms": 858,
                        "durationTime_ms": 132,
                        "radius_mm": "STRAIGHT",
                        "speed": -160
                    },
                    {
                        "triggerTime_ms": 1386,
                        "durationTime_ms": 132,
                        "radius_mm": "TURN_IN_PLACE",
                        "speed": 106
                    },
                    {
                        "triggerTime_ms": 2277,
                        "durationTime_ms": 99,
                        "radius_mm": "TURN_IN_PLACE",
                        "speed": -141
                    },
                    {
                        "triggerTime_ms": 2376,
                        "durationTime_ms": 165,
                        "radius_mm": "STRAIGHT",
                        "speed": -27
                    },
                    {
                        "triggerTime_ms": 2541,
                        "durationTime_ms": 231,
                        "radius_mm": "STRAIGHT",
                        "speed": 37
                    },
                    {
                        "triggerTime_ms": 2772,
                        "durationTime_ms": 165,
                        "radius_mm": "STRAIGHT",
                        "speed": 20
                    },
                    {
                        "triggerTime_ms": 2937,
                        "durationTime_ms": 165,
                        "radius_mm": "STRAIGHT",
                        "speed": 6
                    },
                    {
                        "triggerTime_ms": 3102,
                        "durationTime_ms": 132,
                        "radius_mm": "STRAIGHT",
                        "speed": 1
                    }
                ],
                "RecordHeadingKeyFrame": [],
                "TurnToRecordedHeadingKeyFrame": []
            }
        }
    ]
}