{
    "clips": [
        {
            "Name": "anim_memorymatch_reacttopattern_01",
            "keyframes": {
                "LiftHeightKeyFrame": [
                    {
                        "triggerTime_ms": 132,
                        "durationTime_ms": 99,
                        "height_mm": 38,
                        "heightVariability_mm": 0
                    },
                    {
                        "triggerTime_ms": 231,
                        "durationTime_ms": 99,
                        "height_mm": 0,
                        "heightVariability_mm": 0
                    }
                ],
                "ProceduralFaceKeyFrame": [
                    {
                        "triggerTime_ms": 0,
                        "faceAngle": 0.0,
                        "faceCenterX": 0.0,
                        "faceCenterY": 0.0,
                        "faceScaleX": 1.0,
                        "faceScaleY": 1.0,
                        "leftEye": [
                            9.169666290283203,
                            0.0,
                            1.214332938194275,
                            0.9052804112434387,
                            0.0,
                            0.5,
                            0.5,
                            0.5,
                            0.5,
                            0.5,
                            0.5,
                            0.5,
                            0.5,
                            0.0,
                            0.0,
                            0.0,
                            0.0,
                            0.0,
                            0.0
                        ],
                        "rightEye": [
                            -10.206374168395996,
                            0.0,
                            1.2220369577407837,
                            0.9052804112434387,
                            0.0,
                            0.5,
                            0.5,
                            0.5,
                            0.5,
                            0.5,
                            0.5,
                            0.5,
                            0.5,
                            0.0,
                            0.0,
                            0.0,
                            0.0,
                            0.0,
                            0.0
                        ]
                    },
                    {
                        "triggerTime_ms": 99,
                        "faceAngle": 0.0,
                        "faceCenterX": 0.3220108449459076,
                        "faceCenterY": 0.0,
                        "faceScaleX": 1.0,
                        "faceScaleY": 1.0,
                        "leftEye": [
                            9.169666290283203,
                            -0.002791422652080655,
                            1.214332938194275,
                            0.9017364382743835,
                            0.0,
                            0.5176638960838318,
                            0.5176638960838318,
                            0.5176638960838318,
                            0.5176638960838318,
                            0.5176638960838318,
                            0.5176638960838318,
                            0.5176638960838318,
                            0.5176638960838318,
                            0.0,
                            0.0,
                            0.0,
                            0.0,
                            0.0,
                            0.0
                        ],
                        "rightEye": [
                            -10.206374168395996,
                            -0.20838117599487305,
                            1.2220369577407837,
                            0.9052804112434387,
                            0.0,
                            0.5,
                            0.5,
                            0.5,
                            0.5,
                            0.5,
                            0.5,
                            0.5,
                            0.5,
                            0.0,
                            0.0,
                            0.0,
                            0.0,
                            0.0,
                            0.0
                        ]
                    },
                    {
                        "triggerTime_ms": 165,
                        "faceAngle": 0.0,
                        "faceCenterX": 0.3220108449459076,
                        "faceCenterY": 0.0,
                        "faceScaleX": 1.1538783311843872,
                        "faceScaleY": 1.0,
                        "leftEye": [
                            9.169666290283203,
                            -0.002791422652080655,
                            1.2428078651428223,
                            0.7921486496925354,
                            0.0,
                            0.4350113868713379,
                            0.4350113868713379,
                            0.4350113868713379,
                            0.4350113868713379,
                            0.4350113868713379,
                            0.4350113868713379,
                            0.4350113868713379,
                            0.4350113868713379,
                            0.0,
                            0.0,
                            0.0,
                            0.0,
                            0.0,
                            0.0
                        ],
                        "rightEye": [
                            -10.206374168395996,
                            -0.20838117599487305,
                            1.251535415649414,
                            0.8274787068367004,
                            0.0,
                            0.4201955795288086,
                            0.4201955795288086,
                            0.4201955795288086,
                            0.4201955795288086,
                            0.4201955795288086,
                            0.4201955795288086,
                            0.4201955795288086,
                            0.4201955795288086,
                            0.0,
                            0.0,
                            0.0,
                            0.0,
                            0.0,
                            0.0
                        ]
                    },
                    {
                        "triggerTime_ms": 231,
                        "faceAngle": 0.0,
                        "faceCenterX": 0.3220108449459076,
                        "faceCenterY": 0.0,
                        "faceScaleX": 1.013871192932129,
                        "faceScaleY": 1.0,
                        "leftEye": [
                            9.169666290283203,
                            -0.002791422652080655,
                            1.2168997526168823,
                            0.8918578028678894,
                            0.0,
                            0.510213315486908,
                            0.510213315486908,
                            0.510213315486908,
                            0.510213315486908,
                            0.510213315486908,
                            0.510213315486908,
                            0.510213315486908,
                            0.510213315486908,
                            0.0,
                            0.0,
                            0.0,
                            0.0,
                            0.0,
                            0.0
                        ],
                        "rightEye": [
                            -10.206374168395996,
                            -0.20838117599487305,
                            1.2246960401535034,
                            0.8949050903320312,
                            0.0,
                            0.4928061068058014,
                            0.4928061068058014,
                            0.4928061068058014,
                            0.4928061068058014,
                            0.4928061068058014,
                            0.4928061068058014,
                            0.4928061068058014,
                            0.4928061068058014,
                            0.0,
                            0.0,
                            0.0,
                            0.0,
                            0.0,
                            0.0
                        ]
                    },
                    {
                        "triggerTime_ms": 363,
                        "faceAngle": 0.0,
                        "faceCenterX": 0.3220108449459076,
                        "faceCenterY": 0.0,
                        "faceScaleX": 1.0,
                        "faceScaleY": 1.0,
                        "leftEye": [
                            9.169666290283203,
                            -0.002791422652080655,
                            1.214332938194275,
                            0.9017364382743835,
                            0.0,
                            0.5176638960838318,
                            0.5176638960838318,
                            0.5176638960838318,
                            0.5176638960838318,
                            0.5176638960838318,
                            0.5176638960838318,
                            0.5176638960838318,
                            0.5176638960838318,
                            0.0,
                            0.0,
                            0.0,
                            0.0,
                            0.0,
                            0.0
                        ],
                        "rightEye": [
                            -10.206374168395996,
                            -0.20838117599487305,
                            1.2220369577407837,
                            0.9052804112434387,
                            0.0,
                            0.5,
                            0.5,
                            0.5,
                            0.5,
                            0.5,
                            0.5,
                            0.5,
                            0.5,
                            0.0,
                            0.0,
                            0.0,
                            0.0,
                            0.0,
                            0.0
                        ]
                    }
                ],
                "HeadAngleKeyFrame": [
                    {
                        "triggerTime_ms": 99,
                        "durationTime_ms": 132,
                        "angle_deg": -7,
                        "angleVariability_deg": 0
                    },
                    {
                        "triggerTime_ms": 231,
                        "durationTime_ms": 132,
                        "angle_deg": 0,
                        "angleVariability_deg": 0
                    }
                ],
                "RobotAudioKeyFrame": [
                    {
                        "triggerTime_ms": 0,
                        "audioEventId": [
                            4054065165
                        ],
                        "volume": 1.0,
                        "probability": [
                            1.0
                        ],
                        "hasAlts": true
                    }
                ],
                "BackpackLightsKeyFrame": [],
                "FaceAnimationKeyFrame": [],
                "EventKeyFrame": [],
                "BodyMotionKeyFrame": [],
                "RecordHeadingKeyFrame": [],
                "TurnToRecordedHeadingKeyFrame": []
            }
        },
        {
            "Name": "anim_memorymatch_reacttopattern_02",
            "keyframes": {
                "LiftHeightKeyFrame": [],
                "ProceduralFaceKeyFrame": [
                    {
                        "triggerTime_ms": 0,
                        "faceAngle": 0.0,
                        "faceCenterX": 0.0035087482538074255,
                        "faceCenterY": 0.0,
                        "faceScaleX": 1.0,
                        "faceScaleY": 1.0,
                        "leftEye": [
                            9.169666290283203,
                            -5.697640517610125e-06,
                            1.214332938194275,
                            0.905280351638794,
                            0.0,
                            0.500228762626648,
                            0.500228762626648,
                            0.500228762626648,
                            0.500228762626648,
                            0.500228762626648,
                            0.500228762626648,
                            0.500228762626648,
                            0.500228762626648,
                            0.0,
                            0.0,
                            0.0,
                            0.0,
                            0.0,
                            0.0
                        ],
                        "rightEye": [
                            -10.206374168395996,
                            -0.0004253318766131997,
                            1.2220369577407837,
                            0.9052804112434387,
                            0.0,
                            0.5,
                            0.5,
                            0.5,
                            0.5,
                            0.5,
                            0.5,
                            0.5,
                            0.5,
                            0.0,
                            0.0,
                            0.0,
                            0.0,
                            0.0,
                            0.0
                        ]
                    },
                    {
                        "triggerTime_ms": 66,
                        "faceAngle": 0.0,
                        "faceCenterX": 0.0,
                        "faceCenterY": 0.0,
                        "faceScaleX": 1.0,
                        "faceScaleY": 1.0,
                        "leftEye": [
                            9.169666290283203,
                            0.0,
                            1.214332938194275,
                            0.9052804112434387,
                            0.0,
                            0.5,
                            0.5,
                            0.5,
                            0.5,
                            0.5,
                            0.5,
                            0.5,
                            0.5,
                            0.0,
                            0.0,
                            0.0,
                            0.0,
                            0.0,
                            0.0
                        ],
                        "rightEye": [
                            -10.206374168395996,
                            0.0,
                            1.2220369577407837,
                            0.9052804112434387,
                            0.0,
                            0.5,
                            0.5,
                            0.5,
                            0.5,
                            0.5,
                            0.5,
                            0.5,
                            0.5,
                            0.0,
                            0.0,
                            0.0,
                            0.0,
                            0.0,
                            0.0
                        ]
                    },
                    {
                        "triggerTime_ms": 132,
                        "faceAngle": 0.0,
                        "faceCenterX": 0.3220108449459076,
                        "faceCenterY": 0.0,
                        "faceScaleX": 1.0,
                        "faceScaleY": 1.0,
                        "leftEye": [
                            13.221098899841309,
                            -0.002791422652080655,
                            1.214332938194275,
                            0.9017364382743835,
                            0.0,
                            0.5176638960838318,
                            0.5176638960838318,
                            0.5176638960838318,
                            0.5176638960838318,
                            0.5176638960838318,
                            0.5176638960838318,
                            0.5176638960838318,
                            0.5176638960838318,
                            0.0,
                            0.0,
                            0.0,
                            0.0,
                            0.0,
                            0.0
                        ],
                        "rightEye": [
                            -6.5356831550598145,
                            -0.20838117599487305,
                            1.2220369577407837,
                            0.9425758719444275,
                            0.0,
                            0.5,
                            0.5,
                            0.5,
                            0.5,
                            0.5,
                            0.5,
                            0.5,
                            0.5,
                            0.0,
                            0.0,
                            0.0,
                            0.0,
                            0.0,
                            0.0
                        ]
                    },
                    {
                        "triggerTime_ms": 231,
                        "faceAngle": 0.0,
                        "faceCenterX": 0.3220108449459076,
                        "faceCenterY": 0.0,
                        "faceScaleX": 1.0,
                        "faceScaleY": 1.0,
                        "leftEye": [
                            13.221098899841309,
                            -0.002791422652080655,
                            1.214332938194275,
                            0.9017364382743835,
                            0.0,
                            0.5176638960838318,
                            0.5176638960838318,
                            0.5176638960838318,
                            0.5176638960838318,
                            0.5176638960838318,
                            0.5176638960838318,
                            0.5176638960838318,
                            0.5176638960838318,
                            0.0,
                            0.0,
                            0.0,
                            0.0,
                            0.0,
                            0.0
                        ],
                        "rightEye": [
                            -6.5356831550598145,
                            -0.20838117599487305,
                            1.2220369577407837,
                            0.9425758719444275,
                            0.0,
                            0.5,
                            0.5,
                            0.5,
                            0.5,
                            0.5,
                            0.5,
                            0.5,
                            0.5,
                            0.0,
                            0.0,
                            0.0,
                            0.0,
                            0.0,
                            0.0
                        ]
                    },
                    {
                        "triggerTime_ms": 297,
                        "faceAngle": 0.0,
                        "faceCenterX": 0.11708443611860275,
                        "faceCenterY": 0.0,
                        "faceScaleX": 1.06174898147583,
                        "faceScaleY": 1.0,
                        "leftEye": [
                            10.445165634155273,
                            -0.000888389244209975,
                            1.2681587934494019,
                            0.7069680690765381,
                            0.0,
                            0.2653047442436218,
                            0.2653047442436218,
                            0.2653047442436218,
                            0.2653047442436218,
                            0.2653047442436218,
                            0.2653047442436218,
                            0.2653047442436218,
                            0.2653047442436218,
                            0.0,
                            0.0,
                            0.0,
                            0.0,
                            0.0,
                            0.0
                        ],
                        "rightEye": [
                            -9.050742149353027,
                            -0.06560395658016205,
                            1.2777975797653198,
                            0.7147103548049927,
                            0.0,
                            0.2640869617462158,
                            0.2640869617462158,
                            0.2640869617462158,
                            0.2640869617462158,
                            0.2640869617462158,
                            0.2640869617462158,
                            0.2640869617462158,
                            0.2640869617462158,
                            0.0,
                            0.0,
                            0.0,
                            0.0,
                            0.0,
                            0.0
                        ]
                    },
                    {
                        "triggerTime_ms": 363,
                        "faceAngle": 0.0,
                        "faceCenterX": 0.04832571744918823,
                        "faceCenterY": 0.0,
                        "faceScaleX": 1.0,
                        "faceScaleY": 1.0,
                        "leftEye": [
                            9.270692825317383,
                            -9.114636486629024e-05,
                            1.214332938194275,
                            0.9051936268806458,
                            0.0,
                            0.5004404783248901,
                            0.5004404783248901,
                            0.5004404783248901,
                            0.5004404783248901,
                            0.5004404783248901,
                            0.5004404783248901,
                            0.5004404783248901,
                            0.5004404783248901,
                            0.0,
                            0.0,
                            0.0,
                            0.0,
                            0.0,
                            0.0
                        ],
                        "rightEye": [
                            -10.11484146118164,
                            -0.0051962160505354404,
                            1.2220369577407837,
                            0.9061935544013977,
                            0.0,
                            0.5,
                            0.5,
                            0.5,
                            0.5,
                            0.5,
                            0.5,
                            0.5,
                            0.5,
                            0.0,
                            0.0,
                            0.0,
                            0.0,
                            0.0,
                            0.0
                        ]
                    },
                    {
                        "triggerTime_ms": 462,
                        "faceAngle": 0.0,
                        "faceCenterX": 0.005914534442126751,
                        "faceCenterY": 0.0,
                        "faceScaleX": 1.0,
                        "faceScaleY": 1.0,
                        "leftEye": [
                            9.270692825317383,
                            -9.114636486629024e-05,
                            1.214332938194275,
                            0.9051936268806458,
                            0.0,
                            0.5004404783248901,
                            0.5004404783248901,
                            0.5004404783248901,
                            0.5004404783248901,
                            0.5004404783248901,
                            0.5004404783248901,
                            0.5004404783248901,
                            0.5004404783248901,
                            0.0,
                            0.0,
                            0.0,
                            0.0,
                            0.0,
                            0.0
                        ],
                        "rightEye": [
                            -10.11484146118164,
                            -0.0051962160505354404,
                            1.2220369577407837,
                            0.9061935544013977,
                            0.0,
                            0.5,
                            0.5,
                            0.5,
                            0.5,
                            0.5,
                            0.5,
                            0.5,
                            0.5,
                            0.0,
                            0.0,
                            0.0,
                            0.0,
                            0.0,
                            0.0
                        ]
                    }
                ],
                "HeadAngleKeyFrame": [
                    {
                        "triggerTime_ms": 99,
                        "durationTime_ms": 99,
                        "angle_deg": 9,
                        "angleVariability_deg": 0
                    },
                    {
                        "triggerTime_ms": 198,
                        "durationTime_ms": 132,
                        "angle_deg": 0,
                        "angleVariability_deg": 0
                    }
                ],
                "RobotAudioKeyFrame": [
                    {
                        "triggerTime_ms": 0,
                        "audioEventId": [
                            3952553918
                        ],
                        "volume": 1.0,
                        "probability": [
                            1.0
                        ],
                        "hasAlts": true
                    }
                ],
                "BackpackLightsKeyFrame": [],
                "FaceAnimationKeyFrame": [],
                "EventKeyFrame": [],
                "BodyMotionKeyFrame": [],
                "RecordHeadingKeyFrame": [],
                "TurnToRecordedHeadingKeyFrame": []
            }
        }
    ]
}