{
    "clips": [
        {
            "Name": "anim_reacttoblock_audioblockcrash",
            "keyframes": {
                "LiftHeightKeyFrame": [],
                "ProceduralFaceKeyFrame": [],
                "HeadAngleKeyFrame": [],
                "RobotAudioKeyFrame": [
                    {
                        "triggerTime_ms": 33,
                        "audioEventId": [
                            2763212437
                        ],
                        "volume": 1.0,
                        "probability": [
                            1.0
                        ],
                        "hasAlts": true
                    }
                ],
                "BackpackLightsKeyFrame": [],
                "FaceAnimationKeyFrame": [],
                "EventKeyFrame": [],
                "BodyMotionKeyFrame": [],
                "RecordHeadingKeyFrame": [],
                "TurnToRecordedHeadingKeyFrame": []
            }
        }
    ]
}