{
    "clips": [
        {
            "Name": "anim_pyramid_success_01",
            "keyframes": {
                "LiftHeightKeyFrame": [
                    {
                        "triggerTime_ms": 0,
                        "durationTime_ms": 66,
                        "height_mm": 0,
                        "heightVariability_mm": 0
                    },
                    {
                        "triggerTime_ms": 66,
                        "durationTime_ms": 330,
                        "height_mm": 0,
                        "heightVariability_mm": 0
                    },
                    {
                        "triggerTime_ms": 396,
                        "durationTime_ms": 33,
                        "height_mm": 0,
                        "heightVariability_mm": 0
                    },
                    {
                        "triggerTime_ms": 990,
                        "durationTime_ms": 363,
                        "height_mm": 91,
                        "heightVariability_mm": 0
                    },
                    {
                        "triggerTime_ms": 1353,
                        "durationTime_ms": 165,
                        "height_mm": 83,
                        "heightVariability_mm": 0
                    },
                    {
                        "triggerTime_ms": 1518,
                        "durationTime_ms": 231,
                        "height_mm": 92,
                        "heightVariability_mm": 0
                    },
                    {
                        "triggerTime_ms": 1749,
                        "durationTime_ms": 132,
                        "height_mm": 90,
                        "heightVariability_mm": 0
                    },
                    {
                        "triggerTime_ms": 1881,
                        "durationTime_ms": 165,
                        "height_mm": 46,
                        "heightVariability_mm": 0
                    },
                    {
                        "triggerTime_ms": 2046,
                        "durationTime_ms": 231,
                        "height_mm": 90,
                        "heightVariability_mm": 0
                    },
                    {
                        "triggerTime_ms": 2277,
                        "durationTime_ms": 264,
                        "height_mm": 92,
                        "heightVariability_mm": 0
                    },
                    {
                        "triggerTime_ms": 2541,
                        "durationTime_ms": 264,
                        "height_mm": 0,
                        "heightVariability_mm": 0
                    }
                ],
                "ProceduralFaceKeyFrame": [
                    {
                        "triggerTime_ms": 0,
                        "faceAngle": 0.0,
                        "faceCenterX": 0.0,
                        "faceCenterY": 0.0,
                        "faceScaleX": 1.0,
                        "faceScaleY": 1.0,
                        "leftEye": [
                            9.169666290283203,
                            0.0,
                            1.2148393392562866,
                            0.9056063294410706,
                            0.0,
                            0.4578453004360199,
                            0.4578453004360199,
                            0.4578453004360199,
                            0.4578453004360199,
                            0.4578453004360199,
                            0.4578453004360199,
                            0.4578453004360199,
                            0.4578453004360199,
                            0.0,
                            0.0,
                            0.0,
                            0.0,
                            0.0,
                            0.0
                        ],
                        "rightEye": [
                            -10.206374168395996,
                            0.0,
                            1.2220369577407837,
                            0.9052804112434387,
                            0.0,
                            0.4578453004360199,
                            0.4578453004360199,
                            0.4578453004360199,
                            0.4578453004360199,
                            0.4578453004360199,
                            0.4578453004360199,
                            0.4578453004360199,
                            0.4578453004360199,
                            0.0,
                            0.0,
                            0.0,
                            0.0,
                            0.0,
                            0.0
                        ]
                    },
                    {
                        "triggerTime_ms": 66,
                        "faceAngle": 0.0,
                        "faceCenterX": 0.0,
                        "faceCenterY": 0.0,
                        "faceScaleX": 1.0,
                        "faceScaleY": 1.0,
                        "leftEye": [
                            9.169666290283203,
                            0.0,
                            1.2155756950378418,
                            0.9060802459716797,
                            0.0,
                            0.3965291380882263,
                            0.3965291380882263,
                            0.3965291380882263,
                            0.3965291380882263,
                            0.3965291380882263,
                            0.3965291380882263,
                            0.3965291380882263,
                            0.3965291380882263,
                            0.0,
                            0.0,
                            0.0,
                            0.0,
                            0.0,
                            0.0
                        ],
                        "rightEye": [
                            -10.206374168395996,
                            0.0,
                            1.2220369577407837,
                            0.9052804112434387,
                            0.0,
                            0.3965291380882263,
                            0.3965291380882263,
                            0.3965291380882263,
                            0.3965291380882263,
                            0.3965291380882263,
                            0.3965291380882263,
                            0.3965291380882263,
                            0.3965291380882263,
                            0.0,
                            0.0,
                            0.0,
                            0.0,
                            0.0,
                            0.0
                        ]
                    },
                    {
                        "triggerTime_ms": 396,
                        "faceAngle": 0.0,
                        "faceCenterX": 0.0,
                        "faceCenterY": 0.08466003090143204,
                        "faceScaleX": 1.0,
                        "faceScaleY": 1.0,
                        "leftEye": [
                            9.169666290283203,
                            0.0,
                            1.214332938194275,
                            0.9052804112434387,
                            0.0,
                            0.5,
                            0.5,
                            0.5,
                            0.5,
                            0.5,
                            0.5,
                            0.5,
                            0.5,
                            0.0,
                            0.0,
                            0.0,
                            0.0,
                            0.0,
                            0.0
                        ],
                        "rightEye": [
                            -10.206374168395996,
                            0.0,
                            1.2220369577407837,
                            0.9052804112434387,
                            0.0,
                            0.5,
                            0.5,
                            0.5,
                            0.5,
                            0.5,
                            0.5,
                            0.5,
                            0.5,
                            0.0,
                            0.0,
                            0.0,
                            0.0,
                            0.0,
                            0.0
                        ]
                    },
                    {
                        "triggerTime_ms": 462,
                        "faceAngle": 0.0,
                        "faceCenterX": 0.0,
                        "faceCenterY": 15.464696884155273,
                        "faceScaleX": 1.176682472229004,
                        "faceScaleY": 0.42043358087539673,
                        "leftEye": [
                            10.93139934539795,
                            1.6377174461013055e-06,
                            1.290761947631836,
                            0.9052804112434387,
                            0.0,
                            0.5,
                            0.5,
                            0.5,
                            0.5,
                            0.5,
                            0.5,
                            0.5,
                            0.5,
                            0.0,
                            0.0,
                            0.0,
                            0.0,
                            0.0,
                            0.0
                        ],
                        "rightEye": [
                            -12.048280715942383,
                            -1.61002083132189e-06,
                            1.1618672609329224,
                            0.9052804112434387,
                            0.0,
                            0.5506115555763245,
                            0.5506115555763245,
                            0.5506115555763245,
                            0.5506115555763245,
                            0.5506115555763245,
                            0.5506115555763245,
                            0.5506115555763245,
                            0.5506115555763245,
                            0.06497356295585632,
                            1.1097462177276611,
                            0.0,
                            0.0,
                            0.0,
                            0.0
                        ]
                    },
                    {
                        "triggerTime_ms": 561,
                        "faceAngle": 0.0,
                        "faceCenterX": 0.0,
                        "faceCenterY": 0.08466003090143204,
                        "faceScaleX": 1.0,
                        "faceScaleY": 1.0,
                        "leftEye": [
                            9.169666290283203,
                            0.0,
                            1.214332938194275,
                            0.9052804112434387,
                            0.0,
                            0.5,
                            0.5,
                            0.5,
                            0.5,
                            0.5,
                            0.5,
                            0.5,
                            0.5,
                            0.0,
                            0.0,
                            0.0,
                            0.0,
                            0.0,
                            0.0
                        ],
                        "rightEye": [
                            -10.206374168395996,
                            0.0,
                            1.2220369577407837,
                            0.9052804112434387,
                            0.0,
                            0.5,
                            0.5,
                            0.5,
                            0.5,
                            0.5,
                            0.5,
                            0.5,
                            0.5,
                            0.0,
                            0.0,
                            0.0,
                            0.0,
                            0.0,
                            0.0
                        ]
                    },
                    {
                        "triggerTime_ms": 792,
                        "faceAngle": 0.0,
                        "faceCenterX": 0.0,
                        "faceCenterY": 0.08466003090143204,
                        "faceScaleX": 1.0,
                        "faceScaleY": 1.0,
                        "leftEye": [
                            9.169666290283203,
                            0.0,
                            1.214332938194275,
                            0.9052804112434387,
                            0.0,
                            0.5,
                            0.5,
                            0.5,
                            0.5,
                            0.5,
                            0.5,
                            0.5,
                            0.5,
                            0.0,
                            0.0,
                            0.0,
                            0.0,
                            0.0,
                            0.0
                        ],
                        "rightEye": [
                            -10.206374168395996,
                            0.0,
                            1.2220369577407837,
                            0.9052804112434387,
                            0.0,
                            0.5,
                            0.5,
                            0.5,
                            0.5,
                            0.5,
                            0.5,
                            0.5,
                            0.5,
                            0.0,
                            0.0,
                            0.0,
                            0.0,
                            0.0,
                            0.0
                        ]
                    },
                    {
                        "triggerTime_ms": 825,
                        "faceAngle": 0.0,
                        "faceCenterX": 0.0,
                        "faceCenterY": 1.7625072002410889,
                        "faceScaleX": 0.9513664841651917,
                        "faceScaleY": 0.9428152441978455,
                        "leftEye": [
                            9.169666290283203,
                            0.0,
                            1.214332938194275,
                            0.8062301874160767,
                            0.0,
                            0.33671265840530396,
                            0.33671265840530396,
                            0.33671265840530396,
                            0.33671265840530396,
                            0.33671265840530396,
                            0.33671265840530396,
                            0.33671265840530396,
                            0.33671265840530396,
                            0.0,
                            0.0,
                            0.0,
                            0.0,
                            0.0,
                            0.0
                        ],
                        "rightEye": [
                            -10.206374168395996,
                            0.0,
                            1.2220369577407837,
                            0.8062301874160767,
                            0.0,
                            0.33671265840530396,
                            0.33671265840530396,
                            0.33671265840530396,
                            0.33671265840530396,
                            0.33671265840530396,
                            0.33671265840530396,
                            0.33671265840530396,
                            0.33671265840530396,
                            0.0,
                            0.0,
                            0.0,
                            0.0,
                            0.0,
                            0.0
                        ]
                    },
                    {
                        "triggerTime_ms": 891,
                        "faceAngle": 0.0,
                        "faceCenterX": 2.8637642860412598,
                        "faceCenterY": 0.08466003090143204,
                        "faceScaleX": 1.0,
                        "faceScaleY": 1.0,
                        "leftEye": [
                            10.795125007629395,
                            0.0,
                            1.214332938194275,
                            0.9052804112434387,
                            0.0,
                            0.5,
                            0.5,
                            0.5,
                            0.5,
                            0.5,
                            0.5,
                            0.5,
                            0.5,
                            0.0,
                            0.0,
                            0.0,
                            0.0,
                            0.0,
                            0.0
                        ],
                        "rightEye": [
                            -10.206374168395996,
                            -0.5286190509796143,
                            1.2220369577407837,
                            0.995231032371521,
                            0.0,
                            0.5,
                            0.5,
                            0.5,
                            0.5,
                            0.5,
                            0.5,
                            0.5,
                            0.5,
                            0.0,
                            0.0,
                            0.0,
                            0.0,
                            0.0,
                            0.0
                        ]
                    },
                    {
                        "triggerTime_ms": 1089,
                        "faceAngle": 0.0,
                        "faceCenterX": 4.626551628112793,
                        "faceCenterY": 0.06644530594348907,
                        "faceScaleX": 1.0,
                        "faceScaleY": 1.0355473756790161,
                        "leftEye": [
                            10.795125007629395,
                            0.0,
                            1.214332938194275,
                            0.9052804112434387,
                            0.0,
                            0.5,
                            0.5,
                            0.5,
                            0.5,
                            0.5,
                            0.5,
                            0.5,
                            0.5,
                            0.0,
                            0.0,
                            0.0,
                            0.0,
                            0.0,
                            0.0
                        ],
                        "rightEye": [
                            -10.206374168395996,
                            -0.5286190509796143,
                            1.2220369577407837,
                            0.995231032371521,
                            0.0,
                            0.5,
                            0.5,
                            0.5,
                            0.5,
                            0.5,
                            0.5,
                            0.5,
                            0.5,
                            0.0,
                            0.0,
                            0.0,
                            0.0,
                            0.0,
                            0.0
                        ]
                    },
                    {
                        "triggerTime_ms": 1122,
                        "faceAngle": 0.0,
                        "faceCenterX": 0.0,
                        "faceCenterY": 7.774678707122803,
                        "faceScaleX": 1.088341236114502,
                        "faceScaleY": 0.7102168202400208,
                        "leftEye": [
                            10.050533294677734,
                            8.188587230506528e-07,
                            1.2858515977859497,
                            0.9052804112434387,
                            0.0,
                            0.5,
                            0.5,
                            0.5,
                            0.5,
                            0.5,
                            0.5,
                            0.5,
                            0.5,
                            0.0,
                            0.0,
                            0.0,
                            0.0,
                            0.0,
                            0.0
                        ],
                        "rightEye": [
                            -11.127326965332031,
                            -1.498821461609623e-06,
                            1.2220369577407837,
                            0.9052804112434387,
                            0.0,
                            0.5563385486602783,
                            0.5563385486602783,
                            0.5563385486602783,
                            0.5563385486602783,
                            0.5563385486602783,
                            0.5563385486602783,
                            0.5563385486602783,
                            0.5563385486602783,
                            0.03248678147792816,
                            0.5548731088638306,
                            0.0,
                            0.0,
                            0.0,
                            0.0
                        ]
                    },
                    {
                        "triggerTime_ms": 1287,
                        "faceAngle": 0.0,
                        "faceCenterX": 0.0,
                        "faceCenterY": 3.0942533016204834,
                        "faceScaleX": 1.1195670366287231,
                        "faceScaleY": 1.1132144927978516,
                        "leftEye": [
                            9.246346473693848,
                            1.2794666304216662e-07,
                            1.2919657230377197,
                            1.0006119012832642,
                            0.0,
                            0.48090144991874695,
                            0.48090144991874695,
                            0.4633166491985321,
                            0.4633166491985321,
                            0.5805972814559937,
                            0.5805972814559937,
                            0.48090144991874695,
                            0.48090144991874695,
                            0.0,
                            0.0,
                            0.0,
                            0.0,
                            0.0,
                            0.0
                        ],
                        "rightEye": [
                            -10.350273132324219,
                            -2.3419086403464462e-07,
                            1.289522409439087,
                            1.0003283023834229,
                            0.0,
                            0.48970434069633484,
                            0.48970434069633484,
                            0.4721195697784424,
                            0.4721195697784424,
                            0.592982292175293,
                            0.592982292175293,
                            0.48970434069633484,
                            0.48970434069633484,
                            0.005076059605926275,
                            0.08669891953468323,
                            0.0,
                            0.0,
                            0.0,
                            0.0
                        ]
                    },
                    {
                        "triggerTime_ms": 1485,
                        "faceAngle": 0.0,
                        "faceCenterX": 0.0,
                        "faceCenterY": 2.227508068084717,
                        "faceScaleX": 1.1200627088546753,
                        "faceScaleY": 1.187843680381775,
                        "leftEye": [
                            9.169666290283203,
                            0.0,
                            1.2920626401901245,
                            1.0182658433914185,
                            0.0,
                            0.4773646593093872,
                            0.4773646593093872,
                            0.45652344822883606,
                            0.45652344822883606,
                            0.5955227017402649,
                            0.5955227017402649,
                            0.4773646593093872,
                            0.4773646593093872,
                            0.0,
                            0.0,
                            0.0,
                            0.0,
                            0.0,
                            0.0
                        ],
                        "rightEye": [
                            -10.206374168395996,
                            0.0,
                            1.302019715309143,
                            1.0179296731948853,
                            0.0,
                            0.4773646593093872,
                            0.4773646593093872,
                            0.45652344822883606,
                            0.45652344822883606,
                            0.5955227017402649,
                            0.5955227017402649,
                            0.4773646593093872,
                            0.4773646593093872,
                            0.0,
                            0.0,
                            0.0,
                            0.0,
                            0.0,
                            0.0
                        ]
                    },
                    {
                        "triggerTime_ms": 1848,
                        "faceAngle": 0.0,
                        "faceCenterX": 0.0,
                        "faceCenterY": 2.227508068084717,
                        "faceScaleX": 1.1200627088546753,
                        "faceScaleY": 1.187843680381775,
                        "leftEye": [
                            9.169666290283203,
                            0.0,
                            1.2920626401901245,
                            1.0182658433914185,
                            0.0,
                            0.4773646593093872,
                            0.4773646593093872,
                            0.45652344822883606,
                            0.45652344822883606,
                            0.5955227017402649,
                            0.5955227017402649,
                            0.4773646593093872,
                            0.4773646593093872,
                            0.0,
                            0.0,
                            0.0,
                            0.0,
                            0.0,
                            0.0
                        ],
                        "rightEye": [
                            -10.206374168395996,
                            0.0,
                            1.302019715309143,
                            1.0179296731948853,
                            0.0,
                            0.4773646593093872,
                            0.4773646593093872,
                            0.45652344822883606,
                            0.45652344822883606,
                            0.5955227017402649,
                            0.5955227017402649,
                            0.4773646593093872,
                            0.4773646593093872,
                            0.0,
                            0.0,
                            0.0,
                            0.0,
                            0.0,
                            0.0
                        ]
                    },
                    {
                        "triggerTime_ms": 1914,
                        "faceAngle": 0.0,
                        "faceCenterX": 0.0,
                        "faceCenterY": 8.293318748474121,
                        "faceScaleX": 1.204172134399414,
                        "faceScaleY": 0.8188923597335815,
                        "leftEye": [
                            9.169666290283203,
                            0.0,
                            1.2920626401901245,
                            1.0182658433914185,
                            0.0,
                            0.4773646593093872,
                            0.4773646593093872,
                            0.45652344822883606,
                            0.45652344822883606,
                            0.5955227017402649,
                            0.5955227017402649,
                            0.4773646593093872,
                            0.4773646593093872,
                            0.0,
                            0.0,
                            0.0,
                            0.0,
                            0.0,
                            0.0
                        ],
                        "rightEye": [
                            -10.206374168395996,
                            0.0,
                            1.302019715309143,
                            1.0179296731948853,
                            0.0,
                            0.4773646593093872,
                            0.4773646593093872,
                            0.45652344822883606,
                            0.45652344822883606,
                            0.5955227017402649,
                            0.5955227017402649,
                            0.4773646593093872,
                            0.4773646593093872,
                            0.0,
                            0.0,
                            0.0,
                            0.0,
                            0.0,
                            0.0
                        ]
                    },
                    {
                        "triggerTime_ms": 2013,
                        "faceAngle": 0.0,
                        "faceCenterX": 0.0,
                        "faceCenterY": 2.227508068084717,
                        "faceScaleX": 1.1200627088546753,
                        "faceScaleY": 1.187843680381775,
                        "leftEye": [
                            9.169666290283203,
                            0.0,
                            1.2920626401901245,
                            1.0182658433914185,
                            0.0,
                            0.4773646593093872,
                            0.4773646593093872,
                            0.45652344822883606,
                            0.45652344822883606,
                            0.5955227017402649,
                            0.5955227017402649,
                            0.4773646593093872,
                            0.4773646593093872,
                            0.0,
                            0.0,
                            0.0,
                            0.0,
                            0.0,
                            0.0
                        ],
                        "rightEye": [
                            -10.206374168395996,
                            0.0,
                            1.302019715309143,
                            1.0179296731948853,
                            0.0,
                            0.4773646593093872,
                            0.4773646593093872,
                            0.45652344822883606,
                            0.45652344822883606,
                            0.5955227017402649,
                            0.5955227017402649,
                            0.4773646593093872,
                            0.4773646593093872,
                            0.0,
                            0.0,
                            0.0,
                            0.0,
                            0.0,
                            0.0
                        ]
                    },
                    {
                        "triggerTime_ms": 2541,
                        "faceAngle": 0.0,
                        "faceCenterX": 0.0,
                        "faceCenterY": 2.227508068084717,
                        "faceScaleX": 1.1200627088546753,
                        "faceScaleY": 1.187843680381775,
                        "leftEye": [
                            9.169666290283203,
                            0.0,
                            1.2920626401901245,
                            1.0182658433914185,
                            0.0,
                            0.4773646593093872,
                            0.4773646593093872,
                            0.45652344822883606,
                            0.45652344822883606,
                            0.5955227017402649,
                            0.5955227017402649,
                            0.4773646593093872,
                            0.4773646593093872,
                            0.0,
                            0.0,
                            0.0,
                            0.0,
                            0.0,
                            0.0
                        ],
                        "rightEye": [
                            -10.206374168395996,
                            0.0,
                            1.302019715309143,
                            1.0179296731948853,
                            0.0,
                            0.4773646593093872,
                            0.4773646593093872,
                            0.45652344822883606,
                            0.45652344822883606,
                            0.5955227017402649,
                            0.5955227017402649,
                            0.4773646593093872,
                            0.4773646593093872,
                            0.0,
                            0.0,
                            0.0,
                            0.0,
                            0.0,
                            0.0
                        ]
                    },
                    {
                        "triggerTime_ms": 2574,
                        "faceAngle": 0.0,
                        "faceCenterX": 0.0,
                        "faceCenterY": 7.498167514801025,
                        "faceScaleX": 1.176682472229004,
                        "faceScaleY": 0.42043358087539673,
                        "leftEye": [
                            10.93139934539795,
                            1.6377174461013055e-06,
                            1.2604814767837524,
                            0.9052804112434387,
                            0.0,
                            0.5,
                            0.5,
                            0.5,
                            0.5,
                            0.5,
                            0.5,
                            0.5,
                            0.5,
                            0.0,
                            0.0,
                            0.0,
                            0.0,
                            0.0,
                            0.0
                        ],
                        "rightEye": [
                            -12.048280715942383,
                            -1.61002083132189e-06,
                            1.13363778591156,
                            0.9052804112434387,
                            0.0,
                            0.5506115555763245,
                            0.5506115555763245,
                            0.5506115555763245,
                            0.5506115555763245,
                            0.5506115555763245,
                            0.5506115555763245,
                            0.5506115555763245,
                            0.5506115555763245,
                            0.06497356295585632,
                            1.1097462177276611,
                            0.0,
                            0.0,
                            0.0,
                            0.0
                        ]
                    },
                    {
                        "triggerTime_ms": 2673,
                        "faceAngle": 0.0,
                        "faceCenterX": 0.0,
                        "faceCenterY": 0.08466003090143204,
                        "faceScaleX": 1.0,
                        "faceScaleY": 1.0,
                        "leftEye": [
                            9.169666290283203,
                            0.0,
                            1.214332938194275,
                            0.9052804112434387,
                            0.0,
                            0.5,
                            0.5,
                            0.5,
                            0.5,
                            0.5,
                            0.5,
                            0.5,
                            0.5,
                            0.0,
                            0.0,
                            0.0,
                            0.0,
                            0.0,
                            0.0
                        ],
                        "rightEye": [
                            -10.206374168395996,
                            0.0,
                            1.2220369577407837,
                            0.9052804112434387,
                            0.0,
                            0.5,
                            0.5,
                            0.5,
                            0.5,
                            0.5,
                            0.5,
                            0.5,
                            0.5,
                            0.0,
                            0.0,
                            0.0,
                            0.0,
                            0.0,
                            0.0
                        ]
                    },
                    {
                        "triggerTime_ms": 2805,
                        "faceAngle": 0.0,
                        "faceCenterX": 0.0,
                        "faceCenterY": 0.08466003090143204,
                        "faceScaleX": 1.0,
                        "faceScaleY": 1.0,
                        "leftEye": [
                            9.169666290283203,
                            0.0,
                            1.214332938194275,
                            0.9052804112434387,
                            0.0,
                            0.5,
                            0.5,
                            0.5,
                            0.5,
                            0.5,
                            0.5,
                            0.5,
                            0.5,
                            0.0,
                            0.0,
                            0.0,
                            0.0,
                            0.0,
                            0.0
                        ],
                        "rightEye": [
                            -10.206374168395996,
                            0.0,
                            1.2220369577407837,
                            0.9052804112434387,
                            0.0,
                            0.5,
                            0.5,
                            0.5,
                            0.5,
                            0.5,
                            0.5,
                            0.5,
                            0.5,
                            0.0,
                            0.0,
                            0.0,
                            0.0,
                            0.0,
                            0.0
                        ]
                    },
                    {
                        "triggerTime_ms": 2970,
                        "faceAngle": 0.0,
                        "faceCenterX": 0.0,
                        "faceCenterY": 0.08466003090143204,
                        "faceScaleX": 1.0,
                        "faceScaleY": 1.0,
                        "leftEye": [
                            9.169666290283203,
                            0.0,
                            1.214332938194275,
                            0.9052804112434387,
                            0.0,
                            0.5,
                            0.5,
                            0.5,
                            0.5,
                            0.5,
                            0.5,
                            0.5,
                            0.5,
                            0.0,
                            0.0,
                            0.0,
                            0.0,
                            0.0,
                            0.0
                        ],
                        "rightEye": [
                            -10.206374168395996,
                            0.0,
                            1.2220369577407837,
                            0.9052804112434387,
                            0.0,
                            0.5,
                            0.5,
                            0.5,
                            0.5,
                            0.5,
                            0.5,
                            0.5,
                            0.5,
                            0.0,
                            0.0,
                            0.0,
                            0.0,
                            0.0,
                            0.0
                        ]
                    },
                    {
                        "triggerTime_ms": 3234,
                        "faceAngle": 0.0,
                        "faceCenterX": 0.0,
                        "faceCenterY": -2.043015241622925,
                        "faceScaleX": 1.0,
                        "faceScaleY": 1.0646588802337646,
                        "leftEye": [
                            9.169666290283203,
                            0.0,
                            1.214332938194275,
                            0.9052804112434387,
                            0.0,
                            0.5,
                            0.5,
                            0.5,
                            0.5,
                            0.5,
                            0.5,
                            0.5,
                            0.5,
                            0.0,
                            0.0,
                            0.0,
                            0.0,
                            0.0,
                            0.0
                        ],
                        "rightEye": [
                            -10.206374168395996,
                            0.0,
                            1.2220369577407837,
                            0.9052804112434387,
                            0.0,
                            0.5,
                            0.5,
                            0.5,
                            0.5,
                            0.5,
                            0.5,
                            0.5,
                            0.5,
                            0.0,
                            0.0,
                            0.0,
                            0.0,
                            0.0,
                            0.0
                        ]
                    },
                    {
                        "triggerTime_ms": 3300,
                        "faceAngle": 0.0,
                        "faceCenterX": 0.0,
                        "faceCenterY": 15.464696884155273,
                        "faceScaleX": 1.176682472229004,
                        "faceScaleY": 0.42043358087539673,
                        "leftEye": [
                            10.93139934539795,
                            1.6377174461013055e-06,
                            1.355303168296814,
                            0.9052804112434387,
                            0.0,
                            0.5,
                            0.5,
                            0.5,
                            0.5,
                            0.5,
                            0.5,
                            0.5,
                            0.5,
                            0.0,
                            0.0,
                            0.0,
                            0.0,
                            0.0,
                            0.0
                        ],
                        "rightEye": [
                            -12.048280715942383,
                            -1.61002083132189e-06,
                            1.2220369577407837,
                            0.9052804112434387,
                            0.0,
                            0.5506115555763245,
                            0.5506115555763245,
                            0.5506115555763245,
                            0.5506115555763245,
                            0.5506115555763245,
                            0.5506115555763245,
                            0.5506115555763245,
                            0.5506115555763245,
                            0.06497356295585632,
                            1.1097462177276611,
                            0.0,
                            0.0,
                            0.0,
                            0.0
                        ]
                    },
                    {
                        "triggerTime_ms": 3399,
                        "faceAngle": 0.0,
                        "faceCenterX": 0.0,
                        "faceCenterY": 0.08466003090143204,
                        "faceScaleX": 1.0,
                        "faceScaleY": 1.0,
                        "leftEye": [
                            9.169666290283203,
                            0.0,
                            1.214332938194275,
                            0.9052804112434387,
                            0.0,
                            0.5,
                            0.5,
                            0.5,
                            0.5,
                            0.5,
                            0.5,
                            0.5,
                            0.5,
                            0.0,
                            0.0,
                            0.0,
                            0.0,
                            0.0,
                            0.0
                        ],
                        "rightEye": [
                            -10.206374168395996,
                            0.0,
                            1.2220369577407837,
                            0.9052804112434387,
                            0.0,
                            0.5,
                            0.5,
                            0.5,
                            0.5,
                            0.5,
                            0.5,
                            0.5,
                            0.5,
                            0.0,
                            0.0,
                            0.0,
                            0.0,
                            0.0,
                            0.0
                        ]
                    },
                    {
                        "triggerTime_ms": 3630,
                        "faceAngle": 0.0,
                        "faceCenterX": 0.0,
                        "faceCenterY": 0.08466003090143204,
                        "faceScaleX": 1.0,
                        "faceScaleY": 1.0,
                        "leftEye": [
                            9.169666290283203,
                            0.0,
                            1.214332938194275,
                            0.9052804112434387,
                            0.0,
                            0.5,
                            0.5,
                            0.5,
                            0.5,
                            0.5,
                            0.5,
                            0.5,
                            0.5,
                            0.0,
                            0.0,
                            0.0,
                            0.0,
                            0.0,
                            0.0
                        ],
                        "rightEye": [
                            -10.206374168395996,
                            0.0,
                            1.2220369577407837,
                            0.9052804112434387,
                            0.0,
                            0.5,
                            0.5,
                            0.5,
                            0.5,
                            0.5,
                            0.5,
                            0.5,
                            0.5,
                            0.0,
                            0.0,
                            0.0,
                            0.0,
                            0.0,
                            0.0
                        ]
                    }
                ],
                "HeadAngleKeyFrame": [
                    {
                        "triggerTime_ms": 0,
                        "durationTime_ms": 396,
                        "angle_deg": 0,
                        "angleVariability_deg": 0
                    },
                    {
                        "triggerTime_ms": 396,
                        "durationTime_ms": 66,
                        "angle_deg": 1,
                        "angleVariability_deg": 0
                    },
                    {
                        "triggerTime_ms": 462,
                        "durationTime_ms": 99,
                        "angle_deg": 14,
                        "angleVariability_deg": 0
                    },
                    {
                        "triggerTime_ms": 561,
                        "durationTime_ms": 495,
                        "angle_deg": 11,
                        "angleVariability_deg": 0
                    },
                    {
                        "triggerTime_ms": 1056,
                        "durationTime_ms": 99,
                        "angle_deg": -1,
                        "angleVariability_deg": 0
                    },
                    {
                        "triggerTime_ms": 1155,
                        "durationTime_ms": 330,
                        "angle_deg": 14,
                        "angleVariability_deg": 0
                    },
                    {
                        "triggerTime_ms": 1485,
                        "durationTime_ms": 99,
                        "angle_deg": 5,
                        "angleVariability_deg": 0
                    },
                    {
                        "triggerTime_ms": 1584,
                        "durationTime_ms": 198,
                        "angle_deg": 20,
                        "angleVariability_deg": 0
                    },
                    {
                        "triggerTime_ms": 1782,
                        "durationTime_ms": 99,
                        "angle_deg": 6,
                        "angleVariability_deg": 0
                    },
                    {
                        "triggerTime_ms": 1881,
                        "durationTime_ms": 132,
                        "angle_deg": 3,
                        "angleVariability_deg": 0
                    },
                    {
                        "triggerTime_ms": 2013,
                        "durationTime_ms": 330,
                        "angle_deg": 19,
                        "angleVariability_deg": 0
                    },
                    {
                        "triggerTime_ms": 2343,
                        "durationTime_ms": 66,
                        "angle_deg": 10,
                        "angleVariability_deg": 0
                    },
                    {
                        "triggerTime_ms": 2409,
                        "durationTime_ms": 66,
                        "angle_deg": 19,
                        "angleVariability_deg": 0
                    },
                    {
                        "triggerTime_ms": 2475,
                        "durationTime_ms": 66,
                        "angle_deg": 24,
                        "angleVariability_deg": 0
                    },
                    {
                        "triggerTime_ms": 2541,
                        "durationTime_ms": 66,
                        "angle_deg": 0,
                        "angleVariability_deg": 0
                    },
                    {
                        "triggerTime_ms": 2607,
                        "durationTime_ms": 198,
                        "angle_deg": 14,
                        "angleVariability_deg": 0
                    },
                    {
                        "triggerTime_ms": 3234,
                        "durationTime_ms": 66,
                        "angle_deg": 5,
                        "angleVariability_deg": 0
                    },
                    {
                        "triggerTime_ms": 3300,
                        "durationTime_ms": 198,
                        "angle_deg": 0,
                        "angleVariability_deg": 0
                    }
                ],
                "RobotAudioKeyFrame": [
                    {
                        "triggerTime_ms": 396,
                        "audioEventId": [
                            1907152766
                        ],
                        "volume": 1.0,
                        "probability": [
                            1.0
                        ],
                        "hasAlts": true
                    },
                    {
                        "triggerTime_ms": 1023,
                        "audioEventId": [
                            2679819871
                        ],
                        "volume": 1.0,
                        "probability": [
                            1.0
                        ],
                        "hasAlts": true
                    },
                    {
                        "triggerTime_ms": 1584,
                        "audioEventId": [
                            1864261839
                        ],
                        "volume": 1.0,
                        "probability": [
                            1.0
                        ],
                        "hasAlts": true
                    },
                    {
                        "triggerTime_ms": 1881,
                        "audioEventId": [
                            2693760973
                        ],
                        "volume": 1.0,
                        "probability": [
                            1.0
                        ],
                        "hasAlts": true
                    },
                    {
                        "triggerTime_ms": 3267,
                        "audioEventId": [
                            302804072
                        ],
                        "volume": 1.0,
                        "probability": [
                            1.0
                        ],
                        "hasAlts": true
                    }
                ],
                "BackpackLightsKeyFrame": [],
                "FaceAnimationKeyFrame": [],
                "EventKeyFrame": [],
                "BodyMotionKeyFrame": [
                    {
                        "triggerTime_ms": 429,
                        "durationTime_ms": 198,
                        "radius_mm": "STRAIGHT",
                        "speed": -30
                    },
                    {
                        "triggerTime_ms": 627,
                        "durationTime_ms": 363,
                        "radius_mm": "STRAIGHT",
                        "speed": 2
                    },
                    {
                        "triggerTime_ms": 1023,
                        "durationTime_ms": 165,
                        "radius_mm": "STRAIGHT",
                        "speed": -69
                    },
                    {
                        "triggerTime_ms": 1188,
                        "durationTime_ms": 198,
                        "radius_mm": "STRAIGHT",
                        "speed": 100
                    },
                    {
                        "triggerTime_ms": 1386,
                        "durationTime_ms": 99,
                        "radius_mm": "STRAIGHT",
                        "speed": 15
                    },
                    {
                        "triggerTime_ms": 1485,
                        "durationTime_ms": 198,
                        "radius_mm": "STRAIGHT",
                        "speed": -21
                    },
                    {
                        "triggerTime_ms": 1848,
                        "durationTime_ms": 66,
                        "radius_mm": "TURN_IN_PLACE",
                        "speed": 45
                    },
                    {
                        "triggerTime_ms": 1914,
                        "durationTime_ms": 66,
                        "radius_mm": "TURN_IN_PLACE",
                        "speed": -76
                    },
                    {
                        "triggerTime_ms": 1980,
                        "durationTime_ms": 66,
                        "radius_mm": "TURN_IN_PLACE",
                        "speed": 121
                    },
                    {
                        "triggerTime_ms": 2046,
                        "durationTime_ms": 66,
                        "radius_mm": "TURN_IN_PLACE",
                        "speed": -167
                    },
                    {
                        "triggerTime_ms": 2112,
                        "durationTime_ms": 99,
                        "radius_mm": "TURN_IN_PLACE",
                        "speed": 121
                    },
                    {
                        "triggerTime_ms": 2211,
                        "durationTime_ms": 99,
                        "radius_mm": "TURN_IN_PLACE",
                        "speed": -91
                    },
                    {
                        "triggerTime_ms": 2541,
                        "durationTime_ms": 165,
                        "radius_mm": "STRAIGHT",
                        "speed": 52
                    },
                    {
                        "triggerTime_ms": 3234,
                        "durationTime_ms": 66,
                        "radius_mm": "STRAIGHT",
                        "speed": -43
                    },
                    {
                        "triggerTime_ms": 3300,
                        "durationTime_ms": 165,
                        "radius_mm": "STRAIGHT",
                        "speed": 8
                    },
                    {
                        "triggerTime_ms": 3465,
                        "durationTime_ms": 165,
                        "radius_mm": "STRAIGHT",
                        "speed": 33
                    }
                ],
                "RecordHeadingKeyFrame": [],
                "TurnToRecordedHeadingKeyFrame": []
            }
        }
    ]
}