{
    "clips": [
        {
            "Name": "anim_vc_reaction_nofaceheardyou_getout_01",
            "keyframes": {
                "LiftHeightKeyFrame": [
                    {
                        "triggerTime_ms": 66,
                        "durationTime_ms": 132,
                        "height_mm": 32,
                        "heightVariability_mm": 0
                    }
                ],
                "ProceduralFaceKeyFrame": [
                    {
                        "triggerTime_ms": 0,
                        "faceAngle": 0.0,
                        "faceCenterX": 0.0,
                        "faceCenterY": 0.9910935163497925,
                        "faceScaleX": 0.8689954280853271,
                        "faceScaleY": 0.371907502412796,
                        "leftEye": [
                            9.169666290283203,
                            0.0,
                            1.3680773973464966,
                            0.9052804112434387,
                            0.0,
                            0.5015445351600647,
                            0.5015445351600647,
                            0.5,
                            0.5,
                            0.510300874710083,
                            0.510300874710083,
                            0.5015445351600647,
                            0.5015445351600647,
                            0.0,
                            0.0,
                            0.0,
                            0.0,
                            0.0,
                            0.0
                        ],
                        "rightEye": [
                            -7.538285732269287,
                            0.0,
                            1.5785222053527832,
                            0.9052804112434387,
                            0.0,
                            0.5015445351600647,
                            0.5015445351600647,
                            0.5,
                            0.5,
                            0.510300874710083,
                            0.510300874710083,
                            0.5015445351600647,
                            0.5015445351600647,
                            0.0,
                            0.0,
                            0.0,
                            0.0,
                            0.0,
                            0.0
                        ]
                    },
                    {
                        "triggerTime_ms": 33,
                        "faceAngle": 0.0,
                        "faceCenterX": 0.0,
                        "faceCenterY": 14.501934051513672,
                        "faceScaleX": 1.2387584447860718,
                        "faceScaleY": 0.07466530054807663,
                        "leftEye": [
                            9.169666290283203,
                            0.0,
                            1.558449149131775,
                            0.9052804112434387,
                            0.0,
                            0.505616307258606,
                            0.505616307258606,
                            0.5,
                            0.5,
                            0.5374575853347778,
                            0.5374575853347778,
                            0.505616307258606,
                            0.505616307258606,
                            0.0,
                            0.0,
                            0.0,
                            0.0,
                            0.0,
                            0.0
                        ],
                        "rightEye": [
                            -10.206374168395996,
                            0.0,
                            1.3680742979049683,
                            0.9052804112434387,
                            0.0,
                            0.505616307258606,
                            0.505616307258606,
                            0.5,
                            0.5,
                            0.5374575853347778,
                            0.5374575853347778,
                            0.505616307258606,
                            0.505616307258606,
                            0.0,
                            0.0,
                            0.0,
                            0.0,
                            0.0,
                            0.0
                        ]
                    },
                    {
                        "triggerTime_ms": 66,
                        "faceAngle": 0.0,
                        "faceCenterX": 0.0,
                        "faceCenterY": 20.07672119140625,
                        "faceScaleX": 1.818399429321289,
                        "faceScaleY": 0.07466530054807663,
                        "leftEye": [
                            9.53098201751709,
                            0.0,
                            1.558449149131775,
                            0.9052804112434387,
                            0.0,
                            0.5113730430603027,
                            0.5113730430603027,
                            0.5,
                            0.5,
                            0.5758516788482666,
                            0.5758516788482666,
                            0.5113730430603027,
                            0.5113730430603027,
                            0.0,
                            0.0,
                            0.0,
                            0.0,
                            0.0,
                            0.0
                        ],
                        "rightEye": [
                            -10.867368698120117,
                            0.0,
                            1.2653484344482422,
                            0.9052804112434387,
                            0.0,
                            0.5113730430603027,
                            0.5113730430603027,
                            0.5,
                            0.5,
                            0.5758516788482666,
                            0.5758516788482666,
                            0.5113730430603027,
                            0.5113730430603027,
                            0.0,
                            0.0,
                            0.0,
                            0.0,
                            0.0,
                            0.0
                        ]
                    },
                    {
                        "triggerTime_ms": 99,
                        "faceAngle": 0.0,
                        "faceCenterX": 0.0,
                        "faceCenterY": 15.380037307739258,
                        "faceScaleX": 1.176682472229004,
                        "faceScaleY": 0.42043358087539673,
                        "leftEye": [
                            9.892297744750977,
                            0.0,
                            1.355303168296814,
                            0.9052804112434387,
                            0.0,
                            0.5179721713066101,
                            0.5179721713066101,
                            0.5,
                            0.5,
                            0.6198644638061523,
                            0.6198644638061523,
                            0.5179721713066101,
                            0.5179721713066101,
                            0.0,
                            0.0,
                            0.0,
                            0.0,
                            0.0,
                            0.0
                        ],
                        "rightEye": [
                            -10.961795806884766,
                            0.0,
                            1.2220369577407837,
                            0.9052804112434387,
                            0.0,
                            0.5179721713066101,
                            0.5179721713066101,
                            0.5,
                            0.5,
                            0.6198644638061523,
                            0.6198644638061523,
                            0.5179721713066101,
                            0.5179721713066101,
                            0.0,
                            0.0,
                            0.0,
                            0.0,
                            0.0,
                            0.0
                        ]
                    },
                    {
                        "triggerTime_ms": 165,
                        "faceAngle": 0.0,
                        "faceCenterX": 0.0,
                        "faceCenterY": 5.328335285186768,
                        "faceScaleX": 0.9145689606666565,
                        "faceScaleY": 0.9690848588943481,
                        "leftEye": [
                            9.53098201751709,
                            0.0,
                            1.214332938194275,
                            0.9052804112434387,
                            0.0,
                            0.530328094959259,
                            0.530328094959259,
                            0.5,
                            0.5,
                            0.7022712826728821,
                            0.7022712826728821,
                            0.530328094959259,
                            0.530328094959259,
                            0.0,
                            0.0,
                            0.0,
                            0.0,
                            0.0,
                            0.0
                        ],
                        "rightEye": [
                            -10.617266654968262,
                            0.0,
                            1.2910093069076538,
                            1.0024223327636719,
                            0.0,
                            0.530328094959259,
                            0.530328094959259,
                            0.5,
                            0.5,
                            0.7022712826728821,
                            0.7022712826728821,
                            0.530328094959259,
                            0.530328094959259,
                            0.0,
                            0.0,
                            0.0,
                            0.0,
                            0.0,
                            0.0
                        ]
                    },
                    {
                        "triggerTime_ms": 231,
                        "faceAngle": 0.0,
                        "faceCenterX": 0.0,
                        "faceCenterY": -0.4173453450202942,
                        "faceScaleX": 1.0130642652511597,
                        "faceScaleY": 1.1835979223251343,
                        "leftEye": [
                            9.169666290283203,
                            0.0,
                            1.3474910259246826,
                            1.0995641946792603,
                            0.0,
                            0.5359443426132202,
                            0.5359443426132202,
                            0.5,
                            0.5,
                            0.7397288680076599,
                            0.7397288680076599,
                            0.5359443426132202,
                            0.5359443426132202,
                            0.0,
                            0.0,
                            0.0,
                            0.0,
                            0.0,
                            0.0
                        ],
                        "rightEye": [
                            -10.206374168395996,
                            0.0,
                            1.3599814176559448,
                            1.0995641946792603,
                            0.0,
                            0.5359443426132202,
                            0.5359443426132202,
                            0.5,
                            0.5,
                            0.7397288680076599,
                            0.7397288680076599,
                            0.5359443426132202,
                            0.5359443426132202,
                            0.0,
                            0.0,
                            0.0,
                            0.0,
                            0.0,
                            0.0
                        ]
                    },
                    {
                        "triggerTime_ms": 363,
                        "faceAngle": 0.0,
                        "faceCenterX": 0.0,
                        "faceCenterY": 0.0,
                        "faceScaleX": 1.138314127922058,
                        "faceScaleY": 0.9763545989990234,
                        "leftEye": [
                            10.576247215270996,
                            0.0,
                            1.214332938194275,
                            0.9052804112434387,
                            0.0,
                            0.524118959903717,
                            0.524118959903717,
                            0.5,
                            0.5,
                            0.6608598828315735,
                            0.6608598828315735,
                            0.524118959903717,
                            0.524118959903717,
                            0.0,
                            0.0,
                            0.0,
                            0.0,
                            0.0,
                            0.0
                        ],
                        "rightEye": [
                            -12.890628814697266,
                            0.0,
                            1.2220369577407837,
                            0.9052804112434387,
                            0.0,
                            0.524118959903717,
                            0.524118959903717,
                            0.5,
                            0.5,
                            0.6608598828315735,
                            0.6608598828315735,
                            0.524118959903717,
                            0.524118959903717,
                            0.0,
                            0.0,
                            0.0,
                            0.0,
                            0.0,
                            0.0
                        ]
                    },
                    {
                        "triggerTime_ms": 462,
                        "faceAngle": 0.0,
                        "faceCenterX": 0.0,
                        "faceCenterY": 0.0,
                        "faceScaleX": 1.0838756561279297,
                        "faceScaleY": 0.9899645447731018,
                        "leftEye": [
                            9.49837589263916,
                            0.0,
                            1.214332938194275,
                            0.9052804112434387,
                            0.0,
                            0.5087279677391052,
                            0.5087279677391052,
                            0.5,
                            0.5,
                            0.5582104921340942,
                            0.5582104921340942,
                            0.5087279677391052,
                            0.5087279677391052,
                            0.0,
                            0.0,
                            0.0,
                            0.0,
                            0.0,
                            0.0
                        ],
                        "rightEye": [
                            -9.126178741455078,
                            0.0,
                            1.2220369577407837,
                            0.9052804112434387,
                            0.0,
                            0.5087279677391052,
                            0.5087279677391052,
                            0.5,
                            0.5,
                            0.5582104921340942,
                            0.5582104921340942,
                            0.5087279677391052,
                            0.5087279677391052,
                            0.0,
                            0.0,
                            0.0,
                            0.0,
                            0.0,
                            0.0
                        ]
                    },
                    {
                        "triggerTime_ms": 528,
                        "faceAngle": 0.0,
                        "faceCenterX": 0.0,
                        "faceCenterY": 0.0,
                        "faceScaleX": 1.0274208784103394,
                        "faceScaleY": 1.0,
                        "leftEye": [
                            9.142254829406738,
                            0.0,
                            1.214332938194275,
                            0.9052804112434387,
                            0.0,
                            0.5,
                            0.5,
                            0.5,
                            0.5,
                            0.5,
                            0.5,
                            0.5,
                            0.5,
                            0.0,
                            0.0,
                            0.0,
                            0.0,
                            0.0,
                            0.0
                        ],
                        "rightEye": [
                            -9.575855255126953,
                            0.0,
                            1.2220369577407837,
                            0.9052804112434387,
                            0.0,
                            0.5,
                            0.5,
                            0.5,
                            0.5,
                            0.5,
                            0.5,
                            0.5,
                            0.5,
                            0.0,
                            0.0,
                            0.0,
                            0.0,
                            0.0,
                            0.0
                        ]
                    },
                    {
                        "triggerTime_ms": 594,
                        "faceAngle": 0.0,
                        "faceCenterX": 0.0,
                        "faceCenterY": 0.0,
                        "faceScaleX": 1.0,
                        "faceScaleY": 1.0,
                        "leftEye": [
                            9.147688865661621,
                            0.0,
                            1.214332938194275,
                            0.9052804112434387,
                            0.0,
                            0.5,
                            0.5,
                            0.5,
                            0.5,
                            0.5,
                            0.5,
                            0.5,
                            0.5,
                            0.0,
                            0.0,
                            0.0,
                            0.0,
                            0.0,
                            0.0
                        ],
                        "rightEye": [
                            -10.025032997131348,
                            0.0,
                            1.2220369577407837,
                            0.9052804112434387,
                            0.0,
                            0.5,
                            0.5,
                            0.5,
                            0.5,
                            0.5,
                            0.5,
                            0.5,
                            0.5,
                            0.0,
                            0.0,
                            0.0,
                            0.0,
                            0.0,
                            0.0
                        ]
                    },
                    {
                        "triggerTime_ms": 759,
                        "faceAngle": 0.0,
                        "faceCenterX": 0.0,
                        "faceCenterY": 0.0,
                        "faceScaleX": 1.0,
                        "faceScaleY": 1.0,
                        "leftEye": [
                            9.169666290283203,
                            0.0,
                            1.214332938194275,
                            0.9052804112434387,
                            0.0,
                            0.5,
                            0.5,
                            0.5,
                            0.5,
                            0.5,
                            0.5,
                            0.5,
                            0.5,
                            0.0,
                            0.0,
                            0.0,
                            0.0,
                            0.0,
                            0.0
                        ],
                        "rightEye": [
                            -10.206374168395996,
                            0.0,
                            1.2220369577407837,
                            0.9052804112434387,
                            0.0,
                            0.5,
                            0.5,
                            0.5,
                            0.5,
                            0.5,
                            0.5,
                            0.5,
                            0.5,
                            0.0,
                            0.0,
                            0.0,
                            0.0,
                            0.0,
                            0.0
                        ]
                    }
                ],
                "HeadAngleKeyFrame": [
                    {
                        "triggerTime_ms": 0,
                        "durationTime_ms": 132,
                        "angle_deg": -5,
                        "angleVariability_deg": 0
                    },
                    {
                        "triggerTime_ms": 132,
                        "durationTime_ms": 33,
                        "angle_deg": -2,
                        "angleVariability_deg": 0
                    },
                    {
                        "triggerTime_ms": 165,
                        "durationTime_ms": 99,
                        "angle_deg": 17,
                        "angleVariability_deg": 0
                    },
                    {
                        "triggerTime_ms": 264,
                        "durationTime_ms": 33,
                        "angle_deg": 18,
                        "angleVariability_deg": 0
                    },
                    {
                        "triggerTime_ms": 297,
                        "durationTime_ms": 132,
                        "angle_deg": -4,
                        "angleVariability_deg": 0
                    },
                    {
                        "triggerTime_ms": 429,
                        "durationTime_ms": 66,
                        "angle_deg": -7,
                        "angleVariability_deg": 0
                    },
                    {
                        "triggerTime_ms": 495,
                        "durationTime_ms": 66,
                        "angle_deg": -2,
                        "angleVariability_deg": 0
                    },
                    {
                        "triggerTime_ms": 561,
                        "durationTime_ms": 99,
                        "angle_deg": 0,
                        "angleVariability_deg": 0
                    }
                ],
                "RobotAudioKeyFrame": [
                    {
                        "triggerTime_ms": 0,
                        "audioEventId": [
                            1907152766
                        ],
                        "volume": 1.0,
                        "probability": [
                            1.0
                        ],
                        "hasAlts": true
                    },
                    {
                        "triggerTime_ms": 66,
                        "audioEventId": [
                            1143549143
                        ],
                        "volume": 1.0,
                        "probability": [
                            1.0
                        ],
                        "hasAlts": true
                    }
                ],
                "BackpackLightsKeyFrame": [],
                "FaceAnimationKeyFrame": [],
                "EventKeyFrame": [],
                "BodyMotionKeyFrame": [
                    {
                        "triggerTime_ms": 0,
                        "durationTime_ms": 132,
                        "radius_mm": "STRAIGHT",
                        "speed": -134
                    },
                    {
                        "triggerTime_ms": 132,
                        "durationTime_ms": 198,
                        "radius_mm": "STRAIGHT",
                        "speed": 39
                    }
                ],
                "RecordHeadingKeyFrame": [],
                "TurnToRecordedHeadingKeyFrame": []
            }
        }
    ]
}