{
    "clips": [
        {
            "Name": "anim_cozmosays_speakloop_01",
            "keyframes": {
                "LiftHeightKeyFrame": [],
                "ProceduralFaceKeyFrame": [
                    {
                        "triggerTime_ms": 0,
                        "faceAngle": 0.0,
                        "faceCenterX": 0.0,
                        "faceCenterY": 0.0,
                        "faceScaleX": 1.0,
                        "faceScaleY": 1.0,
                        "leftEye": [
                            9.169666290283203,
                            0.0,
                            1.214332938194275,
                            0.9052804112434387,
                            0.0,
                            0.5,
                            0.5,
                            0.5,
                            0.5,
                            0.5,
                            0.5,
                            0.5,
                            0.5,
                            0.0,
                            0.0,
                            0.0,
                            0.0,
                            0.0,
                            0.0
                        ],
                        "rightEye": [
                            -10.206374168395996,
                            0.0,
                            1.2220369577407837,
                            0.9052804112434387,
                            0.0,
                            0.5,
                            0.5,
                            0.5,
                            0.5,
                            0.5,
                            0.5,
                            0.5,
                            0.5,
                            0.0,
                            0.0,
                            0.0,
                            0.0,
                            0.0,
                            0.0
                        ]
                    },
                    {
                        "triggerTime_ms": 132,
                        "faceAngle": 0.0,
                        "faceCenterX": 0.0,
                        "faceCenterY": 0.0,
                        "faceScaleX": 1.0,
                        "faceScaleY": 1.0,
                        "leftEye": [
                            9.169666290283203,
                            0.0,
                            1.214332938194275,
                            0.9052804112434387,
                            0.0,
                            0.5,
                            0.5,
                            0.5,
                            0.5,
                            0.5,
                            0.5,
                            0.5,
                            0.5,
                            0.0,
                            0.0,
                            0.0,
                            0.0,
                            0.0,
                            0.0
                        ],
                        "rightEye": [
                            -10.206374168395996,
                            0.0,
                            1.2220369577407837,
                            0.9052804112434387,
                            0.0,
                            0.5,
                            0.5,
                            0.5,
                            0.5,
                            0.5,
                            0.5,
                            0.5,
                            0.5,
                            0.0,
                            0.0,
                            0.0,
                            0.0,
                            0.0,
                            0.0
                        ]
                    },
                    {
                        "triggerTime_ms": 198,
                        "faceAngle": 0.0,
                        "faceCenterX": 0.21127130091190338,
                        "faceCenterY": 0.0,
                        "faceScaleX": 1.0,
                        "faceScaleY": 1.0,
                        "leftEye": [
                            11.827810287475586,
                            -0.0018314521294087172,
                            1.214332938194275,
                            0.9029552340507507,
                            0.0,
                            0.5115892887115479,
                            0.5115892887115479,
                            0.5115892887115479,
                            0.5115892887115479,
                            0.5115892887115479,
                            0.5115892887115479,
                            0.5115892887115479,
                            0.5115892887115479,
                            0.0,
                            0.0,
                            0.0,
                            0.0,
                            0.0,
                            0.0
                        ],
                        "rightEye": [
                            -7.798034191131592,
                            -0.13671886920928955,
                            1.2220369577407837,
                            0.9297500252723694,
                            0.0,
                            0.5,
                            0.5,
                            0.5,
                            0.5,
                            0.5,
                            0.5,
                            0.5,
                            0.5,
                            0.0,
                            0.0,
                            0.0,
                            0.0,
                            0.0,
                            0.0
                        ]
                    },
                    {
                        "triggerTime_ms": 264,
                        "faceAngle": 0.0,
                        "faceCenterX": 0.21127130091190338,
                        "faceCenterY": 0.0,
                        "faceScaleX": 1.1009595394134521,
                        "faceScaleY": 1.0,
                        "leftEye": [
                            11.827810287475586,
                            -0.0018314521294087172,
                            1.2330152988433838,
                            0.8310546875,
                            0.0,
                            0.4573609530925751,
                            0.4573609530925751,
                            0.4573609530925751,
                            0.4573609530925751,
                            0.4573609530925751,
                            0.4573609530925751,
                            0.4573609530925751,
                            0.4573609530925751,
                            0.0,
                            0.0,
                            0.0,
                            0.0,
                            0.0,
                            0.0
                        ],
                        "rightEye": [
                            -7.798034191131592,
                            -0.13671886920928955,
                            1.2413909435272217,
                            0.8542346954345703,
                            0.0,
                            0.4476403295993805,
                            0.4476403295993805,
                            0.4476403295993805,
                            0.4476403295993805,
                            0.4476403295993805,
                            0.4476403295993805,
                            0.4476403295993805,
                            0.4476403295993805,
                            0.0,
                            0.0,
                            0.0,
                            0.0,
                            0.0,
                            0.0
                        ]
                    },
                    {
                        "triggerTime_ms": 330,
                        "faceAngle": 0.0,
                        "faceCenterX": 0.21127130091190338,
                        "faceCenterY": 0.0,
                        "faceScaleX": 1.0091009140014648,
                        "faceScaleY": 1.0,
                        "leftEye": [
                            11.827810287475586,
                            -0.0018314521294087172,
                            1.2160171270370483,
                            0.8964738249778748,
                            0.0,
                            0.5067009329795837,
                            0.5067009329795837,
                            0.5067009329795837,
                            0.5067009329795837,
                            0.5067009329795837,
                            0.5067009329795837,
                            0.5067009329795837,
                            0.5067009329795837,
                            0.0,
                            0.0,
                            0.0,
                            0.0,
                            0.0,
                            0.0
                        ],
                        "rightEye": [
                            -7.798034191131592,
                            -0.13671886920928955,
                            1.223781704902649,
                            0.9229427576065063,
                            0.0,
                            0.49528008699417114,
                            0.49528008699417114,
                            0.49528008699417114,
                            0.49528008699417114,
                            0.49528008699417114,
                            0.49528008699417114,
                            0.49528008699417114,
                            0.49528008699417114,
                            0.0,
                            0.0,
                            0.0,
                            0.0,
                            0.0,
                            0.0
                        ]
                    },
                    {
                        "triggerTime_ms": 462,
                        "faceAngle": 0.0,
                        "faceCenterX": 0.21127130091190338,
                        "faceCenterY": 0.0,
                        "faceScaleX": 1.0,
                        "faceScaleY": 1.0,
                        "leftEye": [
                            11.827810287475586,
                            -0.0018314521294087172,
                            1.214332938194275,
                            0.9029552340507507,
                            0.0,
                            0.5115892887115479,
                            0.5115892887115479,
                            0.5115892887115479,
                            0.5115892887115479,
                            0.5115892887115479,
                            0.5115892887115479,
                            0.5115892887115479,
                            0.5115892887115479,
                            0.0,
                            0.0,
                            0.0,
                            0.0,
                            0.0,
                            0.0
                        ],
                        "rightEye": [
                            -7.798034191131592,
                            -0.13671886920928955,
                            1.2220369577407837,
                            0.9297500252723694,
                            0.0,
                            0.5,
                            0.5,
                            0.5,
                            0.5,
                            0.5,
                            0.5,
                            0.5,
                            0.5,
                            0.0,
                            0.0,
                            0.0,
                            0.0,
                            0.0,
                            0.0
                        ]
                    },
                    {
                        "triggerTime_ms": 759,
                        "faceAngle": 0.0,
                        "faceCenterX": 0.21127130091190338,
                        "faceCenterY": 0.0,
                        "faceScaleX": 1.0,
                        "faceScaleY": 1.0,
                        "leftEye": [
                            11.827810287475586,
                            -0.0018314521294087172,
                            1.214332938194275,
                            0.9029552340507507,
                            0.0,
                            0.5115892887115479,
                            0.5115892887115479,
                            0.5115892887115479,
                            0.5115892887115479,
                            0.5115892887115479,
                            0.5115892887115479,
                            0.5115892887115479,
                            0.5115892887115479,
                            0.0,
                            0.0,
                            0.0,
                            0.0,
                            0.0,
                            0.0
                        ],
                        "rightEye": [
                            -7.798034191131592,
                            -0.13671886920928955,
                            1.2220369577407837,
                            0.9297500252723694,
                            0.0,
                            0.5,
                            0.5,
                            0.5,
                            0.5,
                            0.5,
                            0.5,
                            0.5,
                            0.5,
                            0.0,
                            0.0,
                            0.0,
                            0.0,
                            0.0,
                            0.0
                        ]
                    },
                    {
                        "triggerTime_ms": 825,
                        "faceAngle": 0.0,
                        "faceCenterX": 0.07681909203529358,
                        "faceCenterY": 0.0,
                        "faceScaleX": 1.040513515472412,
                        "faceScaleY": 1.0,
                        "leftEye": [
                            10.00652027130127,
                            -0.0005828721332363784,
                            1.2496479749679565,
                            0.77516770362854,
                            0.0,
                            0.34601646661758423,
                            0.34601646661758423,
                            0.34601646661758423,
                            0.34601646661758423,
                            0.34601646661758423,
                            0.34601646661758423,
                            0.34601646661758423,
                            0.34601646661758423,
                            0.0,
                            0.0,
                            0.0,
                            0.0,
                            0.0,
                            0.0
                        ],
                        "rightEye": [
                            -9.448163986206055,
                            -0.043042752891778946,
                            1.2586214542388916,
                            0.7802473902702332,
                            0.0,
                            0.3452174663543701,
                            0.3452174663543701,
                            0.3452174663543701,
                            0.3452174663543701,
                            0.3452174663543701,
                            0.3452174663543701,
                            0.3452174663543701,
                            0.3452174663543701,
                            0.0,
                            0.0,
                            0.0,
                            0.0,
                            0.0,
                            0.0
                        ]
                    },
                    {
                        "triggerTime_ms": 891,
                        "faceAngle": 0.0,
                        "faceCenterX": 0.03170650079846382,
                        "faceCenterY": 0.0,
                        "faceScaleX": 1.0,
                        "faceScaleY": 1.0,
                        "leftEye": [
                            9.235949516296387,
                            -5.980112109682523e-05,
                            1.214332938194275,
                            0.9052234292030334,
                            0.0,
                            0.5002890229225159,
                            0.5002890229225159,
                            0.5002890229225159,
                            0.5002890229225159,
                            0.5002890229225159,
                            0.5002890229225159,
                            0.5002890229225159,
                            0.5002890229225159,
                            0.0,
                            0.0,
                            0.0,
                            0.0,
                            0.0,
                            0.0
                        ],
                        "rightEye": [
                            -10.146319389343262,
                            -0.003409236902371049,
                            1.2220369577407837,
                            0.9058794975280762,
                            0.0,
                            0.5,
                            0.5,
                            0.5,
                            0.5,
                            0.5,
                            0.5,
                            0.5,
                            0.5,
                            0.0,
                            0.0,
                            0.0,
                            0.0,
                            0.0,
                            0.0
                        ]
                    },
                    {
                        "triggerTime_ms": 990,
                        "faceAngle": 0.0,
                        "faceCenterX": 0.0038805254735052586,
                        "faceCenterY": 0.0,
                        "faceScaleX": 1.0,
                        "faceScaleY": 1.0,
                        "leftEye": [
                            9.235949516296387,
                            -5.980112109682523e-05,
                            1.214332938194275,
                            0.9052234292030334,
                            0.0,
                            0.5002890229225159,
                            0.5002890229225159,
                            0.5002890229225159,
                            0.5002890229225159,
                            0.5002890229225159,
                            0.5002890229225159,
                            0.5002890229225159,
                            0.5002890229225159,
                            0.0,
                            0.0,
                            0.0,
                            0.0,
                            0.0,
                            0.0
                        ],
                        "rightEye": [
                            -10.146319389343262,
                            -0.003409236902371049,
                            1.2220369577407837,
                            0.9058794975280762,
                            0.0,
                            0.5,
                            0.5,
                            0.5,
                            0.5,
                            0.5,
                            0.5,
                            0.5,
                            0.5,
                            0.0,
                            0.0,
                            0.0,
                            0.0,
                            0.0,
                            0.0
                        ]
                    }
                ],
                "HeadAngleKeyFrame": [],
                "RobotAudioKeyFrame": [],
                "BackpackLightsKeyFrame": [],
                "FaceAnimationKeyFrame": [],
                "EventKeyFrame": [],
                "BodyMotionKeyFrame": [],
                "RecordHeadingKeyFrame": [],
                "TurnToRecordedHeadingKeyFrame": []
            }
        },
        {
            "Name": "anim_cozmosays_speakloop_02",
            "keyframes": {
                "LiftHeightKeyFrame": [],
                "ProceduralFaceKeyFrame": [
                    {
                        "triggerTime_ms": 0,
                        "faceAngle": 0.0,
                        "faceCenterX": 0.0038805254735052586,
                        "faceCenterY": 0.0,
                        "faceScaleX": 1.0,
                        "faceScaleY": 1.0,
                        "leftEye": [
                            9.235949516296387,
                            -5.980112109682523e-05,
                            1.214332938194275,
                            0.9052234292030334,
                            0.0,
                            0.5002890229225159,
                            0.5002890229225159,
                            0.5002890229225159,
                            0.5002890229225159,
                            0.5002890229225159,
                            0.5002890229225159,
                            0.5002890229225159,
                            0.5002890229225159,
                            0.0,
                            0.0,
                            0.0,
                            0.0,
                            0.0,
                            0.0
                        ],
                        "rightEye": [
                            -10.146319389343262,
                            -0.003409236902371049,
                            1.2220369577407837,
                            0.9058794975280762,
                            0.0,
                            0.5,
                            0.5,
                            0.5,
                            0.5,
                            0.5,
                            0.5,
                            0.5,
                            0.5,
                            0.0,
                            0.0,
                            0.0,
                            0.0,
                            0.0,
                            0.0
                        ]
                    },
                    {
                        "triggerTime_ms": 990,
                        "faceAngle": 0.0,
                        "faceCenterX": 0.0038805254735052586,
                        "faceCenterY": 0.0,
                        "faceScaleX": 1.0,
                        "faceScaleY": 1.0,
                        "leftEye": [
                            9.235949516296387,
                            -5.980112109682523e-05,
                            1.214332938194275,
                            0.9052234292030334,
                            0.0,
                            0.5002890229225159,
                            0.5002890229225159,
                            0.5002890229225159,
                            0.5002890229225159,
                            0.5002890229225159,
                            0.5002890229225159,
                            0.5002890229225159,
                            0.5002890229225159,
                            0.0,
                            0.0,
                            0.0,
                            0.0,
                            0.0,
                            0.0
                        ],
                        "rightEye": [
                            -10.146319389343262,
                            -0.003409236902371049,
                            1.2220369577407837,
                            0.9058794975280762,
                            0.0,
                            0.5,
                            0.5,
                            0.5,
                            0.5,
                            0.5,
                            0.5,
                            0.5,
                            0.5,
                            0.0,
                            0.0,
                            0.0,
                            0.0,
                            0.0,
                            0.0
                        ]
                    }
                ],
                "HeadAngleKeyFrame": [],
                "RobotAudioKeyFrame": [],
                "BackpackLightsKeyFrame": [],
                "FaceAnimationKeyFrame": [],
                "EventKeyFrame": [],
                "BodyMotionKeyFrame": [],
                "RecordHeadingKeyFrame": [],
                "TurnToRecordedHeadingKeyFrame": []
            }
        },
        {
            "Name": "anim_cozmosays_speakloop_03",
            "keyframes": {
                "LiftHeightKeyFrame": [],
                "ProceduralFaceKeyFrame": [
                    {
                        "triggerTime_ms": 0,
                        "faceAngle": 0.0,
                        "faceCenterX": 0.0038805254735052586,
                        "faceCenterY": 0.0,
                        "faceScaleX": 1.0,
                        "faceScaleY": 1.0,
                        "leftEye": [
                            9.235949516296387,
                            -5.980112109682523e-05,
                            1.214332938194275,
                            0.9052234292030334,
                            0.0,
                            0.5002890229225159,
                            0.5002890229225159,
                            0.5002890229225159,
                            0.5002890229225159,
                            0.5002890229225159,
                            0.5002890229225159,
                            0.5002890229225159,
                            0.5002890229225159,
                            0.0,
                            0.0,
                            0.0,
                            0.0,
                            0.0,
                            0.0
                        ],
                        "rightEye": [
                            -10.146319389343262,
                            -0.003409236902371049,
                            1.2220369577407837,
                            0.9058794975280762,
                            0.0,
                            0.5,
                            0.5,
                            0.5,
                            0.5,
                            0.5,
                            0.5,
                            0.5,
                            0.5,
                            0.0,
                            0.0,
                            0.0,
                            0.0,
                            0.0,
                            0.0
                        ]
                    },
                    {
                        "triggerTime_ms": 33,
                        "faceAngle": 0.0,
                        "faceCenterX": -0.0009102472104132175,
                        "faceCenterY": 0.7481876611709595,
                        "faceScaleX": 0.9854786396026611,
                        "faceScaleY": 1.0351425409317017,
                        "leftEye": [
                            9.154118537902832,
                            1.4027431461727247e-05,
                            1.188382625579834,
                            0.9052937030792236,
                            0.0,
                            0.549463152885437,
                            0.549463152885437,
                            0.549463152885437,
                            0.549463152885437,
                            0.549463152885437,
                            0.549463152885437,
                            0.549463152885437,
                            0.549463152885437,
                            0.0,
                            0.0,
                            0.0,
                            0.0,
                            0.0,
                            0.0
                        ],
                        "rightEye": [
                            -10.220460891723633,
                            0.0007996979402378201,
                            1.195153832435608,
                            0.9051398634910583,
                            0.0,
                            0.5495020151138306,
                            0.5495020151138306,
                            0.5495020151138306,
                            0.5495020151138306,
                            0.5495020151138306,
                            0.5495020151138306,
                            0.5495020151138306,
                            0.5495020151138306,
                            0.0,
                            0.0,
                            0.0,
                            0.0,
                            0.0,
                            0.0
                        ]
                    },
                    {
                        "triggerTime_ms": 132,
                        "faceAngle": 0.0,
                        "faceCenterX": 0.0038805254735052586,
                        "faceCenterY": -3.189640760421753,
                        "faceScaleX": 1.0619066953659058,
                        "faceScaleY": 0.8501818776130676,
                        "leftEye": [
                            9.235949516296387,
                            -5.980112109682523e-05,
                            1.3249633312225342,
                            0.9052234292030334,
                            0.0,
                            0.2891307473182678,
                            0.2891307473182678,
                            0.2891307473182678,
                            0.2891307473182678,
                            0.2891307473182678,
                            0.2891307473182678,
                            0.2891307473182678,
                            0.2891307473182678,
                            0.0,
                            0.0,
                            0.0,
                            0.0,
                            0.0,
                            0.0
                        ],
                        "rightEye": [
                            -10.146319389343262,
                            -0.003409236902371049,
                            1.336643934249878,
                            0.9058794975280762,
                            0.0,
                            0.28896498680114746,
                            0.28896498680114746,
                            0.28896498680114746,
                            0.28896498680114746,
                            0.28896498680114746,
                            0.28896498680114746,
                            0.28896498680114746,
                            0.28896498680114746,
                            0.0,
                            0.0,
                            0.0,
                            0.0,
                            0.0,
                            0.0
                        ]
                    },
                    {
                        "triggerTime_ms": 231,
                        "faceAngle": 0.0,
                        "faceCenterX": 0.0,
                        "faceCenterY": 0.0,
                        "faceScaleX": 1.0,
                        "faceScaleY": 1.0,
                        "leftEye": [
                            9.169666290283203,
                            0.0,
                            1.214332938194275,
                            0.9052804112434387,
                            0.0,
                            0.4377416968345642,
                            0.4377416968345642,
                            0.4377416968345642,
                            0.4377416968345642,
                            0.4377416968345642,
                            0.4377416968345642,
                            0.4377416968345642,
                            0.4377416968345642,
                            0.0,
                            0.0,
                            0.0,
                            0.0,
                            0.0,
                            0.0
                        ],
                        "rightEye": [
                            -10.206374168395996,
                            0.0,
                            1.2220369577407837,
                            0.9052804112434387,
                            0.0,
                            0.4376927316188812,
                            0.4376927316188812,
                            0.4376927316188812,
                            0.4376927316188812,
                            0.4376927316188812,
                            0.4376927316188812,
                            0.4376927316188812,
                            0.4376927316188812,
                            0.0,
                            0.0,
                            0.0,
                            0.0,
                            0.0,
                            0.0
                        ]
                    },
                    {
                        "triggerTime_ms": 330,
                        "faceAngle": 0.0,
                        "faceCenterX": 0.0,
                        "faceCenterY": 0.0,
                        "faceScaleX": 1.0,
                        "faceScaleY": 1.0,
                        "leftEye": [
                            9.169666290283203,
                            0.0,
                            1.214332938194275,
                            0.9052804112434387,
                            0.0,
                            0.5,
                            0.5,
                            0.5,
                            0.5,
                            0.5,
                            0.5,
                            0.5,
                            0.5,
                            0.0,
                            0.0,
                            0.0,
                            0.0,
                            0.0,
                            0.0
                        ],
                        "rightEye": [
                            -10.206374168395996,
                            0.0,
                            1.2220369577407837,
                            0.9052804112434387,
                            0.0,
                            0.5,
                            0.5,
                            0.5,
                            0.5,
                            0.5,
                            0.5,
                            0.5,
                            0.5,
                            0.0,
                            0.0,
                            0.0,
                            0.0,
                            0.0,
                            0.0
                        ]
                    },
                    {
                        "triggerTime_ms": 429,
                        "faceAngle": 0.0,
                        "faceCenterX": 0.0,
                        "faceCenterY": 0.0,
                        "faceScaleX": 1.0,
                        "faceScaleY": 1.0,
                        "leftEye": [
                            9.169666290283203,
                            0.0,
                            1.214332938194275,
                            0.9052804112434387,
                            0.0,
                            0.5,
                            0.5,
                            0.5,
                            0.5,
                            0.5,
                            0.5,
                            0.5,
                            0.5,
                            0.0,
                            0.0,
                            0.0,
                            0.0,
                            0.0,
                            0.0
                        ],
                        "rightEye": [
                            -10.206374168395996,
                            0.0,
                            1.2220369577407837,
                            0.9052804112434387,
                            0.0,
                            0.5,
                            0.5,
                            0.5,
                            0.5,
                            0.5,
                            0.5,
                            0.5,
                            0.5,
                            0.0,
                            0.0,
                            0.0,
                            0.0,
                            0.0,
                            0.0
                        ]
                    }
                ],
                "HeadAngleKeyFrame": [],
                "RobotAudioKeyFrame": [],
                "BackpackLightsKeyFrame": [],
                "FaceAnimationKeyFrame": [],
                "EventKeyFrame": [],
                "BodyMotionKeyFrame": [],
                "RecordHeadingKeyFrame": [],
                "TurnToRecordedHeadingKeyFrame": []
            }
        }
    ]
}