{
    "clips": [
        {
            "Name": "anim_launch_search",
            "keyframes": {
                "LiftHeightKeyFrame": [],
                "ProceduralFaceKeyFrame": [
                    {
                        "triggerTime_ms": 0,
                        "faceAngle": 0.0,
                        "faceCenterX": 0.0,
                        "faceCenterY": 0.0,
                        "faceScaleX": 1.0,
                        "faceScaleY": 1.0,
                        "leftEye": [
                            12.820206642150879,
                            1.0698388814926147,
                            1.1203768253326416,
                            0.7118988037109375,
                            0.0,
                            0.5236116051673889,
                            0.5236116051673889,
                            0.5236116051673889,
                            0.5236116051673889,
                            0.5,
                            0.5,
                            0.5,
                            0.5,
                            0.0,
                            0.0,
                            0.0,
                            0.0,
                            0.0,
                            0.0
                        ],
                        "rightEye": [
                            -10.206374168395996,
                            0.0,
                            1.2491841316223145,
                            0.7558974623680115,
                            0.0,
                            0.5236116051673889,
                            0.5236116051673889,
                            0.5236116051673889,
                            0.5236116051673889,
                            0.5,
                            0.5,
                            0.5,
                            0.5,
                            0.0,
                            0.0,
                            0.0,
                            0.0,
                            0.0,
                            0.0
                        ]
                    },
                    {
                        "triggerTime_ms": 99,
                        "faceAngle": 0.0,
                        "faceCenterX": 0.0,
                        "faceCenterY": 0.0,
                        "faceScaleX": 1.0,
                        "faceScaleY": 1.0,
                        "leftEye": [
                            13.35591983795166,
                            1.5802098512649536,
                            1.0966053009033203,
                            0.8295074105262756,
                            0.0,
                            0.5,
                            0.5,
                            0.5,
                            0.5,
                            0.5,
                            0.5,
                            0.5,
                            0.5,
                            0.0,
                            0.0,
                            0.0,
                            0.0,
                            0.0,
                            0.0
                        ],
                        "rightEye": [
                            -10.206374168395996,
                            0.0,
                            1.2220369577407837,
                            0.9052804112434387,
                            0.0,
                            0.5,
                            0.5,
                            0.5,
                            0.5,
                            0.5,
                            0.5,
                            0.5,
                            0.5,
                            0.0,
                            0.0,
                            0.0,
                            0.0,
                            0.0,
                            0.0
                        ]
                    },
                    {
                        "triggerTime_ms": 132,
                        "faceAngle": 0.0,
                        "faceCenterX": 7.478209018707275,
                        "faceCenterY": 0.0,
                        "faceScaleX": 1.0,
                        "faceScaleY": 1.0,
                        "leftEye": [
                            9.169666290283203,
                            0.5181670188903809,
                            1.1716392040252686,
                            0.6360164284706116,
                            0.0,
                            0.5,
                            0.5,
                            0.5,
                            0.5,
                            0.5,
                            0.5,
                            0.5,
                            0.5,
                            0.0,
                            0.0,
                            0.0,
                            0.0,
                            0.0,
                            0.0
                        ],
                        "rightEye": [
                            -13.254546165466309,
                            0.0,
                            1.295487880706787,
                            0.7148587107658386,
                            0.0,
                            0.5,
                            0.5,
                            0.5,
                            0.5,
                            0.5,
                            0.5,
                            0.5,
                            0.5,
                            0.0,
                            0.0,
                            0.0,
                            0.0,
                            0.0,
                            0.0
                        ]
                    },
                    {
                        "triggerTime_ms": 231,
                        "faceAngle": 0.0,
                        "faceCenterX": 17.06060028076172,
                        "faceCenterY": 0.07577372342348099,
                        "faceScaleX": 1.0,
                        "faceScaleY": 1.1102875471115112,
                        "leftEye": [
                            9.169666290283203,
                            -0.14305178821086884,
                            1.21835458278656,
                            0.9078688621520996,
                            0.0,
                            0.5,
                            0.5,
                            0.5,
                            0.5,
                            0.5,
                            0.5,
                            0.5,
                            0.5,
                            0.0,
                            0.0,
                            0.0,
                            0.0,
                            0.0,
                            0.0
                        ],
                        "rightEye": [
                            -14.358015060424805,
                            0.0,
                            1.156051754951477,
                            0.8642839193344116,
                            0.0,
                            0.5,
                            0.5,
                            0.5,
                            0.5,
                            0.5,
                            0.5,
                            0.5,
                            0.5,
                            0.0,
                            0.0,
                            0.0,
                            0.0,
                            0.0,
                            0.0
                        ]
                    },
                    {
                        "triggerTime_ms": 429,
                        "faceAngle": 0.0,
                        "faceCenterX": 20.110748291015625,
                        "faceCenterY": 0.32347002625465393,
                        "faceScaleX": 1.0,
                        "faceScaleY": 1.0,
                        "leftEye": [
                            9.169666290283203,
                            -0.7070793509483337,
                            1.21835458278656,
                            0.9078688621520996,
                            0.0,
                            0.5,
                            0.5,
                            0.5,
                            0.5,
                            0.5,
                            0.5,
                            0.5,
                            0.5,
                            0.0,
                            0.0,
                            0.0,
                            0.0,
                            0.0,
                            0.0
                        ],
                        "rightEye": [
                            -14.358015060424805,
                            -1.656580924987793,
                            1.18720543384552,
                            0.8836396336555481,
                            0.0,
                            0.5,
                            0.5,
                            0.5,
                            0.5,
                            0.5,
                            0.5,
                            0.5,
                            0.5,
                            0.0,
                            0.0,
                            0.0,
                            0.0,
                            0.0,
                            0.0
                        ]
                    },
                    {
                        "triggerTime_ms": 462,
                        "faceAngle": -0.50475013256073,
                        "faceCenterX": 16.915712356567383,
                        "faceCenterY": 5.895131587982178,
                        "faceScaleX": 0.9469839930534363,
                        "faceScaleY": 0.8018432855606079,
                        "leftEye": [
                            5.268312454223633,
                            -0.4375366270542145,
                            1.3174893856048584,
                            0.9065746665000916,
                            0.0,
                            0.38782450556755066,
                            0.38782450556755066,
                            0.5,
                            0.5,
                            0.5,
                            0.7192179560661316,
                            0.38782450556755066,
                            0.38782450556755066,
                            0.0,
                            0.0,
                            0.0,
                            0.0,
                            0.0,
                            0.0
                        ],
                        "rightEye": [
                            -13.798951148986816,
                            -0.8004197478294373,
                            1.2046207189559937,
                            0.771232545375824,
                            0.0,
                            0.38782450556755066,
                            0.38782450556755066,
                            0.5,
                            0.5,
                            0.5,
                            0.7192179560661316,
                            0.38782450556755066,
                            0.38782450556755066,
                            0.0,
                            0.0,
                            0.0,
                            0.0,
                            0.0,
                            0.0
                        ]
                    },
                    {
                        "triggerTime_ms": 495,
                        "faceAngle": -0.11153850704431534,
                        "faceCenterX": 4.478977203369141,
                        "faceCenterY": 8.882377624511719,
                        "faceScaleX": 0.8695497512817383,
                        "faceScaleY": 0.6007722020149231,
                        "leftEye": [
                            8.307554244995117,
                            -0.048131056129932404,
                            1.334149718284607,
                            0.9059320688247681,
                            0.0,
                            0.4752117097377777,
                            0.4752117097377777,
                            0.5,
                            0.5,
                            0.5,
                            0.5484423041343689,
                            0.4752117097377777,
                            0.4752117097377777,
                            0.0,
                            0.0,
                            0.0,
                            0.0,
                            0.0,
                            0.0
                        ],
                        "rightEye": [
                            -12.08498477935791,
                            1.3591938018798828,
                            1.219476580619812,
                            0.8168680667877197,
                            0.0,
                            0.4752117097377777,
                            0.4752117097377777,
                            0.5,
                            0.5,
                            0.5,
                            0.5484423041343689,
                            0.4752117097377777,
                            0.4752117097377777,
                            0.0,
                            0.0,
                            0.0,
                            0.0,
                            0.0,
                            0.0
                        ]
                    },
                    {
                        "triggerTime_ms": 594,
                        "faceAngle": -0.00713858800008893,
                        "faceCenterX": -0.4388538897037506,
                        "faceCenterY": 1.2501007318496704,
                        "faceScaleX": 0.7865282297134399,
                        "faceScaleY": 0.9659276008605957,
                        "leftEye": [
                            9.114489555358887,
                            -0.003080439753830433,
                            1.333061695098877,
                            0.905702531337738,
                            0.0,
                            0.4984135031700134,
                            0.4984135031700134,
                            0.5,
                            0.5,
                            0.5,
                            0.5031003355979919,
                            0.4984135031700134,
                            0.4984135031700134,
                            0.0,
                            0.0,
                            0.0,
                            0.0,
                            0.0,
                            0.0
                        ],
                        "rightEye": [
                            -11.720056533813477,
                            1.6574695110321045,
                            1.2209690809249878,
                            0.828129768371582,
                            0.0,
                            0.4984135031700134,
                            0.4984135031700134,
                            0.5,
                            0.5,
                            0.5,
                            0.5031003355979919,
                            0.4984135031700134,
                            0.4984135031700134,
                            0.0,
                            0.0,
                            0.0,
                            0.0,
                            0.0,
                            0.0
                        ]
                    },
                    {
                        "triggerTime_ms": 726,
                        "faceAngle": 0.0,
                        "faceCenterX": 0.0,
                        "faceCenterY": 0.0,
                        "faceScaleX": 1.0,
                        "faceScaleY": 1.0,
                        "leftEye": [
                            9.169666290283203,
                            0.0,
                            1.214332938194275,
                            0.9052804112434387,
                            0.0,
                            0.5,
                            0.5,
                            0.5,
                            0.5,
                            0.5,
                            0.5,
                            0.5,
                            0.5,
                            0.0,
                            0.0,
                            0.0,
                            0.0,
                            0.0,
                            0.0
                        ],
                        "rightEye": [
                            -10.206374168395996,
                            0.0,
                            1.2220369577407837,
                            0.9052804112434387,
                            0.0,
                            0.5,
                            0.5,
                            0.5,
                            0.5,
                            0.5,
                            0.5,
                            0.5,
                            0.5,
                            0.0,
                            0.0,
                            0.0,
                            0.0,
                            0.0,
                            0.0
                        ]
                    }
                ],
                "HeadAngleKeyFrame": [
                    {
                        "triggerTime_ms": 99,
                        "durationTime_ms": 132,
                        "angle_deg": -2,
                        "angleVariability_deg": 0
                    },
                    {
                        "triggerTime_ms": 495,
                        "durationTime_ms": 165,
                        "angle_deg": 6,
                        "angleVariability_deg": 0
                    }
                ],
                "RobotAudioKeyFrame": [],
                "BackpackLightsKeyFrame": [
                    {
                        "triggerTime_ms": 0,
                        "durationTime_ms": 231,
                        "Left": [
                            0,
                            0,
                            0,
                            0
                        ],
                        "Front": [
                            0,
                            0,
                            0,
                            0
                        ],
                        "Middle": [
                            0,
                            0,
                            0,
                            0
                        ],
                        "Back": [
                            0,
                            0,
                            0,
                            0
                        ],
                        "Right": [
                            0,
                            0,
                            0,
                            0
                        ]
                    },
                    {
                        "triggerTime_ms": 231,
                        "durationTime_ms": 198,
                        "Left": [
                            0,
                            0,
                            0,
                            0
                        ],
                        "Front": [
                            0,
                            0,
                            0,
                            0
                        ],
                        "Middle": [
                            0,
                            0,
                            0,
                            0
                        ],
                        "Back": [
                            0,
                            0,
                            0,
                            0
                        ],
                        "Right": [
                            0,
                            0,
                            0,
                            0
                        ]
                    },
                    {
                        "triggerTime_ms": 429,
                        "durationTime_ms": 231,
                        "Left": [
                            0,
                            0,
                            0,
                            0
                        ],
                        "Front": [
                            0,
                            0,
                            0,
                            0
                        ],
                        "Middle": [
                            0,
                            0,
                            0,
                            0
                        ],
                        "Back": [
                            0,
                            0,
                            0,
                            0
                        ],
                        "Right": [
                            0,
                            0,
                            0,
                            0
                        ]
                    },
                    {
                        "triggerTime_ms": 660,
                        "durationTime_ms": 66,
                        "Left": [
                            0,
                            0,
                            0,
                            0
                        ],
                        "Front": [
                            0,
                            0,
                            0,
                            0
                        ],
                        "Middle": [
                            0,
                            0,
                            0,
                            0
                        ],
                        "Back": [
                            0,
                            0,
                            0,
                            0
                        ],
                        "Right": [
                            0,
                            0,
                            0,
                            0
                        ]
                    }
                ],
                "FaceAnimationKeyFrame": [],
                "EventKeyFrame": [],
                "BodyMotionKeyFrame": [
                    {
                        "triggerTime_ms": 132,
                        "durationTime_ms": 132,
                        "radius_mm": "TURN_IN_PLACE",
                        "speed": 23
                    },
                    {
                        "triggerTime_ms": 495,
                        "durationTime_ms": 99,
                        "radius_mm": "TURN_IN_PLACE",
                        "speed": -40
                    }
                ],
                "RecordHeadingKeyFrame": [],
                "TurnToRecordedHeadingKeyFrame": []
            }
        },
        {
            "Name": "anim_launch_search_head_angle_-20",
            "keyframes": {
                "LiftHeightKeyFrame": [],
                "ProceduralFaceKeyFrame": [
                    {
                        "triggerTime_ms": 0,
                        "faceAngle": 0.0,
                        "faceCenterX": 0.0,
                        "faceCenterY": 0.0,
                        "faceScaleX": 1.0,
                        "faceScaleY": 1.0,
                        "leftEye": [
                            12.820206642150879,
                            1.0698388814926147,
                            1.1203768253326416,
                            0.7118988037109375,
                            0.0,
                            0.5236116051673889,
                            0.5236116051673889,
                            0.5236116051673889,
                            0.5236116051673889,
                            0.5,
                            0.5,
                            0.5,
                            0.5,
                            0.0,
                            0.0,
                            0.0,
                            0.0,
                            0.0,
                            0.0
                        ],
                        "rightEye": [
                            -10.206374168395996,
                            0.0,
                            1.2491841316223145,
                            0.7558974623680115,
                            0.0,
                            0.5236116051673889,
                            0.5236116051673889,
                            0.5236116051673889,
                            0.5236116051673889,
                            0.5,
                            0.5,
                            0.5,
                            0.5,
                            0.0,
                            0.0,
                            0.0,
                            0.0,
                            0.0,
                            0.0
                        ]
                    },
                    {
                        "triggerTime_ms": 99,
                        "faceAngle": 0.0,
                        "faceCenterX": 0.0,
                        "faceCenterY": 0.0,
                        "faceScaleX": 1.0,
                        "faceScaleY": 1.0,
                        "leftEye": [
                            13.35591983795166,
                            1.5802098512649536,
                            1.0966053009033203,
                            0.8295074105262756,
                            0.0,
                            0.5,
                            0.5,
                            0.5,
                            0.5,
                            0.5,
                            0.5,
                            0.5,
                            0.5,
                            0.0,
                            0.0,
                            0.0,
                            0.0,
                            0.0,
                            0.0
                        ],
                        "rightEye": [
                            -10.206374168395996,
                            0.0,
                            1.2220369577407837,
                            0.9052804112434387,
                            0.0,
                            0.5,
                            0.5,
                            0.5,
                            0.5,
                            0.5,
                            0.5,
                            0.5,
                            0.5,
                            0.0,
                            0.0,
                            0.0,
                            0.0,
                            0.0,
                            0.0
                        ]
                    },
                    {
                        "triggerTime_ms": 132,
                        "faceAngle": 0.0,
                        "faceCenterX": 7.478209018707275,
                        "faceCenterY": 0.0,
                        "faceScaleX": 1.0,
                        "faceScaleY": 1.0,
                        "leftEye": [
                            9.169666290283203,
                            0.5181670188903809,
                            1.1716392040252686,
                            0.6360164284706116,
                            0.0,
                            0.5,
                            0.5,
                            0.5,
                            0.5,
                            0.5,
                            0.5,
                            0.5,
                            0.5,
                            0.0,
                            0.0,
                            0.0,
                            0.0,
                            0.0,
                            0.0
                        ],
                        "rightEye": [
                            -13.254546165466309,
                            0.0,
                            1.295487880706787,
                            0.7148587107658386,
                            0.0,
                            0.5,
                            0.5,
                            0.5,
                            0.5,
                            0.5,
                            0.5,
                            0.5,
                            0.5,
                            0.0,
                            0.0,
                            0.0,
                            0.0,
                            0.0,
                            0.0
                        ]
                    },
                    {
                        "triggerTime_ms": 231,
                        "faceAngle": 0.0,
                        "faceCenterX": 17.06060028076172,
                        "faceCenterY": 0.07577372342348099,
                        "faceScaleX": 1.0,
                        "faceScaleY": 1.1102875471115112,
                        "leftEye": [
                            9.169666290283203,
                            -0.14305178821086884,
                            1.21835458278656,
                            0.9078688621520996,
                            0.0,
                            0.5,
                            0.5,
                            0.5,
                            0.5,
                            0.5,
                            0.5,
                            0.5,
                            0.5,
                            0.0,
                            0.0,
                            0.0,
                            0.0,
                            0.0,
                            0.0
                        ],
                        "rightEye": [
                            -14.358015060424805,
                            0.0,
                            1.156051754951477,
                            0.8642839193344116,
                            0.0,
                            0.5,
                            0.5,
                            0.5,
                            0.5,
                            0.5,
                            0.5,
                            0.5,
                            0.5,
                            0.0,
                            0.0,
                            0.0,
                            0.0,
                            0.0,
                            0.0
                        ]
                    },
                    {
                        "triggerTime_ms": 429,
                        "faceAngle": 0.0,
                        "faceCenterX": 20.110748291015625,
                        "faceCenterY": 0.32347002625465393,
                        "faceScaleX": 1.0,
                        "faceScaleY": 1.0,
                        "leftEye": [
                            9.169666290283203,
                            -0.7070793509483337,
                            1.21835458278656,
                            0.9078688621520996,
                            0.0,
                            0.5,
                            0.5,
                            0.5,
                            0.5,
                            0.5,
                            0.5,
                            0.5,
                            0.5,
                            0.0,
                            0.0,
                            0.0,
                            0.0,
                            0.0,
                            0.0
                        ],
                        "rightEye": [
                            -14.358015060424805,
                            -1.656580924987793,
                            1.18720543384552,
                            0.8836396336555481,
                            0.0,
                            0.5,
                            0.5,
                            0.5,
                            0.5,
                            0.5,
                            0.5,
                            0.5,
                            0.5,
                            0.0,
                            0.0,
                            0.0,
                            0.0,
                            0.0,
                            0.0
                        ]
                    },
                    {
                        "triggerTime_ms": 462,
                        "faceAngle": -0.50475013256073,
                        "faceCenterX": 16.915712356567383,
                        "faceCenterY": 5.895131587982178,
                        "faceScaleX": 0.9469839930534363,
                        "faceScaleY": 0.8018432855606079,
                        "leftEye": [
                            5.268312454223633,
                            -0.4375366270542145,
                            1.3174893856048584,
                            0.9065746665000916,
                            0.0,
                            0.38782450556755066,
                            0.38782450556755066,
                            0.5,
                            0.5,
                            0.5,
                            0.7192179560661316,
                            0.38782450556755066,
                            0.38782450556755066,
                            0.0,
                            0.0,
                            0.0,
                            0.0,
                            0.0,
                            0.0
                        ],
                        "rightEye": [
                            -13.798951148986816,
                            -0.8004197478294373,
                            1.2046207189559937,
                            0.771232545375824,
                            0.0,
                            0.38782450556755066,
                            0.38782450556755066,
                            0.5,
                            0.5,
                            0.5,
                            0.7192179560661316,
                            0.38782450556755066,
                            0.38782450556755066,
                            0.0,
                            0.0,
                            0.0,
                            0.0,
                            0.0,
                            0.0
                        ]
                    },
                    {
                        "triggerTime_ms": 495,
                        "faceAngle": -0.11153850704431534,
                        "faceCenterX": 4.478977203369141,
                        "faceCenterY": 8.882377624511719,
                        "faceScaleX": 0.8695497512817383,
                        "faceScaleY": 0.6007722020149231,
                        "leftEye": [
                            8.307554244995117,
                            -0.048131056129932404,
                            1.334149718284607,
                            0.9059320688247681,
                            0.0,
                            0.4752117097377777,
                            0.4752117097377777,
                            0.5,
                            0.5,
                            0.5,
                            0.5484423041343689,
                            0.4752117097377777,
                            0.4752117097377777,
                            0.0,
                            0.0,
                            0.0,
                            0.0,
                            0.0,
                            0.0
                        ],
                        "rightEye": [
                            -12.08498477935791,
                            1.3591938018798828,
                            1.219476580619812,
                            0.8168680667877197,
                            0.0,
                            0.4752117097377777,
                            0.4752117097377777,
                            0.5,
                            0.5,
                            0.5,
                            0.5484423041343689,
                            0.4752117097377777,
                            0.4752117097377777,
                            0.0,
                            0.0,
                            0.0,
                            0.0,
                            0.0,
                            0.0
                        ]
                    },
                    {
                        "triggerTime_ms": 594,
                        "faceAngle": -0.00713858800008893,
                        "faceCenterX": -0.4388538897037506,
                        "faceCenterY": 1.2501007318496704,
                        "faceScaleX": 0.7865282297134399,
                        "faceScaleY": 0.9659276008605957,
                        "leftEye": [
                            9.114489555358887,
                            -0.003080439753830433,
                            1.333061695098877,
                            0.905702531337738,
                            0.0,
                            0.4984135031700134,
                            0.4984135031700134,
                            0.5,
                            0.5,
                            0.5,
                            0.5031003355979919,
                            0.4984135031700134,
                            0.4984135031700134,
                            0.0,
                            0.0,
                            0.0,
                            0.0,
                            0.0,
                            0.0
                        ],
                        "rightEye": [
                            -11.720056533813477,
                            1.6574695110321045,
                            1.2209690809249878,
                            0.828129768371582,
                            0.0,
                            0.4984135031700134,
                            0.4984135031700134,
                            0.5,
                            0.5,
                            0.5,
                            0.5031003355979919,
                            0.4984135031700134,
                            0.4984135031700134,
                            0.0,
                            0.0,
                            0.0,
                            0.0,
                            0.0,
                            0.0
                        ]
                    },
                    {
                        "triggerTime_ms": 726,
                        "faceAngle": 0.0,
                        "faceCenterX": 0.0,
                        "faceCenterY": 0.0,
                        "faceScaleX": 1.0,
                        "faceScaleY": 1.0,
                        "leftEye": [
                            9.169666290283203,
                            0.0,
                            1.214332938194275,
                            0.9052804112434387,
                            0.0,
                            0.5,
                            0.5,
                            0.5,
                            0.5,
                            0.5,
                            0.5,
                            0.5,
                            0.5,
                            0.0,
                            0.0,
                            0.0,
                            0.0,
                            0.0,
                            0.0
                        ],
                        "rightEye": [
                            -10.206374168395996,
                            0.0,
                            1.2220369577407837,
                            0.9052804112434387,
                            0.0,
                            0.5,
                            0.5,
                            0.5,
                            0.5,
                            0.5,
                            0.5,
                            0.5,
                            0.5,
                            0.0,
                            0.0,
                            0.0,
                            0.0,
                            0.0,
                            0.0
                        ]
                    }
                ],
                "HeadAngleKeyFrame": [
                    {
                        "triggerTime_ms": 99,
                        "durationTime_ms": 132,
                        "angle_deg": -22,
                        "angleVariability_deg": 0
                    },
                    {
                        "triggerTime_ms": 495,
                        "durationTime_ms": 165,
                        "angle_deg": -14,
                        "angleVariability_deg": 0
                    }
                ],
                "RobotAudioKeyFrame": [],
                "BackpackLightsKeyFrame": [
                    {
                        "triggerTime_ms": 0,
                        "durationTime_ms": 231,
                        "Left": [
                            0,
                            0,
                            0,
                            0
                        ],
                        "Front": [
                            0,
                            0,
                            0,
                            0
                        ],
                        "Middle": [
                            0,
                            0,
                            0,
                            0
                        ],
                        "Back": [
                            0,
                            0,
                            0,
                            0
                        ],
                        "Right": [
                            0,
                            0,
                            0,
                            0
                        ]
                    },
                    {
                        "triggerTime_ms": 231,
                        "durationTime_ms": 198,
                        "Left": [
                            0,
                            0,
                            0,
                            0
                        ],
                        "Front": [
                            0,
                            0,
                            0,
                            0
                        ],
                        "Middle": [
                            0,
                            0,
                            0,
                            0
                        ],
                        "Back": [
                            0,
                            0,
                            0,
                            0
                        ],
                        "Right": [
                            0,
                            0,
                            0,
                            0
                        ]
                    },
                    {
                        "triggerTime_ms": 429,
                        "durationTime_ms": 231,
                        "Left": [
                            0,
                            0,
                            0,
                            0
                        ],
                        "Front": [
                            0,
                            0,
                            0,
                            0
                        ],
                        "Middle": [
                            0,
                            0,
                            0,
                            0
                        ],
                        "Back": [
                            0,
                            0,
                            0,
                            0
                        ],
                        "Right": [
                            0,
                            0,
                            0,
                            0
                        ]
                    },
                    {
                        "triggerTime_ms": 660,
                        "durationTime_ms": 66,
                        "Left": [
                            0,
                            0,
                            0,
                            0
                        ],
                        "Front": [
                            0,
                            0,
                            0,
                            0
                        ],
                        "Middle": [
                            0,
                            0,
                            0,
                            0
                        ],
                        "Back": [
                            0,
                            0,
                            0,
                            0
                        ],
                        "Right": [
                            0,
                            0,
                            0,
                            0
                        ]
                    }
                ],
                "FaceAnimationKeyFrame": [],
                "EventKeyFrame": [],
                "BodyMotionKeyFrame": [
                    {
                        "triggerTime_ms": 132,
                        "durationTime_ms": 132,
                        "radius_mm": "TURN_IN_PLACE",
                        "speed": 23
                    },
                    {
                        "triggerTime_ms": 495,
                        "durationTime_ms": 99,
                        "radius_mm": "TURN_IN_PLACE",
                        "speed": -40
                    }
                ],
                "RecordHeadingKeyFrame": [],
                "TurnToRecordedHeadingKeyFrame": []
            }
        },
        {
            "Name": "anim_launch_search_head_angle_20",
            "keyframes": {
                "LiftHeightKeyFrame": [],
                "ProceduralFaceKeyFrame": [
                    {
                        "triggerTime_ms": 0,
                        "faceAngle": 0.0,
                        "faceCenterX": 0.0,
                        "faceCenterY": 0.0,
                        "faceScaleX": 1.0,
                        "faceScaleY": 1.0,
                        "leftEye": [
                            12.820206642150879,
                            1.0698388814926147,
                            1.1203768253326416,
                            0.7118988037109375,
                            0.0,
                            0.5236116051673889,
                            0.5236116051673889,
                            0.5236116051673889,
                            0.5236116051673889,
                            0.5,
                            0.5,
                            0.5,
                            0.5,
                            0.0,
                            0.0,
                            0.0,
                            0.0,
                            0.0,
                            0.0
                        ],
                        "rightEye": [
                            -10.206374168395996,
                            0.0,
                            1.2491841316223145,
                            0.7558974623680115,
                            0.0,
                            0.5236116051673889,
                            0.5236116051673889,
                            0.5236116051673889,
                            0.5236116051673889,
                            0.5,
                            0.5,
                            0.5,
                            0.5,
                            0.0,
                            0.0,
                            0.0,
                            0.0,
                            0.0,
                            0.0
                        ]
                    },
                    {
                        "triggerTime_ms": 99,
                        "faceAngle": 0.0,
                        "faceCenterX": 0.0,
                        "faceCenterY": 0.0,
                        "faceScaleX": 1.0,
                        "faceScaleY": 1.0,
                        "leftEye": [
                            13.35591983795166,
                            1.5802098512649536,
                            1.0966053009033203,
                            0.8295074105262756,
                            0.0,
                            0.5,
                            0.5,
                            0.5,
                            0.5,
                            0.5,
                            0.5,
                            0.5,
                            0.5,
                            0.0,
                            0.0,
                            0.0,
                            0.0,
                            0.0,
                            0.0
                        ],
                        "rightEye": [
                            -10.206374168395996,
                            0.0,
                            1.2220369577407837,
                            0.9052804112434387,
                            0.0,
                            0.5,
                            0.5,
                            0.5,
                            0.5,
                            0.5,
                            0.5,
                            0.5,
                            0.5,
                            0.0,
                            0.0,
                            0.0,
                            0.0,
                            0.0,
                            0.0
                        ]
                    },
                    {
                        "triggerTime_ms": 132,
                        "faceAngle": 0.0,
                        "faceCenterX": 7.478209018707275,
                        "faceCenterY": 0.0,
                        "faceScaleX": 1.0,
                        "faceScaleY": 1.0,
                        "leftEye": [
                            9.169666290283203,
                            0.5181670188903809,
                            1.1716392040252686,
                            0.6360164284706116,
                            0.0,
                            0.5,
                            0.5,
                            0.5,
                            0.5,
                            0.5,
                            0.5,
                            0.5,
                            0.5,
                            0.0,
                            0.0,
                            0.0,
                            0.0,
                            0.0,
                            0.0
                        ],
                        "rightEye": [
                            -13.254546165466309,
                            0.0,
                            1.295487880706787,
                            0.7148587107658386,
                            0.0,
                            0.5,
                            0.5,
                            0.5,
                            0.5,
                            0.5,
                            0.5,
                            0.5,
                            0.5,
                            0.0,
                            0.0,
                            0.0,
                            0.0,
                            0.0,
                            0.0
                        ]
                    },
                    {
                        "triggerTime_ms": 231,
                        "faceAngle": 0.0,
                        "faceCenterX": 17.06060028076172,
                        "faceCenterY": 0.07577372342348099,
                        "faceScaleX": 1.0,
                        "faceScaleY": 1.1102875471115112,
                        "leftEye": [
                            9.169666290283203,
                            -0.14305178821086884,
                            1.21835458278656,
                            0.9078688621520996,
                            0.0,
                            0.5,
                            0.5,
                            0.5,
                            0.5,
                            0.5,
                            0.5,
                            0.5,
                            0.5,
                            0.0,
                            0.0,
                            0.0,
                            0.0,
                            0.0,
                            0.0
                        ],
                        "rightEye": [
                            -14.358015060424805,
                            0.0,
                            1.156051754951477,
                            0.8642839193344116,
                            0.0,
                            0.5,
                            0.5,
                            0.5,
                            0.5,
                            0.5,
                            0.5,
                            0.5,
                            0.5,
                            0.0,
                            0.0,
                            0.0,
                            0.0,
                            0.0,
                            0.0
                        ]
                    },
                    {
                        "triggerTime_ms": 429,
                        "faceAngle": 0.0,
                        "faceCenterX": 20.110748291015625,
                        "faceCenterY": 0.32347002625465393,
                        "faceScaleX": 1.0,
                        "faceScaleY": 1.0,
                        "leftEye": [
                            9.169666290283203,
                            -0.7070793509483337,
                            1.21835458278656,
                            0.9078688621520996,
                            0.0,
                            0.5,
                            0.5,
                            0.5,
                            0.5,
                            0.5,
                            0.5,
                            0.5,
                            0.5,
                            0.0,
                            0.0,
                            0.0,
                            0.0,
                            0.0,
                            0.0
                        ],
                        "rightEye": [
                            -14.358015060424805,
                            -1.656580924987793,
                            1.18720543384552,
                            0.8836396336555481,
                            0.0,
                            0.5,
                            0.5,
                            0.5,
                            0.5,
                            0.5,
                            0.5,
                            0.5,
                            0.5,
                            0.0,
                            0.0,
                            0.0,
                            0.0,
                            0.0,
                            0.0
                        ]
                    },
                    {
                        "triggerTime_ms": 462,
                        "faceAngle": -0.50475013256073,
                        "faceCenterX": 16.915712356567383,
                        "faceCenterY": 5.895131587982178,
                        "faceScaleX": 0.9469839930534363,
                        "faceScaleY": 0.8018432855606079,
                        "leftEye": [
                            5.268312454223633,
                            -0.4375366270542145,
                            1.3174893856048584,
                            0.9065746665000916,
                            0.0,
                            0.38782450556755066,
                            0.38782450556755066,
                            0.5,
                            0.5,
                            0.5,
                            0.7192179560661316,
                            0.38782450556755066,
                            0.38782450556755066,
                            0.0,
                            0.0,
                            0.0,
                            0.0,
                            0.0,
                            0.0
                        ],
                        "rightEye": [
                            -13.798951148986816,
                            -0.8004197478294373,
                            1.2046207189559937,
                            0.771232545375824,
                            0.0,
                            0.38782450556755066,
                            0.38782450556755066,
                            0.5,
                            0.5,
                            0.5,
                            0.7192179560661316,
                            0.38782450556755066,
                            0.38782450556755066,
                            0.0,
                            0.0,
                            0.0,
                            0.0,
                            0.0,
                            0.0
                        ]
                    },
                    {
                        "triggerTime_ms": 495,
                        "faceAngle": -0.11153850704431534,
                        "faceCenterX": 4.478977203369141,
                        "faceCenterY": 8.882377624511719,
                        "faceScaleX": 0.8695497512817383,
                        "faceScaleY": 0.6007722020149231,
                        "leftEye": [
                            8.307554244995117,
                            -0.048131056129932404,
                            1.334149718284607,
                            0.9059320688247681,
                            0.0,
                            0.4752117097377777,
                            0.4752117097377777,
                            0.5,
                            0.5,
                            0.5,
                            0.5484423041343689,
                            0.4752117097377777,
                            0.4752117097377777,
                            0.0,
                            0.0,
                            0.0,
                            0.0,
                            0.0,
                            0.0
                        ],
                        "rightEye": [
                            -12.08498477935791,
                            1.3591938018798828,
                            1.219476580619812,
                            0.8168680667877197,
                            0.0,
                            0.4752117097377777,
                            0.4752117097377777,
                            0.5,
                            0.5,
                            0.5,
                            0.5484423041343689,
                            0.4752117097377777,
                            0.4752117097377777,
                            0.0,
                            0.0,
                            0.0,
                            0.0,
                            0.0,
                            0.0
                        ]
                    },
                    {
                        "triggerTime_ms": 594,
                        "faceAngle": -0.00713858800008893,
                        "faceCenterX": -0.4388538897037506,
                        "faceCenterY": 1.2501007318496704,
                        "faceScaleX": 0.7865282297134399,
                        "faceScaleY": 0.9659276008605957,
                        "leftEye": [
                            9.114489555358887,
                            -0.003080439753830433,
                            1.333061695098877,
                            0.905702531337738,
                            0.0,
                            0.4984135031700134,
                            0.4984135031700134,
                            0.5,
                            0.5,
                            0.5,
                            0.5031003355979919,
                            0.4984135031700134,
                            0.4984135031700134,
                            0.0,
                            0.0,
                            0.0,
                            0.0,
                            0.0,
                            0.0
                        ],
                        "rightEye": [
                            -11.720056533813477,
                            1.6574695110321045,
                            1.2209690809249878,
                            0.828129768371582,
                            0.0,
                            0.4984135031700134,
                            0.4984135031700134,
                            0.5,
                            0.5,
                            0.5,
                            0.5031003355979919,
                            0.4984135031700134,
                            0.4984135031700134,
                            0.0,
                            0.0,
                            0.0,
                            0.0,
                            0.0,
                            0.0
                        ]
                    },
                    {
                        "triggerTime_ms": 726,
                        "faceAngle": 0.0,
                        "faceCenterX": 0.0,
                        "faceCenterY": 0.0,
                        "faceScaleX": 1.0,
                        "faceScaleY": 1.0,
                        "leftEye": [
                            9.169666290283203,
                            0.0,
                            1.214332938194275,
                            0.9052804112434387,
                            0.0,
                            0.5,
                            0.5,
                            0.5,
                            0.5,
                            0.5,
                            0.5,
                            0.5,
                            0.5,
                            0.0,
                            0.0,
                            0.0,
                            0.0,
                            0.0,
                            0.0
                        ],
                        "rightEye": [
                            -10.206374168395996,
                            0.0,
                            1.2220369577407837,
                            0.9052804112434387,
                            0.0,
                            0.5,
                            0.5,
                            0.5,
                            0.5,
                            0.5,
                            0.5,
                            0.5,
                            0.5,
                            0.0,
                            0.0,
                            0.0,
                            0.0,
                            0.0,
                            0.0
                        ]
                    }
                ],
                "HeadAngleKeyFrame": [
                    {
                        "triggerTime_ms": 99,
                        "durationTime_ms": 132,
                        "angle_deg": 18,
                        "angleVariability_deg": 0
                    },
                    {
                        "triggerTime_ms": 495,
                        "durationTime_ms": 165,
                        "angle_deg": 26,
                        "angleVariability_deg": 0
                    }
                ],
                "RobotAudioKeyFrame": [],
                "BackpackLightsKeyFrame": [
                    {
                        "triggerTime_ms": 0,
                        "durationTime_ms": 231,
                        "Left": [
                            0,
                            0,
                            0,
                            0
                        ],
                        "Front": [
                            0,
                            0,
                            0,
                            0
                        ],
                        "Middle": [
                            0,
                            0,
                            0,
                            0
                        ],
                        "Back": [
                            0,
                            0,
                            0,
                            0
                        ],
                        "Right": [
                            0,
                            0,
                            0,
                            0
                        ]
                    },
                    {
                        "triggerTime_ms": 231,
                        "durationTime_ms": 198,
                        "Left": [
                            0,
                            0,
                            0,
                            0
                        ],
                        "Front": [
                            0,
                            0,
                            0,
                            0
                        ],
                        "Middle": [
                            0,
                            0,
                            0,
                            0
                        ],
                        "Back": [
                            0,
                            0,
                            0,
                            0
                        ],
                        "Right": [
                            0,
                            0,
                            0,
                            0
                        ]
                    },
                    {
                        "triggerTime_ms": 429,
                        "durationTime_ms": 231,
                        "Left": [
                            0,
                            0,
                            0,
                            0
                        ],
                        "Front": [
                            0,
                            0,
                            0,
                            0
                        ],
                        "Middle": [
                            0,
                            0,
                            0,
                            0
                        ],
                        "Back": [
                            0,
                            0,
                            0,
                            0
                        ],
                        "Right": [
                            0,
                            0,
                            0,
                            0
                        ]
                    },
                    {
                        "triggerTime_ms": 660,
                        "durationTime_ms": 66,
                        "Left": [
                            0,
                            0,
                            0,
                            0
                        ],
                        "Front": [
                            0,
                            0,
                            0,
                            0
                        ],
                        "Middle": [
                            0,
                            0,
                            0,
                            0
                        ],
                        "Back": [
                            0,
                            0,
                            0,
                            0
                        ],
                        "Right": [
                            0,
                            0,
                            0,
                            0
                        ]
                    }
                ],
                "FaceAnimationKeyFrame": [],
                "EventKeyFrame": [],
                "BodyMotionKeyFrame": [
                    {
                        "triggerTime_ms": 132,
                        "durationTime_ms": 132,
                        "radius_mm": "TURN_IN_PLACE",
                        "speed": 23
                    },
                    {
                        "triggerTime_ms": 495,
                        "durationTime_ms": 99,
                        "radius_mm": "TURN_IN_PLACE",
                        "speed": -40
                    }
                ],
                "RecordHeadingKeyFrame": [],
                "TurnToRecordedHeadingKeyFrame": []
            }
        },
        {
            "Name": "anim_launch_search_head_angle_40",
            "keyframes": {
                "LiftHeightKeyFrame": [],
                "ProceduralFaceKeyFrame": [
                    {
                        "triggerTime_ms": 0,
                        "faceAngle": 0.0,
                        "faceCenterX": 0.0,
                        "faceCenterY": 0.0,
                        "faceScaleX": 1.0,
                        "faceScaleY": 1.0,
                        "leftEye": [
                            12.820206642150879,
                            1.0698388814926147,
                            1.1203768253326416,
                            0.7118988037109375,
                            0.0,
                            0.5236116051673889,
                            0.5236116051673889,
                            0.5236116051673889,
                            0.5236116051673889,
                            0.5,
                            0.5,
                            0.5,
                            0.5,
                            0.0,
                            0.0,
                            0.0,
                            0.0,
                            0.0,
                            0.0
                        ],
                        "rightEye": [
                            -10.206374168395996,
                            0.0,
                            1.2491841316223145,
                            0.7558974623680115,
                            0.0,
                            0.5236116051673889,
                            0.5236116051673889,
                            0.5236116051673889,
                            0.5236116051673889,
                            0.5,
                            0.5,
                            0.5,
                            0.5,
                            0.0,
                            0.0,
                            0.0,
                            0.0,
                            0.0,
                            0.0
                        ]
                    },
                    {
                        "triggerTime_ms": 99,
                        "faceAngle": 0.0,
                        "faceCenterX": 0.0,
                        "faceCenterY": 0.0,
                        "faceScaleX": 1.0,
                        "faceScaleY": 1.0,
                        "leftEye": [
                            13.35591983795166,
                            1.5802098512649536,
                            1.0966053009033203,
                            0.8295074105262756,
                            0.0,
                            0.5,
                            0.5,
                            0.5,
                            0.5,
                            0.5,
                            0.5,
                            0.5,
                            0.5,
                            0.0,
                            0.0,
                            0.0,
                            0.0,
                            0.0,
                            0.0
                        ],
                        "rightEye": [
                            -10.206374168395996,
                            0.0,
                            1.2220369577407837,
                            0.9052804112434387,
                            0.0,
                            0.5,
                            0.5,
                            0.5,
                            0.5,
                            0.5,
                            0.5,
                            0.5,
                            0.5,
                            0.0,
                            0.0,
                            0.0,
                            0.0,
                            0.0,
                            0.0
                        ]
                    },
                    {
                        "triggerTime_ms": 132,
                        "faceAngle": 0.0,
                        "faceCenterX": 7.478209018707275,
                        "faceCenterY": 0.0,
                        "faceScaleX": 1.0,
                        "faceScaleY": 1.0,
                        "leftEye": [
                            9.169666290283203,
                            0.5181670188903809,
                            1.1716392040252686,
                            0.6360164284706116,
                            0.0,
                            0.5,
                            0.5,
                            0.5,
                            0.5,
                            0.5,
                            0.5,
                            0.5,
                            0.5,
                            0.0,
                            0.0,
                            0.0,
                            0.0,
                            0.0,
                            0.0
                        ],
                        "rightEye": [
                            -13.254546165466309,
                            0.0,
                            1.295487880706787,
                            0.7148587107658386,
                            0.0,
                            0.5,
                            0.5,
                            0.5,
                            0.5,
                            0.5,
                            0.5,
                            0.5,
                            0.5,
                            0.0,
                            0.0,
                            0.0,
                            0.0,
                            0.0,
                            0.0
                        ]
                    },
                    {
                        "triggerTime_ms": 231,
                        "faceAngle": 0.0,
                        "faceCenterX": 17.06060028076172,
                        "faceCenterY": 0.07577372342348099,
                        "faceScaleX": 1.0,
                        "faceScaleY": 1.1102875471115112,
                        "leftEye": [
                            9.169666290283203,
                            -0.14305178821086884,
                            1.21835458278656,
                            0.9078688621520996,
                            0.0,
                            0.5,
                            0.5,
                            0.5,
                            0.5,
                            0.5,
                            0.5,
                            0.5,
                            0.5,
                            0.0,
                            0.0,
                            0.0,
                            0.0,
                            0.0,
                            0.0
                        ],
                        "rightEye": [
                            -14.358015060424805,
                            0.0,
                            1.156051754951477,
                            0.8642839193344116,
                            0.0,
                            0.5,
                            0.5,
                            0.5,
                            0.5,
                            0.5,
                            0.5,
                            0.5,
                            0.5,
                            0.0,
                            0.0,
                            0.0,
                            0.0,
                            0.0,
                            0.0
                        ]
                    },
                    {
                        "triggerTime_ms": 429,
                        "faceAngle": 0.0,
                        "faceCenterX": 20.110748291015625,
                        "faceCenterY": 0.32347002625465393,
                        "faceScaleX": 1.0,
                        "faceScaleY": 1.0,
                        "leftEye": [
                            9.169666290283203,
                            -0.7070793509483337,
                            1.21835458278656,
                            0.9078688621520996,
                            0.0,
                            0.5,
                            0.5,
                            0.5,
                            0.5,
                            0.5,
                            0.5,
                            0.5,
                            0.5,
                            0.0,
                            0.0,
                            0.0,
                            0.0,
                            0.0,
                            0.0
                        ],
                        "rightEye": [
                            -14.358015060424805,
                            -1.656580924987793,
                            1.18720543384552,
                            0.8836396336555481,
                            0.0,
                            0.5,
                            0.5,
                            0.5,
                            0.5,
                            0.5,
                            0.5,
                            0.5,
                            0.5,
                            0.0,
                            0.0,
                            0.0,
                            0.0,
                            0.0,
                            0.0
                        ]
                    },
                    {
                        "triggerTime_ms": 462,
                        "faceAngle": -0.50475013256073,
                        "faceCenterX": 16.915712356567383,
                        "faceCenterY": 5.895131587982178,
                        "faceScaleX": 0.9469839930534363,
                        "faceScaleY": 0.8018432855606079,
                        "leftEye": [
                            5.268312454223633,
                            -0.4375366270542145,
                            1.3174893856048584,
                            0.9065746665000916,
                            0.0,
                            0.38782450556755066,
                            0.38782450556755066,
                            0.5,
                            0.5,
                            0.5,
                            0.7192179560661316,
                            0.38782450556755066,
                            0.38782450556755066,
                            0.0,
                            0.0,
                            0.0,
                            0.0,
                            0.0,
                            0.0
                        ],
                        "rightEye": [
                            -13.798951148986816,
                            -0.8004197478294373,
                            1.2046207189559937,
                            0.771232545375824,
                            0.0,
                            0.38782450556755066,
                            0.38782450556755066,
                            0.5,
                            0.5,
                            0.5,
                            0.7192179560661316,
                            0.38782450556755066,
                            0.38782450556755066,
                            0.0,
                            0.0,
                            0.0,
                            0.0,
                            0.0,
                            0.0
                        ]
                    },
                    {
                        "triggerTime_ms": 495,
                        "faceAngle": -0.11153850704431534,
                        "faceCenterX": 4.478977203369141,
                        "faceCenterY": 8.882377624511719,
                        "faceScaleX": 0.8695497512817383,
                        "faceScaleY": 0.6007722020149231,
                        "leftEye": [
                            8.307554244995117,
                            -0.048131056129932404,
                            1.334149718284607,
                            0.9059320688247681,
                            0.0,
                            0.4752117097377777,
                            0.4752117097377777,
                            0.5,
                            0.5,
                            0.5,
                            0.5484423041343689,
                            0.4752117097377777,
                            0.4752117097377777,
                            0.0,
                            0.0,
                            0.0,
                            0.0,
                            0.0,
                            0.0
                        ],
                        "rightEye": [
                            -12.08498477935791,
                            1.3591938018798828,
                            1.219476580619812,
                            0.8168680667877197,
                            0.0,
                            0.4752117097377777,
                            0.4752117097377777,
                            0.5,
                            0.5,
                            0.5,
                            0.5484423041343689,
                            0.4752117097377777,
                            0.4752117097377777,
                            0.0,
                            0.0,
                            0.0,
                            0.0,
                            0.0,
                            0.0
                        ]
                    },
                    {
                        "triggerTime_ms": 594,
                        "faceAngle": -0.00713858800008893,
                        "faceCenterX": -0.4388538897037506,
                        "faceCenterY": 1.2501007318496704,
                        "faceScaleX": 0.7865282297134399,
                        "faceScaleY": 0.9659276008605957,
                        "leftEye": [
                            9.114489555358887,
                            -0.003080439753830433,
                            1.333061695098877,
                            0.905702531337738,
                            0.0,
                            0.4984135031700134,
                            0.4984135031700134,
                            0.5,
                            0.5,
                            0.5,
                            0.5031003355979919,
                            0.4984135031700134,
                            0.4984135031700134,
                            0.0,
                            0.0,
                            0.0,
                            0.0,
                            0.0,
                            0.0
                        ],
                        "rightEye": [
                            -11.720056533813477,
                            1.6574695110321045,
                            1.2209690809249878,
                            0.828129768371582,
                            0.0,
                            0.4984135031700134,
                            0.4984135031700134,
                            0.5,
                            0.5,
                            0.5,
                            0.5031003355979919,
                            0.4984135031700134,
                            0.4984135031700134,
                            0.0,
                            0.0,
                            0.0,
                            0.0,
                            0.0,
                            0.0
                        ]
                    },
                    {
                        "triggerTime_ms": 726,
                        "faceAngle": 0.0,
                        "faceCenterX": 0.0,
                        "faceCenterY": 0.0,
                        "faceScaleX": 1.0,
                        "faceScaleY": 1.0,
                        "leftEye": [
                            9.169666290283203,
                            0.0,
                            1.214332938194275,
                            0.9052804112434387,
                            0.0,
                            0.5,
                            0.5,
                            0.5,
                            0.5,
                            0.5,
                            0.5,
                            0.5,
                            0.5,
                            0.0,
                            0.0,
                            0.0,
                            0.0,
                            0.0,
                            0.0
                        ],
                        "rightEye": [
                            -10.206374168395996,
                            0.0,
                            1.2220369577407837,
                            0.9052804112434387,
                            0.0,
                            0.5,
                            0.5,
                            0.5,
                            0.5,
                            0.5,
                            0.5,
                            0.5,
                            0.5,
                            0.0,
                            0.0,
                            0.0,
                            0.0,
                            0.0,
                            0.0
                        ]
                    }
                ],
                "HeadAngleKeyFrame": [
                    {
                        "triggerTime_ms": 99,
                        "durationTime_ms": 132,
                        "angle_deg": 38,
                        "angleVariability_deg": 0
                    },
                    {
                        "triggerTime_ms": 495,
                        "durationTime_ms": 165,
                        "angle_deg": 45,
                        "angleVariability_deg": 0
                    }
                ],
                "RobotAudioKeyFrame": [],
                "BackpackLightsKeyFrame": [
                    {
                        "triggerTime_ms": 0,
                        "durationTime_ms": 231,
                        "Left": [
                            0,
                            0,
                            0,
                            0
                        ],
                        "Front": [
                            0,
                            0,
                            0,
                            0
                        ],
                        "Middle": [
                            0,
                            0,
                            0,
                            0
                        ],
                        "Back": [
                            0,
                            0,
                            0,
                            0
                        ],
                        "Right": [
                            0,
                            0,
                            0,
                            0
                        ]
                    },
                    {
                        "triggerTime_ms": 231,
                        "durationTime_ms": 198,
                        "Left": [
                            0,
                            0,
                            0,
                            0
                        ],
                        "Front": [
                            0,
                            0,
                            0,
                            0
                        ],
                        "Middle": [
                            0,
                            0,
                            0,
                            0
                        ],
                        "Back": [
                            0,
                            0,
                            0,
                            0
                        ],
                        "Right": [
                            0,
                            0,
                            0,
                            0
                        ]
                    },
                    {
                        "triggerTime_ms": 429,
                        "durationTime_ms": 231,
                        "Left": [
                            0,
                            0,
                            0,
                            0
                        ],
                        "Front": [
                            0,
                            0,
                            0,
                            0
                        ],
                        "Middle": [
                            0,
                            0,
                            0,
                            0
                        ],
                        "Back": [
                            0,
                            0,
                            0,
                            0
                        ],
                        "Right": [
                            0,
                            0,
                            0,
                            0
                        ]
                    },
                    {
                        "triggerTime_ms": 660,
                        "durationTime_ms": 66,
                        "Left": [
                            0,
                            0,
                            0,
                            0
                        ],
                        "Front": [
                            0,
                            0,
                            0,
                            0
                        ],
                        "Middle": [
                            0,
                            0,
                            0,
                            0
                        ],
                        "Back": [
                            0,
                            0,
                            0,
                            0
                        ],
                        "Right": [
                            0,
                            0,
                            0,
                            0
                        ]
                    }
                ],
                "FaceAnimationKeyFrame": [],
                "EventKeyFrame": [],
                "BodyMotionKeyFrame": [
                    {
                        "triggerTime_ms": 132,
                        "durationTime_ms": 132,
                        "radius_mm": "TURN_IN_PLACE",
                        "speed": 23
                    },
                    {
                        "triggerTime_ms": 495,
                        "durationTime_ms": 99,
                        "radius_mm": "TURN_IN_PLACE",
                        "speed": -40
                    }
                ],
                "RecordHeadingKeyFrame": [],
                "TurnToRecordedHeadingKeyFrame": []
            }
        }
    ]
}