{
    "clips": [
        {
            "Name": "anim_workout_mediumenergy_getready_01",
            "keyframes": {
                "LiftHeightKeyFrame": [
                    {
                        "triggerTime_ms": 0,
                        "durationTime_ms": 561,
                        "height_mm": 92,
                        "heightVariability_mm": 0
                    },
                    {
                        "triggerTime_ms": 561,
                        "durationTime_ms": 330,
                        "height_mm": 50,
                        "heightVariability_mm": 0
                    },
                    {
                        "triggerTime_ms": 891,
                        "durationTime_ms": 99,
                        "height_mm": 53,
                        "heightVariability_mm": 0
                    }
                ],
                "ProceduralFaceKeyFrame": [
                    {
                        "triggerTime_ms": 0,
                        "faceAngle": 0.0,
                        "faceCenterX": 0.0,
                        "faceCenterY": 0.0,
                        "faceScaleX": 1.0,
                        "faceScaleY": 1.0,
                        "leftEye": [
                            9.169666290283203,
                            0.0,
                            1.214332938194275,
                            0.9052804112434387,
                            0.0,
                            0.5,
                            0.5,
                            0.5,
                            0.5,
                            0.5,
                            0.5,
                            0.5,
                            0.5,
                            0.0,
                            0.0,
                            0.0,
                            0.0,
                            0.0,
                            0.0
                        ],
                        "rightEye": [
                            -10.206374168395996,
                            0.0,
                            1.2220369577407837,
                            0.9052804112434387,
                            0.0,
                            0.5,
                            0.5,
                            0.5,
                            0.5,
                            0.5,
                            0.5,
                            0.5,
                            0.5,
                            0.0,
                            0.0,
                            0.0,
                            0.0,
                            0.0,
                            0.0
                        ]
                    },
                    {
                        "triggerTime_ms": 231,
                        "faceAngle": 0.0,
                        "faceCenterX": 0.0,
                        "faceCenterY": 0.0,
                        "faceScaleX": 1.0,
                        "faceScaleY": 1.0,
                        "leftEye": [
                            9.169666290283203,
                            0.0,
                            1.214332938194275,
                            0.9052804112434387,
                            0.0,
                            0.5,
                            0.5,
                            0.5,
                            0.5,
                            0.5,
                            0.5,
                            0.5,
                            0.5,
                            0.0,
                            0.0,
                            0.0,
                            0.0,
                            0.0,
                            0.0
                        ],
                        "rightEye": [
                            -10.206374168395996,
                            0.0,
                            1.2220369577407837,
                            0.9052804112434387,
                            0.0,
                            0.5,
                            0.5,
                            0.5,
                            0.5,
                            0.5,
                            0.5,
                            0.5,
                            0.5,
                            0.0,
                            0.0,
                            0.0,
                            0.0,
                            0.0,
                            0.0
                        ]
                    },
                    {
                        "triggerTime_ms": 264,
                        "faceAngle": 0.0,
                        "faceCenterX": 0.0,
                        "faceCenterY": 4.636678695678711,
                        "faceScaleX": 1.0163512229919434,
                        "faceScaleY": 0.7735505700111389,
                        "leftEye": [
                            9.269974708557129,
                            0.0,
                            1.2726256847381592,
                            0.8941627740859985,
                            0.0,
                            0.49875423312187195,
                            0.49875423312187195,
                            0.49875423312187195,
                            0.49875423312187195,
                            0.5,
                            0.5,
                            0.5,
                            0.5,
                            0.0,
                            0.0,
                            0.0,
                            0.0,
                            0.0,
                            0.0
                        ],
                        "rightEye": [
                            -10.206374168395996,
                            0.0,
                            1.3097643852233887,
                            0.904960572719574,
                            0.0,
                            0.49875423312187195,
                            0.49875423312187195,
                            0.49875423312187195,
                            0.49875423312187195,
                            0.5,
                            0.5,
                            0.5,
                            0.5,
                            0.0,
                            0.0,
                            0.0,
                            0.0,
                            0.0,
                            0.0
                        ]
                    },
                    {
                        "triggerTime_ms": 297,
                        "faceAngle": 0.0,
                        "faceCenterX": 0.0,
                        "faceCenterY": 9.273354530334473,
                        "faceScaleX": 1.0723955631256104,
                        "faceScaleY": 0.7066015601158142,
                        "leftEye": [
                            9.535531997680664,
                            0.0,
                            1.3309181928634644,
                            0.875457227230072,
                            0.0,
                            0.49665820598602295,
                            0.49665820598602295,
                            0.49665820598602295,
                            0.49665820598602295,
                            0.5,
                            0.5,
                            0.5,
                            0.5,
                            0.0,
                            0.0,
                            0.0,
                            0.0,
                            0.0,
                            0.0
                        ],
                        "rightEye": [
                            -10.206374168395996,
                            0.0,
                            1.397491693496704,
                            0.9044225811958313,
                            0.0,
                            0.49665820598602295,
                            0.49665820598602295,
                            0.49665820598602295,
                            0.49665820598602295,
                            0.5,
                            0.5,
                            0.5,
                            0.5,
                            0.0,
                            0.0,
                            0.0,
                            0.0,
                            0.0,
                            0.0
                        ]
                    },
                    {
                        "triggerTime_ms": 330,
                        "faceAngle": 0.0,
                        "faceCenterX": 0.0,
                        "faceCenterY": 7.803294658660889,
                        "faceScaleX": 1.1076562404632568,
                        "faceScaleY": 0.7291339635848999,
                        "leftEye": [
                            10.161163330078125,
                            0.0,
                            1.2957488298416138,
                            0.8597531318664551,
                            0.0,
                            0.4948984980583191,
                            0.4948984980583191,
                            0.4948984980583191,
                            0.4948984980583191,
                            0.5,
                            0.5,
                            0.5,
                            0.5,
                            0.0,
                            0.0,
                            0.0,
                            0.0,
                            0.0,
                            0.0
                        ],
                        "rightEye": [
                            -10.206374168395996,
                            0.0,
                            1.3717236518859863,
                            0.9039708375930786,
                            0.0,
                            0.4948984980583191,
                            0.4948984980583191,
                            0.4948984980583191,
                            0.4948984980583191,
                            0.5,
                            0.5,
                            0.5,
                            0.5,
                            0.0,
                            0.0,
                            0.0,
                            0.0,
                            0.0,
                            0.0
                        ]
                    },
                    {
                        "triggerTime_ms": 396,
                        "faceAngle": 0.0,
                        "faceCenterX": 0.0,
                        "faceCenterY": -1.0189768075942993,
                        "faceScaleX": 1.1057548522949219,
                        "faceScaleY": 0.9975207448005676,
                        "leftEye": [
                            11.495140075683594,
                            0.0,
                            1.2018887996673584,
                            0.843592643737793,
                            0.0,
                            0.49308764934539795,
                            0.49308764934539795,
                            0.49308764934539795,
                            0.49308764934539795,
                            0.5,
                            0.5,
                            0.5,
                            0.5,
                            0.0,
                            0.0,
                            0.0,
                            0.0,
                            0.0,
                            0.0
                        ],
                        "rightEye": [
                            -10.206374168395996,
                            0.0,
                            1.3029539585113525,
                            0.9035059809684753,
                            0.0,
                            0.49308764934539795,
                            0.49308764934539795,
                            0.49308764934539795,
                            0.49308764934539795,
                            0.5,
                            0.5,
                            0.5,
                            0.5,
                            0.0,
                            0.0,
                            0.0,
                            0.0,
                            0.0,
                            0.0
                        ]
                    },
                    {
                        "triggerTime_ms": 495,
                        "faceAngle": 0.0,
                        "faceCenterX": 0.0,
                        "faceCenterY": -3.800302028656006,
                        "faceScaleX": 1.050565242767334,
                        "faceScaleY": 0.9975207448005676,
                        "leftEye": [
                            12.828327178955078,
                            0.0,
                            1.1058341264724731,
                            0.8295074105262756,
                            0.0,
                            0.491509348154068,
                            0.491509348154068,
                            0.491509348154068,
                            0.491509348154068,
                            0.5,
                            0.5,
                            0.5,
                            0.5,
                            0.0,
                            0.0,
                            0.0,
                            0.0,
                            0.0,
                            0.0
                        ],
                        "rightEye": [
                            -10.206374168395996,
                            0.0,
                            1.2325763702392578,
                            0.903100848197937,
                            0.0,
                            0.491509348154068,
                            0.491509348154068,
                            0.491509348154068,
                            0.491509348154068,
                            0.5,
                            0.5,
                            0.5,
                            0.5,
                            0.0,
                            0.0,
                            0.0,
                            0.0,
                            0.0,
                            0.0
                        ]
                    },
                    {
                        "triggerTime_ms": 594,
                        "faceAngle": 0.0,
                        "faceCenterX": 0.0,
                        "faceCenterY": -2.1205027103424072,
                        "faceScaleX": 0.9941803812980652,
                        "faceScaleY": 0.9975207448005676,
                        "leftEye": [
                            12.828327178955078,
                            0.0,
                            1.1058341264724731,
                            0.8295074105262756,
                            0.0,
                            0.491509348154068,
                            0.491509348154068,
                            0.491509348154068,
                            0.491509348154068,
                            0.5,
                            0.5,
                            0.5,
                            0.5,
                            0.0,
                            0.0,
                            0.0,
                            0.0,
                            0.0,
                            0.0
                        ],
                        "rightEye": [
                            -10.206374168395996,
                            0.0,
                            1.2325763702392578,
                            0.903100848197937,
                            0.0,
                            0.491509348154068,
                            0.491509348154068,
                            0.491509348154068,
                            0.491509348154068,
                            0.5,
                            0.5,
                            0.5,
                            0.5,
                            0.0,
                            0.0,
                            0.0,
                            0.0,
                            0.0,
                            0.0
                        ]
                    },
                    {
                        "triggerTime_ms": 858,
                        "faceAngle": 0.0,
                        "faceCenterX": 0.0,
                        "faceCenterY": -2.1205027103424072,
                        "faceScaleX": 0.9844502210617065,
                        "faceScaleY": 0.9877578616142273,
                        "leftEye": [
                            12.828327178955078,
                            0.0,
                            1.1058341264724731,
                            0.8295074105262756,
                            0.0,
                            0.491509348154068,
                            0.491509348154068,
                            0.491509348154068,
                            0.491509348154068,
                            0.5,
                            0.5,
                            0.5,
                            0.5,
                            0.0,
                            0.0,
                            0.0,
                            0.0,
                            0.0,
                            0.0
                        ],
                        "rightEye": [
                            -10.206374168395996,
                            0.0,
                            1.2325763702392578,
                            0.903100848197937,
                            0.0,
                            0.491509348154068,
                            0.491509348154068,
                            0.491509348154068,
                            0.491509348154068,
                            0.5,
                            0.5,
                            0.5,
                            0.5,
                            0.0,
                            0.0,
                            0.0,
                            0.0,
                            0.0,
                            0.0
                        ]
                    },
                    {
                        "triggerTime_ms": 990,
                        "faceAngle": 0.0,
                        "faceCenterX": 0.0,
                        "faceCenterY": -2.1205027103424072,
                        "faceScaleX": 0.9844502210617065,
                        "faceScaleY": 0.9877578616142273,
                        "leftEye": [
                            12.828327178955078,
                            0.0,
                            1.1058341264724731,
                            0.8295074105262756,
                            0.0,
                            0.491509348154068,
                            0.491509348154068,
                            0.491509348154068,
                            0.491509348154068,
                            0.5,
                            0.5,
                            0.5,
                            0.5,
                            0.0,
                            0.0,
                            0.0,
                            0.0,
                            0.0,
                            0.0
                        ],
                        "rightEye": [
                            -10.206374168395996,
                            0.0,
                            1.2325763702392578,
                            0.903100848197937,
                            0.0,
                            0.491509348154068,
                            0.491509348154068,
                            0.491509348154068,
                            0.491509348154068,
                            0.5,
                            0.5,
                            0.5,
                            0.5,
                            0.0,
                            0.0,
                            0.0,
                            0.0,
                            0.0,
                            0.0
                        ]
                    },
                    {
                        "triggerTime_ms": 1023,
                        "faceAngle": 0.0,
                        "faceCenterX": -0.8166872262954712,
                        "faceCenterY": 1.244997501373291,
                        "faceScaleX": 0.9633118510246277,
                        "faceScaleY": 1.0598427057266235,
                        "leftEye": [
                            13.172450065612793,
                            0.0,
                            1.1058341264724731,
                            0.8295074105262756,
                            0.0,
                            0.5,
                            0.5,
                            0.5,
                            0.5,
                            0.5,
                            0.5,
                            0.5,
                            0.5,
                            0.0,
                            0.0,
                            0.0,
                            0.0,
                            0.0,
                            0.0
                        ],
                        "rightEye": [
                            -11.016144752502441,
                            0.0,
                            1.2220369577407837,
                            0.9052804112434387,
                            0.0,
                            0.5,
                            0.5,
                            0.5,
                            0.5,
                            0.5,
                            0.5,
                            0.5,
                            0.5,
                            0.0,
                            0.0,
                            0.0,
                            0.0,
                            0.0,
                            0.0
                        ]
                    },
                    {
                        "triggerTime_ms": 1056,
                        "faceAngle": 0.0,
                        "faceCenterX": -2.603768825531006,
                        "faceCenterY": 6.213722229003906,
                        "faceScaleX": 0.8053892254829407,
                        "faceScaleY": 0.9217646718025208,
                        "leftEye": [
                            13.627659797668457,
                            0.40496954321861267,
                            1.1467804908752441,
                            0.8581033945083618,
                            0.0,
                            0.5,
                            0.5,
                            0.5398198366165161,
                            0.5398198366165161,
                            0.5292045474052429,
                            0.5292045474052429,
                            0.5,
                            0.5,
                            0.0,
                            0.0,
                            0.0,
                            0.0,
                            0.0,
                            0.0
                        ],
                        "rightEye": [
                            -11.522856712341309,
                            0.39812126755714417,
                            1.2220369577407837,
                            0.9052804112434387,
                            0.0,
                            0.5,
                            0.5,
                            0.5398198366165161,
                            0.5398198366165161,
                            0.5292045474052429,
                            0.5292045474052429,
                            0.5,
                            0.5,
                            0.0,
                            0.0,
                            0.0,
                            0.0,
                            0.0,
                            0.0
                        ]
                    },
                    {
                        "triggerTime_ms": 1089,
                        "faceAngle": 0.0,
                        "faceCenterX": -2.678309202194214,
                        "faceCenterY": 7.498843193054199,
                        "faceScaleX": 0.9028881788253784,
                        "faceScaleY": 0.9074956178665161,
                        "leftEye": [
                            11.342650413513184,
                            0.19739647209644318,
                            1.1871799230575562,
                            0.8863174319267273,
                            0.0,
                            0.5,
                            0.5,
                            0.5803495645523071,
                            0.5803495645523071,
                            0.5718550086021423,
                            0.5718550086021423,
                            0.5,
                            0.5,
                            0.04420212656259537,
                            0.0,
                            0.0,
                            0.1554783284664154,
                            0.0,
                            0.0
                        ],
                        "rightEye": [
                            -11.9085693359375,
                            0.1940583884716034,
                            1.2220369577407837,
                            0.9052804112434387,
                            0.0,
                            0.5,
                            0.5,
                            0.5803495645523071,
                            0.5803495645523071,
                            0.5718550086021423,
                            0.5718550086021423,
                            0.5,
                            0.5,
                            0.044201791286468506,
                            0.0,
                            0.0,
                            0.15097299218177795,
                            0.0,
                            0.0
                        ]
                    },
                    {
                        "triggerTime_ms": 1155,
                        "faceAngle": 0.0,
                        "faceCenterX": -2.82738995552063,
                        "faceCenterY": 6.053456783294678,
                        "faceScaleX": 1.181457281112671,
                        "faceScaleY": 0.9749312996864319,
                        "leftEye": [
                            9.169666290283203,
                            0.0,
                            1.214332938194275,
                            0.9349740147590637,
                            0.0,
                            0.5,
                            0.5,
                            0.607566773891449,
                            0.607566773891449,
                            0.607566773891449,
                            0.607566773891449,
                            0.5,
                            0.5,
                            0.1554173082113266,
                            0.0,
                            0.0,
                            0.5997033715248108,
                            0.0,
                            0.0
                        ],
                        "rightEye": [
                            -12.215493202209473,
                            0.0,
                            1.2220369577407837,
                            0.9349740147590637,
                            0.0,
                            0.5,
                            0.5,
                            0.607566773891449,
                            0.607566773891449,
                            0.607566773891449,
                            0.607566773891449,
                            0.5,
                            0.5,
                            0.15541613101959229,
                            0.0,
                            0.0,
                            0.5823255777359009,
                            0.0,
                            0.0
                        ]
                    },
                    {
                        "triggerTime_ms": 1188,
                        "faceAngle": 0.0,
                        "faceCenterX": -2.901930570602417,
                        "faceCenterY": 2.736837863922119,
                        "faceScaleX": 1.1153161525726318,
                        "faceScaleY": 0.9749312996864319,
                        "leftEye": [
                            9.169666290283203,
                            0.0,
                            1.214332938194275,
                            1.0203511714935303,
                            0.0,
                            0.5,
                            0.5,
                            0.607566773891449,
                            0.607566773891449,
                            0.607566773891449,
                            0.607566773891449,
                            0.5,
                            0.5,
                            0.08289433270692825,
                            0.0,
                            0.0,
                            0.542731523513794,
                            0.0,
                            0.0
                        ],
                        "rightEye": [
                            -12.215493202209473,
                            0.0,
                            1.2220369577407837,
                            1.0203511714935303,
                            0.0,
                            0.5,
                            0.5,
                            0.607566773891449,
                            0.607566773891449,
                            0.607566773891449,
                            0.607566773891449,
                            0.5,
                            0.5,
                            0.08289369940757751,
                            0.0,
                            0.0,
                            0.5270046591758728,
                            0.0,
                            0.0
                        ]
                    },
                    {
                        "triggerTime_ms": 1254,
                        "faceAngle": 0.0,
                        "faceCenterX": -2.901930570602417,
                        "faceCenterY": 0.6932521462440491,
                        "faceScaleX": 1.0491749048233032,
                        "faceScaleY": 0.9749312996864319,
                        "leftEye": [
                            9.169666290283203,
                            0.0,
                            1.214332938194275,
                            0.9052804112434387,
                            0.0,
                            0.5,
                            0.5,
                            0.607566773891449,
                            0.607566773891449,
                            0.607566773891449,
                            0.607566773891449,
                            0.5,
                            0.5,
                            0.13810034096240997,
                            0.0,
                            0.0,
                            0.4857596457004547,
                            0.0,
                            0.0
                        ],
                        "rightEye": [
                            -12.215493202209473,
                            0.0,
                            1.2220369577407837,
                            0.8634745478630066,
                            0.0,
                            0.5,
                            0.5,
                            0.607566773891449,
                            0.607566773891449,
                            0.607566773891449,
                            0.607566773891449,
                            0.5,
                            0.5,
                            0.1380992829799652,
                            0.0,
                            0.0,
                            0.47168365120887756,
                            0.0,
                            0.0
                        ]
                    },
                    {
                        "triggerTime_ms": 1485,
                        "faceAngle": 0.0,
                        "faceCenterX": -2.901930570602417,
                        "faceCenterY": 0.6932521462440491,
                        "faceScaleX": 1.0,
                        "faceScaleY": 1.0,
                        "leftEye": [
                            9.169666290283203,
                            0.0,
                            1.214332938194275,
                            0.9052804112434387,
                            0.0,
                            0.5,
                            0.5,
                            0.607566773891449,
                            0.607566773891449,
                            0.607566773891449,
                            0.607566773891449,
                            0.5,
                            0.5,
                            0.13810034096240997,
                            0.0,
                            0.0,
                            0.4857596457004547,
                            0.0,
                            0.0
                        ],
                        "rightEye": [
                            -12.215493202209473,
                            0.0,
                            1.2220369577407837,
                            0.8634745478630066,
                            0.0,
                            0.5,
                            0.5,
                            0.607566773891449,
                            0.607566773891449,
                            0.607566773891449,
                            0.607566773891449,
                            0.5,
                            0.5,
                            0.1380992829799652,
                            0.0,
                            0.0,
                            0.47168365120887756,
                            0.0,
                            0.0
                        ]
                    },
                    {
                        "triggerTime_ms": 1518,
                        "faceAngle": 0.0,
                        "faceCenterX": -1.6462523937225342,
                        "faceCenterY": 0.4134032428264618,
                        "faceScaleX": 1.0,
                        "faceScaleY": 1.0662177801132202,
                        "leftEye": [
                            9.169666290283203,
                            0.0,
                            1.214332938194275,
                            0.9052804112434387,
                            0.0,
                            0.5,
                            0.5,
                            0.607566773891449,
                            0.607566773891449,
                            0.607566773891449,
                            0.607566773891449,
                            0.5,
                            0.5,
                            0.13810034096240997,
                            0.0,
                            0.0,
                            0.4857596457004547,
                            0.0,
                            0.0
                        ],
                        "rightEye": [
                            -12.129487037658691,
                            0.0,
                            1.2220369577407837,
                            0.9052804112434387,
                            0.0,
                            0.5,
                            0.5,
                            0.607566773891449,
                            0.607566773891449,
                            0.607566773891449,
                            0.607566773891449,
                            0.5,
                            0.5,
                            0.1380992829799652,
                            0.0,
                            0.0,
                            0.47168365120887756,
                            0.0,
                            0.0
                        ]
                    },
                    {
                        "triggerTime_ms": 1551,
                        "faceAngle": 0.0,
                        "faceCenterX": -0.39057430624961853,
                        "faceCenterY": 4.415130615234375,
                        "faceScaleX": 1.0,
                        "faceScaleY": 1.0496633052825928,
                        "leftEye": [
                            9.169666290283203,
                            0.0,
                            1.214332938194275,
                            0.9052804112434387,
                            0.0,
                            0.5,
                            0.5,
                            0.607566773891449,
                            0.607566773891449,
                            0.607566773891449,
                            0.607566773891449,
                            0.5,
                            0.5,
                            0.13810034096240997,
                            0.0,
                            0.0,
                            0.4857596457004547,
                            0.0,
                            0.0
                        ],
                        "rightEye": [
                            -10.206374168395996,
                            0.0,
                            1.2220369577407837,
                            0.9052804112434387,
                            0.0,
                            0.5,
                            0.5,
                            0.607566773891449,
                            0.607566773891449,
                            0.607566773891449,
                            0.607566773891449,
                            0.5,
                            0.5,
                            0.1380992829799652,
                            0.0,
                            0.0,
                            0.47168365120887756,
                            0.0,
                            0.0
                        ]
                    },
                    {
                        "triggerTime_ms": 1650,
                        "faceAngle": 0.0,
                        "faceCenterX": 0.0,
                        "faceCenterY": 4.415130615234375,
                        "faceScaleX": 1.0,
                        "faceScaleY": 1.0,
                        "leftEye": [
                            9.169666290283203,
                            0.0,
                            1.214332938194275,
                            0.9052804112434387,
                            0.0,
                            0.5,
                            0.5,
                            0.607566773891449,
                            0.607566773891449,
                            0.607566773891449,
                            0.607566773891449,
                            0.5,
                            0.5,
                            0.13810034096240997,
                            0.0,
                            0.0,
                            0.4857596457004547,
                            0.0,
                            0.0
                        ],
                        "rightEye": [
                            -10.206374168395996,
                            0.0,
                            1.2220369577407837,
                            0.9052804112434387,
                            0.0,
                            0.5,
                            0.5,
                            0.607566773891449,
                            0.607566773891449,
                            0.607566773891449,
                            0.607566773891449,
                            0.5,
                            0.5,
                            0.1380992829799652,
                            0.0,
                            0.0,
                            0.47168365120887756,
                            0.0,
                            0.0
                        ]
                    }
                ],
                "HeadAngleKeyFrame": [
                    {
                        "triggerTime_ms": 0,
                        "durationTime_ms": 396,
                        "angle_deg": 0,
                        "angleVariability_deg": 0
                    },
                    {
                        "triggerTime_ms": 396,
                        "durationTime_ms": 198,
                        "angle_deg": 19,
                        "angleVariability_deg": 0
                    },
                    {
                        "triggerTime_ms": 594,
                        "durationTime_ms": 198,
                        "angle_deg": -6,
                        "angleVariability_deg": 0
                    },
                    {
                        "triggerTime_ms": 792,
                        "durationTime_ms": 132,
                        "angle_deg": 6,
                        "angleVariability_deg": 0
                    }
                ],
                "RobotAudioKeyFrame": [
                    {
                        "triggerTime_ms": 561,
                        "audioEventId": [
                            2128944011
                        ],
                        "volume": 1.0,
                        "probability": [
                            1.0
                        ],
                        "hasAlts": true
                    },
                    {
                        "triggerTime_ms": 693,
                        "audioEventId": [
                            4268262662
                        ],
                        "volume": 1.0,
                        "probability": [
                            1.0
                        ],
                        "hasAlts": true
                    },
                    {
                        "triggerTime_ms": 1056,
                        "audioEventId": [
                            1701725212
                        ],
                        "volume": 1.0,
                        "probability": [
                            1.0
                        ],
                        "hasAlts": true
                    }
                ],
                "BackpackLightsKeyFrame": [],
                "FaceAnimationKeyFrame": [],
                "EventKeyFrame": [],
                "BodyMotionKeyFrame": [
                    {
                        "triggerTime_ms": 528,
                        "durationTime_ms": 297,
                        "radius_mm": "STRAIGHT",
                        "speed": 42
                    },
                    {
                        "triggerTime_ms": 891,
                        "durationTime_ms": 132,
                        "radius_mm": "STRAIGHT",
                        "speed": -42
                    },
                    {
                        "triggerTime_ms": 1023,
                        "durationTime_ms": 165,
                        "radius_mm": "STRAIGHT",
                        "speed": 35
                    }
                ],
                "RecordHeadingKeyFrame": [],
                "TurnToRecordedHeadingKeyFrame": []
            }
        }
    ]
}