{
    "clips": [
        {
            "Name": "anim_fistbump_idle_01",
            "keyframes": {
                "LiftHeightKeyFrame": [
                    {
                        "triggerTime_ms": 0,
                        "durationTime_ms": 1716,
                        "height_mm": 80,
                        "heightVariability_mm": 0
                    }
                ],
                "ProceduralFaceKeyFrame": [
                    {
                        "triggerTime_ms": 0,
                        "faceAngle": 0.0,
                        "faceCenterX": 0.0,
                        "faceCenterY": -5.7015790939331055,
                        "faceScaleX": 1.1412653923034668,
                        "faceScaleY": 1.2111011743545532,
                        "leftEye": [
                            10.473907470703125,
                            0.0,
                            1.214332938194275,
                            0.9052804112434387,
                            0.0,
                            0.602048933506012,
                            0.602048933506012,
                            0.5,
                            0.5,
                            0.7371136546134949,
                            0.6230589747428894,
                            0.602048933506012,
                            0.602048933506012,
                            0.0,
                            0.0,
                            0.0,
                            0.0,
                            0.0,
                            0.0
                        ],
                        "rightEye": [
                            -11.361539840698242,
                            -0.005354624707251787,
                            1.2220369577407837,
                            0.9052804112434387,
                            0.0,
                            0.602048933506012,
                            0.602048933506012,
                            0.5,
                            0.5,
                            0.7371136546134949,
                            0.6230589747428894,
                            0.602048933506012,
                            0.602048933506012,
                            0.0,
                            0.0,
                            0.0,
                            0.0,
                            0.0,
                            0.0
                        ]
                    },
                    {
                        "triggerTime_ms": 330,
                        "faceAngle": 0.0,
                        "faceCenterX": 0.0,
                        "faceCenterY": -5.7015790939331055,
                        "faceScaleX": 1.1412653923034668,
                        "faceScaleY": 1.2111011743545532,
                        "leftEye": [
                            10.473907470703125,
                            0.0,
                            1.214332938194275,
                            0.9052804112434387,
                            0.0,
                            0.602048933506012,
                            0.602048933506012,
                            0.5,
                            0.5,
                            0.7371136546134949,
                            0.6230589747428894,
                            0.602048933506012,
                            0.602048933506012,
                            0.0,
                            0.0,
                            0.0,
                            0.0,
                            0.0,
                            0.0
                        ],
                        "rightEye": [
                            -11.361539840698242,
                            -0.005354624707251787,
                            1.2220369577407837,
                            0.9052804112434387,
                            0.0,
                            0.602048933506012,
                            0.602048933506012,
                            0.5,
                            0.5,
                            0.7371136546134949,
                            0.6230589747428894,
                            0.602048933506012,
                            0.602048933506012,
                            0.0,
                            0.0,
                            0.0,
                            0.0,
                            0.0,
                            0.0
                        ]
                    },
                    {
                        "triggerTime_ms": 396,
                        "faceAngle": 0.0,
                        "faceCenterX": 0.0,
                        "faceCenterY": -3.9147939682006836,
                        "faceScaleX": 1.2329524755477905,
                        "faceScaleY": 1.2113101482391357,
                        "leftEye": [
                            12.877826690673828,
                            0.7986560463905334,
                            1.1690309047698975,
                            0.8761226534843445,
                            0.0,
                            0.6682828664779663,
                            0.6682828664779663,
                            0.5,
                            0.5,
                            0.8910101056098938,
                            0.7029292583465576,
                            0.6682828664779663,
                            0.6682828664779663,
                            0.0,
                            0.0,
                            0.0,
                            0.0,
                            0.0,
                            0.0
                        ],
                        "rightEye": [
                            -10.953839302062988,
                            0.25998547673225403,
                            1.2220369577407837,
                            0.915218710899353,
                            0.0,
                            0.6682828664779663,
                            0.6682828664779663,
                            0.5,
                            0.5,
                            0.8910101056098938,
                            0.7029292583465576,
                            0.6682828664779663,
                            0.6682828664779663,
                            0.0,
                            0.0,
                            0.0,
                            0.0,
                            0.0,
                            0.0
                        ]
                    },
                    {
                        "triggerTime_ms": 462,
                        "faceAngle": 0.0,
                        "faceCenterX": 0.0,
                        "faceCenterY": -6.865515232086182,
                        "faceScaleX": 1.2329524755477905,
                        "faceScaleY": 1.3481144905090332,
                        "leftEye": [
                            15.459035873413086,
                            1.597312092781067,
                            1.1237287521362305,
                            0.8217016458511353,
                            0.0,
                            0.6682828664779663,
                            0.6682828664779663,
                            0.5,
                            0.5,
                            0.8910101056098938,
                            0.7029292583465576,
                            0.6682828664779663,
                            0.6682828664779663,
                            0.0,
                            0.0,
                            0.0,
                            0.0,
                            0.0,
                            0.0
                        ],
                        "rightEye": [
                            -9.796387672424316,
                            0.528800904750824,
                            1.2220369577407837,
                            0.9251570105552673,
                            0.0,
                            0.6682828664779663,
                            0.6682828664779663,
                            0.5,
                            0.5,
                            0.8910101056098938,
                            0.7029292583465576,
                            0.6682828664779663,
                            0.6682828664779663,
                            0.0,
                            0.0,
                            0.0,
                            0.0,
                            0.0,
                            0.0
                        ]
                    },
                    {
                        "triggerTime_ms": 1485,
                        "faceAngle": 0.0,
                        "faceCenterX": 0.0,
                        "faceCenterY": -6.865515232086182,
                        "faceScaleX": 1.2329524755477905,
                        "faceScaleY": 1.3481144905090332,
                        "leftEye": [
                            15.459035873413086,
                            1.597312092781067,
                            1.1237287521362305,
                            0.8217016458511353,
                            0.0,
                            0.6682828664779663,
                            0.6682828664779663,
                            0.5,
                            0.5,
                            0.8910101056098938,
                            0.7029292583465576,
                            0.6682828664779663,
                            0.6682828664779663,
                            0.0,
                            0.0,
                            0.0,
                            0.0,
                            0.0,
                            0.0
                        ],
                        "rightEye": [
                            -9.796387672424316,
                            0.528800904750824,
                            1.2220369577407837,
                            0.9251570105552673,
                            0.0,
                            0.6682828664779663,
                            0.6682828664779663,
                            0.5,
                            0.5,
                            0.8910101056098938,
                            0.7029292583465576,
                            0.6682828664779663,
                            0.6682828664779663,
                            0.0,
                            0.0,
                            0.0,
                            0.0,
                            0.0,
                            0.0
                        ]
                    },
                    {
                        "triggerTime_ms": 1551,
                        "faceAngle": 0.0,
                        "faceCenterX": 2.2636771202087402,
                        "faceCenterY": -6.865515232086182,
                        "faceScaleX": 1.2023102045059204,
                        "faceScaleY": 1.266852617263794,
                        "leftEye": [
                            15.634899139404297,
                            1.597312092781067,
                            1.1237287521362305,
                            0.8217016458511353,
                            0.0,
                            0.6682828664779663,
                            0.6682828664779663,
                            0.5,
                            0.5,
                            0.8910101056098938,
                            0.7029292583465576,
                            0.6682828664779663,
                            0.6682828664779663,
                            0.0,
                            0.0,
                            0.0,
                            0.0,
                            0.0,
                            0.0
                        ],
                        "rightEye": [
                            -8.538200378417969,
                            0.528800904750824,
                            1.2220369577407837,
                            0.9251570105552673,
                            0.0,
                            0.6682828664779663,
                            0.6682828664779663,
                            0.5,
                            0.5,
                            0.8910101056098938,
                            0.7029292583465576,
                            0.6682828664779663,
                            0.6682828664779663,
                            0.0,
                            0.0,
                            0.0,
                            0.0,
                            0.0,
                            0.0
                        ]
                    },
                    {
                        "triggerTime_ms": 1617,
                        "faceAngle": 0.0,
                        "faceCenterX": 2.575423240661621,
                        "faceCenterY": -6.865515232086182,
                        "faceScaleX": 1.2004717588424683,
                        "faceScaleY": 1.3481144905090332,
                        "leftEye": [
                            17.88873863220215,
                            1.597312092781067,
                            1.1237287521362305,
                            0.8217016458511353,
                            0.0,
                            0.6682828664779663,
                            0.6682828664779663,
                            0.5,
                            0.5,
                            0.8910101056098938,
                            0.7029292583465576,
                            0.6682828664779663,
                            0.6682828664779663,
                            0.0,
                            0.0,
                            0.0,
                            0.0,
                            0.0,
                            0.0
                        ],
                        "rightEye": [
                            -7.2800068855285645,
                            0.528800904750824,
                            1.2220369577407837,
                            0.9251570105552673,
                            0.0,
                            0.6682828664779663,
                            0.6682828664779663,
                            0.5,
                            0.5,
                            0.8910101056098938,
                            0.7029292583465576,
                            0.6682828664779663,
                            0.6682828664779663,
                            0.0,
                            0.0,
                            0.0,
                            0.0,
                            0.0,
                            0.0
                        ]
                    },
                    {
                        "triggerTime_ms": 2640,
                        "faceAngle": 0.0,
                        "faceCenterX": 2.575423240661621,
                        "faceCenterY": -6.865515232086182,
                        "faceScaleX": 1.2004717588424683,
                        "faceScaleY": 1.3481144905090332,
                        "leftEye": [
                            17.88873863220215,
                            1.597312092781067,
                            1.1237287521362305,
                            0.8217016458511353,
                            0.0,
                            0.6682828664779663,
                            0.6682828664779663,
                            0.5,
                            0.5,
                            0.8910101056098938,
                            0.7029292583465576,
                            0.6682828664779663,
                            0.6682828664779663,
                            0.0,
                            0.0,
                            0.0,
                            0.0,
                            0.0,
                            0.0
                        ],
                        "rightEye": [
                            -7.2800068855285645,
                            0.528800904750824,
                            1.2220369577407837,
                            0.9251570105552673,
                            0.0,
                            0.6682828664779663,
                            0.6682828664779663,
                            0.5,
                            0.5,
                            0.8910101056098938,
                            0.7029292583465576,
                            0.6682828664779663,
                            0.6682828664779663,
                            0.0,
                            0.0,
                            0.0,
                            0.0,
                            0.0,
                            0.0
                        ]
                    },
                    {
                        "triggerTime_ms": 2706,
                        "faceAngle": 0.0,
                        "faceCenterX": 0.7900105714797974,
                        "faceCenterY": -0.8381043672561646,
                        "faceScaleX": 1.0983072519302368,
                        "faceScaleY": 1.0983072519302368,
                        "leftEye": [
                            9.076591491699219,
                            4.914895534515381,
                            1.4588106870651245,
                            0.8701812028884888,
                            0.0,
                            0.5359443426132202,
                            0.5359443426132202,
                            0.5,
                            0.5,
                            0.7397288680076599,
                            0.7397288680076599,
                            0.5359443426132202,
                            0.5359443426132202,
                            0.0,
                            0.0,
                            0.0,
                            0.0,
                            0.0,
                            0.0
                        ],
                        "rightEye": [
                            -7.142977714538574,
                            5.409650802612305,
                            1.5097534656524658,
                            0.8365996479988098,
                            0.0,
                            0.5359443426132202,
                            0.5359443426132202,
                            0.5,
                            0.5,
                            0.7397288680076599,
                            0.7397288680076599,
                            0.5359443426132202,
                            0.5359443426132202,
                            0.0,
                            0.0,
                            0.0,
                            0.0,
                            0.0,
                            0.0
                        ]
                    },
                    {
                        "triggerTime_ms": 2772,
                        "faceAngle": 0.0,
                        "faceCenterX": -0.03020741045475006,
                        "faceCenterY": -3.673966884613037,
                        "faceScaleX": 1.0716360807418823,
                        "faceScaleY": 1.0716360807418823,
                        "leftEye": [
                            9.92581558227539,
                            1.7096456289291382,
                            1.419778823852539,
                            1.0002361536026,
                            0.0,
                            0.5359443426132202,
                            0.5359443426132202,
                            0.5,
                            0.5,
                            0.7397288680076599,
                            0.7397288680076599,
                            0.5359443426132202,
                            0.5359443426132202,
                            0.0,
                            0.0,
                            0.0,
                            0.0,
                            0.0,
                            0.0
                        ],
                        "rightEye": [
                            -7.873895168304443,
                            2.0757811069488525,
                            1.3814440965652466,
                            0.9551827311515808,
                            0.0,
                            0.5359443426132202,
                            0.5359443426132202,
                            0.5,
                            0.5,
                            0.7397288680076599,
                            0.7397288680076599,
                            0.5359443426132202,
                            0.5359443426132202,
                            0.0,
                            0.0,
                            0.0,
                            0.0,
                            0.0,
                            0.0
                        ]
                    },
                    {
                        "triggerTime_ms": 2838,
                        "faceAngle": 0.0,
                        "faceCenterX": 0.0,
                        "faceCenterY": -5.7015790939331055,
                        "faceScaleX": 1.1412653923034668,
                        "faceScaleY": 1.2111011743545532,
                        "leftEye": [
                            10.473907470703125,
                            0.0,
                            1.214332938194275,
                            0.9052804112434387,
                            0.0,
                            0.602048933506012,
                            0.602048933506012,
                            0.5,
                            0.5,
                            0.7371136546134949,
                            0.6230589747428894,
                            0.602048933506012,
                            0.602048933506012,
                            0.0,
                            0.0,
                            0.0,
                            0.0,
                            0.0,
                            0.0
                        ],
                        "rightEye": [
                            -11.361539840698242,
                            -0.005354624707251787,
                            1.2220369577407837,
                            0.9052804112434387,
                            0.0,
                            0.602048933506012,
                            0.602048933506012,
                            0.5,
                            0.5,
                            0.7371136546134949,
                            0.6230589747428894,
                            0.602048933506012,
                            0.602048933506012,
                            0.0,
                            0.0,
                            0.0,
                            0.0,
                            0.0,
                            0.0
                        ]
                    },
                    {
                        "triggerTime_ms": 2970,
                        "faceAngle": 0.0,
                        "faceCenterX": 0.0,
                        "faceCenterY": -5.7015790939331055,
                        "faceScaleX": 1.1412653923034668,
                        "faceScaleY": 1.2111011743545532,
                        "leftEye": [
                            10.473907470703125,
                            0.0,
                            1.214332938194275,
                            0.9052804112434387,
                            0.0,
                            0.602048933506012,
                            0.602048933506012,
                            0.5,
                            0.5,
                            0.7371136546134949,
                            0.6230589747428894,
                            0.602048933506012,
                            0.602048933506012,
                            0.0,
                            0.0,
                            0.0,
                            0.0,
                            0.0,
                            0.0
                        ],
                        "rightEye": [
                            -11.361539840698242,
                            -0.005354624707251787,
                            1.2220369577407837,
                            0.9052804112434387,
                            0.0,
                            0.602048933506012,
                            0.602048933506012,
                            0.5,
                            0.5,
                            0.7371136546134949,
                            0.6230589747428894,
                            0.602048933506012,
                            0.602048933506012,
                            0.0,
                            0.0,
                            0.0,
                            0.0,
                            0.0,
                            0.0
                        ]
                    },
                    {
                        "triggerTime_ms": 3003,
                        "faceAngle": 0.0,
                        "faceCenterX": 0.0,
                        "faceCenterY": -5.7015790939331055,
                        "faceScaleX": 1.1412653923034668,
                        "faceScaleY": 1.2111011743545532,
                        "leftEye": [
                            10.473907470703125,
                            0.0,
                            1.214332938194275,
                            0.9052804112434387,
                            0.0,
                            0.602048933506012,
                            0.602048933506012,
                            0.5,
                            0.5,
                            0.7371136546134949,
                            0.6230589747428894,
                            0.602048933506012,
                            0.602048933506012,
                            0.0,
                            0.0,
                            0.0,
                            0.0,
                            0.0,
                            0.0
                        ],
                        "rightEye": [
                            -11.361539840698242,
                            -0.005354624707251787,
                            1.2220369577407837,
                            0.9052804112434387,
                            0.0,
                            0.602048933506012,
                            0.602048933506012,
                            0.5,
                            0.5,
                            0.7371136546134949,
                            0.6230589747428894,
                            0.602048933506012,
                            0.602048933506012,
                            0.0,
                            0.0,
                            0.0,
                            0.0,
                            0.0,
                            0.0
                        ]
                    }
                ],
                "HeadAngleKeyFrame": [],
                "RobotAudioKeyFrame": [
                    {
                        "triggerTime_ms": 396,
                        "audioEventId": [
                            3560778311
                        ],
                        "volume": 1.0,
                        "probability": [
                            1.0
                        ],
                        "hasAlts": true
                    },
                    {
                        "triggerTime_ms": 1485,
                        "audioEventId": [
                            1701725212
                        ],
                        "volume": 1.0,
                        "probability": [
                            1.0
                        ],
                        "hasAlts": true
                    },
                    {
                        "triggerTime_ms": 2640,
                        "audioEventId": [
                            3560778311
                        ],
                        "volume": 1.0,
                        "probability": [
                            1.0
                        ],
                        "hasAlts": true
                    }
                ],
                "BackpackLightsKeyFrame": [],
                "FaceAnimationKeyFrame": [],
                "EventKeyFrame": [],
                "BodyMotionKeyFrame": [
                    {
                        "triggerTime_ms": 1452,
                        "durationTime_ms": 132,
                        "radius_mm": "TURN_IN_PLACE",
                        "speed": 23
                    },
                    {
                        "triggerTime_ms": 2640,
                        "durationTime_ms": 165,
                        "radius_mm": "TURN_IN_PLACE",
                        "speed": -36
                    }
                ],
                "RecordHeadingKeyFrame": [],
                "TurnToRecordedHeadingKeyFrame": []
            }
        },
        {
            "Name": "anim_fistbump_idle_02",
            "keyframes": {
                "LiftHeightKeyFrame": [
                    {
                        "triggerTime_ms": 0,
                        "durationTime_ms": 2277,
                        "height_mm": 80,
                        "heightVariability_mm": 0
                    }
                ],
                "ProceduralFaceKeyFrame": [
                    {
                        "triggerTime_ms": 0,
                        "faceAngle": 0.0,
                        "faceCenterX": 0.0,
                        "faceCenterY": -5.7015790939331055,
                        "faceScaleX": 1.1412653923034668,
                        "faceScaleY": 1.2111011743545532,
                        "leftEye": [
                            10.473907470703125,
                            0.0,
                            1.214332938194275,
                            0.9052804112434387,
                            0.0,
                            0.602048933506012,
                            0.602048933506012,
                            0.5,
                            0.5,
                            0.7371136546134949,
                            0.6230589747428894,
                            0.602048933506012,
                            0.602048933506012,
                            0.0,
                            0.0,
                            0.0,
                            0.0,
                            0.0,
                            0.0
                        ],
                        "rightEye": [
                            -11.361539840698242,
                            -0.005354624707251787,
                            1.2220369577407837,
                            0.9052804112434387,
                            0.0,
                            0.602048933506012,
                            0.602048933506012,
                            0.5,
                            0.5,
                            0.7371136546134949,
                            0.6230589747428894,
                            0.602048933506012,
                            0.602048933506012,
                            0.0,
                            0.0,
                            0.0,
                            0.0,
                            0.0,
                            0.0
                        ]
                    },
                    {
                        "triggerTime_ms": 1089,
                        "faceAngle": 0.0,
                        "faceCenterX": 0.0,
                        "faceCenterY": -5.7015790939331055,
                        "faceScaleX": 1.1412653923034668,
                        "faceScaleY": 1.2111011743545532,
                        "leftEye": [
                            10.473907470703125,
                            0.0,
                            1.214332938194275,
                            0.9052804112434387,
                            0.0,
                            0.602048933506012,
                            0.602048933506012,
                            0.5,
                            0.5,
                            0.7371136546134949,
                            0.6230589747428894,
                            0.602048933506012,
                            0.602048933506012,
                            0.0,
                            0.0,
                            0.0,
                            0.0,
                            0.0,
                            0.0
                        ],
                        "rightEye": [
                            -11.361539840698242,
                            -0.005354624707251787,
                            1.2220369577407837,
                            0.9052804112434387,
                            0.0,
                            0.602048933506012,
                            0.602048933506012,
                            0.5,
                            0.5,
                            0.7371136546134949,
                            0.6230589747428894,
                            0.602048933506012,
                            0.602048933506012,
                            0.0,
                            0.0,
                            0.0,
                            0.0,
                            0.0,
                            0.0
                        ]
                    },
                    {
                        "triggerTime_ms": 1155,
                        "faceAngle": 0.0,
                        "faceCenterX": 0.0,
                        "faceCenterY": -1.538957118988037,
                        "faceScaleX": 1.1038246154785156,
                        "faceScaleY": 1.0897972583770752,
                        "leftEye": [
                            10.473907470703125,
                            0.0,
                            1.214332938194275,
                            0.9052804112434387,
                            0.0,
                            0.602048933506012,
                            0.602048933506012,
                            0.5,
                            0.5,
                            0.7371136546134949,
                            0.6230589747428894,
                            0.602048933506012,
                            0.602048933506012,
                            0.0,
                            0.0,
                            0.0,
                            0.0,
                            0.0,
                            0.0
                        ],
                        "rightEye": [
                            -11.361539840698242,
                            -0.005354624707251787,
                            1.2220369577407837,
                            0.9052804112434387,
                            0.0,
                            0.602048933506012,
                            0.602048933506012,
                            0.5,
                            0.5,
                            0.7371136546134949,
                            0.6230589747428894,
                            0.602048933506012,
                            0.602048933506012,
                            0.0,
                            0.0,
                            0.0,
                            0.0,
                            0.0,
                            0.0
                        ]
                    },
                    {
                        "triggerTime_ms": 1221,
                        "faceAngle": 0.0,
                        "faceCenterX": 0.0,
                        "faceCenterY": 2.6236648559570312,
                        "faceScaleX": 1.176682472229004,
                        "faceScaleY": 0.9684934020042419,
                        "leftEye": [
                            10.93139934539795,
                            1.6377174461013055e-06,
                            1.355303168296814,
                            0.9052804112434387,
                            0.0,
                            0.5,
                            0.5,
                            0.5,
                            0.5,
                            0.5,
                            0.5,
                            0.5,
                            0.5,
                            0.0,
                            0.0,
                            0.0,
                            0.0,
                            0.0,
                            0.0
                        ],
                        "rightEye": [
                            -12.048280715942383,
                            -1.61002083132189e-06,
                            1.2220369577407837,
                            0.9052804112434387,
                            0.0,
                            0.5506115555763245,
                            0.5506115555763245,
                            0.5506115555763245,
                            0.5506115555763245,
                            0.5506115555763245,
                            0.5506115555763245,
                            0.5506115555763245,
                            0.5506115555763245,
                            0.04341982677578926,
                            0.8036434650421143,
                            0.0,
                            0.0,
                            0.0,
                            0.0
                        ]
                    },
                    {
                        "triggerTime_ms": 1287,
                        "faceAngle": 0.0,
                        "faceCenterX": 0.0,
                        "faceCenterY": -4.98949670791626,
                        "faceScaleX": 1.1273106336593628,
                        "faceScaleY": 1.3009096384048462,
                        "leftEye": [
                            11.183481216430664,
                            5.76476509195345e-07,
                            1.2088961601257324,
                            0.9052804112434387,
                            0.0,
                            0.5188646912574768,
                            0.5188646912574768,
                            0.5,
                            0.5,
                            0.5438326597213745,
                            0.5227486491203308,
                            0.5188646912574768,
                            0.5188646912574768,
                            0.0,
                            0.0,
                            0.0,
                            0.0,
                            0.0,
                            0.0
                        ],
                        "rightEye": [
                            -12.089110374450684,
                            -0.005722402594983578,
                            1.2220369577407837,
                            0.9052804112434387,
                            0.0,
                            0.5371965765953064,
                            0.5371965765953064,
                            0.5183318853378296,
                            0.5183318853378296,
                            0.5621645450592041,
                            0.5410804748535156,
                            0.5371965765953064,
                            0.5371965765953064,
                            0.001316960551775992,
                            0.08452793955802917,
                            0.0,
                            0.0,
                            0.0,
                            0.0
                        ]
                    },
                    {
                        "triggerTime_ms": 1386,
                        "faceAngle": 0.0,
                        "faceCenterX": 0.0,
                        "faceCenterY": -7.83640718460083,
                        "faceScaleX": 1.2276886701583862,
                        "faceScaleY": 1.3532003164291382,
                        "leftEye": [
                            11.320414543151855,
                            0.0,
                            1.214332938194275,
                            0.9052804112434387,
                            0.0,
                            0.6682828664779663,
                            0.6682828664779663,
                            0.5,
                            0.5,
                            0.8910101056098938,
                            0.7029292583465576,
                            0.6682828664779663,
                            0.6682828664779663,
                            0.0,
                            0.0,
                            0.0,
                            0.0,
                            0.0,
                            0.0
                        ],
                        "rightEye": [
                            -12.111289024353027,
                            -0.00882999412715435,
                            1.2220369577407837,
                            0.9052804112434387,
                            0.0,
                            0.6682828664779663,
                            0.6682828664779663,
                            0.5,
                            0.5,
                            0.8910101056098938,
                            0.7029292583465576,
                            0.6682828664779663,
                            0.6682828664779663,
                            0.0,
                            0.0,
                            0.0,
                            0.0,
                            0.0,
                            0.0
                        ]
                    },
                    {
                        "triggerTime_ms": 1452,
                        "faceAngle": 0.0,
                        "faceCenterX": 0.0,
                        "faceCenterY": -8.061903953552246,
                        "faceScaleX": 1.25095534324646,
                        "faceScaleY": 1.35969877243042,
                        "leftEye": [
                            11.320414543151855,
                            0.0,
                            1.214332938194275,
                            0.9052804112434387,
                            0.0,
                            0.6682828664779663,
                            0.6682828664779663,
                            0.5,
                            0.5,
                            0.8910101056098938,
                            0.7029292583465576,
                            0.6682828664779663,
                            0.6682828664779663,
                            0.0,
                            0.0,
                            0.0,
                            0.0,
                            0.0,
                            0.0
                        ],
                        "rightEye": [
                            -12.111289024353027,
                            -0.00882999412715435,
                            1.2220369577407837,
                            0.9052804112434387,
                            0.0,
                            0.6682828664779663,
                            0.6682828664779663,
                            0.5,
                            0.5,
                            0.8910101056098938,
                            0.7029292583465576,
                            0.6682828664779663,
                            0.6682828664779663,
                            0.0,
                            0.0,
                            0.0,
                            0.0,
                            0.0,
                            0.0
                        ]
                    },
                    {
                        "triggerTime_ms": 1584,
                        "faceAngle": 0.0,
                        "faceCenterX": 0.0,
                        "faceCenterY": -5.7015790939331055,
                        "faceScaleX": 1.1412653923034668,
                        "faceScaleY": 1.2111011743545532,
                        "leftEye": [
                            10.473907470703125,
                            0.0,
                            1.214332938194275,
                            0.9052804112434387,
                            0.0,
                            0.602048933506012,
                            0.602048933506012,
                            0.5,
                            0.5,
                            0.7371136546134949,
                            0.6230589747428894,
                            0.602048933506012,
                            0.602048933506012,
                            0.0,
                            0.0,
                            0.0,
                            0.0,
                            0.0,
                            0.0
                        ],
                        "rightEye": [
                            -11.361539840698242,
                            -0.005354624707251787,
                            1.2220369577407837,
                            0.9052804112434387,
                            0.0,
                            0.602048933506012,
                            0.602048933506012,
                            0.5,
                            0.5,
                            0.7371136546134949,
                            0.6230589747428894,
                            0.602048933506012,
                            0.602048933506012,
                            0.0,
                            0.0,
                            0.0,
                            0.0,
                            0.0,
                            0.0
                        ]
                    },
                    {
                        "triggerTime_ms": 2970,
                        "faceAngle": 0.0,
                        "faceCenterX": 0.0,
                        "faceCenterY": -5.7015790939331055,
                        "faceScaleX": 1.1412653923034668,
                        "faceScaleY": 1.2111011743545532,
                        "leftEye": [
                            10.473907470703125,
                            0.0,
                            1.214332938194275,
                            0.9052804112434387,
                            0.0,
                            0.602048933506012,
                            0.602048933506012,
                            0.5,
                            0.5,
                            0.7371136546134949,
                            0.6230589747428894,
                            0.602048933506012,
                            0.602048933506012,
                            0.0,
                            0.0,
                            0.0,
                            0.0,
                            0.0,
                            0.0
                        ],
                        "rightEye": [
                            -11.361539840698242,
                            -0.005354624707251787,
                            1.2220369577407837,
                            0.9052804112434387,
                            0.0,
                            0.602048933506012,
                            0.602048933506012,
                            0.5,
                            0.5,
                            0.7371136546134949,
                            0.6230589747428894,
                            0.602048933506012,
                            0.602048933506012,
                            0.0,
                            0.0,
                            0.0,
                            0.0,
                            0.0,
                            0.0
                        ]
                    }
                ],
                "HeadAngleKeyFrame": [],
                "RobotAudioKeyFrame": [
                    {
                        "triggerTime_ms": 1089,
                        "audioEventId": [
                            1701725212
                        ],
                        "volume": 1.0,
                        "probability": [
                            1.0
                        ],
                        "hasAlts": true
                    },
                    {
                        "triggerTime_ms": 1287,
                        "audioEventId": [
                            1143549143
                        ],
                        "volume": 1.0,
                        "probability": [
                            1.0
                        ],
                        "hasAlts": true
                    }
                ],
                "BackpackLightsKeyFrame": [],
                "FaceAnimationKeyFrame": [],
                "EventKeyFrame": [],
                "BodyMotionKeyFrame": [],
                "RecordHeadingKeyFrame": [],
                "TurnToRecordedHeadingKeyFrame": []
            }
        },
        {
            "Name": "anim_fistbump_idle_03",
            "keyframes": {
                "LiftHeightKeyFrame": [
                    {
                        "triggerTime_ms": 0,
                        "durationTime_ms": 2640,
                        "height_mm": 80,
                        "heightVariability_mm": 0
                    }
                ],
                "ProceduralFaceKeyFrame": [
                    {
                        "triggerTime_ms": 0,
                        "faceAngle": 0.0,
                        "faceCenterX": 0.0,
                        "faceCenterY": -5.7015790939331055,
                        "faceScaleX": 1.1412653923034668,
                        "faceScaleY": 1.2111011743545532,
                        "leftEye": [
                            10.473907470703125,
                            0.0,
                            1.214332938194275,
                            0.9052804112434387,
                            0.0,
                            0.602048933506012,
                            0.602048933506012,
                            0.5,
                            0.5,
                            0.7371136546134949,
                            0.6230589747428894,
                            0.602048933506012,
                            0.602048933506012,
                            0.0,
                            0.0,
                            0.0,
                            0.0,
                            0.0,
                            0.0
                        ],
                        "rightEye": [
                            -11.361539840698242,
                            -0.005354624707251787,
                            1.2220369577407837,
                            0.9052804112434387,
                            0.0,
                            0.602048933506012,
                            0.602048933506012,
                            0.5,
                            0.5,
                            0.7371136546134949,
                            0.6230589747428894,
                            0.602048933506012,
                            0.602048933506012,
                            0.0,
                            0.0,
                            0.0,
                            0.0,
                            0.0,
                            0.0
                        ]
                    },
                    {
                        "triggerTime_ms": 462,
                        "faceAngle": 0.0,
                        "faceCenterX": 0.0,
                        "faceCenterY": -5.7015790939331055,
                        "faceScaleX": 1.1412653923034668,
                        "faceScaleY": 1.2111011743545532,
                        "leftEye": [
                            10.473907470703125,
                            0.0,
                            1.214332938194275,
                            0.9052804112434387,
                            0.0,
                            0.602048933506012,
                            0.602048933506012,
                            0.5,
                            0.5,
                            0.7371136546134949,
                            0.6230589747428894,
                            0.602048933506012,
                            0.602048933506012,
                            0.0,
                            0.0,
                            0.0,
                            0.0,
                            0.0,
                            0.0
                        ],
                        "rightEye": [
                            -11.361539840698242,
                            -0.005354624707251787,
                            1.2220369577407837,
                            0.9052804112434387,
                            0.0,
                            0.602048933506012,
                            0.602048933506012,
                            0.5,
                            0.5,
                            0.7371136546134949,
                            0.6230589747428894,
                            0.602048933506012,
                            0.602048933506012,
                            0.0,
                            0.0,
                            0.0,
                            0.0,
                            0.0,
                            0.0
                        ]
                    },
                    {
                        "triggerTime_ms": 528,
                        "faceAngle": 0.0,
                        "faceCenterX": 0.0,
                        "faceCenterY": -8.061903953552246,
                        "faceScaleX": 1.2329524755477905,
                        "faceScaleY": 1.3481144905090332,
                        "leftEye": [
                            11.320414543151855,
                            0.0,
                            1.214332938194275,
                            0.9052804112434387,
                            0.0,
                            0.6682828664779663,
                            0.6682828664779663,
                            0.5,
                            0.5,
                            0.8910101056098938,
                            0.7029292583465576,
                            0.6682828664779663,
                            0.6682828664779663,
                            0.0,
                            0.0,
                            0.0,
                            0.0,
                            0.0,
                            0.0
                        ],
                        "rightEye": [
                            -12.111289024353027,
                            -0.00882999412715435,
                            1.2220369577407837,
                            0.9052804112434387,
                            0.0,
                            0.6682828664779663,
                            0.6682828664779663,
                            0.5,
                            0.5,
                            0.8910101056098938,
                            0.7029292583465576,
                            0.6682828664779663,
                            0.6682828664779663,
                            0.0,
                            0.0,
                            0.0,
                            0.0,
                            0.0,
                            0.0
                        ]
                    },
                    {
                        "triggerTime_ms": 594,
                        "faceAngle": 0.0,
                        "faceCenterX": 0.0,
                        "faceCenterY": -6.865515232086182,
                        "faceScaleX": 1.2329524755477905,
                        "faceScaleY": 1.266852617263794,
                        "leftEye": [
                            7.574244499206543,
                            0.5378971099853516,
                            1.214332938194275,
                            0.9251570105552673,
                            0.0,
                            0.6682828664779663,
                            0.6682828664779663,
                            0.5,
                            0.5,
                            0.8910101056098938,
                            0.7029292583465576,
                            0.6682828664779663,
                            0.6682828664779663,
                            0.0,
                            0.0,
                            0.0,
                            0.0,
                            0.0,
                            0.0
                        ],
                        "rightEye": [
                            -16.9664249420166,
                            1.570300579071045,
                            1.1281760931015015,
                            0.8469648361206055,
                            0.0,
                            0.6682828664779663,
                            0.6682828664779663,
                            0.5,
                            0.5,
                            0.8910101056098938,
                            0.7029292583465576,
                            0.6682828664779663,
                            0.6682828664779663,
                            0.0,
                            0.0,
                            0.0,
                            0.0,
                            0.0,
                            0.0
                        ]
                    },
                    {
                        "triggerTime_ms": 660,
                        "faceAngle": 0.0,
                        "faceCenterX": 0.0,
                        "faceCenterY": -6.865515232086182,
                        "faceScaleX": 1.2329524755477905,
                        "faceScaleY": 1.3481144905090332,
                        "leftEye": [
                            6.370922565460205,
                            0.5378971099853516,
                            1.214332938194275,
                            0.9251570105552673,
                            0.0,
                            0.6682828664779663,
                            0.6682828664779663,
                            0.5,
                            0.5,
                            0.8910101056098938,
                            0.7029292583465576,
                            0.6682828664779663,
                            0.6682828664779663,
                            0.0,
                            0.0,
                            0.0,
                            0.0,
                            0.0,
                            0.0
                        ],
                        "rightEye": [
                            -19.29128074645996,
                            1.570300579071045,
                            1.1281760931015015,
                            0.8271504044532776,
                            0.0,
                            0.6682828664779663,
                            0.6682828664779663,
                            0.5,
                            0.5,
                            0.8910101056098938,
                            0.7029292583465576,
                            0.6682828664779663,
                            0.6682828664779663,
                            0.0,
                            0.0,
                            0.0,
                            0.0,
                            0.0,
                            0.0
                        ]
                    },
                    {
                        "triggerTime_ms": 1683,
                        "faceAngle": 0.0,
                        "faceCenterX": 0.0,
                        "faceCenterY": -6.865515232086182,
                        "faceScaleX": 1.2329524755477905,
                        "faceScaleY": 1.3481144905090332,
                        "leftEye": [
                            6.370922565460205,
                            0.5378971099853516,
                            1.214332938194275,
                            0.9251570105552673,
                            0.0,
                            0.6682828664779663,
                            0.6682828664779663,
                            0.5,
                            0.5,
                            0.8910101056098938,
                            0.7029292583465576,
                            0.6682828664779663,
                            0.6682828664779663,
                            0.0,
                            0.0,
                            0.0,
                            0.0,
                            0.0,
                            0.0
                        ],
                        "rightEye": [
                            -19.29128074645996,
                            1.570300579071045,
                            1.1281760931015015,
                            0.8271504044532776,
                            0.0,
                            0.6682828664779663,
                            0.6682828664779663,
                            0.5,
                            0.5,
                            0.8910101056098938,
                            0.7029292583465576,
                            0.6682828664779663,
                            0.6682828664779663,
                            0.0,
                            0.0,
                            0.0,
                            0.0,
                            0.0,
                            0.0
                        ]
                    },
                    {
                        "triggerTime_ms": 1782,
                        "faceAngle": 0.0,
                        "faceCenterX": 0.0,
                        "faceCenterY": -6.865515232086182,
                        "faceScaleX": 1.2329524755477905,
                        "faceScaleY": 1.3481144905090332,
                        "leftEye": [
                            6.370922565460205,
                            0.5378971099853516,
                            1.214332938194275,
                            0.9251570105552673,
                            0.0,
                            0.6682828664779663,
                            0.6682828664779663,
                            0.5,
                            0.5,
                            0.8910101056098938,
                            0.7029292583465576,
                            0.6682828664779663,
                            0.6682828664779663,
                            0.0,
                            0.0,
                            0.0,
                            0.0,
                            0.0,
                            0.0
                        ],
                        "rightEye": [
                            -19.05304527282715,
                            1.570300579071045,
                            1.1281760931015015,
                            0.8469648361206055,
                            0.0,
                            0.6682828664779663,
                            0.6682828664779663,
                            0.5,
                            0.5,
                            0.8910101056098938,
                            0.7029292583465576,
                            0.6682828664779663,
                            0.6682828664779663,
                            0.0,
                            0.0,
                            0.0,
                            0.0,
                            0.0,
                            0.0
                        ]
                    },
                    {
                        "triggerTime_ms": 1848,
                        "faceAngle": 0.0,
                        "faceCenterX": 0.0,
                        "faceCenterY": -6.865515232086182,
                        "faceScaleX": 1.2329524755477905,
                        "faceScaleY": 1.1120905876159668,
                        "leftEye": [
                            7.574244499206543,
                            0.5378971099853516,
                            1.214332938194275,
                            0.9251570105552673,
                            0.0,
                            0.6682828664779663,
                            0.6682828664779663,
                            0.5,
                            0.5,
                            0.8910101056098938,
                            0.7029292583465576,
                            0.6682828664779663,
                            0.6682828664779663,
                            0.0,
                            0.0,
                            0.0,
                            0.0,
                            0.0,
                            0.0
                        ],
                        "rightEye": [
                            -16.9664249420166,
                            1.570300579071045,
                            1.1281760931015015,
                            0.8469648361206055,
                            0.0,
                            0.6682828664779663,
                            0.6682828664779663,
                            0.5,
                            0.5,
                            0.8910101056098938,
                            0.7029292583465576,
                            0.6682828664779663,
                            0.6682828664779663,
                            0.0,
                            0.0,
                            0.0,
                            0.0,
                            0.0,
                            0.0
                        ]
                    },
                    {
                        "triggerTime_ms": 1914,
                        "faceAngle": 0.0,
                        "faceCenterX": 0.0,
                        "faceCenterY": -5.7015790939331055,
                        "faceScaleX": 1.1412653923034668,
                        "faceScaleY": 1.2111011743545532,
                        "leftEye": [
                            10.473907470703125,
                            0.0,
                            1.214332938194275,
                            0.9052804112434387,
                            0.0,
                            0.602048933506012,
                            0.602048933506012,
                            0.5,
                            0.5,
                            0.7371136546134949,
                            0.6230589747428894,
                            0.602048933506012,
                            0.602048933506012,
                            0.0,
                            0.0,
                            0.0,
                            0.0,
                            0.0,
                            0.0
                        ],
                        "rightEye": [
                            -11.361539840698242,
                            -0.005354624707251787,
                            1.2220369577407837,
                            0.9052804112434387,
                            0.0,
                            0.602048933506012,
                            0.602048933506012,
                            0.5,
                            0.5,
                            0.7371136546134949,
                            0.6230589747428894,
                            0.602048933506012,
                            0.602048933506012,
                            0.0,
                            0.0,
                            0.0,
                            0.0,
                            0.0,
                            0.0
                        ]
                    },
                    {
                        "triggerTime_ms": 3003,
                        "faceAngle": 0.0,
                        "faceCenterX": 0.0,
                        "faceCenterY": -5.7015790939331055,
                        "faceScaleX": 1.1412653923034668,
                        "faceScaleY": 1.2111011743545532,
                        "leftEye": [
                            10.473907470703125,
                            0.0,
                            1.214332938194275,
                            0.9052804112434387,
                            0.0,
                            0.602048933506012,
                            0.602048933506012,
                            0.5,
                            0.5,
                            0.7371136546134949,
                            0.6230589747428894,
                            0.602048933506012,
                            0.602048933506012,
                            0.0,
                            0.0,
                            0.0,
                            0.0,
                            0.0,
                            0.0
                        ],
                        "rightEye": [
                            -11.361539840698242,
                            -0.005354624707251787,
                            1.2220369577407837,
                            0.9052804112434387,
                            0.0,
                            0.602048933506012,
                            0.602048933506012,
                            0.5,
                            0.5,
                            0.7371136546134949,
                            0.6230589747428894,
                            0.602048933506012,
                            0.602048933506012,
                            0.0,
                            0.0,
                            0.0,
                            0.0,
                            0.0,
                            0.0
                        ]
                    }
                ],
                "HeadAngleKeyFrame": [],
                "RobotAudioKeyFrame": [
                    {
                        "triggerTime_ms": 495,
                        "audioEventId": [
                            1279900047
                        ],
                        "volume": 1.0,
                        "probability": [
                            1.0
                        ],
                        "hasAlts": true
                    },
                    {
                        "triggerTime_ms": 1848,
                        "audioEventId": [
                            3560778311
                        ],
                        "volume": 1.0,
                        "probability": [
                            1.0
                        ],
                        "hasAlts": true
                    }
                ],
                "BackpackLightsKeyFrame": [],
                "FaceAnimationKeyFrame": [],
                "EventKeyFrame": [],
                "BodyMotionKeyFrame": [
                    {
                        "triggerTime_ms": 462,
                        "durationTime_ms": 297,
                        "radius_mm": "TURN_IN_PLACE",
                        "speed": -20
                    },
                    {
                        "triggerTime_ms": 1848,
                        "durationTime_ms": 132,
                        "radius_mm": "TURN_IN_PLACE",
                        "speed": 45
                    }
                ],
                "RecordHeadingKeyFrame": [],
                "TurnToRecordedHeadingKeyFrame": []
            }
        }
    ]
}