{
    "clips": [
        {
            "Name": "anim_pyramid_rt2blocks_01",
            "keyframes": {
                "LiftHeightKeyFrame": [
                    {
                        "triggerTime_ms": 0,
                        "durationTime_ms": 132,
                        "height_mm": 0,
                        "heightVariability_mm": 0
                    },
                    {
                        "triggerTime_ms": 198,
                        "durationTime_ms": 66,
                        "height_mm": 42,
                        "heightVariability_mm": 0
                    },
                    {
                        "triggerTime_ms": 264,
                        "durationTime_ms": 66,
                        "height_mm": 0,
                        "heightVariability_mm": 0
                    },
                    {
                        "triggerTime_ms": 1617,
                        "durationTime_ms": 66,
                        "height_mm": 53,
                        "heightVariability_mm": 0
                    },
                    {
                        "triggerTime_ms": 1683,
                        "durationTime_ms": 132,
                        "height_mm": 0,
                        "heightVariability_mm": 0
                    }
                ],
                "ProceduralFaceKeyFrame": [
                    {
                        "triggerTime_ms": 0,
                        "faceAngle": 0.0,
                        "faceCenterX": 0.0,
                        "faceCenterY": 0.0,
                        "faceScaleX": 1.0,
                        "faceScaleY": 1.0,
                        "leftEye": [
                            9.169666290283203,
                            0.0,
                            1.214332938194275,
                            0.9052804112434387,
                            0.0,
                            0.5,
                            0.5,
                            0.5,
                            0.5,
                            0.5,
                            0.5,
                            0.5,
                            0.5,
                            0.0,
                            0.0,
                            0.0,
                            0.0,
                            0.0,
                            0.0
                        ],
                        "rightEye": [
                            -10.206374168395996,
                            0.0,
                            1.2220369577407837,
                            0.9052804112434387,
                            0.0,
                            0.5,
                            0.5,
                            0.5,
                            0.5,
                            0.5,
                            0.5,
                            0.5,
                            0.5,
                            0.0,
                            0.0,
                            0.0,
                            0.0,
                            0.0,
                            0.0
                        ]
                    },
                    {
                        "triggerTime_ms": 132,
                        "faceAngle": 0.0,
                        "faceCenterX": 0.0,
                        "faceCenterY": 0.0,
                        "faceScaleX": 1.0,
                        "faceScaleY": 1.0,
                        "leftEye": [
                            9.169666290283203,
                            0.0,
                            1.214332938194275,
                            0.9052804112434387,
                            0.0,
                            0.5,
                            0.5,
                            0.5,
                            0.5,
                            0.5,
                            0.5,
                            0.5,
                            0.5,
                            0.0,
                            0.0,
                            0.0,
                            0.0,
                            0.0,
                            0.0
                        ],
                        "rightEye": [
                            -10.206374168395996,
                            0.0,
                            1.2220369577407837,
                            0.9052804112434387,
                            0.0,
                            0.5,
                            0.5,
                            0.5,
                            0.5,
                            0.5,
                            0.5,
                            0.5,
                            0.5,
                            0.0,
                            0.0,
                            0.0,
                            0.0,
                            0.0,
                            0.0
                        ]
                    },
                    {
                        "triggerTime_ms": 165,
                        "faceAngle": 0.0,
                        "faceCenterX": 0.0,
                        "faceCenterY": 1.5042827129364014,
                        "faceScaleX": 1.1284111738204956,
                        "faceScaleY": 0.8548101186752319,
                        "leftEye": [
                            9.169666290283203,
                            0.0,
                            1.2589564323425293,
                            0.9052804112434387,
                            0.0,
                            0.2549999952316284,
                            0.2549999952316284,
                            0.2549999952316284,
                            0.2549999952316284,
                            0.2549999952316284,
                            0.2549999952316284,
                            0.2549999952316284,
                            0.2549999952316284,
                            0.0,
                            0.0,
                            0.0,
                            0.0,
                            0.0,
                            0.0
                        ],
                        "rightEye": [
                            -10.206374168395996,
                            0.0,
                            1.2682644128799438,
                            0.9052804112434387,
                            0.0,
                            0.2549999952316284,
                            0.2549999952316284,
                            0.2549999952316284,
                            0.2549999952316284,
                            0.2549999952316284,
                            0.2549999952316284,
                            0.2549999952316284,
                            0.2549999952316284,
                            0.0,
                            0.0,
                            0.0,
                            0.0,
                            0.0,
                            0.0
                        ]
                    },
                    {
                        "triggerTime_ms": 198,
                        "faceAngle": 0.0,
                        "faceCenterX": 0.0,
                        "faceCenterY": 9.587204933166504,
                        "faceScaleX": 1.818399429321289,
                        "faceScaleY": 0.07466530054807663,
                        "leftEye": [
                            9.169666290283203,
                            0.0,
                            1.558449149131775,
                            0.9052804112434387,
                            0.0,
                            0.009999999776482582,
                            0.009999999776482582,
                            0.009999999776482582,
                            0.009999999776482582,
                            0.009999999776482582,
                            0.009999999776482582,
                            0.009999999776482582,
                            0.009999999776482582,
                            0.0,
                            0.0,
                            0.0,
                            0.0,
                            0.0,
                            0.0
                        ],
                        "rightEye": [
                            -10.206374168395996,
                            0.0,
                            1.5785222053527832,
                            0.9052804112434387,
                            0.0,
                            0.009999999776482582,
                            0.009999999776482582,
                            0.009999999776482582,
                            0.009999999776482582,
                            0.009999999776482582,
                            0.009999999776482582,
                            0.009999999776482582,
                            0.009999999776482582,
                            0.0,
                            0.0,
                            0.0,
                            0.0,
                            0.0,
                            0.0
                        ]
                    },
                    {
                        "triggerTime_ms": 231,
                        "faceAngle": 0.0,
                        "faceCenterX": 0.0,
                        "faceCenterY": 7.048956871032715,
                        "faceScaleX": 0.9164057374000549,
                        "faceScaleY": 0.46957364678382874,
                        "leftEye": [
                            9.169666290283203,
                            0.0,
                            1.3487670421600342,
                            0.991806149482727,
                            0.0,
                            0.5,
                            0.5,
                            0.5,
                            0.5,
                            0.5,
                            0.5,
                            0.5,
                            0.5,
                            0.0,
                            0.0,
                            0.0,
                            0.0,
                            0.0,
                            0.0
                        ],
                        "rightEye": [
                            -10.206374168395996,
                            0.0,
                            1.3613033294677734,
                            0.991806149482727,
                            0.0,
                            0.5,
                            0.5,
                            0.5,
                            0.5,
                            0.5,
                            0.5,
                            0.5,
                            0.5,
                            0.0,
                            0.0,
                            0.0,
                            0.0,
                            0.0,
                            0.0
                        ]
                    },
                    {
                        "triggerTime_ms": 297,
                        "faceAngle": 0.0,
                        "faceCenterX": 0.0,
                        "faceCenterY": 4.8457841873168945,
                        "faceScaleX": 1.0282610654830933,
                        "faceScaleY": 0.9284141659736633,
                        "leftEye": [
                            9.169666290283203,
                            0.0,
                            1.2689002752304077,
                            0.9414042830467224,
                            0.0,
                            0.5,
                            0.5,
                            0.5,
                            0.5,
                            0.5,
                            0.5,
                            0.5,
                            0.5,
                            0.0,
                            0.0,
                            0.0,
                            0.0,
                            0.0,
                            0.0
                        ],
                        "rightEye": [
                            -10.206374168395996,
                            0.0,
                            1.2785656452178955,
                            0.940401554107666,
                            0.0,
                            0.5,
                            0.5,
                            0.5,
                            0.5,
                            0.5,
                            0.5,
                            0.5,
                            0.5,
                            0.0,
                            0.0,
                            0.0,
                            0.0,
                            0.0,
                            0.0
                        ]
                    },
                    {
                        "triggerTime_ms": 330,
                        "faceAngle": 0.0,
                        "faceCenterX": 0.0,
                        "faceCenterY": 6.264437675476074,
                        "faceScaleX": 1.0,
                        "faceScaleY": 0.8614626526832581,
                        "leftEye": [
                            9.169666290283203,
                            0.0,
                            1.2645668983459473,
                            0.9387182593345642,
                            0.0,
                            0.5,
                            0.5,
                            0.5,
                            0.5,
                            0.5,
                            0.5,
                            0.5,
                            0.5,
                            0.0,
                            0.0,
                            0.0,
                            0.0,
                            0.0,
                            0.0
                        ],
                        "rightEye": [
                            -10.206374168395996,
                            0.0,
                            1.2740765810012817,
                            0.9376124739646912,
                            0.0,
                            0.5,
                            0.5,
                            0.5,
                            0.5,
                            0.5,
                            0.5,
                            0.5,
                            0.5,
                            0.0,
                            0.0,
                            0.0,
                            0.0,
                            0.0,
                            0.0
                        ]
                    },
                    {
                        "triggerTime_ms": 462,
                        "faceAngle": 0.0,
                        "faceCenterX": 0.0,
                        "faceCenterY": 6.264437675476074,
                        "faceScaleX": 1.0,
                        "faceScaleY": 0.8614626526832581,
                        "leftEye": [
                            9.169666290283203,
                            0.0,
                            1.2645668983459473,
                            0.9387182593345642,
                            0.0,
                            0.5,
                            0.5,
                            0.5,
                            0.5,
                            0.5,
                            0.5,
                            0.5,
                            0.5,
                            0.0,
                            0.0,
                            0.0,
                            0.0,
                            0.0,
                            0.0
                        ],
                        "rightEye": [
                            -10.206374168395996,
                            0.0,
                            1.2740765810012817,
                            0.9376124739646912,
                            0.0,
                            0.5,
                            0.5,
                            0.5,
                            0.5,
                            0.5,
                            0.5,
                            0.5,
                            0.5,
                            0.0,
                            0.0,
                            0.0,
                            0.0,
                            0.0,
                            0.0
                        ]
                    },
                    {
                        "triggerTime_ms": 495,
                        "faceAngle": 0.0,
                        "faceCenterX": 0.0,
                        "faceCenterY": 4.685005187988281,
                        "faceScaleX": 0.8920308947563171,
                        "faceScaleY": 0.9390171766281128,
                        "leftEye": [
                            9.169666290283203,
                            0.0,
                            1.2645668983459473,
                            0.9387182593345642,
                            0.0,
                            0.5,
                            0.5,
                            0.5,
                            0.5,
                            0.5,
                            0.5,
                            0.5,
                            0.5,
                            0.0,
                            0.0,
                            0.0,
                            0.0,
                            0.0,
                            0.0
                        ],
                        "rightEye": [
                            -10.206374168395996,
                            0.0,
                            1.2740765810012817,
                            0.9376124739646912,
                            0.0,
                            0.5,
                            0.5,
                            0.5,
                            0.5,
                            0.5,
                            0.5,
                            0.5,
                            0.5,
                            0.0,
                            0.0,
                            0.0,
                            0.0,
                            0.0,
                            0.0
                        ]
                    },
                    {
                        "triggerTime_ms": 561,
                        "faceAngle": 0.0,
                        "faceCenterX": 0.0,
                        "faceCenterY": 0.0,
                        "faceScaleX": 1.0,
                        "faceScaleY": 1.0,
                        "leftEye": [
                            9.169666290283203,
                            0.0,
                            1.2645668983459473,
                            0.9387182593345642,
                            0.0,
                            0.5,
                            0.5,
                            0.5,
                            0.5,
                            0.5,
                            0.5,
                            0.5,
                            0.5,
                            0.0,
                            0.0,
                            0.0,
                            0.0,
                            0.0,
                            0.0
                        ],
                        "rightEye": [
                            -10.206374168395996,
                            0.0,
                            1.2740765810012817,
                            0.9376124739646912,
                            0.0,
                            0.5,
                            0.5,
                            0.5,
                            0.5,
                            0.5,
                            0.5,
                            0.5,
                            0.5,
                            0.0,
                            0.0,
                            0.0,
                            0.0,
                            0.0,
                            0.0
                        ]
                    },
                    {
                        "triggerTime_ms": 627,
                        "faceAngle": 0.0,
                        "faceCenterX": 0.0,
                        "faceCenterY": 0.0,
                        "faceScaleX": 1.0,
                        "faceScaleY": 1.0,
                        "leftEye": [
                            9.169666290283203,
                            0.0,
                            1.2645668983459473,
                            0.9387182593345642,
                            0.0,
                            0.5,
                            0.5,
                            0.5,
                            0.5,
                            0.5,
                            0.5,
                            0.5,
                            0.5,
                            0.0,
                            0.0,
                            0.0,
                            0.0,
                            0.0,
                            0.0
                        ],
                        "rightEye": [
                            -10.206374168395996,
                            0.0,
                            1.2740765810012817,
                            0.9376124739646912,
                            0.0,
                            0.5,
                            0.5,
                            0.5,
                            0.5,
                            0.5,
                            0.5,
                            0.5,
                            0.5,
                            0.0,
                            0.0,
                            0.0,
                            0.0,
                            0.0,
                            0.0
                        ]
                    },
                    {
                        "triggerTime_ms": 660,
                        "faceAngle": 0.0,
                        "faceCenterX": 0.06206415966153145,
                        "faceCenterY": 0.0,
                        "faceScaleX": 1.0,
                        "faceScaleY": 0.8799706101417542,
                        "leftEye": [
                            9.169666290283203,
                            0.0,
                            1.2424452304840088,
                            0.9273831844329834,
                            0.0,
                            0.5,
                            0.5,
                            0.5,
                            0.5,
                            0.5,
                            0.5,
                            0.5,
                            0.5,
                            0.0,
                            0.0,
                            0.0,
                            0.0,
                            0.0,
                            0.0
                        ],
                        "rightEye": [
                            -10.206374168395996,
                            0.0,
                            1.2511597871780396,
                            0.9233742952346802,
                            0.0,
                            0.5,
                            0.5,
                            0.5,
                            0.5,
                            0.5,
                            0.5,
                            0.5,
                            0.5,
                            0.0,
                            0.0,
                            0.0,
                            0.0,
                            0.0,
                            0.0
                        ]
                    },
                    {
                        "triggerTime_ms": 693,
                        "faceAngle": 0.0,
                        "faceCenterX": 0.3698498606681824,
                        "faceCenterY": 0.0,
                        "faceScaleX": 1.0,
                        "faceScaleY": 0.7274373769760132,
                        "leftEye": [
                            9.169666290283203,
                            0.0,
                            1.214332938194275,
                            0.9052804112434387,
                            0.0,
                            0.5,
                            0.5,
                            0.5,
                            0.5,
                            0.5,
                            0.5,
                            0.5,
                            0.5,
                            0.0,
                            0.0,
                            0.0,
                            0.0,
                            0.0,
                            0.0
                        ],
                        "rightEye": [
                            -10.206374168395996,
                            0.0,
                            1.2220369577407837,
                            0.9052804112434387,
                            0.0,
                            0.5,
                            0.5,
                            0.5,
                            0.5,
                            0.5,
                            0.5,
                            0.5,
                            0.5,
                            0.0,
                            0.0,
                            0.0,
                            0.0,
                            0.0,
                            0.0
                        ]
                    },
                    {
                        "triggerTime_ms": 759,
                        "faceAngle": 0.0,
                        "faceCenterX": 1.3878819942474365,
                        "faceCenterY": 0.0,
                        "faceScaleX": 1.0,
                        "faceScaleY": 0.9270938634872437,
                        "leftEye": [
                            17.627397537231445,
                            -0.005827347747981548,
                            1.214332938194275,
                            0.8978821039199829,
                            0.0,
                            0.5368749499320984,
                            0.5368749499320984,
                            0.5368749499320984,
                            0.5368749499320984,
                            0.5368749499320984,
                            0.5368749499320984,
                            0.5368749499320984,
                            0.5368749499320984,
                            0.0,
                            0.0,
                            0.0,
                            0.0,
                            0.0,
                            0.0
                        ],
                        "rightEye": [
                            -2.5434741973876953,
                            -0.43501460552215576,
                            1.2220369577407837,
                            0.9831382036209106,
                            0.0,
                            0.5,
                            0.5,
                            0.5,
                            0.5,
                            0.5,
                            0.5,
                            0.5,
                            0.5,
                            0.0,
                            0.0,
                            0.0,
                            0.0,
                            0.0,
                            0.0
                        ]
                    },
                    {
                        "triggerTime_ms": 858,
                        "faceAngle": 0.0,
                        "faceCenterX": 1.9657725095748901,
                        "faceCenterY": 0.0,
                        "faceScaleX": 1.0,
                        "faceScaleY": 1.0,
                        "leftEye": [
                            17.627397537231445,
                            -0.005827347747981548,
                            1.214332938194275,
                            0.8978821039199829,
                            0.0,
                            0.5368749499320984,
                            0.5368749499320984,
                            0.5368749499320984,
                            0.5368749499320984,
                            0.5368749499320984,
                            0.5368749499320984,
                            0.5368749499320984,
                            0.5368749499320984,
                            0.0,
                            0.0,
                            0.0,
                            0.0,
                            0.0,
                            0.0
                        ],
                        "rightEye": [
                            -2.5434741973876953,
                            -0.43501460552215576,
                            1.2220369577407837,
                            0.9831382036209106,
                            0.0,
                            0.5,
                            0.5,
                            0.5,
                            0.5,
                            0.5,
                            0.5,
                            0.5,
                            0.5,
                            0.0,
                            0.0,
                            0.0,
                            0.0,
                            0.0,
                            0.0
                        ]
                    },
                    {
                        "triggerTime_ms": 957,
                        "faceAngle": 0.0,
                        "faceCenterX": 2.6861531734466553,
                        "faceCenterY": 1.1288291215896606,
                        "faceScaleX": 1.0,
                        "faceScaleY": 1.0,
                        "leftEye": [
                            17.627397537231445,
                            -0.005827347747981548,
                            1.214332938194275,
                            0.8978821039199829,
                            0.0,
                            0.5368749499320984,
                            0.5368749499320984,
                            0.5368749499320984,
                            0.5368749499320984,
                            0.5368749499320984,
                            0.5368749499320984,
                            0.5368749499320984,
                            0.5368749499320984,
                            0.0,
                            0.0,
                            0.0,
                            0.0,
                            0.0,
                            0.0
                        ],
                        "rightEye": [
                            -2.5434741973876953,
                            -0.43501460552215576,
                            1.2220369577407837,
                            0.9831382036209106,
                            0.0,
                            0.5,
                            0.5,
                            0.5,
                            0.5,
                            0.5,
                            0.5,
                            0.5,
                            0.5,
                            0.0,
                            0.0,
                            0.0,
                            0.0,
                            0.0,
                            0.0
                        ]
                    },
                    {
                        "triggerTime_ms": 990,
                        "faceAngle": 0.0,
                        "faceCenterX": 2.8180198669433594,
                        "faceCenterY": 4.386203765869141,
                        "faceScaleX": 1.0,
                        "faceScaleY": 0.7248820662498474,
                        "leftEye": [
                            13.852096557617188,
                            -0.11025631427764893,
                            1.3736097812652588,
                            0.9182709455490112,
                            0.0,
                            0.5280563831329346,
                            0.5280563831329346,
                            0.5280563831329346,
                            0.5280563831329346,
                            0.5280563831329346,
                            0.5280563831329346,
                            0.5280563831329346,
                            0.5280563831329346,
                            0.0,
                            0.0,
                            0.0,
                            0.0,
                            0.0,
                            0.0
                        ],
                        "rightEye": [
                            -6.490931510925293,
                            -0.33246394991874695,
                            1.2220369577407837,
                            0.7601316571235657,
                            0.0,
                            0.5088185667991638,
                            0.5088185667991638,
                            0.5088185667991638,
                            0.5088185667991638,
                            0.5088185667991638,
                            0.5088185667991638,
                            0.5088185667991638,
                            0.5088185667991638,
                            0.0,
                            0.0,
                            0.0,
                            0.0,
                            0.0,
                            0.0
                        ]
                    },
                    {
                        "triggerTime_ms": 1023,
                        "faceAngle": 0.0,
                        "faceCenterX": 3.0281741619110107,
                        "faceCenterY": 2.244413375854492,
                        "faceScaleX": 1.0,
                        "faceScaleY": 0.81325364112854,
                        "leftEye": [
                            4.123075008392334,
                            -0.37937161326408386,
                            1.2445955276489258,
                            0.9708133935928345,
                            0.0,
                            0.5053306818008423,
                            0.5053306818008423,
                            0.5053306818008423,
                            0.5053306818008423,
                            0.5053306818008423,
                            0.5053306818008423,
                            0.5053306818008423,
                            0.5053306818008423,
                            0.0,
                            0.0,
                            0.0,
                            0.0,
                            0.0,
                            0.0
                        ],
                        "rightEye": [
                            -16.66360092163086,
                            -0.06780849397182465,
                            1.2220369577407837,
                            0.8046377301216125,
                            0.0,
                            0.5315442681312561,
                            0.5315442681312561,
                            0.5315442681312561,
                            0.5315442681312561,
                            0.5315442681312561,
                            0.5315442681312561,
                            0.5315442681312561,
                            0.5315442681312561,
                            0.0,
                            0.0,
                            0.0,
                            0.0,
                            0.0,
                            0.0
                        ]
                    },
                    {
                        "triggerTime_ms": 1122,
                        "faceAngle": 0.0,
                        "faceCenterX": 3.0711467266082764,
                        "faceCenterY": 1.5634342432022095,
                        "faceScaleX": 1.0610624551773071,
                        "faceScaleY": 1.0,
                        "leftEye": [
                            2.3668718338012695,
                            -0.4107435345649719,
                            1.3078091144561768,
                            0.9775510430335999,
                            0.0,
                            0.5,
                            0.5,
                            0.5,
                            0.5,
                            0.5,
                            0.5,
                            0.5,
                            0.5,
                            0.0,
                            0.0,
                            0.0,
                            0.0,
                            0.0,
                            0.0
                        ],
                        "rightEye": [
                            -18.415172576904297,
                            -0.0037320132832974195,
                            1.3188731670379639,
                            0.8984130024909973,
                            0.0,
                            0.5342287421226501,
                            0.5342287421226501,
                            0.5342287421226501,
                            0.5342287421226501,
                            0.5342287421226501,
                            0.5342287421226501,
                            0.5342287421226501,
                            0.5342287421226501,
                            0.0,
                            0.0,
                            0.0,
                            0.0,
                            0.0,
                            0.0
                        ]
                    },
                    {
                        "triggerTime_ms": 1287,
                        "faceAngle": 0.0,
                        "faceCenterX": 3.0711467266082764,
                        "faceCenterY": 1.5634342432022095,
                        "faceScaleX": 1.0610624551773071,
                        "faceScaleY": 1.0,
                        "leftEye": [
                            2.3668718338012695,
                            -0.4107435345649719,
                            1.3078091144561768,
                            0.9775510430335999,
                            0.0,
                            0.5,
                            0.5,
                            0.5,
                            0.5,
                            0.5,
                            0.5,
                            0.5,
                            0.5,
                            0.0,
                            0.0,
                            0.0,
                            0.0,
                            0.0,
                            0.0
                        ],
                        "rightEye": [
                            -18.415172576904297,
                            -0.0037320132832974195,
                            1.3188731670379639,
                            0.8984130024909973,
                            0.0,
                            0.5342287421226501,
                            0.5342287421226501,
                            0.5342287421226501,
                            0.5342287421226501,
                            0.5342287421226501,
                            0.5342287421226501,
                            0.5342287421226501,
                            0.5342287421226501,
                            0.0,
                            0.0,
                            0.0,
                            0.0,
                            0.0,
                            0.0
                        ]
                    },
                    {
                        "triggerTime_ms": 1320,
                        "faceAngle": 0.0,
                        "faceCenterX": 1.677425503730774,
                        "faceCenterY": 5.5000200271606445,
                        "faceScaleX": 1.0305312871932983,
                        "faceScaleY": 0.7629655599594116,
                        "leftEye": [
                            5.768269062042236,
                            -0.20537176728248596,
                            1.261070966720581,
                            0.9414156675338745,
                            0.0,
                            0.5,
                            0.5,
                            0.5,
                            0.5,
                            0.5,
                            0.5,
                            0.5,
                            0.5,
                            0.0,
                            0.0,
                            0.0,
                            0.0,
                            0.0,
                            0.0
                        ],
                        "rightEye": [
                            -14.310772895812988,
                            -0.00046650171861983836,
                            1.270455002784729,
                            0.8112086653709412,
                            0.0,
                            0.5171144008636475,
                            0.5171144008636475,
                            0.5171144008636475,
                            0.5171144008636475,
                            0.5171144008636475,
                            0.5171144008636475,
                            0.5171144008636475,
                            0.5171144008636475,
                            0.0,
                            0.0,
                            0.0,
                            0.0,
                            0.0,
                            0.0
                        ]
                    },
                    {
                        "triggerTime_ms": 1353,
                        "faceAngle": 0.0,
                        "faceCenterX": 0.0,
                        "faceCenterY": 0.0,
                        "faceScaleX": 1.0,
                        "faceScaleY": 1.0,
                        "leftEye": [
                            9.169666290283203,
                            0.0,
                            1.214332938194275,
                            0.9052804112434387,
                            0.0,
                            0.5,
                            0.5,
                            0.5,
                            0.5,
                            0.5,
                            0.5,
                            0.5,
                            0.5,
                            0.0,
                            0.0,
                            0.0,
                            0.0,
                            0.0,
                            0.0
                        ],
                        "rightEye": [
                            -10.206374168395996,
                            0.0,
                            1.2220369577407837,
                            0.9052804112434387,
                            0.0,
                            0.5,
                            0.5,
                            0.5,
                            0.5,
                            0.5,
                            0.5,
                            0.5,
                            0.5,
                            0.0,
                            0.0,
                            0.0,
                            0.0,
                            0.0,
                            0.0
                        ]
                    },
                    {
                        "triggerTime_ms": 1518,
                        "faceAngle": 0.0,
                        "faceCenterX": -0.4537408649921417,
                        "faceCenterY": -0.23644375801086426,
                        "faceScaleX": 1.0,
                        "faceScaleY": 1.041334629058838,
                        "leftEye": [
                            9.169666290283203,
                            -0.04151351749897003,
                            1.215742826461792,
                            0.908393144607544,
                            0.0,
                            0.5,
                            0.5,
                            0.5,
                            0.5,
                            0.5,
                            0.5,
                            0.5,
                            0.5,
                            0.0,
                            0.0,
                            0.0,
                            0.0,
                            0.0,
                            0.0
                        ],
                        "rightEye": [
                            -10.206374168395996,
                            0.0,
                            1.2220369577407837,
                            0.9052804112434387,
                            0.0,
                            0.5,
                            0.5,
                            0.5,
                            0.5,
                            0.5,
                            0.5,
                            0.5,
                            0.5,
                            0.0,
                            0.0,
                            0.0,
                            0.0,
                            0.0,
                            0.0
                        ]
                    },
                    {
                        "triggerTime_ms": 1650,
                        "faceAngle": 0.0,
                        "faceCenterX": -2.035534620285034,
                        "faceCenterY": -0.270902544260025,
                        "faceScaleX": 1.0,
                        "faceScaleY": 1.0425958633422852,
                        "leftEye": [
                            9.169666290283203,
                            -0.05025661736726761,
                            1.2161046266555786,
                            0.9089804887771606,
                            0.0,
                            0.5,
                            0.5,
                            0.5,
                            0.5,
                            0.5,
                            0.5,
                            0.5,
                            0.5,
                            0.0,
                            0.0,
                            0.0,
                            0.0,
                            0.0,
                            0.0
                        ],
                        "rightEye": [
                            -10.206374168395996,
                            0.0,
                            1.2220369577407837,
                            0.9052804112434387,
                            0.0,
                            0.5,
                            0.5,
                            0.5,
                            0.5,
                            0.5,
                            0.5,
                            0.5,
                            0.5,
                            0.0,
                            0.0,
                            0.0,
                            0.0,
                            0.0,
                            0.0
                        ]
                    },
                    {
                        "triggerTime_ms": 1683,
                        "faceAngle": 0.0,
                        "faceCenterX": 0.0,
                        "faceCenterY": 0.7201909422874451,
                        "faceScaleX": 1.05900239944458,
                        "faceScaleY": 0.635177493095398,
                        "leftEye": [
                            9.169666290283203,
                            0.0,
                            1.1990910768508911,
                            0.9052804112434387,
                            0.0,
                            0.36305099725723267,
                            0.36305099725723267,
                            0.36305099725723267,
                            0.36305099725723267,
                            0.36305099725723267,
                            0.36305099725723267,
                            0.36305099725723267,
                            0.36305099725723267,
                            0.0,
                            0.0,
                            0.0,
                            0.0,
                            0.0,
                            0.0
                        ],
                        "rightEye": [
                            -10.206374168395996,
                            0.0,
                            1.380015254020691,
                            0.9052804112434387,
                            0.0,
                            0.36305099725723267,
                            0.36305099725723267,
                            0.36305099725723267,
                            0.36305099725723267,
                            0.36305099725723267,
                            0.36305099725723267,
                            0.36305099725723267,
                            0.36305099725723267,
                            0.0,
                            0.0,
                            0.0,
                            0.0,
                            0.0,
                            0.0
                        ]
                    },
                    {
                        "triggerTime_ms": 1716,
                        "faceAngle": 0.0,
                        "faceCenterX": 0.0,
                        "faceCenterY": 7.2240681648254395,
                        "faceScaleX": 1.442291498184204,
                        "faceScaleY": 0.10673769563436508,
                        "leftEye": [
                            9.169666290283203,
                            0.0,
                            1.5858508348464966,
                            0.9052804112434387,
                            0.0,
                            0.029609372839331627,
                            0.029609372839331627,
                            0.029609372839331627,
                            0.029609372839331627,
                            0.029609372839331627,
                            0.029609372839331627,
                            0.029609372839331627,
                            0.029609372839331627,
                            0.0,
                            0.0,
                            0.0,
                            0.0,
                            0.0,
                            0.0
                        ],
                        "rightEye": [
                            -10.206374168395996,
                            0.0,
                            1.606908917427063,
                            0.9052804112434387,
                            0.0,
                            0.029609372839331627,
                            0.029609372839331627,
                            0.029609372839331627,
                            0.029609372839331627,
                            0.029609372839331627,
                            0.029609372839331627,
                            0.029609372839331627,
                            0.029609372839331627,
                            0.0,
                            0.0,
                            0.0,
                            0.0,
                            0.0,
                            0.0
                        ]
                    },
                    {
                        "triggerTime_ms": 1749,
                        "faceAngle": 0.0,
                        "faceCenterX": 0.0,
                        "faceCenterY": 7.2240681648254395,
                        "faceScaleX": 1.442291498184204,
                        "faceScaleY": 0.10673769563436508,
                        "leftEye": [
                            9.169666290283203,
                            0.0,
                            1.5858508348464966,
                            0.9052804112434387,
                            0.0,
                            0.029609372839331627,
                            0.029609372839331627,
                            0.029609372839331627,
                            0.029609372839331627,
                            0.029609372839331627,
                            0.029609372839331627,
                            0.029609372839331627,
                            0.029609372839331627,
                            0.0,
                            0.0,
                            0.0,
                            0.0,
                            0.0,
                            0.0
                        ],
                        "rightEye": [
                            -10.206374168395996,
                            0.0,
                            1.606908917427063,
                            0.9052804112434387,
                            0.0,
                            0.029609372839331627,
                            0.029609372839331627,
                            0.029609372839331627,
                            0.029609372839331627,
                            0.029609372839331627,
                            0.029609372839331627,
                            0.029609372839331627,
                            0.029609372839331627,
                            0.0,
                            0.0,
                            0.0,
                            0.0,
                            0.0,
                            0.0
                        ]
                    },
                    {
                        "triggerTime_ms": 1782,
                        "faceAngle": 0.0,
                        "faceCenterX": 0.0,
                        "faceCenterY": 15.380037307739258,
                        "faceScaleX": 1.176682472229004,
                        "faceScaleY": 0.42043358087539673,
                        "leftEye": [
                            9.892297744750977,
                            0.0,
                            1.355303168296814,
                            0.9052804112434387,
                            0.0,
                            0.5,
                            0.5,
                            0.5,
                            0.5,
                            0.5,
                            0.5,
                            0.5,
                            0.5,
                            0.0,
                            0.0,
                            0.0,
                            0.0,
                            0.0,
                            0.0
                        ],
                        "rightEye": [
                            -10.961795806884766,
                            0.0,
                            1.2220369577407837,
                            0.9052804112434387,
                            0.0,
                            0.5,
                            0.5,
                            0.5,
                            0.5,
                            0.5,
                            0.5,
                            0.5,
                            0.5,
                            0.0,
                            0.0,
                            0.0,
                            0.0,
                            0.0,
                            0.0
                        ]
                    },
                    {
                        "triggerTime_ms": 1848,
                        "faceAngle": 0.0,
                        "faceCenterX": 0.0,
                        "faceCenterY": 5.328335285186768,
                        "faceScaleX": 1.0255730152130127,
                        "faceScaleY": 1.2310218811035156,
                        "leftEye": [
                            10.491815567016602,
                            0.0,
                            1.214332938194275,
                            0.9052804112434387,
                            0.0,
                            0.5,
                            0.5,
                            0.5,
                            0.5,
                            0.5,
                            0.5,
                            0.5,
                            0.5,
                            0.0,
                            0.0,
                            0.0,
                            0.0,
                            0.0,
                            0.0
                        ],
                        "rightEye": [
                            -11.588515281677246,
                            0.0,
                            1.2220369577407837,
                            0.9052804112434387,
                            0.0,
                            0.5,
                            0.5,
                            0.5,
                            0.5,
                            0.5,
                            0.5,
                            0.5,
                            0.5,
                            0.0,
                            0.0,
                            0.0,
                            0.0,
                            0.0,
                            0.0
                        ]
                    },
                    {
                        "triggerTime_ms": 1881,
                        "faceAngle": 0.0,
                        "faceCenterX": 0.0,
                        "faceCenterY": 3.0539045333862305,
                        "faceScaleX": 1.0201220512390137,
                        "faceScaleY": 1.0791288614273071,
                        "leftEye": [
                            10.614930152893066,
                            0.0,
                            1.214332938194275,
                            0.9052804112434387,
                            0.0,
                            0.5,
                            0.5,
                            0.5,
                            0.5,
                            0.5,
                            0.5,
                            0.5,
                            0.5,
                            0.0,
                            0.0,
                            0.0,
                            0.0,
                            0.0,
                            0.0
                        ],
                        "rightEye": [
                            -11.717217445373535,
                            0.0,
                            1.2220369577407837,
                            0.9052804112434387,
                            0.0,
                            0.5,
                            0.5,
                            0.5,
                            0.5,
                            0.5,
                            0.5,
                            0.5,
                            0.5,
                            0.0,
                            0.0,
                            0.0,
                            0.0,
                            0.0,
                            0.0
                        ]
                    },
                    {
                        "triggerTime_ms": 1980,
                        "faceAngle": 0.0,
                        "faceCenterX": 0.0,
                        "faceCenterY": 0.0,
                        "faceScaleX": 1.0187441110610962,
                        "faceScaleY": 0.9763545989990234,
                        "leftEye": [
                            9.704826354980469,
                            0.0,
                            1.214332938194275,
                            0.9052804112434387,
                            0.0,
                            0.5,
                            0.5,
                            0.5,
                            0.5,
                            0.5,
                            0.5,
                            0.5,
                            0.5,
                            0.0,
                            0.0,
                            0.0,
                            0.0,
                            0.0,
                            0.0
                        ],
                        "rightEye": [
                            -10.580435752868652,
                            0.0,
                            1.2220369577407837,
                            0.9052804112434387,
                            0.0,
                            0.5,
                            0.5,
                            0.5,
                            0.5,
                            0.5,
                            0.5,
                            0.5,
                            0.5,
                            0.0,
                            0.0,
                            0.0,
                            0.0,
                            0.0,
                            0.0
                        ]
                    },
                    {
                        "triggerTime_ms": 2046,
                        "faceAngle": 0.0,
                        "faceCenterX": 0.0,
                        "faceCenterY": 0.0,
                        "faceScaleX": 1.0042600631713867,
                        "faceScaleY": 0.9982249736785889,
                        "leftEye": [
                            9.169666290283203,
                            0.0,
                            1.214332938194275,
                            0.9052804112434387,
                            0.0,
                            0.5,
                            0.5,
                            0.5,
                            0.5,
                            0.5,
                            0.5,
                            0.5,
                            0.5,
                            0.0,
                            0.0,
                            0.0,
                            0.0,
                            0.0,
                            0.0
                        ],
                        "rightEye": [
                            -10.206374168395996,
                            0.0,
                            1.2220369577407837,
                            0.9052804112434387,
                            0.0,
                            0.5,
                            0.5,
                            0.5,
                            0.5,
                            0.5,
                            0.5,
                            0.5,
                            0.5,
                            0.0,
                            0.0,
                            0.0,
                            0.0,
                            0.0,
                            0.0
                        ]
                    },
                    {
                        "triggerTime_ms": 2178,
                        "faceAngle": 0.0,
                        "faceCenterX": 0.0,
                        "faceCenterY": 0.0,
                        "faceScaleX": 1.0,
                        "faceScaleY": 1.0,
                        "leftEye": [
                            9.169666290283203,
                            0.0,
                            1.214332938194275,
                            0.9052804112434387,
                            0.0,
                            0.5,
                            0.5,
                            0.5,
                            0.5,
                            0.5,
                            0.5,
                            0.5,
                            0.5,
                            0.0,
                            0.0,
                            0.0,
                            0.0,
                            0.0,
                            0.0
                        ],
                        "rightEye": [
                            -10.206374168395996,
                            0.0,
                            1.2220369577407837,
                            0.9052804112434387,
                            0.0,
                            0.5,
                            0.5,
                            0.5,
                            0.5,
                            0.5,
                            0.5,
                            0.5,
                            0.5,
                            0.0,
                            0.0,
                            0.0,
                            0.0,
                            0.0,
                            0.0
                        ]
                    }
                ],
                "HeadAngleKeyFrame": [
                    {
                        "triggerTime_ms": 0,
                        "durationTime_ms": 132,
                        "angle_deg": 0,
                        "angleVariability_deg": 0
                    },
                    {
                        "triggerTime_ms": 132,
                        "durationTime_ms": 33,
                        "angle_deg": -1,
                        "angleVariability_deg": 0
                    },
                    {
                        "triggerTime_ms": 165,
                        "durationTime_ms": 99,
                        "angle_deg": -7,
                        "angleVariability_deg": 0
                    },
                    {
                        "triggerTime_ms": 264,
                        "durationTime_ms": 66,
                        "angle_deg": -4,
                        "angleVariability_deg": 0
                    },
                    {
                        "triggerTime_ms": 429,
                        "durationTime_ms": 66,
                        "angle_deg": 0,
                        "angleVariability_deg": 0
                    },
                    {
                        "triggerTime_ms": 891,
                        "durationTime_ms": 66,
                        "angle_deg": -9,
                        "angleVariability_deg": 0
                    },
                    {
                        "triggerTime_ms": 1287,
                        "durationTime_ms": 66,
                        "angle_deg": -6,
                        "angleVariability_deg": 0
                    },
                    {
                        "triggerTime_ms": 1353,
                        "durationTime_ms": 66,
                        "angle_deg": -1,
                        "angleVariability_deg": 0
                    },
                    {
                        "triggerTime_ms": 1419,
                        "durationTime_ms": 132,
                        "angle_deg": 0,
                        "angleVariability_deg": 0
                    },
                    {
                        "triggerTime_ms": 1551,
                        "durationTime_ms": 99,
                        "angle_deg": -2,
                        "angleVariability_deg": 0
                    },
                    {
                        "triggerTime_ms": 1650,
                        "durationTime_ms": 66,
                        "angle_deg": -11,
                        "angleVariability_deg": 0
                    },
                    {
                        "triggerTime_ms": 1716,
                        "durationTime_ms": 198,
                        "angle_deg": 8,
                        "angleVariability_deg": 0
                    },
                    {
                        "triggerTime_ms": 1914,
                        "durationTime_ms": 264,
                        "angle_deg": 0,
                        "angleVariability_deg": 0
                    }
                ],
                "RobotAudioKeyFrame": [
                    {
                        "triggerTime_ms": 99,
                        "audioEventId": [
                            1907152766
                        ],
                        "volume": 1.0,
                        "probability": [
                            1.0
                        ],
                        "hasAlts": true
                    },
                    {
                        "triggerTime_ms": 363,
                        "audioEventId": [
                            3451388870
                        ],
                        "volume": 1.0,
                        "probability": [
                            1.0
                        ],
                        "hasAlts": true
                    },
                    {
                        "triggerTime_ms": 1353,
                        "audioEventId": [
                            141017286
                        ],
                        "volume": 1.0,
                        "probability": [
                            1.0
                        ],
                        "hasAlts": true
                    },
                    {
                        "triggerTime_ms": 1716,
                        "audioEventId": [
                            3774252557
                        ],
                        "volume": 1.0,
                        "probability": [
                            1.0
                        ],
                        "hasAlts": true
                    }
                ],
                "BackpackLightsKeyFrame": [],
                "FaceAnimationKeyFrame": [],
                "EventKeyFrame": [],
                "BodyMotionKeyFrame": [
                    {
                        "triggerTime_ms": 198,
                        "durationTime_ms": 66,
                        "radius_mm": "STRAIGHT",
                        "speed": -62
                    },
                    {
                        "triggerTime_ms": 264,
                        "durationTime_ms": 66,
                        "radius_mm": "STRAIGHT",
                        "speed": 62
                    },
                    {
                        "triggerTime_ms": 726,
                        "durationTime_ms": 132,
                        "radius_mm": "TURN_IN_PLACE",
                        "speed": 30
                    },
                    {
                        "triggerTime_ms": 1023,
                        "durationTime_ms": 132,
                        "radius_mm": "TURN_IN_PLACE",
                        "speed": -38
                    },
                    {
                        "triggerTime_ms": 1584,
                        "durationTime_ms": 264,
                        "radius_mm": "STRAIGHT",
                        "speed": -26
                    },
                    {
                        "triggerTime_ms": 1848,
                        "durationTime_ms": 330,
                        "radius_mm": "STRAIGHT",
                        "speed": 9
                    }
                ],
                "RecordHeadingKeyFrame": [],
                "TurnToRecordedHeadingKeyFrame": []
            }
        }
    ]
}