{
    "clips": [
        {
            "Name": "anim_workout_mediumenergy_strong_01",
            "keyframes": {
                "LiftHeightKeyFrame": [
                    {
                        "triggerTime_ms": 0,
                        "durationTime_ms": 363,
                        "height_mm": 53,
                        "heightVariability_mm": 0
                    },
                    {
                        "triggerTime_ms": 495,
                        "durationTime_ms": 198,
                        "height_mm": 50,
                        "heightVariability_mm": 0
                    },
                    {
                        "triggerTime_ms": 693,
                        "durationTime_ms": 396,
                        "height_mm": 92,
                        "heightVariability_mm": 0
                    },
                    {
                        "triggerTime_ms": 1419,
                        "durationTime_ms": 429,
                        "height_mm": 53,
                        "heightVariability_mm": 0
                    }
                ],
                "ProceduralFaceKeyFrame": [
                    {
                        "triggerTime_ms": 0,
                        "faceAngle": 0.0,
                        "faceCenterX": 0.0,
                        "faceCenterY": 4.415130615234375,
                        "faceScaleX": 1.0,
                        "faceScaleY": 1.0,
                        "leftEye": [
                            9.169666290283203,
                            0.0,
                            1.214332938194275,
                            0.9052804112434387,
                            0.0,
                            0.5,
                            0.5,
                            0.607566773891449,
                            0.607566773891449,
                            0.607566773891449,
                            0.607566773891449,
                            0.5,
                            0.5,
                            0.13810034096240997,
                            0.0,
                            0.0,
                            0.4857596457004547,
                            0.0,
                            0.0
                        ],
                        "rightEye": [
                            -10.206374168395996,
                            0.0,
                            1.2220369577407837,
                            0.9052804112434387,
                            0.0,
                            0.5,
                            0.5,
                            0.607566773891449,
                            0.607566773891449,
                            0.607566773891449,
                            0.607566773891449,
                            0.5,
                            0.5,
                            0.1380992829799652,
                            0.0,
                            0.0,
                            0.47168365120887756,
                            0.0,
                            0.0
                        ]
                    },
                    {
                        "triggerTime_ms": 132,
                        "faceAngle": 0.0,
                        "faceCenterX": 0.0,
                        "faceCenterY": 4.415130615234375,
                        "faceScaleX": 1.0,
                        "faceScaleY": 1.0,
                        "leftEye": [
                            9.169666290283203,
                            0.0,
                            1.214332938194275,
                            0.9052804112434387,
                            0.0,
                            0.5,
                            0.5,
                            0.607566773891449,
                            0.607566773891449,
                            0.607566773891449,
                            0.607566773891449,
                            0.5,
                            0.5,
                            0.13810034096240997,
                            0.0,
                            0.0,
                            0.4857596457004547,
                            0.0,
                            0.0
                        ],
                        "rightEye": [
                            -10.206374168395996,
                            0.0,
                            1.2220369577407837,
                            0.9052804112434387,
                            0.0,
                            0.5,
                            0.5,
                            0.607566773891449,
                            0.607566773891449,
                            0.607566773891449,
                            0.607566773891449,
                            0.5,
                            0.5,
                            0.1380992829799652,
                            0.0,
                            0.0,
                            0.47168365120887756,
                            0.0,
                            0.0
                        ]
                    },
                    {
                        "triggerTime_ms": 165,
                        "faceAngle": 0.0,
                        "faceCenterX": 0.0,
                        "faceCenterY": 4.415130615234375,
                        "faceScaleX": 0.9666666388511658,
                        "faceScaleY": 1.2553445100784302,
                        "leftEye": [
                            9.169666290283203,
                            0.0,
                            1.214332938194275,
                            0.9052804112434387,
                            0.0,
                            0.5,
                            0.5,
                            0.607566773891449,
                            0.607566773891449,
                            0.607566773891449,
                            0.607566773891449,
                            0.5,
                            0.5,
                            0.13810034096240997,
                            0.0,
                            0.0,
                            0.4857596457004547,
                            0.0,
                            0.0
                        ],
                        "rightEye": [
                            -10.206374168395996,
                            0.0,
                            1.2220369577407837,
                            0.9052804112434387,
                            0.0,
                            0.5,
                            0.5,
                            0.607566773891449,
                            0.607566773891449,
                            0.607566773891449,
                            0.607566773891449,
                            0.5,
                            0.5,
                            0.1380992829799652,
                            0.0,
                            0.0,
                            0.47168365120887756,
                            0.0,
                            0.0
                        ]
                    },
                    {
                        "triggerTime_ms": 198,
                        "faceAngle": 0.0,
                        "faceCenterX": 0.0,
                        "faceCenterY": 14.970451354980469,
                        "faceScaleX": 0.9934948086738586,
                        "faceScaleY": 0.8997889161109924,
                        "leftEye": [
                            9.169666290283203,
                            0.0,
                            1.214332938194275,
                            0.9052804112434387,
                            0.0,
                            0.5,
                            0.5,
                            0.607566773891449,
                            0.607566773891449,
                            0.607566773891449,
                            0.607566773891449,
                            0.5,
                            0.5,
                            0.13810034096240997,
                            0.0,
                            0.0,
                            0.4857596457004547,
                            0.0,
                            0.0
                        ],
                        "rightEye": [
                            -10.206374168395996,
                            0.0,
                            1.2220369577407837,
                            0.9052804112434387,
                            0.0,
                            0.5,
                            0.5,
                            0.607566773891449,
                            0.607566773891449,
                            0.607566773891449,
                            0.607566773891449,
                            0.5,
                            0.5,
                            0.1380992829799652,
                            0.0,
                            0.0,
                            0.47168365120887756,
                            0.0,
                            0.0
                        ]
                    },
                    {
                        "triggerTime_ms": 231,
                        "faceAngle": 0.0,
                        "faceCenterX": 1.4290087223052979,
                        "faceCenterY": 14.970451354980469,
                        "faceScaleX": 1.1326630115509033,
                        "faceScaleY": 0.8391289710998535,
                        "leftEye": [
                            9.704116821289062,
                            0.0,
                            1.214332938194275,
                            0.893592357635498,
                            0.0,
                            0.5,
                            0.5,
                            0.607566773891449,
                            0.607566773891449,
                            0.607566773891449,
                            0.607566773891449,
                            0.5,
                            0.5,
                            0.13810034096240997,
                            0.0,
                            0.0,
                            0.4857596457004547,
                            0.0,
                            0.0
                        ],
                        "rightEye": [
                            -10.206374168395996,
                            0.0,
                            1.2220369577407837,
                            0.9052804112434387,
                            0.0,
                            0.5,
                            0.5,
                            0.607566773891449,
                            0.607566773891449,
                            0.607566773891449,
                            0.607566773891449,
                            0.5,
                            0.5,
                            0.1380992829799652,
                            0.0,
                            0.0,
                            0.47168365120887756,
                            0.0,
                            0.0
                        ]
                    },
                    {
                        "triggerTime_ms": 330,
                        "faceAngle": 0.0,
                        "faceCenterX": 2.200068712234497,
                        "faceCenterY": 0.8370020985603333,
                        "faceScaleX": 0.9414408802986145,
                        "faceScaleY": 0.9820671677589417,
                        "leftEye": [
                            11.468381881713867,
                            0.0,
                            1.214332938194275,
                            0.8550092577934265,
                            0.0,
                            0.5,
                            0.5,
                            0.607566773891449,
                            0.607566773891449,
                            0.607566773891449,
                            0.607566773891449,
                            0.5,
                            0.5,
                            0.0,
                            0.0,
                            0.0,
                            0.005707906559109688,
                            0.0,
                            0.0
                        ],
                        "rightEye": [
                            -10.206374168395996,
                            0.0,
                            1.2220369577407837,
                            0.9052804112434387,
                            0.0,
                            0.5,
                            0.5,
                            0.607566773891449,
                            0.607566773891449,
                            0.607566773891449,
                            0.607566773891449,
                            0.5,
                            0.5,
                            0.0,
                            0.0,
                            0.0,
                            0.00554250692948699,
                            0.0,
                            0.0
                        ]
                    },
                    {
                        "triggerTime_ms": 363,
                        "faceAngle": 0.0,
                        "faceCenterX": 2.3394320011138916,
                        "faceCenterY": 0.45068618655204773,
                        "faceScaleX": 0.8832422494888306,
                        "faceScaleY": 1.0103766918182373,
                        "leftEye": [
                            11.468381881713867,
                            0.0,
                            1.214332938194275,
                            0.8550092577934265,
                            0.0,
                            0.5,
                            0.5,
                            0.607566773891449,
                            0.607566773891449,
                            0.607566773891449,
                            0.607566773891449,
                            0.5,
                            0.5,
                            0.0,
                            0.0,
                            0.0,
                            0.005707906559109688,
                            0.0,
                            0.0
                        ],
                        "rightEye": [
                            -10.206374168395996,
                            0.0,
                            1.2220369577407837,
                            0.9052804112434387,
                            0.0,
                            0.5,
                            0.5,
                            0.607566773891449,
                            0.607566773891449,
                            0.607566773891449,
                            0.607566773891449,
                            0.5,
                            0.5,
                            0.0,
                            0.0,
                            0.0,
                            0.00554250692948699,
                            0.0,
                            0.0
                        ]
                    },
                    {
                        "triggerTime_ms": 429,
                        "faceAngle": 0.0,
                        "faceCenterX": 2.446812152862549,
                        "faceCenterY": 0.2880268096923828,
                        "faceScaleX": 0.8604550957679749,
                        "faceScaleY": 1.0250998735427856,
                        "leftEye": [
                            11.468381881713867,
                            0.0,
                            1.214332938194275,
                            0.8550092577934265,
                            0.0,
                            0.5,
                            0.5,
                            0.607566773891449,
                            0.607566773891449,
                            0.607566773891449,
                            0.607566773891449,
                            0.5,
                            0.5,
                            0.0,
                            0.0,
                            0.0,
                            0.005707906559109688,
                            0.0,
                            0.0
                        ],
                        "rightEye": [
                            -10.206374168395996,
                            0.0,
                            1.2220369577407837,
                            0.9052804112434387,
                            0.0,
                            0.5,
                            0.5,
                            0.607566773891449,
                            0.607566773891449,
                            0.607566773891449,
                            0.607566773891449,
                            0.5,
                            0.5,
                            0.0,
                            0.0,
                            0.0,
                            0.00554250692948699,
                            0.0,
                            0.0
                        ]
                    },
                    {
                        "triggerTime_ms": 693,
                        "faceAngle": 0.0,
                        "faceCenterX": 2.446812152862549,
                        "faceCenterY": 0.2880268096923828,
                        "faceScaleX": 0.8604550957679749,
                        "faceScaleY": 1.0250998735427856,
                        "leftEye": [
                            11.468381881713867,
                            0.0,
                            1.214332938194275,
                            0.8550092577934265,
                            0.0,
                            0.5,
                            0.5,
                            0.607566773891449,
                            0.607566773891449,
                            0.607566773891449,
                            0.607566773891449,
                            0.5,
                            0.5,
                            0.0,
                            0.0,
                            0.0,
                            0.005707906559109688,
                            0.0,
                            0.0
                        ],
                        "rightEye": [
                            -10.206374168395996,
                            0.0,
                            1.2220369577407837,
                            0.9052804112434387,
                            0.0,
                            0.5,
                            0.5,
                            0.607566773891449,
                            0.607566773891449,
                            0.607566773891449,
                            0.607566773891449,
                            0.5,
                            0.5,
                            0.0,
                            0.0,
                            0.0,
                            0.00554250692948699,
                            0.0,
                            0.0
                        ]
                    },
                    {
                        "triggerTime_ms": 759,
                        "faceAngle": 0.0,
                        "faceCenterX": 2.446812152862549,
                        "faceCenterY": 6.187124252319336,
                        "faceScaleX": 0.9997150301933289,
                        "faceScaleY": 0.8333251476287842,
                        "leftEye": [
                            11.468381881713867,
                            0.0,
                            1.214332938194275,
                            0.8265864253044128,
                            0.0,
                            0.5,
                            0.5,
                            0.6434319019317627,
                            0.6434319019317627,
                            0.6434319019317627,
                            0.6434319019317627,
                            0.5,
                            0.5,
                            0.0,
                            0.0,
                            0.0,
                            0.005707906559109688,
                            0.0,
                            0.0
                        ],
                        "rightEye": [
                            -10.206374168395996,
                            0.0,
                            1.2220369577407837,
                            0.9052804112434387,
                            0.0,
                            0.5,
                            0.5,
                            0.6434319019317627,
                            0.6434319019317627,
                            0.6434319019317627,
                            0.6434319019317627,
                            0.5,
                            0.5,
                            0.0,
                            0.0,
                            0.0,
                            0.00554250692948699,
                            0.0,
                            0.0
                        ]
                    },
                    {
                        "triggerTime_ms": 825,
                        "faceAngle": 0.0,
                        "faceCenterX": 2.446812152862549,
                        "faceCenterY": 4.706360816955566,
                        "faceScaleX": 0.787615954875946,
                        "faceScaleY": 1.0250998735427856,
                        "leftEye": [
                            10.35705280303955,
                            0.0,
                            1.214332938194275,
                            0.9052804112434387,
                            0.0,
                            0.5,
                            0.5,
                            0.6593675017356873,
                            0.6593675017356873,
                            0.6593675017356873,
                            0.6593675017356873,
                            0.5,
                            0.5,
                            0.0,
                            0.0,
                            0.0,
                            0.005707906559109688,
                            0.0,
                            0.0
                        ],
                        "rightEye": [
                            -11.447906494140625,
                            0.0,
                            1.2220369577407837,
                            0.9052804112434387,
                            0.0,
                            0.5,
                            0.5,
                            0.6593675017356873,
                            0.6593675017356873,
                            0.6593675017356873,
                            0.6593675017356873,
                            0.5,
                            0.5,
                            0.0,
                            0.0,
                            0.0,
                            0.00554250692948699,
                            0.0,
                            0.0
                        ]
                    },
                    {
                        "triggerTime_ms": 858,
                        "faceAngle": 0.0,
                        "faceCenterX": 0.9569916129112244,
                        "faceCenterY": -0.3596905767917633,
                        "faceScaleX": 0.8179277181625366,
                        "faceScaleY": 1.0131895542144775,
                        "leftEye": [
                            9.619688987731934,
                            0.0,
                            1.214332938194275,
                            0.9052804112434387,
                            0.0,
                            0.5,
                            0.5,
                            0.6638841032981873,
                            0.6638841032981873,
                            0.6638841032981873,
                            0.6638841032981873,
                            0.5,
                            0.5,
                            0.0,
                            0.0,
                            0.0,
                            0.005707906559109688,
                            0.0,
                            0.0
                        ],
                        "rightEye": [
                            -10.827139854431152,
                            0.0,
                            1.2220369577407837,
                            0.9052804112434387,
                            0.0,
                            0.5,
                            0.5,
                            0.6638841032981873,
                            0.6638841032981873,
                            0.6638841032981873,
                            0.6638841032981873,
                            0.5,
                            0.5,
                            0.0,
                            0.0,
                            0.0,
                            0.00554250692948699,
                            0.0,
                            0.0
                        ]
                    },
                    {
                        "triggerTime_ms": 891,
                        "faceAngle": 0.0,
                        "faceCenterX": 0.0,
                        "faceCenterY": -4.710587024688721,
                        "faceScaleX": 0.8578932881355286,
                        "faceScaleY": 1.0010963678359985,
                        "leftEye": [
                            9.169666290283203,
                            0.0,
                            1.214332938194275,
                            0.9052804112434387,
                            0.0,
                            0.5,
                            0.5,
                            0.6656264066696167,
                            0.6656264066696167,
                            0.6656264066696167,
                            0.6656264066696167,
                            0.5,
                            0.5,
                            0.014507623389363289,
                            0.0,
                            0.0,
                            0.06871460378170013,
                            0.0,
                            0.0
                        ],
                        "rightEye": [
                            -10.206374168395996,
                            0.0,
                            1.2220369577407837,
                            0.9052804112434387,
                            0.0,
                            0.5,
                            0.5,
                            0.6656264066696167,
                            0.6656264066696167,
                            0.6656264066696167,
                            0.6656264066696167,
                            0.5,
                            0.5,
                            0.014370247721672058,
                            0.0,
                            0.0,
                            0.06672344356775284,
                            0.0,
                            0.0
                        ]
                    },
                    {
                        "triggerTime_ms": 990,
                        "faceAngle": 0.0,
                        "faceCenterX": 0.0,
                        "faceCenterY": -6.222160339355469,
                        "faceScaleX": 0.9190120697021484,
                        "faceScaleY": 1.0003248453140259,
                        "leftEye": [
                            9.169666290283203,
                            0.0,
                            1.214332938194275,
                            0.9052804112434387,
                            0.0,
                            0.5,
                            0.5,
                            0.6505739092826843,
                            0.6505739092826843,
                            0.6505739092826843,
                            0.6505739092826843,
                            0.5,
                            0.5,
                            0.10942097753286362,
                            0.0,
                            0.0,
                            0.43775448203086853,
                            0.0,
                            0.0
                        ],
                        "rightEye": [
                            -10.206374168395996,
                            0.0,
                            1.2220369577407837,
                            0.9052804112434387,
                            0.0,
                            0.5,
                            0.5,
                            0.6505739092826843,
                            0.6505739092826843,
                            0.6505739092826843,
                            0.6505739092826843,
                            0.5,
                            0.5,
                            0.10854165256023407,
                            0.0,
                            0.0,
                            0.42506954073905945,
                            0.0,
                            0.0
                        ]
                    },
                    {
                        "triggerTime_ms": 1188,
                        "faceAngle": 0.0,
                        "faceCenterX": 0.0,
                        "faceCenterY": -7.083158016204834,
                        "faceScaleX": 1.0,
                        "faceScaleY": 1.0,
                        "leftEye": [
                            9.169666290283203,
                            0.0,
                            1.214332938194275,
                            0.9052804112434387,
                            0.0,
                            0.5,
                            0.5,
                            0.607566773891449,
                            0.607566773891449,
                            0.607566773891449,
                            0.607566773891449,
                            0.5,
                            0.5,
                            0.13810034096240997,
                            0.0,
                            0.0,
                            0.4857596457004547,
                            0.0,
                            0.0
                        ],
                        "rightEye": [
                            -10.206374168395996,
                            0.0,
                            1.2220369577407837,
                            0.9052804112434387,
                            0.0,
                            0.5,
                            0.5,
                            0.607566773891449,
                            0.607566773891449,
                            0.607566773891449,
                            0.607566773891449,
                            0.5,
                            0.5,
                            0.1380992829799652,
                            0.0,
                            0.0,
                            0.47168365120887756,
                            0.0,
                            0.0
                        ]
                    },
                    {
                        "triggerTime_ms": 1452,
                        "faceAngle": 0.0,
                        "faceCenterX": 0.0,
                        "faceCenterY": -7.083158016204834,
                        "faceScaleX": 1.0,
                        "faceScaleY": 1.0,
                        "leftEye": [
                            9.169666290283203,
                            0.0,
                            1.214332938194275,
                            0.9052804112434387,
                            0.0,
                            0.5,
                            0.5,
                            0.607566773891449,
                            0.607566773891449,
                            0.607566773891449,
                            0.607566773891449,
                            0.5,
                            0.5,
                            0.13810034096240997,
                            0.0,
                            0.0,
                            0.4857596457004547,
                            0.0,
                            0.0
                        ],
                        "rightEye": [
                            -10.206374168395996,
                            0.0,
                            1.2220369577407837,
                            0.9052804112434387,
                            0.0,
                            0.5,
                            0.5,
                            0.607566773891449,
                            0.607566773891449,
                            0.607566773891449,
                            0.607566773891449,
                            0.5,
                            0.5,
                            0.1380992829799652,
                            0.0,
                            0.0,
                            0.47168365120887756,
                            0.0,
                            0.0
                        ]
                    },
                    {
                        "triggerTime_ms": 1551,
                        "faceAngle": 0.0,
                        "faceCenterX": 0.0,
                        "faceCenterY": -7.083158016204834,
                        "faceScaleX": 1.0,
                        "faceScaleY": 1.0,
                        "leftEye": [
                            9.169666290283203,
                            0.0,
                            1.214332938194275,
                            0.9052804112434387,
                            0.0,
                            0.5,
                            0.5,
                            0.607566773891449,
                            0.607566773891449,
                            0.607566773891449,
                            0.607566773891449,
                            0.5,
                            0.5,
                            0.13810034096240997,
                            0.0,
                            0.0,
                            0.4857596457004547,
                            0.0,
                            0.0
                        ],
                        "rightEye": [
                            -10.206374168395996,
                            0.0,
                            1.2220369577407837,
                            0.9052804112434387,
                            0.0,
                            0.5,
                            0.5,
                            0.607566773891449,
                            0.607566773891449,
                            0.607566773891449,
                            0.607566773891449,
                            0.5,
                            0.5,
                            0.1380992829799652,
                            0.0,
                            0.0,
                            0.47168365120887756,
                            0.0,
                            0.0
                        ]
                    },
                    {
                        "triggerTime_ms": 1716,
                        "faceAngle": 0.0,
                        "faceCenterX": 0.0,
                        "faceCenterY": -7.083158016204834,
                        "faceScaleX": 1.0,
                        "faceScaleY": 1.0,
                        "leftEye": [
                            9.169666290283203,
                            0.0,
                            1.214332938194275,
                            0.9052804112434387,
                            0.0,
                            0.5,
                            0.5,
                            0.607566773891449,
                            0.607566773891449,
                            0.607566773891449,
                            0.607566773891449,
                            0.5,
                            0.5,
                            0.13810034096240997,
                            0.0,
                            0.0,
                            0.4857596457004547,
                            0.0,
                            0.0
                        ],
                        "rightEye": [
                            -10.206374168395996,
                            0.0,
                            1.2220369577407837,
                            0.9052804112434387,
                            0.0,
                            0.5,
                            0.5,
                            0.607566773891449,
                            0.607566773891449,
                            0.607566773891449,
                            0.607566773891449,
                            0.5,
                            0.5,
                            0.1380992829799652,
                            0.0,
                            0.0,
                            0.47168365120887756,
                            0.0,
                            0.0
                        ]
                    },
                    {
                        "triggerTime_ms": 1782,
                        "faceAngle": 0.0,
                        "faceCenterX": 0.0,
                        "faceCenterY": -5.6943254470825195,
                        "faceScaleX": 0.8953741192817688,
                        "faceScaleY": 1.0047231912612915,
                        "leftEye": [
                            9.169666290283203,
                            0.0,
                            1.214332938194275,
                            0.9052804112434387,
                            0.0,
                            0.5,
                            0.5,
                            0.607566773891449,
                            0.607566773891449,
                            0.607566773891449,
                            0.607566773891449,
                            0.5,
                            0.5,
                            0.14725035429000854,
                            0.0,
                            0.0,
                            0.2457340955734253,
                            0.0,
                            0.0
                        ],
                        "rightEye": [
                            -10.206374168395996,
                            0.0,
                            1.2220369577407837,
                            0.9052804112434387,
                            0.0,
                            0.5,
                            0.5,
                            0.607566773891449,
                            0.607566773891449,
                            0.607566773891449,
                            0.607566773891449,
                            0.5,
                            0.5,
                            0.147249236702919,
                            0.0,
                            0.0,
                            0.23861339688301086,
                            0.0,
                            0.0
                        ]
                    },
                    {
                        "triggerTime_ms": 1848,
                        "faceAngle": 0.0,
                        "faceCenterX": 0.0,
                        "faceCenterY": 2.0377516746520996,
                        "faceScaleX": 0.7907480001449585,
                        "faceScaleY": 1.0117604732513428,
                        "leftEye": [
                            9.912314414978027,
                            0.0,
                            1.214332938194275,
                            0.9052804112434387,
                            0.0,
                            0.5,
                            0.5,
                            0.607566773891449,
                            0.607566773891449,
                            0.607566773891449,
                            0.607566773891449,
                            0.5,
                            0.5,
                            0.1564004123210907,
                            0.0,
                            0.0,
                            0.005707906559109688,
                            0.0,
                            0.0
                        ],
                        "rightEye": [
                            -10.982887268066406,
                            0.0,
                            1.2220369577407837,
                            0.9052804112434387,
                            0.0,
                            0.5,
                            0.5,
                            0.607566773891449,
                            0.607566773891449,
                            0.607566773891449,
                            0.607566773891449,
                            0.5,
                            0.5,
                            0.15639923512935638,
                            0.0,
                            0.0,
                            0.00554250692948699,
                            0.0,
                            0.0
                        ]
                    },
                    {
                        "triggerTime_ms": 1881,
                        "faceAngle": 0.0,
                        "faceCenterX": 0.0,
                        "faceCenterY": 5.698461532592773,
                        "faceScaleX": 0.8864539861679077,
                        "faceScaleY": 1.0134183168411255,
                        "leftEye": [
                            10.126550674438477,
                            0.0,
                            1.214332938194275,
                            0.9052804112434387,
                            0.0,
                            0.5,
                            0.5,
                            0.607566773891449,
                            0.607566773891449,
                            0.607566773891449,
                            0.607566773891449,
                            0.5,
                            0.5,
                            0.1564004123210907,
                            0.0,
                            0.0,
                            0.005707906559109688,
                            0.0,
                            0.0
                        ],
                        "rightEye": [
                            -11.206893920898438,
                            0.0,
                            1.2220369577407837,
                            0.9052804112434387,
                            0.0,
                            0.5,
                            0.5,
                            0.607566773891449,
                            0.607566773891449,
                            0.607566773891449,
                            0.607566773891449,
                            0.5,
                            0.5,
                            0.15639923512935638,
                            0.0,
                            0.0,
                            0.00554250692948699,
                            0.0,
                            0.0
                        ]
                    },
                    {
                        "triggerTime_ms": 1914,
                        "faceAngle": 0.0,
                        "faceCenterX": 0.0,
                        "faceCenterY": 7.686562538146973,
                        "faceScaleX": 1.053939700126648,
                        "faceScaleY": 1.012416958808899,
                        "leftEye": [
                            10.0270357131958,
                            0.0,
                            1.214332938194275,
                            0.9052804112434387,
                            0.0,
                            0.5,
                            0.5,
                            0.6287078261375427,
                            0.6287078261375427,
                            0.6287078261375427,
                            0.6287078261375427,
                            0.5,
                            0.5,
                            0.1564004123210907,
                            0.0,
                            0.0,
                            0.005707906559109688,
                            0.0,
                            0.0
                        ],
                        "rightEye": [
                            -11.102840423583984,
                            0.0,
                            1.2220369577407837,
                            0.9052804112434387,
                            0.0,
                            0.5,
                            0.5,
                            0.6287078261375427,
                            0.6287078261375427,
                            0.6287078261375427,
                            0.6287078261375427,
                            0.5,
                            0.5,
                            0.15639923512935638,
                            0.0,
                            0.0,
                            0.00554250692948699,
                            0.0,
                            0.0
                        ]
                    },
                    {
                        "triggerTime_ms": 1947,
                        "faceAngle": 0.0,
                        "faceCenterX": 0.0,
                        "faceCenterY": 6.227970600128174,
                        "faceScaleX": 1.159900426864624,
                        "faceScaleY": 1.0097821950912476,
                        "leftEye": [
                            9.785421371459961,
                            0.0,
                            1.214332938194275,
                            0.9052804112434387,
                            0.0,
                            0.5,
                            0.5,
                            0.6800360679626465,
                            0.6800360679626465,
                            0.6800360679626465,
                            0.6800360679626465,
                            0.5,
                            0.5,
                            0.1624392569065094,
                            0.0,
                            0.0,
                            0.08802836388349533,
                            0.0,
                            0.0
                        ],
                        "rightEye": [
                            -10.850208282470703,
                            0.0,
                            1.2220369577407837,
                            0.9052804112434387,
                            0.0,
                            0.5,
                            0.5,
                            0.6800360679626465,
                            0.6800360679626465,
                            0.6800360679626465,
                            0.6800360679626465,
                            0.5,
                            0.5,
                            0.1624380350112915,
                            0.0,
                            0.0,
                            0.08547753840684891,
                            0.0,
                            0.0
                        ]
                    },
                    {
                        "triggerTime_ms": 2013,
                        "faceAngle": 0.0,
                        "faceCenterX": 0.0,
                        "faceCenterY": 2.060587167739868,
                        "faceScaleX": 1.123600721359253,
                        "faceScaleY": 1.0041555166244507,
                        "leftEye": [
                            9.2816743850708,
                            0.0,
                            1.214332938194275,
                            0.9052804112434387,
                            0.0,
                            0.5,
                            0.5,
                            0.7870514392852783,
                            0.7870514392852783,
                            0.7870514392852783,
                            0.7870514392852783,
                            0.5,
                            0.5,
                            0.18874162435531616,
                            0.0,
                            0.0,
                            0.44657760858535767,
                            0.0,
                            0.0
                        ],
                        "rightEye": [
                            -10.323490142822266,
                            0.0,
                            1.2220369577407837,
                            0.9052804112434387,
                            0.0,
                            0.5,
                            0.5,
                            0.7870514392852783,
                            0.7870514392852783,
                            0.7870514392852783,
                            0.7870514392852783,
                            0.5,
                            0.5,
                            0.18874019384384155,
                            0.0,
                            0.0,
                            0.43363702297210693,
                            0.0,
                            0.0
                        ]
                    },
                    {
                        "triggerTime_ms": 2046,
                        "faceAngle": 0.0,
                        "faceCenterX": 0.0,
                        "faceCenterY": 2.8454349040985107,
                        "faceScaleX": 1.094718337059021,
                        "faceScaleY": 1.0024034976959229,
                        "leftEye": [
                            9.169666290283203,
                            0.0,
                            1.214332938194275,
                            0.9052804112434387,
                            0.0,
                            0.5,
                            0.5,
                            0.8108463883399963,
                            0.8108463883399963,
                            0.8108463883399963,
                            0.8108463883399963,
                            0.5,
                            0.5,
                            0.19504882395267487,
                            0.0,
                            0.0,
                            0.5325562357902527,
                            0.0,
                            0.0
                        ],
                        "rightEye": [
                            -10.206374168395996,
                            0.0,
                            1.2220369577407837,
                            0.9052804112434387,
                            0.0,
                            0.5,
                            0.5,
                            0.8108463883399963,
                            0.8108463883399963,
                            0.8108463883399963,
                            0.8108463883399963,
                            0.5,
                            0.5,
                            0.19504733383655548,
                            0.0,
                            0.0,
                            0.5171242356300354,
                            0.0,
                            0.0
                        ]
                    },
                    {
                        "triggerTime_ms": 2112,
                        "faceAngle": 0.0,
                        "faceCenterX": 0.0,
                        "faceCenterY": 4.415130615234375,
                        "faceScaleX": 1.0369534492492676,
                        "faceScaleY": 1.0015085935592651,
                        "leftEye": [
                            9.169666290283203,
                            0.0,
                            1.214332938194275,
                            0.9052804112434387,
                            0.0,
                            0.5,
                            0.5,
                            0.607566773891449,
                            0.607566773891449,
                            0.607566773891449,
                            0.607566773891449,
                            0.5,
                            0.5,
                            0.13810034096240997,
                            0.0,
                            0.0,
                            0.4857596457004547,
                            0.0,
                            0.0
                        ],
                        "rightEye": [
                            -10.206374168395996,
                            0.0,
                            1.2220369577407837,
                            0.9052804112434387,
                            0.0,
                            0.5,
                            0.5,
                            0.607566773891449,
                            0.607566773891449,
                            0.607566773891449,
                            0.607566773891449,
                            0.5,
                            0.5,
                            0.1380992829799652,
                            0.0,
                            0.0,
                            0.47168365120887756,
                            0.0,
                            0.0
                        ]
                    },
                    {
                        "triggerTime_ms": 2310,
                        "faceAngle": 0.0,
                        "faceCenterX": 0.0,
                        "faceCenterY": 4.415130615234375,
                        "faceScaleX": 1.0,
                        "faceScaleY": 1.0,
                        "leftEye": [
                            9.169666290283203,
                            0.0,
                            1.214332938194275,
                            0.9052804112434387,
                            0.0,
                            0.5,
                            0.5,
                            0.607566773891449,
                            0.607566773891449,
                            0.607566773891449,
                            0.607566773891449,
                            0.5,
                            0.5,
                            0.13810034096240997,
                            0.0,
                            0.0,
                            0.4857596457004547,
                            0.0,
                            0.0
                        ],
                        "rightEye": [
                            -10.206374168395996,
                            0.0,
                            1.2220369577407837,
                            0.9052804112434387,
                            0.0,
                            0.5,
                            0.5,
                            0.607566773891449,
                            0.607566773891449,
                            0.607566773891449,
                            0.607566773891449,
                            0.5,
                            0.5,
                            0.1380992829799652,
                            0.0,
                            0.0,
                            0.47168365120887756,
                            0.0,
                            0.0
                        ]
                    }
                ],
                "HeadAngleKeyFrame": [
                    {
                        "triggerTime_ms": 0,
                        "durationTime_ms": 528,
                        "angle_deg": -11,
                        "angleVariability_deg": 0
                    },
                    {
                        "triggerTime_ms": 528,
                        "durationTime_ms": 297,
                        "angle_deg": -15,
                        "angleVariability_deg": 0
                    },
                    {
                        "triggerTime_ms": 825,
                        "durationTime_ms": 297,
                        "angle_deg": 7,
                        "angleVariability_deg": 0
                    },
                    {
                        "triggerTime_ms": 1122,
                        "durationTime_ms": 132,
                        "angle_deg": 12,
                        "angleVariability_deg": 0
                    },
                    {
                        "triggerTime_ms": 1254,
                        "durationTime_ms": 330,
                        "angle_deg": 1,
                        "angleVariability_deg": 0
                    },
                    {
                        "triggerTime_ms": 1584,
                        "durationTime_ms": 264,
                        "angle_deg": 6,
                        "angleVariability_deg": 0
                    }
                ],
                "RobotAudioKeyFrame": [
                    {
                        "triggerTime_ms": 231,
                        "audioEventId": [
                            1701725212
                        ],
                        "volume": 1.0,
                        "probability": [
                            1.0
                        ],
                        "hasAlts": true
                    },
                    {
                        "triggerTime_ms": 726,
                        "audioEventId": [
                            1844409553
                        ],
                        "volume": 1.0,
                        "probability": [
                            1.0
                        ],
                        "hasAlts": true
                    },
                    {
                        "triggerTime_ms": 1518,
                        "audioEventId": [
                            2128944011
                        ],
                        "volume": 1.0,
                        "probability": [
                            1.0
                        ],
                        "hasAlts": true
                    }
                ],
                "BackpackLightsKeyFrame": [],
                "FaceAnimationKeyFrame": [],
                "EventKeyFrame": [],
                "BodyMotionKeyFrame": [
                    {
                        "triggerTime_ms": 363,
                        "durationTime_ms": 198,
                        "radius_mm": "STRAIGHT",
                        "speed": 25
                    },
                    {
                        "triggerTime_ms": 627,
                        "durationTime_ms": 561,
                        "radius_mm": "STRAIGHT",
                        "speed": -42
                    },
                    {
                        "triggerTime_ms": 1386,
                        "durationTime_ms": 231,
                        "radius_mm": "STRAIGHT",
                        "speed": 52
                    }
                ],
                "RecordHeadingKeyFrame": [],
                "TurnToRecordedHeadingKeyFrame": []
            }
        }
    ]
}