{
    "clips": [
        {
            "Name": "anim_energy_shortreact_lvl2_01",
            "keyframes": {
                "LiftHeightKeyFrame": [
                    {
                        "triggerTime_ms": 0,
                        "durationTime_ms": 198,
                        "height_mm": 32,
                        "heightVariability_mm": 0
                    }
                ],
                "ProceduralFaceKeyFrame": [
                    {
                        "triggerTime_ms": 0,
                        "faceAngle": 0.0,
                        "faceCenterX": 0.0,
                        "faceCenterY": 12.935738563537598,
                        "faceScaleX": 1.0,
                        "faceScaleY": 1.0,
                        "leftEye": [
                            9.682978630065918,
                            4.272152423858643,
                            1.0457555055618286,
                            0.7967790365219116,
                            0.0,
                            0.5854809880256653,
                            0.5854809880256653,
                            0.46325939893722534,
                            0.46325939893722534,
                            0.46325939893722534,
                            0.46325939893722534,
                            0.5854809880256653,
                            0.5854809880256653,
                            0.6002601385116577,
                            -8.98401165008545,
                            0.0,
                            0.0,
                            0.0,
                            0.0
                        ],
                        "rightEye": [
                            -10.206374168395996,
                            0.0,
                            1.42357337474823,
                            1.0304944515228271,
                            0.0,
                            0.5854809880256653,
                            0.5854809880256653,
                            0.46325939893722534,
                            0.46325939893722534,
                            0.46325939893722534,
                            0.46325939893722534,
                            0.5854809880256653,
                            0.5854809880256653,
                            0.60025554895401,
                            -8.98401165008545,
                            0.0,
                            0.0,
                            0.0,
                            0.0
                        ]
                    },
                    {
                        "triggerTime_ms": 198,
                        "faceAngle": 0.0,
                        "faceCenterX": 0.0,
                        "faceCenterY": 12.935738563537598,
                        "faceScaleX": 1.0,
                        "faceScaleY": 1.0,
                        "leftEye": [
                            9.682978630065918,
                            4.272152423858643,
                            1.0457555055618286,
                            0.7967790365219116,
                            0.0,
                            0.5854809880256653,
                            0.5854809880256653,
                            0.46325939893722534,
                            0.46325939893722534,
                            0.46325939893722534,
                            0.46325939893722534,
                            0.5854809880256653,
                            0.5854809880256653,
                            0.6002601385116577,
                            -8.98401165008545,
                            0.0,
                            0.0,
                            0.0,
                            0.0
                        ],
                        "rightEye": [
                            -10.206374168395996,
                            0.0,
                            1.42357337474823,
                            1.0304944515228271,
                            0.0,
                            0.5854809880256653,
                            0.5854809880256653,
                            0.46325939893722534,
                            0.46325939893722534,
                            0.46325939893722534,
                            0.46325939893722534,
                            0.5854809880256653,
                            0.5854809880256653,
                            0.60025554895401,
                            -8.98401165008545,
                            0.0,
                            0.0,
                            0.0,
                            0.0
                        ]
                    },
                    {
                        "triggerTime_ms": 264,
                        "faceAngle": 0.0,
                        "faceCenterX": 0.0,
                        "faceCenterY": 12.935738563537598,
                        "faceScaleX": 1.0,
                        "faceScaleY": 1.0,
                        "leftEye": [
                            9.682978630065918,
                            4.272152423858643,
                            1.0457555055618286,
                            0.7967790365219116,
                            0.0,
                            0.5854809880256653,
                            0.5854809880256653,
                            0.46325939893722534,
                            0.46325939893722534,
                            0.46325939893722534,
                            0.46325939893722534,
                            0.5854809880256653,
                            0.5854809880256653,
                            0.6002601385116577,
                            -8.98401165008545,
                            0.0,
                            0.0,
                            0.0,
                            0.0
                        ],
                        "rightEye": [
                            -10.206374168395996,
                            0.0,
                            1.42357337474823,
                            1.0304944515228271,
                            0.0,
                            0.5854809880256653,
                            0.5854809880256653,
                            0.46325939893722534,
                            0.46325939893722534,
                            0.46325939893722534,
                            0.46325939893722534,
                            0.5854809880256653,
                            0.5854809880256653,
                            0.60025554895401,
                            -8.98401165008545,
                            0.0,
                            0.0,
                            0.0,
                            0.0
                        ]
                    },
                    {
                        "triggerTime_ms": 396,
                        "faceAngle": 0.0,
                        "faceCenterX": 0.0,
                        "faceCenterY": 12.935738563537598,
                        "faceScaleX": 1.0,
                        "faceScaleY": 1.0,
                        "leftEye": [
                            9.609660148620605,
                            2.02693772315979,
                            1.1439826488494873,
                            0.902194082736969,
                            0.0,
                            0.3580872118473053,
                            0.5870129466056824,
                            0.46325939893722534,
                            0.46325939893722534,
                            0.46325939893722534,
                            0.46325939893722534,
                            0.3580872118473053,
                            0.5870129466056824,
                            0.7944635152816772,
                            -10.201216697692871,
                            0.0,
                            0.0,
                            0.0,
                            0.0
                        ],
                        "rightEye": [
                            -10.364019393920898,
                            -1.4900805950164795,
                            1.4490420818328857,
                            1.0644968748092651,
                            0.0,
                            0.3580872118473053,
                            0.5870129466056824,
                            0.46325939893722534,
                            0.46325939893722534,
                            0.46325939893722534,
                            0.46325939893722534,
                            0.3580872118473053,
                            0.5870129466056824,
                            0.7796369194984436,
                            -10.201216697692871,
                            0.0,
                            0.0,
                            0.0,
                            0.0
                        ]
                    },
                    {
                        "triggerTime_ms": 528,
                        "faceAngle": 0.0,
                        "faceCenterX": 0.0,
                        "faceCenterY": 12.935738563537598,
                        "faceScaleX": 1.0,
                        "faceScaleY": 1.0,
                        "leftEye": [
                            9.536341667175293,
                            -0.21827653050422668,
                            1.2422096729278564,
                            1.0076091289520264,
                            0.0,
                            0.18737037479877472,
                            0.8517563939094543,
                            0.46325939893722534,
                            0.46325939893722534,
                            0.46325939893722534,
                            0.46325939893722534,
                            0.18737037479877472,
                            0.8517563939094543,
                            0.8741407990455627,
                            -4.293421268463135,
                            0.0,
                            0.0,
                            0.0,
                            0.0
                        ],
                        "rightEye": [
                            -10.521665573120117,
                            -2.980161190032959,
                            1.4745110273361206,
                            1.0984992980957031,
                            0.0,
                            0.18737037479877472,
                            0.8517563939094543,
                            0.46325939893722534,
                            0.46325939893722534,
                            0.46325939893722534,
                            0.46325939893722534,
                            0.18737037479877472,
                            0.8517563939094543,
                            0.8715908527374268,
                            -4.293421268463135,
                            0.0,
                            0.0,
                            0.0,
                            0.0
                        ]
                    },
                    {
                        "triggerTime_ms": 660,
                        "faceAngle": 0.0,
                        "faceCenterX": 0.0,
                        "faceCenterY": 12.935738563537598,
                        "faceScaleX": 1.0,
                        "faceScaleY": 1.0,
                        "leftEye": [
                            12.220467567443848,
                            -2.253520965576172,
                            1.000364899635315,
                            1.0371663570404053,
                            0.0,
                            0.5967870950698853,
                            0.5967870950698853,
                            0.46325939893722534,
                            0.46325939893722534,
                            0.46325939893722534,
                            0.46325939893722534,
                            0.5967870950698853,
                            0.5967870950698853,
                            0.4294271469116211,
                            -10.637969970703125,
                            0.0,
                            0.0,
                            0.0,
                            0.0
                        ],
                        "rightEye": [
                            -15.772408485412598,
                            -5.168162822723389,
                            1.084402084350586,
                            1.2033281326293945,
                            0.0,
                            0.5967870950698853,
                            0.5967870950698853,
                            0.46325939893722534,
                            0.46325939893722534,
                            0.46325939893722534,
                            0.46325939893722534,
                            0.5967870950698853,
                            0.5967870950698853,
                            0.4209463894367218,
                            -10.637969970703125,
                            0.0,
                            0.0,
                            0.0,
                            0.0
                        ]
                    },
                    {
                        "triggerTime_ms": 990,
                        "faceAngle": 0.0,
                        "faceCenterX": 0.0,
                        "faceCenterY": 12.935738563537598,
                        "faceScaleX": 1.0,
                        "faceScaleY": 1.0,
                        "leftEye": [
                            9.682978630065918,
                            4.272152423858643,
                            1.0457555055618286,
                            0.7967790365219116,
                            0.0,
                            0.5854809880256653,
                            0.5854809880256653,
                            0.46325939893722534,
                            0.46325939893722534,
                            0.46325939893722534,
                            0.46325939893722534,
                            0.5854809880256653,
                            0.5854809880256653,
                            0.6002601385116577,
                            -8.98401165008545,
                            0.0,
                            0.0,
                            0.0,
                            0.0
                        ],
                        "rightEye": [
                            -10.206374168395996,
                            0.0,
                            1.42357337474823,
                            1.0304944515228271,
                            0.0,
                            0.5854809880256653,
                            0.5854809880256653,
                            0.46325939893722534,
                            0.46325939893722534,
                            0.46325939893722534,
                            0.46325939893722534,
                            0.5854809880256653,
                            0.5854809880256653,
                            0.60025554895401,
                            -8.98401165008545,
                            0.0,
                            0.0,
                            0.0,
                            0.0
                        ]
                    },
                    {
                        "triggerTime_ms": 1485,
                        "faceAngle": 0.0,
                        "faceCenterX": 0.0,
                        "faceCenterY": 12.935738563537598,
                        "faceScaleX": 1.0,
                        "faceScaleY": 1.0,
                        "leftEye": [
                            9.682978630065918,
                            4.272152423858643,
                            1.0457555055618286,
                            0.7967790365219116,
                            0.0,
                            0.5854809880256653,
                            0.5854809880256653,
                            0.46325939893722534,
                            0.46325939893722534,
                            0.46325939893722534,
                            0.46325939893722534,
                            0.5854809880256653,
                            0.5854809880256653,
                            0.6002601385116577,
                            -8.98401165008545,
                            0.0,
                            0.0,
                            0.0,
                            0.0
                        ],
                        "rightEye": [
                            -10.206374168395996,
                            0.0,
                            1.42357337474823,
                            1.0304944515228271,
                            0.0,
                            0.5854809880256653,
                            0.5854809880256653,
                            0.46325939893722534,
                            0.46325939893722534,
                            0.46325939893722534,
                            0.46325939893722534,
                            0.5854809880256653,
                            0.5854809880256653,
                            0.60025554895401,
                            -8.98401165008545,
                            0.0,
                            0.0,
                            0.0,
                            0.0
                        ]
                    }
                ],
                "HeadAngleKeyFrame": [
                    {
                        "triggerTime_ms": 0,
                        "durationTime_ms": 198,
                        "angle_deg": 0,
                        "angleVariability_deg": 0
                    },
                    {
                        "triggerTime_ms": 198,
                        "durationTime_ms": 198,
                        "angle_deg": -20,
                        "angleVariability_deg": 0
                    },
                    {
                        "triggerTime_ms": 396,
                        "durationTime_ms": 330,
                        "angle_deg": 10,
                        "angleVariability_deg": 0
                    },
                    {
                        "triggerTime_ms": 726,
                        "durationTime_ms": 165,
                        "angle_deg": -7,
                        "angleVariability_deg": 0
                    },
                    {
                        "triggerTime_ms": 891,
                        "durationTime_ms": 330,
                        "angle_deg": 0,
                        "angleVariability_deg": 0
                    }
                ],
                "RobotAudioKeyFrame": [
                    {
                        "triggerTime_ms": 264,
                        "audioEventId": [
                            2241122639
                        ],
                        "volume": 1.0,
                        "probability": [
                            1.0
                        ],
                        "hasAlts": true
                    }
                ],
                "BackpackLightsKeyFrame": [
                    {
                        "triggerTime_ms": 0,
                        "durationTime_ms": 198,
                        "Left": [
                            0,
                            0,
                            0,
                            0
                        ],
                        "Front": [
                            0,
                            0,
                            0,
                            0
                        ],
                        "Middle": [
                            0,
                            0,
                            0,
                            0
                        ],
                        "Back": [
                            0,
                            0,
                            0,
                            0
                        ],
                        "Right": [
                            0,
                            0,
                            0,
                            0
                        ]
                    },
                    {
                        "triggerTime_ms": 198,
                        "durationTime_ms": 1287,
                        "Left": [
                            0,
                            0,
                            0,
                            0
                        ],
                        "Front": [
                            0,
                            0,
                            0,
                            0
                        ],
                        "Middle": [
                            0,
                            0,
                            0,
                            0
                        ],
                        "Back": [
                            0,
                            0,
                            0,
                            0
                        ],
                        "Right": [
                            0,
                            0,
                            0,
                            0
                        ]
                    }
                ],
                "FaceAnimationKeyFrame": [],
                "EventKeyFrame": [],
                "BodyMotionKeyFrame": [
                    {
                        "triggerTime_ms": 198,
                        "durationTime_ms": 132,
                        "radius_mm": "STRAIGHT",
                        "speed": 39
                    },
                    {
                        "triggerTime_ms": 330,
                        "durationTime_ms": 363,
                        "radius_mm": "STRAIGHT",
                        "speed": -77
                    },
                    {
                        "triggerTime_ms": 693,
                        "durationTime_ms": 165,
                        "radius_mm": "STRAIGHT",
                        "speed": -28
                    },
                    {
                        "triggerTime_ms": 858,
                        "durationTime_ms": 165,
                        "radius_mm": "STRAIGHT",
                        "speed": -19
                    },
                    {
                        "triggerTime_ms": 1023,
                        "durationTime_ms": 165,
                        "radius_mm": "STRAIGHT",
                        "speed": -11
                    },
                    {
                        "triggerTime_ms": 1188,
                        "durationTime_ms": 132,
                        "radius_mm": "STRAIGHT",
                        "speed": -6
                    },
                    {
                        "triggerTime_ms": 1320,
                        "durationTime_ms": 165,
                        "radius_mm": "STRAIGHT",
                        "speed": -2
                    }
                ],
                "RecordHeadingKeyFrame": [],
                "TurnToRecordedHeadingKeyFrame": []
            }
        }
    ]
}