{
    "clips": [
        {
            "Name": "anim_laser_drive_01",
            "keyframes": {
                "LiftHeightKeyFrame": [],
                "ProceduralFaceKeyFrame": [
                    {
                        "triggerTime_ms": 0,
                        "faceAngle": 0.0,
                        "faceCenterX": 0.0,
                        "faceCenterY": 27.77531623840332,
                        "faceScaleX": 1.0,
                        "faceScaleY": 1.0,
                        "leftEye": [
                            9.169666290283203,
                            0.0,
                            1.214332938194275,
                            0.9052804112434387,
                            0.0,
                            0.5,
                            0.5,
                            0.8551031351089478,
                            0.8551031351089478,
                            0.8551031351089478,
                            0.8551031351089478,
                            0.5,
                            0.5,
                            0.1376146823167801,
                            0.0,
                            0.0,
                            0.5015674233436584,
                            4.583662509918213,
                            0.0
                        ],
                        "rightEye": [
                            -10.206374168395996,
                            0.0,
                            1.2220369577407837,
                            0.9052804112434387,
                            0.0,
                            0.5,
                            0.5,
                            0.8551031351089478,
                            0.8551031351089478,
                            0.8551031351089478,
                            0.8551031351089478,
                            0.5,
                            0.5,
                            0.1487082988023758,
                            0.0,
                            0.0,
                            0.48703333735466003,
                            4.583662509918213,
                            0.0
                        ]
                    },
                    {
                        "triggerTime_ms": 66,
                        "faceAngle": 0.0,
                        "faceCenterX": 0.0,
                        "faceCenterY": 27.77531623840332,
                        "faceScaleX": 1.0,
                        "faceScaleY": 1.0,
                        "leftEye": [
                            9.169666290283203,
                            0.0,
                            1.214332938194275,
                            0.9052804112434387,
                            0.0,
                            0.5,
                            0.5,
                            0.607566773891449,
                            0.607566773891449,
                            0.607566773891449,
                            0.607566773891449,
                            0.5,
                            0.5,
                            0.13810034096240997,
                            0.0,
                            0.0,
                            0.4857596457004547,
                            0.0,
                            0.0
                        ],
                        "rightEye": [
                            -10.206374168395996,
                            0.0,
                            1.2220369577407837,
                            0.9052804112434387,
                            0.0,
                            0.5,
                            0.5,
                            0.607566773891449,
                            0.607566773891449,
                            0.607566773891449,
                            0.607566773891449,
                            0.5,
                            0.5,
                            0.1380992829799652,
                            0.0,
                            0.0,
                            0.47168365120887756,
                            0.0,
                            0.0
                        ]
                    },
                    {
                        "triggerTime_ms": 132,
                        "faceAngle": 0.0,
                        "faceCenterX": -0.6369861960411072,
                        "faceCenterY": 31.666301727294922,
                        "faceScaleX": 1.0632071495056152,
                        "faceScaleY": 1.0,
                        "leftEye": [
                            11.108245849609375,
                            0.0,
                            1.0708576440811157,
                            0.9052804112434387,
                            0.0,
                            0.5,
                            0.5,
                            0.8551031351089478,
                            0.8551031351089478,
                            0.8551031351089478,
                            0.8551031351089478,
                            0.5,
                            0.5,
                            0.26581427454948425,
                            5.124129772186279,
                            0.0,
                            0.6287469267845154,
                            4.583662509918213,
                            0.0
                        ],
                        "rightEye": [
                            -10.206374168395996,
                            0.0,
                            1.2491369247436523,
                            0.9052804112434387,
                            0.0,
                            0.5,
                            0.5,
                            0.8551031351089478,
                            0.8551031351089478,
                            0.735485315322876,
                            0.735485315322876,
                            0.5,
                            0.5,
                            0.23895969986915588,
                            7.019285202026367,
                            0.0,
                            0.610511064529419,
                            4.583662509918213,
                            0.0
                        ]
                    },
                    {
                        "triggerTime_ms": 198,
                        "faceAngle": 0.0,
                        "faceCenterX": 2.051544189453125,
                        "faceCenterY": 31.417686462402344,
                        "faceScaleX": 1.0241854190826416,
                        "faceScaleY": 1.0,
                        "leftEye": [
                            10.796321868896484,
                            0.0,
                            1.1649917364120483,
                            0.9052804112434387,
                            0.0,
                            0.5,
                            0.5,
                            0.8551031351089478,
                            0.8551031351089478,
                            0.8551031351089478,
                            0.8551031351089478,
                            0.5,
                            0.5,
                            0.22028815746307373,
                            -4.599261283874512,
                            0.0,
                            0.5502310395240784,
                            4.583662509918213,
                            0.0
                        ],
                        "rightEye": [
                            -10.206374168395996,
                            0.0,
                            1.2732148170471191,
                            0.9052804112434387,
                            0.0,
                            0.5,
                            0.5,
                            0.8551031351089478,
                            0.8551031351089478,
                            0.629205584526062,
                            0.629205584526062,
                            0.5,
                            0.5,
                            0.1265365034341812,
                            8.366121292114258,
                            0.0,
                            0.53428053855896,
                            4.583662509918213,
                            0.0
                        ]
                    },
                    {
                        "triggerTime_ms": 264,
                        "faceAngle": 0.0,
                        "faceCenterX": 2.7334508895874023,
                        "faceCenterY": 30.12397003173828,
                        "faceScaleX": 1.0034611225128174,
                        "faceScaleY": 1.0,
                        "leftEye": [
                            10.653820037841797,
                            0.0,
                            1.2079174518585205,
                            0.9052804112434387,
                            0.0,
                            0.5,
                            0.5,
                            0.8551031351089478,
                            0.8551031351089478,
                            0.8551031351089478,
                            0.8551031351089478,
                            0.5,
                            0.5,
                            0.20451784133911133,
                            -6.602625846862793,
                            0.0,
                            0.5085314512252808,
                            4.583662509918213,
                            0.0
                        ],
                        "rightEye": [
                            -10.206374168395996,
                            0.0,
                            1.2813539505004883,
                            0.9052804112434387,
                            0.0,
                            0.5,
                            0.5,
                            0.8551031351089478,
                            0.8551031351089478,
                            0.5932801961898804,
                            0.5932801961898804,
                            0.5,
                            0.5,
                            0.07492229342460632,
                            8.511970520019531,
                            0.0,
                            0.493794709444046,
                            4.583662509918213,
                            0.0
                        ]
                    },
                    {
                        "triggerTime_ms": 297,
                        "faceAngle": 0.0,
                        "faceCenterX": 2.745347738265991,
                        "faceCenterY": 29.694923400878906,
                        "faceScaleX": 1.0,
                        "faceScaleY": 1.0,
                        "leftEye": [
                            10.632489204406738,
                            0.0,
                            1.214332938194275,
                            0.9052804112434387,
                            0.0,
                            0.5,
                            0.5,
                            0.8551031351089478,
                            0.8551031351089478,
                            0.8551031351089478,
                            0.8551031351089478,
                            0.5,
                            0.5,
                            0.20278027653694153,
                            -6.669267177581787,
                            0.0,
                            0.5015674233436584,
                            4.583662509918213,
                            0.0
                        ],
                        "rightEye": [
                            -10.206374168395996,
                            0.0,
                            1.2822177410125732,
                            0.9052804112434387,
                            0.0,
                            0.5,
                            0.5,
                            0.8551031351089478,
                            0.8551031351089478,
                            0.5894674062728882,
                            0.5894674062728882,
                            0.5,
                            0.5,
                            0.05685731768608093,
                            8.563017845153809,
                            0.0,
                            0.48703333735466003,
                            4.583662509918213,
                            0.0
                        ]
                    },
                    {
                        "triggerTime_ms": 627,
                        "faceAngle": 0.0,
                        "faceCenterX": 2.745347738265991,
                        "faceCenterY": 29.450136184692383,
                        "faceScaleX": 1.0,
                        "faceScaleY": 1.0,
                        "leftEye": [
                            10.632489204406738,
                            0.0,
                            1.214332938194275,
                            0.9052804112434387,
                            0.0,
                            0.5,
                            0.5,
                            0.8551031351089478,
                            0.8551031351089478,
                            0.8551031351089478,
                            0.8551031351089478,
                            0.5,
                            0.5,
                            0.20278027653694153,
                            -6.669267177581787,
                            0.0,
                            0.5015674233436584,
                            4.583662509918213,
                            0.0
                        ],
                        "rightEye": [
                            -10.206374168395996,
                            0.0,
                            1.2822177410125732,
                            0.9052804112434387,
                            0.0,
                            0.5,
                            0.5,
                            0.8551031351089478,
                            0.8551031351089478,
                            0.5894674062728882,
                            0.5894674062728882,
                            0.5,
                            0.5,
                            0.05685731768608093,
                            8.563017845153809,
                            0.0,
                            0.48703333735466003,
                            4.583662509918213,
                            0.0
                        ]
                    },
                    {
                        "triggerTime_ms": 660,
                        "faceAngle": 0.0,
                        "faceCenterX": 4.1414642333984375,
                        "faceCenterY": 29.450136184692383,
                        "faceScaleX": 1.0,
                        "faceScaleY": 1.0,
                        "leftEye": [
                            10.955875396728516,
                            0.0,
                            1.214332938194275,
                            0.6903228759765625,
                            0.0,
                            0.5,
                            0.5,
                            0.8551031351089478,
                            0.8551031351089478,
                            0.8551031351089478,
                            0.8551031351089478,
                            0.5,
                            0.5,
                            0.20278027653694153,
                            -6.669267177581787,
                            0.0,
                            0.5015674233436584,
                            4.583662509918213,
                            0.0
                        ],
                        "rightEye": [
                            -10.206374168395996,
                            0.0,
                            1.2822177410125732,
                            0.7321761250495911,
                            0.0,
                            0.5,
                            0.5,
                            0.8551031351089478,
                            0.8551031351089478,
                            0.5894674062728882,
                            0.5894674062728882,
                            0.5,
                            0.5,
                            0.05685731768608093,
                            8.563017845153809,
                            0.0,
                            0.48703333735466003,
                            4.583662509918213,
                            0.0
                        ]
                    },
                    {
                        "triggerTime_ms": 726,
                        "faceAngle": 0.0,
                        "faceCenterX": 4.442693710327148,
                        "faceCenterY": 29.450136184692383,
                        "faceScaleX": 1.0,
                        "faceScaleY": 1.0,
                        "leftEye": [
                            11.912460327148438,
                            0.0,
                            1.214332938194275,
                            0.9052804112434387,
                            0.0,
                            0.5,
                            0.5,
                            0.8551031351089478,
                            0.8551031351089478,
                            0.8551031351089478,
                            0.8551031351089478,
                            0.5,
                            0.5,
                            0.20278027653694153,
                            -6.669267177581787,
                            0.0,
                            0.5015674233436584,
                            4.583662509918213,
                            0.0
                        ],
                        "rightEye": [
                            -10.206374168395996,
                            0.0,
                            1.2822177410125732,
                            0.9052804112434387,
                            0.0,
                            0.5,
                            0.5,
                            0.8551031351089478,
                            0.8551031351089478,
                            0.5894674062728882,
                            0.5894674062728882,
                            0.5,
                            0.5,
                            0.05685731768608093,
                            8.563017845153809,
                            0.0,
                            0.48703333735466003,
                            4.583662509918213,
                            0.0
                        ]
                    },
                    {
                        "triggerTime_ms": 1056,
                        "faceAngle": 0.0,
                        "faceCenterX": 4.442693710327148,
                        "faceCenterY": 29.450136184692383,
                        "faceScaleX": 1.0,
                        "faceScaleY": 1.0,
                        "leftEye": [
                            11.912460327148438,
                            0.0,
                            1.214332938194275,
                            0.9052804112434387,
                            0.0,
                            0.5,
                            0.5,
                            0.8551031351089478,
                            0.8551031351089478,
                            0.8551031351089478,
                            0.8551031351089478,
                            0.5,
                            0.5,
                            0.20278027653694153,
                            -6.669267177581787,
                            0.0,
                            0.5015674233436584,
                            4.583662509918213,
                            0.0
                        ],
                        "rightEye": [
                            -10.206374168395996,
                            0.0,
                            1.2822177410125732,
                            0.9052804112434387,
                            0.0,
                            0.5,
                            0.5,
                            0.8551031351089478,
                            0.8551031351089478,
                            0.5894674062728882,
                            0.5894674062728882,
                            0.5,
                            0.5,
                            0.05685731768608093,
                            8.563017845153809,
                            0.0,
                            0.48703333735466003,
                            4.583662509918213,
                            0.0
                        ]
                    },
                    {
                        "triggerTime_ms": 1089,
                        "faceAngle": 0.0,
                        "faceCenterX": 4.354682445526123,
                        "faceCenterY": 31.666301727294922,
                        "faceScaleX": 1.0632071495056152,
                        "faceScaleY": 1.0,
                        "leftEye": [
                            11.108245849609375,
                            0.0,
                            1.0708576440811157,
                            0.9052804112434387,
                            0.0,
                            0.5,
                            0.5,
                            0.8551031351089478,
                            0.8551031351089478,
                            0.8551031351089478,
                            0.8551031351089478,
                            0.5,
                            0.5,
                            0.26581427454948425,
                            5.124129772186279,
                            0.0,
                            0.6287469267845154,
                            4.583662509918213,
                            0.0
                        ],
                        "rightEye": [
                            -10.206374168395996,
                            0.0,
                            1.2491369247436523,
                            0.9052804112434387,
                            0.0,
                            0.5,
                            0.5,
                            0.8551031351089478,
                            0.8551031351089478,
                            0.735485315322876,
                            0.735485315322876,
                            0.5,
                            0.5,
                            0.23895969986915588,
                            7.019285202026367,
                            0.0,
                            0.610511064529419,
                            4.583662509918213,
                            0.0
                        ]
                    },
                    {
                        "triggerTime_ms": 1155,
                        "faceAngle": 0.0,
                        "faceCenterX": 0.0,
                        "faceCenterY": 27.77531623840332,
                        "faceScaleX": 1.0,
                        "faceScaleY": 1.0,
                        "leftEye": [
                            9.169666290283203,
                            0.0,
                            1.214332938194275,
                            0.9052804112434387,
                            0.0,
                            0.5,
                            0.5,
                            0.8551031351089478,
                            0.8551031351089478,
                            0.8551031351089478,
                            0.8551031351089478,
                            0.5,
                            0.5,
                            0.1376146823167801,
                            0.0,
                            0.0,
                            0.5015674233436584,
                            4.583662509918213,
                            0.0
                        ],
                        "rightEye": [
                            -10.206374168395996,
                            0.0,
                            1.2220369577407837,
                            0.9052804112434387,
                            0.0,
                            0.5,
                            0.5,
                            0.8551031351089478,
                            0.8551031351089478,
                            0.8551031351089478,
                            0.8551031351089478,
                            0.5,
                            0.5,
                            0.1487082988023758,
                            0.0,
                            0.0,
                            0.48703333735466003,
                            4.583662509918213,
                            0.0
                        ]
                    }
                ],
                "HeadAngleKeyFrame": [
                    {
                        "triggerTime_ms": 0,
                        "durationTime_ms": 132,
                        "angle_deg": -25,
                        "angleVariability_deg": 0
                    }
                ],
                "RobotAudioKeyFrame": [
                    {
                        "triggerTime_ms": 33,
                        "audioEventId": [
                            1701725212
                        ],
                        "volume": 1.0,
                        "probability": [
                            1.0
                        ],
                        "hasAlts": true
                    },
                    {
                        "triggerTime_ms": 99,
                        "audioEventId": [
                            3957181661
                        ],
                        "volume": 1.0,
                        "probability": [
                            0.5
                        ],
                        "hasAlts": true
                    }
                ],
                "BackpackLightsKeyFrame": [],
                "FaceAnimationKeyFrame": [],
                "EventKeyFrame": [],
                "BodyMotionKeyFrame": [],
                "RecordHeadingKeyFrame": [],
                "TurnToRecordedHeadingKeyFrame": []
            }
        },
        {
            "Name": "anim_laser_drive_02",
            "keyframes": {
                "LiftHeightKeyFrame": [],
                "ProceduralFaceKeyFrame": [
                    {
                        "triggerTime_ms": 0,
                        "faceAngle": 0.0,
                        "faceCenterX": 0.0,
                        "faceCenterY": 27.77531623840332,
                        "faceScaleX": 1.0,
                        "faceScaleY": 1.0,
                        "leftEye": [
                            9.169666290283203,
                            0.0,
                            1.214332938194275,
                            0.9052804112434387,
                            0.0,
                            0.5,
                            0.5,
                            0.8551031351089478,
                            0.8551031351089478,
                            0.8551031351089478,
                            0.8551031351089478,
                            0.5,
                            0.5,
                            0.1376146823167801,
                            0.0,
                            0.0,
                            0.5015674233436584,
                            4.583662509918213,
                            0.0
                        ],
                        "rightEye": [
                            -10.206374168395996,
                            0.0,
                            1.2220369577407837,
                            0.9052804112434387,
                            0.0,
                            0.5,
                            0.5,
                            0.8551031351089478,
                            0.8551031351089478,
                            0.8551031351089478,
                            0.8551031351089478,
                            0.5,
                            0.5,
                            0.1487082988023758,
                            0.0,
                            0.0,
                            0.48703333735466003,
                            4.583662509918213,
                            0.0
                        ]
                    },
                    {
                        "triggerTime_ms": 66,
                        "faceAngle": 0.0,
                        "faceCenterX": 0.0,
                        "faceCenterY": 29.7110538482666,
                        "faceScaleX": 1.0,
                        "faceScaleY": 1.0,
                        "leftEye": [
                            9.169666290283203,
                            0.0,
                            1.214332938194275,
                            0.9052804112434387,
                            0.0,
                            0.5,
                            0.5,
                            0.8551031351089478,
                            0.8551031351089478,
                            0.8551031351089478,
                            0.8551031351089478,
                            0.5,
                            0.5,
                            0.15702159702777863,
                            0.0,
                            0.0,
                            0.5015674233436584,
                            4.583662509918213,
                            0.0
                        ],
                        "rightEye": [
                            -10.206374168395996,
                            0.0,
                            1.2220369577407837,
                            0.9052804112434387,
                            0.0,
                            0.5,
                            0.5,
                            0.8551031351089478,
                            0.8551031351089478,
                            0.8551031351089478,
                            0.8551031351089478,
                            0.5,
                            0.5,
                            0.16637912392616272,
                            0.0,
                            0.0,
                            0.48703333735466003,
                            4.583662509918213,
                            0.0
                        ]
                    },
                    {
                        "triggerTime_ms": 198,
                        "faceAngle": 0.0,
                        "faceCenterX": 0.0,
                        "faceCenterY": 29.884075164794922,
                        "faceScaleX": 1.0,
                        "faceScaleY": 1.0,
                        "leftEye": [
                            9.169666290283203,
                            0.0,
                            1.214332938194275,
                            0.9052804112434387,
                            0.0,
                            0.5,
                            0.5,
                            0.8551031351089478,
                            0.8551031351089478,
                            0.8551031351089478,
                            0.8551031351089478,
                            0.5,
                            0.5,
                            0.1376146823167801,
                            0.0,
                            0.0,
                            0.5015674233436584,
                            4.583662509918213,
                            0.0
                        ],
                        "rightEye": [
                            -10.206374168395996,
                            0.0,
                            1.2220369577407837,
                            0.9052804112434387,
                            0.0,
                            0.5,
                            0.5,
                            0.8551031351089478,
                            0.8551031351089478,
                            0.8551031351089478,
                            0.8551031351089478,
                            0.5,
                            0.5,
                            0.1487082988023758,
                            0.0,
                            0.0,
                            0.48703333735466003,
                            4.583662509918213,
                            0.0
                        ]
                    },
                    {
                        "triggerTime_ms": 363,
                        "faceAngle": 0.0,
                        "faceCenterX": 0.0,
                        "faceCenterY": 29.884075164794922,
                        "faceScaleX": 1.0,
                        "faceScaleY": 1.0,
                        "leftEye": [
                            9.169666290283203,
                            0.0,
                            1.214332938194275,
                            0.9052804112434387,
                            0.0,
                            0.5,
                            0.5,
                            0.8551031351089478,
                            0.8551031351089478,
                            0.8551031351089478,
                            0.8551031351089478,
                            0.5,
                            0.5,
                            0.1376146823167801,
                            0.0,
                            0.0,
                            0.5015674233436584,
                            4.583662509918213,
                            0.0
                        ],
                        "rightEye": [
                            -10.206374168395996,
                            0.0,
                            1.2220369577407837,
                            0.9052804112434387,
                            0.0,
                            0.5,
                            0.5,
                            0.8551031351089478,
                            0.8551031351089478,
                            0.8551031351089478,
                            0.8551031351089478,
                            0.5,
                            0.5,
                            0.1487082988023758,
                            0.0,
                            0.0,
                            0.48703333735466003,
                            4.583662509918213,
                            0.0
                        ]
                    },
                    {
                        "triggerTime_ms": 396,
                        "faceAngle": 0.0,
                        "faceCenterX": 0.0,
                        "faceCenterY": 29.425193786621094,
                        "faceScaleX": 1.0,
                        "faceScaleY": 1.0,
                        "leftEye": [
                            9.169666290283203,
                            0.0,
                            1.214332938194275,
                            0.9174011945724487,
                            0.0,
                            0.5,
                            0.5,
                            0.8551031351089478,
                            0.8551031351089478,
                            0.8551031351089478,
                            0.8551031351089478,
                            0.5,
                            0.5,
                            0.1376146823167801,
                            0.0,
                            0.0,
                            0.5015674233436584,
                            4.583662509918213,
                            0.0
                        ],
                        "rightEye": [
                            -10.206374168395996,
                            0.0,
                            1.2220369577407837,
                            0.9234615564346313,
                            0.0,
                            0.5,
                            0.5,
                            0.8551031351089478,
                            0.8551031351089478,
                            0.8551031351089478,
                            0.8551031351089478,
                            0.5,
                            0.5,
                            0.1487082988023758,
                            0.0,
                            0.0,
                            0.48703333735466003,
                            4.583662509918213,
                            0.0
                        ]
                    },
                    {
                        "triggerTime_ms": 462,
                        "faceAngle": 0.0,
                        "faceCenterX": 0.0,
                        "faceCenterY": 23.680145263671875,
                        "faceScaleX": 1.0,
                        "faceScaleY": 1.2230578660964966,
                        "leftEye": [
                            9.169666290283203,
                            0.0,
                            1.214332938194275,
                            0.9842038750648499,
                            0.0,
                            0.5,
                            0.5,
                            0.8551031351089478,
                            0.8551031351089478,
                            0.8551031351089478,
                            0.8551031351089478,
                            0.5,
                            0.5,
                            0.27815693616867065,
                            -4.4307451248168945,
                            0.0,
                            0.5015674233436584,
                            4.583662509918213,
                            0.0
                        ],
                        "rightEye": [
                            -10.206374168395996,
                            0.0,
                            1.2220369577407837,
                            1.03374183177948,
                            0.0,
                            0.5,
                            0.5,
                            0.8551031351089478,
                            0.8551031351089478,
                            0.8551031351089478,
                            0.8551031351089478,
                            0.5,
                            0.5,
                            0.17698028683662415,
                            4.461971759796143,
                            0.0,
                            0.48703333735466003,
                            4.583662509918213,
                            0.0
                        ]
                    },
                    {
                        "triggerTime_ms": 693,
                        "faceAngle": 0.0,
                        "faceCenterX": 0.0,
                        "faceCenterY": 23.680145263671875,
                        "faceScaleX": 1.0,
                        "faceScaleY": 1.2230578660964966,
                        "leftEye": [
                            9.169666290283203,
                            0.0,
                            1.214332938194275,
                            0.9842038750648499,
                            0.0,
                            0.5,
                            0.5,
                            0.8551031351089478,
                            0.8551031351089478,
                            0.8551031351089478,
                            0.8551031351089478,
                            0.5,
                            0.5,
                            0.27815693616867065,
                            -4.4307451248168945,
                            0.0,
                            0.5015674233436584,
                            4.583662509918213,
                            0.0
                        ],
                        "rightEye": [
                            -10.206374168395996,
                            0.0,
                            1.2220369577407837,
                            1.03374183177948,
                            0.0,
                            0.5,
                            0.5,
                            0.8551031351089478,
                            0.8551031351089478,
                            0.8551031351089478,
                            0.8551031351089478,
                            0.5,
                            0.5,
                            0.17698028683662415,
                            4.461971759796143,
                            0.0,
                            0.48703333735466003,
                            4.583662509918213,
                            0.0
                        ]
                    },
                    {
                        "triggerTime_ms": 792,
                        "faceAngle": 0.0,
                        "faceCenterX": 0.0,
                        "faceCenterY": 23.680145263671875,
                        "faceScaleX": 1.0,
                        "faceScaleY": 1.2230578660964966,
                        "leftEye": [
                            9.169666290283203,
                            0.0,
                            1.214332938194275,
                            0.9842038750648499,
                            0.0,
                            0.5,
                            0.5,
                            0.8551031351089478,
                            0.8551031351089478,
                            0.8551031351089478,
                            0.8551031351089478,
                            0.5,
                            0.5,
                            0.27815693616867065,
                            -4.4307451248168945,
                            0.0,
                            0.5015674233436584,
                            4.583662509918213,
                            0.0
                        ],
                        "rightEye": [
                            -10.206374168395996,
                            0.0,
                            1.2220369577407837,
                            1.03374183177948,
                            0.0,
                            0.5,
                            0.5,
                            0.8551031351089478,
                            0.8551031351089478,
                            0.8551031351089478,
                            0.8551031351089478,
                            0.5,
                            0.5,
                            0.17698028683662415,
                            4.461971759796143,
                            0.0,
                            0.48703333735466003,
                            4.583662509918213,
                            0.0
                        ]
                    },
                    {
                        "triggerTime_ms": 1155,
                        "faceAngle": 0.0,
                        "faceCenterX": 0.0,
                        "faceCenterY": 23.680145263671875,
                        "faceScaleX": 1.0,
                        "faceScaleY": 1.2230578660964966,
                        "leftEye": [
                            9.169666290283203,
                            0.0,
                            1.214332938194275,
                            0.9842038750648499,
                            0.0,
                            0.5,
                            0.5,
                            0.8551031351089478,
                            0.8551031351089478,
                            0.8551031351089478,
                            0.8551031351089478,
                            0.5,
                            0.5,
                            0.27815693616867065,
                            -4.4307451248168945,
                            0.0,
                            0.5015674233436584,
                            4.583662509918213,
                            0.0
                        ],
                        "rightEye": [
                            -10.206374168395996,
                            0.0,
                            1.2220369577407837,
                            1.03374183177948,
                            0.0,
                            0.5,
                            0.5,
                            0.8551031351089478,
                            0.8551031351089478,
                            0.8551031351089478,
                            0.8551031351089478,
                            0.5,
                            0.5,
                            0.17698028683662415,
                            4.461971759796143,
                            0.0,
                            0.48703333735466003,
                            4.583662509918213,
                            0.0
                        ]
                    },
                    {
                        "triggerTime_ms": 1221,
                        "faceAngle": 0.0,
                        "faceCenterX": 0.0,
                        "faceCenterY": 23.048999786376953,
                        "faceScaleX": 1.0,
                        "faceScaleY": 1.2846087217330933,
                        "leftEye": [
                            9.169666290283203,
                            0.0,
                            1.214332938194275,
                            0.9052804112434387,
                            0.0,
                            0.5,
                            0.5,
                            0.8551031351089478,
                            0.8551031351089478,
                            0.8551031351089478,
                            0.8551031351089478,
                            0.5,
                            0.5,
                            0.1376146823167801,
                            -3.1337108612060547,
                            0.0,
                            0.5015674233436584,
                            4.583662509918213,
                            0.0
                        ],
                        "rightEye": [
                            -10.206374168395996,
                            0.0,
                            1.2220369577407837,
                            0.9052804112434387,
                            0.0,
                            0.5,
                            0.5,
                            0.8551031351089478,
                            0.8551031351089478,
                            0.8551031351089478,
                            0.8551031351089478,
                            0.5,
                            0.5,
                            0.1487082988023758,
                            -2.6911330223083496,
                            0.0,
                            0.48703333735466003,
                            4.583662509918213,
                            0.0
                        ]
                    },
                    {
                        "triggerTime_ms": 1254,
                        "faceAngle": 0.0,
                        "faceCenterX": 0.0,
                        "faceCenterY": 25.18464469909668,
                        "faceScaleX": 1.061684489250183,
                        "faceScaleY": 0.9302555918693542,
                        "leftEye": [
                            9.169666290283203,
                            0.0,
                            1.224334955215454,
                            0.9052804112434387,
                            0.0,
                            0.4857577085494995,
                            0.4857577085494995,
                            0.8305394053459167,
                            0.8305394053459167,
                            0.8305394053459167,
                            0.8305394053459167,
                            0.4857577085494995,
                            0.4857577085494995,
                            0.24250327050685883,
                            0.0,
                            0.0,
                            0.4869888722896576,
                            4.45043420791626,
                            0.0
                        ],
                        "rightEye": [
                            -10.206374168395996,
                            0.0,
                            1.232398509979248,
                            0.9052804112434387,
                            0.0,
                            0.4857577085494995,
                            0.4857577085494995,
                            0.8305394053459167,
                            0.8305394053459167,
                            0.8305394053459167,
                            0.8305394053459167,
                            0.4857577085494995,
                            0.4857577085494995,
                            0.253273606300354,
                            0.0,
                            0.0,
                            0.47287726402282715,
                            4.45043420791626,
                            0.0
                        ]
                    },
                    {
                        "triggerTime_ms": 1287,
                        "faceAngle": 0.0,
                        "faceCenterX": 0.0,
                        "faceCenterY": 30.431367874145508,
                        "faceScaleX": 1.221514344215393,
                        "faceScaleY": 0.07466530054807663,
                        "leftEye": [
                            9.169666290283203,
                            0.0,
                            1.558449149131775,
                            0.9052804112434387,
                            0.0,
                            0.009999999776482582,
                            0.009999999776482582,
                            0.009999999776482582,
                            0.009999999776482582,
                            0.009999999776482582,
                            0.009999999776482582,
                            0.009999999776482582,
                            0.009999999776482582,
                            0.0,
                            0.0,
                            0.0,
                            0.0,
                            0.0,
                            0.0
                        ],
                        "rightEye": [
                            -10.206374168395996,
                            0.0,
                            1.5785222053527832,
                            0.9052804112434387,
                            0.0,
                            0.009999999776482582,
                            0.009999999776482582,
                            0.009999999776482582,
                            0.009999999776482582,
                            0.009999999776482582,
                            0.009999999776482582,
                            0.009999999776482582,
                            0.009999999776482582,
                            0.0,
                            0.0,
                            0.0,
                            0.0,
                            0.0,
                            0.0
                        ]
                    },
                    {
                        "triggerTime_ms": 1320,
                        "faceAngle": 0.0,
                        "faceCenterX": 0.0,
                        "faceCenterY": 32.978797912597656,
                        "faceScaleX": 1.818399429321289,
                        "faceScaleY": 0.07466530054807663,
                        "leftEye": [
                            9.169666290283203,
                            0.0,
                            1.558449149131775,
                            0.9052804112434387,
                            0.0,
                            0.009999999776482582,
                            0.009999999776482582,
                            0.009999999776482582,
                            0.009999999776482582,
                            0.009999999776482582,
                            0.009999999776482582,
                            0.009999999776482582,
                            0.009999999776482582,
                            0.0,
                            0.0,
                            0.0,
                            0.0,
                            0.0,
                            0.0
                        ],
                        "rightEye": [
                            -10.206374168395996,
                            0.0,
                            1.5785222053527832,
                            0.9052804112434387,
                            0.0,
                            0.009999999776482582,
                            0.009999999776482582,
                            0.009999999776482582,
                            0.009999999776482582,
                            0.009999999776482582,
                            0.009999999776482582,
                            0.009999999776482582,
                            0.009999999776482582,
                            0.0,
                            0.0,
                            0.0,
                            0.0,
                            0.0,
                            0.0
                        ]
                    },
                    {
                        "triggerTime_ms": 1353,
                        "faceAngle": 0.0,
                        "faceCenterX": 0.0,
                        "faceCenterY": 16.489398956298828,
                        "faceScaleX": 1.0057405233383179,
                        "faceScaleY": 0.6635467410087585,
                        "leftEye": [
                            9.169666290283203,
                            0.0,
                            1.386391043663025,
                            0.9052804112434387,
                            0.0,
                            0.2549999952316284,
                            0.2549999952316284,
                            0.2549999952316284,
                            0.2549999952316284,
                            0.2549999952316284,
                            0.2549999952316284,
                            0.2549999952316284,
                            0.2549999952316284,
                            0.0,
                            0.0,
                            0.0,
                            0.0,
                            0.0,
                            0.0
                        ],
                        "rightEye": [
                            -10.206374168395996,
                            0.0,
                            1.4002796411514282,
                            0.9052804112434387,
                            0.0,
                            0.2549999952316284,
                            0.2549999952316284,
                            0.2549999952316284,
                            0.2549999952316284,
                            0.2549999952316284,
                            0.2549999952316284,
                            0.2549999952316284,
                            0.2549999952316284,
                            0.0,
                            0.0,
                            0.0,
                            0.0,
                            0.0,
                            0.0
                        ]
                    },
                    {
                        "triggerTime_ms": 1485,
                        "faceAngle": 0.0,
                        "faceCenterX": 0.0,
                        "faceCenterY": 27.77531623840332,
                        "faceScaleX": 1.0,
                        "faceScaleY": 1.0,
                        "leftEye": [
                            9.169666290283203,
                            0.0,
                            1.214332938194275,
                            0.9052804112434387,
                            0.0,
                            0.5,
                            0.5,
                            0.8551031351089478,
                            0.8551031351089478,
                            0.8551031351089478,
                            0.8551031351089478,
                            0.5,
                            0.5,
                            0.1376146823167801,
                            0.0,
                            0.0,
                            0.5015674233436584,
                            4.583662509918213,
                            0.0
                        ],
                        "rightEye": [
                            -10.206374168395996,
                            0.0,
                            1.2220369577407837,
                            0.9052804112434387,
                            0.0,
                            0.5,
                            0.5,
                            0.8551031351089478,
                            0.8551031351089478,
                            0.8551031351089478,
                            0.8551031351089478,
                            0.5,
                            0.5,
                            0.1487082988023758,
                            0.0,
                            0.0,
                            0.48703333735466003,
                            4.583662509918213,
                            0.0
                        ]
                    }
                ],
                "HeadAngleKeyFrame": [],
                "RobotAudioKeyFrame": [
                    {
                        "triggerTime_ms": 33,
                        "audioEventId": [
                            4268262662
                        ],
                        "volume": 1.0,
                        "probability": [
                            0.5
                        ],
                        "hasAlts": true
                    },
                    {
                        "triggerTime_ms": 429,
                        "audioEventId": [
                            3952553918
                        ],
                        "volume": 1.0,
                        "probability": [
                            1.0
                        ],
                        "hasAlts": true
                    },
                    {
                        "triggerTime_ms": 1254,
                        "audioEventId": [
                            1701725212
                        ],
                        "volume": 1.0,
                        "probability": [
                            1.0
                        ],
                        "hasAlts": true
                    }
                ],
                "BackpackLightsKeyFrame": [],
                "FaceAnimationKeyFrame": [],
                "EventKeyFrame": [],
                "BodyMotionKeyFrame": [],
                "RecordHeadingKeyFrame": [],
                "TurnToRecordedHeadingKeyFrame": []
            }
        },
        {
            "Name": "anim_laser_drive_03",
            "keyframes": {
                "LiftHeightKeyFrame": [],
                "ProceduralFaceKeyFrame": [
                    {
                        "triggerTime_ms": 0,
                        "faceAngle": 0.0,
                        "faceCenterX": 0.0,
                        "faceCenterY": 27.77531623840332,
                        "faceScaleX": 1.0,
                        "faceScaleY": 1.0,
                        "leftEye": [
                            9.169666290283203,
                            0.0,
                            1.214332938194275,
                            0.9052804112434387,
                            0.0,
                            0.5,
                            0.5,
                            0.8551031351089478,
                            0.8551031351089478,
                            0.8551031351089478,
                            0.8551031351089478,
                            0.5,
                            0.5,
                            0.1376146823167801,
                            0.0,
                            0.0,
                            0.5015674233436584,
                            4.583662509918213,
                            0.0
                        ],
                        "rightEye": [
                            -10.206374168395996,
                            0.0,
                            1.2220369577407837,
                            0.9052804112434387,
                            0.0,
                            0.5,
                            0.5,
                            0.8551031351089478,
                            0.8551031351089478,
                            0.8551031351089478,
                            0.8551031351089478,
                            0.5,
                            0.5,
                            0.1487082988023758,
                            0.0,
                            0.0,
                            0.48703333735466003,
                            4.583662509918213,
                            0.0
                        ]
                    },
                    {
                        "triggerTime_ms": 66,
                        "faceAngle": 0.0,
                        "faceCenterX": -0.3184930980205536,
                        "faceCenterY": 24.493677139282227,
                        "faceScaleX": 1.0316035747528076,
                        "faceScaleY": 1.0,
                        "leftEye": [
                            10.138956069946289,
                            0.0,
                            1.1425952911376953,
                            0.9052804112434387,
                            0.0,
                            0.5,
                            0.5,
                            0.8551031351089478,
                            0.8551031351089478,
                            0.8551031351089478,
                            0.8551031351089478,
                            0.5,
                            0.5,
                            0.20064182579517365,
                            2.5620648860931396,
                            0.0,
                            0.5651571154594421,
                            4.583662509918213,
                            0.0
                        ],
                        "rightEye": [
                            -10.206374168395996,
                            0.0,
                            1.2377362251281738,
                            0.9052804112434387,
                            0.0,
                            0.5,
                            0.5,
                            0.8551031351089478,
                            0.8551031351089478,
                            0.785807192325592,
                            0.785807192325592,
                            0.5,
                            0.5,
                            0.19081386923789978,
                            3.5096426010131836,
                            0.0,
                            0.5487722158432007,
                            4.583662509918213,
                            0.0
                        ]
                    },
                    {
                        "triggerTime_ms": 132,
                        "faceAngle": 0.0,
                        "faceCenterX": 0.0,
                        "faceCenterY": 26.307247161865234,
                        "faceScaleX": 1.0,
                        "faceScaleY": 1.0,
                        "leftEye": [
                            9.169666290283203,
                            0.0,
                            1.214332938194275,
                            0.9052804112434387,
                            0.0,
                            0.5,
                            0.5,
                            0.8551031351089478,
                            0.8551031351089478,
                            0.8551031351089478,
                            0.8551031351089478,
                            0.5,
                            0.5,
                            0.1376146823167801,
                            0.0,
                            0.0,
                            0.5015674233436584,
                            4.583662509918213,
                            0.0
                        ],
                        "rightEye": [
                            -10.206374168395996,
                            0.0,
                            1.2220369577407837,
                            0.9052804112434387,
                            0.0,
                            0.5,
                            0.5,
                            0.8551031351089478,
                            0.8551031351089478,
                            0.8551031351089478,
                            0.8551031351089478,
                            0.5,
                            0.5,
                            0.1487082988023758,
                            0.0,
                            0.0,
                            0.48703333735466003,
                            4.583662509918213,
                            0.0
                        ]
                    },
                    {
                        "triggerTime_ms": 363,
                        "faceAngle": 0.0,
                        "faceCenterX": 0.0,
                        "faceCenterY": 26.307247161865234,
                        "faceScaleX": 1.0,
                        "faceScaleY": 1.0,
                        "leftEye": [
                            9.169666290283203,
                            0.0,
                            1.214332938194275,
                            0.9052804112434387,
                            0.0,
                            0.5,
                            0.5,
                            0.8551031351089478,
                            0.8551031351089478,
                            0.8551031351089478,
                            0.8551031351089478,
                            0.5,
                            0.5,
                            0.1376146823167801,
                            0.0,
                            0.0,
                            0.5015674233436584,
                            4.583662509918213,
                            0.0
                        ],
                        "rightEye": [
                            -10.206374168395996,
                            0.0,
                            1.2220369577407837,
                            0.9052804112434387,
                            0.0,
                            0.5,
                            0.5,
                            0.8551031351089478,
                            0.8551031351089478,
                            0.8551031351089478,
                            0.8551031351089478,
                            0.5,
                            0.5,
                            0.1487082988023758,
                            0.0,
                            0.0,
                            0.48703333735466003,
                            4.583662509918213,
                            0.0
                        ]
                    },
                    {
                        "triggerTime_ms": 462,
                        "faceAngle": 0.0,
                        "faceCenterX": 0.0,
                        "faceCenterY": 26.307247161865234,
                        "faceScaleX": 1.0,
                        "faceScaleY": 1.0,
                        "leftEye": [
                            9.169666290283203,
                            0.0,
                            1.214332938194275,
                            0.9052804112434387,
                            0.0,
                            0.5,
                            0.5,
                            0.8551031351089478,
                            0.8551031351089478,
                            0.8551031351089478,
                            0.8551031351089478,
                            0.5,
                            0.5,
                            0.1376146823167801,
                            0.0,
                            0.0,
                            0.5015674233436584,
                            4.583662509918213,
                            0.0
                        ],
                        "rightEye": [
                            -10.206374168395996,
                            0.0,
                            1.2220369577407837,
                            0.9052804112434387,
                            0.0,
                            0.5,
                            0.5,
                            0.8551031351089478,
                            0.8551031351089478,
                            0.8551031351089478,
                            0.8551031351089478,
                            0.5,
                            0.5,
                            0.1487082988023758,
                            0.0,
                            0.0,
                            0.48703333735466003,
                            4.583662509918213,
                            0.0
                        ]
                    },
                    {
                        "triggerTime_ms": 495,
                        "faceAngle": 0.0,
                        "faceCenterX": 0.0,
                        "faceCenterY": 26.307247161865234,
                        "faceScaleX": 1.0,
                        "faceScaleY": 1.0,
                        "leftEye": [
                            9.169666290283203,
                            0.0,
                            1.214332938194275,
                            0.9052804112434387,
                            0.0,
                            0.5,
                            0.5,
                            0.8551031351089478,
                            0.8551031351089478,
                            0.8551031351089478,
                            0.8551031351089478,
                            0.5,
                            0.5,
                            0.1376146823167801,
                            0.0,
                            0.0,
                            0.5015674233436584,
                            4.583662509918213,
                            0.0
                        ],
                        "rightEye": [
                            -10.206374168395996,
                            0.0,
                            1.2220369577407837,
                            0.9052804112434387,
                            0.0,
                            0.5,
                            0.5,
                            0.8551031351089478,
                            0.8551031351089478,
                            0.8551031351089478,
                            0.8551031351089478,
                            0.5,
                            0.5,
                            0.1487082988023758,
                            0.0,
                            0.0,
                            0.4632958471775055,
                            4.583662509918213,
                            0.0
                        ]
                    },
                    {
                        "triggerTime_ms": 528,
                        "faceAngle": 0.0,
                        "faceCenterX": 0.0,
                        "faceCenterY": 26.307247161865234,
                        "faceScaleX": 1.0,
                        "faceScaleY": 1.0,
                        "leftEye": [
                            9.169666290283203,
                            0.0,
                            1.214332938194275,
                            0.9052804112434387,
                            0.0,
                            0.5,
                            0.5,
                            0.8551031351089478,
                            0.8551031351089478,
                            0.8551031351089478,
                            0.8551031351089478,
                            0.5,
                            0.5,
                            0.1376146823167801,
                            0.0,
                            0.0,
                            0.5015674233436584,
                            4.583662509918213,
                            0.0
                        ],
                        "rightEye": [
                            -10.206374168395996,
                            0.0,
                            1.2220369577407837,
                            0.9052804112434387,
                            0.0,
                            0.5,
                            0.5,
                            0.8551031351089478,
                            0.8551031351089478,
                            0.8551031351089478,
                            0.8551031351089478,
                            0.5,
                            0.5,
                            0.1487082988023758,
                            0.0,
                            0.0,
                            0.49702808260917664,
                            4.583662509918213,
                            0.0
                        ]
                    },
                    {
                        "triggerTime_ms": 561,
                        "faceAngle": 0.0,
                        "faceCenterX": 0.0,
                        "faceCenterY": 26.307247161865234,
                        "faceScaleX": 1.0,
                        "faceScaleY": 1.0,
                        "leftEye": [
                            9.169666290283203,
                            0.0,
                            1.214332938194275,
                            0.9052804112434387,
                            0.0,
                            0.5,
                            0.5,
                            0.8551031351089478,
                            0.8551031351089478,
                            0.8551031351089478,
                            0.8551031351089478,
                            0.5,
                            0.5,
                            0.1376146823167801,
                            0.0,
                            0.0,
                            0.5015674233436584,
                            4.583662509918213,
                            0.0
                        ],
                        "rightEye": [
                            -10.206374168395996,
                            0.0,
                            1.2220369577407837,
                            0.9052804112434387,
                            0.0,
                            0.5,
                            0.5,
                            0.8551031351089478,
                            0.8551031351089478,
                            0.8551031351089478,
                            0.8551031351089478,
                            0.5,
                            0.5,
                            0.1487082988023758,
                            0.0,
                            0.0,
                            0.42831432819366455,
                            4.583662509918213,
                            0.0
                        ]
                    },
                    {
                        "triggerTime_ms": 594,
                        "faceAngle": 0.0,
                        "faceCenterX": 0.0,
                        "faceCenterY": 26.307247161865234,
                        "faceScaleX": 1.0,
                        "faceScaleY": 1.0,
                        "leftEye": [
                            9.169666290283203,
                            0.0,
                            1.214332938194275,
                            0.9052804112434387,
                            0.0,
                            0.5,
                            0.5,
                            0.8551031351089478,
                            0.8551031351089478,
                            0.8551031351089478,
                            0.8551031351089478,
                            0.5,
                            0.5,
                            0.1376146823167801,
                            0.0,
                            0.0,
                            0.5015674233436584,
                            4.583662509918213,
                            0.0
                        ],
                        "rightEye": [
                            -10.206374168395996,
                            0.0,
                            1.2220369577407837,
                            0.9052804112434387,
                            0.0,
                            0.5,
                            0.5,
                            0.8551031351089478,
                            0.8551031351089478,
                            0.8551031351089478,
                            0.8551031351089478,
                            0.5,
                            0.5,
                            0.1487082988023758,
                            0.0,
                            0.0,
                            0.46079719066619873,
                            4.583662509918213,
                            0.0
                        ]
                    },
                    {
                        "triggerTime_ms": 660,
                        "faceAngle": 0.0,
                        "faceCenterX": 0.0,
                        "faceCenterY": 26.307247161865234,
                        "faceScaleX": 1.0,
                        "faceScaleY": 1.0,
                        "leftEye": [
                            9.169666290283203,
                            0.0,
                            1.214332938194275,
                            0.9052804112434387,
                            0.0,
                            0.5,
                            0.5,
                            0.8551031351089478,
                            0.8551031351089478,
                            0.8551031351089478,
                            0.8551031351089478,
                            0.5,
                            0.5,
                            0.1376146823167801,
                            0.0,
                            0.0,
                            0.5015674233436584,
                            4.583662509918213,
                            0.0
                        ],
                        "rightEye": [
                            -10.206374168395996,
                            0.0,
                            1.2220369577407837,
                            0.9052804112434387,
                            0.0,
                            0.5,
                            0.5,
                            0.8551031351089478,
                            0.8551031351089478,
                            0.8551031351089478,
                            0.8551031351089478,
                            0.5,
                            0.5,
                            0.1487082988023758,
                            0.0,
                            0.0,
                            0.5951627492904663,
                            4.583662509918213,
                            0.0
                        ]
                    },
                    {
                        "triggerTime_ms": 726,
                        "faceAngle": 0.0,
                        "faceCenterX": 0.0,
                        "faceCenterY": 26.307247161865234,
                        "faceScaleX": 1.0,
                        "faceScaleY": 1.0,
                        "leftEye": [
                            9.169666290283203,
                            0.0,
                            1.214332938194275,
                            0.9052804112434387,
                            0.0,
                            0.5,
                            0.5,
                            0.8551031351089478,
                            0.8551031351089478,
                            0.8551031351089478,
                            0.8551031351089478,
                            0.5,
                            0.5,
                            0.1376146823167801,
                            0.0,
                            0.0,
                            0.5015674233436584,
                            4.583662509918213,
                            0.0
                        ],
                        "rightEye": [
                            -10.206374168395996,
                            0.0,
                            1.2220369577407837,
                            0.9052804112434387,
                            0.0,
                            0.5,
                            0.5,
                            0.8551031351089478,
                            0.8551031351089478,
                            0.8551031351089478,
                            0.8551031351089478,
                            0.5,
                            0.5,
                            0.1487082988023758,
                            0.0,
                            0.0,
                            0.48703333735466003,
                            4.583662509918213,
                            0.0
                        ]
                    },
                    {
                        "triggerTime_ms": 891,
                        "faceAngle": 0.0,
                        "faceCenterX": 0.0,
                        "faceCenterY": 26.307247161865234,
                        "faceScaleX": 1.0,
                        "faceScaleY": 1.0,
                        "leftEye": [
                            9.169666290283203,
                            0.0,
                            1.214332938194275,
                            0.9052804112434387,
                            0.0,
                            0.5,
                            0.5,
                            0.8551031351089478,
                            0.8551031351089478,
                            0.8551031351089478,
                            0.8551031351089478,
                            0.5,
                            0.5,
                            0.1376146823167801,
                            0.0,
                            0.0,
                            0.5015674233436584,
                            4.583662509918213,
                            0.0
                        ],
                        "rightEye": [
                            -10.206374168395996,
                            0.0,
                            1.2220369577407837,
                            0.9052804112434387,
                            0.0,
                            0.5,
                            0.5,
                            0.8551031351089478,
                            0.8551031351089478,
                            0.8551031351089478,
                            0.8551031351089478,
                            0.5,
                            0.5,
                            0.1487082988023758,
                            0.0,
                            0.0,
                            0.48703333735466003,
                            4.583662509918213,
                            0.0
                        ]
                    },
                    {
                        "triggerTime_ms": 990,
                        "faceAngle": 0.0,
                        "faceCenterX": 0.0,
                        "faceCenterY": 26.307247161865234,
                        "faceScaleX": 1.0,
                        "faceScaleY": 1.0,
                        "leftEye": [
                            9.169666290283203,
                            0.0,
                            1.214332938194275,
                            0.9052804112434387,
                            0.0,
                            0.5,
                            0.5,
                            0.8551031351089478,
                            0.8551031351089478,
                            0.8551031351089478,
                            0.8551031351089478,
                            0.5,
                            0.5,
                            0.1376146823167801,
                            0.0,
                            0.0,
                            0.5015674233436584,
                            4.583662509918213,
                            0.0
                        ],
                        "rightEye": [
                            -10.206374168395996,
                            0.0,
                            1.2220369577407837,
                            0.9052804112434387,
                            0.0,
                            0.5,
                            0.5,
                            0.8551031351089478,
                            0.8551031351089478,
                            0.8551031351089478,
                            0.8551031351089478,
                            0.5,
                            0.5,
                            0.1487082988023758,
                            0.0,
                            0.0,
                            0.48703333735466003,
                            4.583662509918213,
                            0.0
                        ]
                    }
                ],
                "HeadAngleKeyFrame": [],
                "RobotAudioKeyFrame": [
                    {
                        "triggerTime_ms": 33,
                        "audioEventId": [
                            3774252557
                        ],
                        "volume": 1.0,
                        "probability": [
                            0.699999988079071
                        ],
                        "hasAlts": true
                    },
                    {
                        "triggerTime_ms": 99,
                        "audioEventId": [
                            2151470959
                        ],
                        "volume": 1.0,
                        "probability": [
                            0.25
                        ],
                        "hasAlts": true
                    }
                ],
                "BackpackLightsKeyFrame": [],
                "FaceAnimationKeyFrame": [],
                "EventKeyFrame": [],
                "BodyMotionKeyFrame": [],
                "RecordHeadingKeyFrame": [],
                "TurnToRecordedHeadingKeyFrame": []
            }
        }
    ]
}