{
    "clips": [
        {
            "Name": "anim_workout_highenergy_weak_01",
            "keyframes": {
                "LiftHeightKeyFrame": [
                    {
                        "triggerTime_ms": 198,
                        "durationTime_ms": 363,
                        "height_mm": 53,
                        "heightVariability_mm": 0
                    },
                    {
                        "triggerTime_ms": 561,
                        "durationTime_ms": 330,
                        "height_mm": 67,
                        "heightVariability_mm": 0
                    },
                    {
                        "triggerTime_ms": 1122,
                        "durationTime_ms": 264,
                        "height_mm": 53,
                        "heightVariability_mm": 0
                    }
                ],
                "ProceduralFaceKeyFrame": [
                    {
                        "triggerTime_ms": 0,
                        "faceAngle": 0.0,
                        "faceCenterX": 0.0,
                        "faceCenterY": 4.415130615234375,
                        "faceScaleX": 1.0,
                        "faceScaleY": 1.0,
                        "leftEye": [
                            9.169666290283203,
                            0.0,
                            1.214332938194275,
                            0.9052804112434387,
                            0.0,
                            0.5,
                            0.5,
                            0.607566773891449,
                            0.607566773891449,
                            0.607566773891449,
                            0.607566773891449,
                            0.5,
                            0.5,
                            0.13810034096240997,
                            0.0,
                            0.0,
                            0.4857596457004547,
                            0.0,
                            0.0
                        ],
                        "rightEye": [
                            -10.206374168395996,
                            0.0,
                            1.2220369577407837,
                            0.9052804112434387,
                            0.0,
                            0.5,
                            0.5,
                            0.607566773891449,
                            0.607566773891449,
                            0.607566773891449,
                            0.607566773891449,
                            0.5,
                            0.5,
                            0.1380992829799652,
                            0.0,
                            0.0,
                            0.47168365120887756,
                            0.0,
                            0.0
                        ]
                    },
                    {
                        "triggerTime_ms": 33,
                        "faceAngle": 0.0,
                        "faceCenterX": 0.0,
                        "faceCenterY": 4.415130615234375,
                        "faceScaleX": 1.0,
                        "faceScaleY": 1.0,
                        "leftEye": [
                            9.169666290283203,
                            0.0,
                            1.214332938194275,
                            0.9052804112434387,
                            0.0,
                            0.5,
                            0.5,
                            0.607566773891449,
                            0.607566773891449,
                            0.607566773891449,
                            0.607566773891449,
                            0.5,
                            0.5,
                            0.13810034096240997,
                            0.0,
                            0.0,
                            0.4857596457004547,
                            0.0,
                            0.0
                        ],
                        "rightEye": [
                            -10.206374168395996,
                            0.0,
                            1.2220369577407837,
                            0.9052804112434387,
                            0.0,
                            0.5,
                            0.5,
                            0.607566773891449,
                            0.607566773891449,
                            0.607566773891449,
                            0.607566773891449,
                            0.5,
                            0.5,
                            0.1380992829799652,
                            0.0,
                            0.0,
                            0.47168365120887756,
                            0.0,
                            0.0
                        ]
                    },
                    {
                        "triggerTime_ms": 66,
                        "faceAngle": 0.0,
                        "faceCenterX": 0.0,
                        "faceCenterY": 3.783538579940796,
                        "faceScaleX": 1.0,
                        "faceScaleY": 1.0,
                        "leftEye": [
                            9.169666290283203,
                            0.0,
                            1.214332938194275,
                            0.9052804112434387,
                            0.0,
                            0.5,
                            0.5,
                            0.607566773891449,
                            0.607566773891449,
                            0.607566773891449,
                            0.607566773891449,
                            0.5,
                            0.5,
                            0.13810034096240997,
                            0.0,
                            0.0,
                            0.4857596457004547,
                            0.0,
                            0.0
                        ],
                        "rightEye": [
                            -10.206374168395996,
                            0.0,
                            1.2220369577407837,
                            0.9052804112434387,
                            0.0,
                            0.5,
                            0.5,
                            0.607566773891449,
                            0.607566773891449,
                            0.607566773891449,
                            0.607566773891449,
                            0.5,
                            0.5,
                            0.1380992829799652,
                            0.0,
                            0.0,
                            0.47168365120887756,
                            0.0,
                            0.0
                        ]
                    },
                    {
                        "triggerTime_ms": 99,
                        "faceAngle": 0.0,
                        "faceCenterX": 0.0,
                        "faceCenterY": 2.7852163314819336,
                        "faceScaleX": 0.8392480611801147,
                        "faceScaleY": 1.17267644405365,
                        "leftEye": [
                            10.081586837768555,
                            0.0,
                            1.214332938194275,
                            0.9052804112434387,
                            0.0,
                            0.5,
                            0.5,
                            0.7251425385475159,
                            0.7251425385475159,
                            0.7251425385475159,
                            0.7251425385475159,
                            0.5,
                            0.5,
                            0.12356328964233398,
                            0.0,
                            0.0,
                            0.4857596457004547,
                            0.0,
                            0.0
                        ],
                        "rightEye": [
                            -11.159878730773926,
                            0.0,
                            1.2220369577407837,
                            0.9052804112434387,
                            0.0,
                            0.5,
                            0.5,
                            0.7251425385475159,
                            0.7251425385475159,
                            0.7251425385475159,
                            0.7251425385475159,
                            0.5,
                            0.5,
                            0.12356235086917877,
                            0.0,
                            0.0,
                            0.47168365120887756,
                            0.0,
                            0.0
                        ]
                    },
                    {
                        "triggerTime_ms": 132,
                        "faceAngle": 0.0,
                        "faceCenterX": 0.0,
                        "faceCenterY": 2.2147464752197266,
                        "faceScaleX": 0.8809244632720947,
                        "faceScaleY": 1.1338938474655151,
                        "leftEye": [
                            9.845162391662598,
                            0.0,
                            1.2199443578720093,
                            0.9052804112434387,
                            0.0,
                            0.5,
                            0.5,
                            0.7220584154129028,
                            0.7220584154129028,
                            0.7220584154129028,
                            0.7220584154129028,
                            0.5,
                            0.5,
                            0.10902624577283859,
                            0.0,
                            0.0,
                            0.4857596457004547,
                            0.0,
                            0.0
                        ],
                        "rightEye": [
                            -10.912673950195312,
                            0.0,
                            1.227850079536438,
                            0.9052804112434387,
                            0.0,
                            0.5,
                            0.5,
                            0.7220584154129028,
                            0.7220584154129028,
                            0.7220584154129028,
                            0.7220584154129028,
                            0.5,
                            0.5,
                            0.10902541875839233,
                            0.0,
                            0.0,
                            0.47168365120887756,
                            0.0,
                            0.0
                        ]
                    },
                    {
                        "triggerTime_ms": 198,
                        "faceAngle": 0.0,
                        "faceCenterX": 0.0,
                        "faceCenterY": 3.8401856422424316,
                        "faceScaleX": 1.0,
                        "faceScaleY": 1.0,
                        "leftEye": [
                            9.169666290283203,
                            0.0,
                            1.2462438344955444,
                            0.9052804112434387,
                            0.0,
                            0.5,
                            0.5,
                            0.607566773891449,
                            0.607566773891449,
                            0.607566773891449,
                            0.607566773891449,
                            0.5,
                            0.5,
                            0.17912715673446655,
                            0.0,
                            0.0,
                            0.4857596457004547,
                            0.0,
                            0.0
                        ],
                        "rightEye": [
                            -10.206374168395996,
                            0.0,
                            1.2550950050354004,
                            0.9052804112434387,
                            0.0,
                            0.5,
                            0.5,
                            0.607566773891449,
                            0.607566773891449,
                            0.607566773891449,
                            0.607566773891449,
                            0.5,
                            0.5,
                            0.1791258007287979,
                            0.0,
                            0.0,
                            0.47168365120887756,
                            0.0,
                            0.0
                        ]
                    },
                    {
                        "triggerTime_ms": 363,
                        "faceAngle": 0.0,
                        "faceCenterX": 0.0,
                        "faceCenterY": 3.9481468200683594,
                        "faceScaleX": 1.0,
                        "faceScaleY": 0.9551091194152832,
                        "leftEye": [
                            9.169666290283203,
                            0.0,
                            1.3101547956466675,
                            0.9052804112434387,
                            0.0,
                            0.5,
                            0.5,
                            0.7680733799934387,
                            0.7680733799934387,
                            0.7680733799934387,
                            0.7680733799934387,
                            0.5,
                            0.5,
                            0.19599467515945435,
                            0.0,
                            0.0,
                            0.4857596457004547,
                            0.0,
                            0.0
                        ],
                        "rightEye": [
                            -10.206374168395996,
                            0.0,
                            1.321303129196167,
                            0.9052804112434387,
                            0.0,
                            0.5,
                            0.5,
                            0.7680733799934387,
                            0.7680733799934387,
                            0.7680733799934387,
                            0.7680733799934387,
                            0.5,
                            0.5,
                            0.19599318504333496,
                            0.0,
                            0.0,
                            0.47168365120887756,
                            0.0,
                            0.0
                        ]
                    },
                    {
                        "triggerTime_ms": 825,
                        "faceAngle": 0.0,
                        "faceCenterX": 0.0,
                        "faceCenterY": 3.9481468200683594,
                        "faceScaleX": 1.0,
                        "faceScaleY": 0.9551091194152832,
                        "leftEye": [
                            9.169666290283203,
                            0.0,
                            1.3101547956466675,
                            0.9052804112434387,
                            0.0,
                            0.5,
                            0.5,
                            0.7680733799934387,
                            0.7680733799934387,
                            0.7680733799934387,
                            0.7680733799934387,
                            0.5,
                            0.5,
                            0.19599467515945435,
                            0.0,
                            0.0,
                            0.4857596457004547,
                            0.0,
                            0.0
                        ],
                        "rightEye": [
                            -10.206374168395996,
                            0.0,
                            1.321303129196167,
                            0.9052804112434387,
                            0.0,
                            0.5,
                            0.5,
                            0.7680733799934387,
                            0.7680733799934387,
                            0.7680733799934387,
                            0.7680733799934387,
                            0.5,
                            0.5,
                            0.19599318504333496,
                            0.0,
                            0.0,
                            0.47168365120887756,
                            0.0,
                            0.0
                        ]
                    },
                    {
                        "triggerTime_ms": 891,
                        "faceAngle": 0.0,
                        "faceCenterX": 0.0,
                        "faceCenterY": 3.0275940895080566,
                        "faceScaleX": 1.0,
                        "faceScaleY": 0.982491672039032,
                        "leftEye": [
                            9.169666290283203,
                            0.0,
                            1.2656536102294922,
                            0.9052804112434387,
                            0.0,
                            0.5,
                            0.5,
                            0.688003659248352,
                            0.688003659248352,
                            0.688003659248352,
                            0.688003659248352,
                            0.5,
                            0.5,
                            0.13784849643707275,
                            0.0,
                            0.0,
                            0.4457607865333557,
                            0.0,
                            0.0
                        ],
                        "rightEye": [
                            -10.206374168395996,
                            0.0,
                            1.2752023935317993,
                            0.9052804112434387,
                            0.0,
                            0.5,
                            0.5,
                            0.688003659248352,
                            0.688003659248352,
                            0.688003659248352,
                            0.688003659248352,
                            0.5,
                            0.5,
                            0.16711245477199554,
                            0.0,
                            0.0,
                            0.47168365120887756,
                            0.0,
                            0.0
                        ]
                    },
                    {
                        "triggerTime_ms": 1089,
                        "faceAngle": 0.0,
                        "faceCenterX": 0.0,
                        "faceCenterY": -6.092251300811768,
                        "faceScaleX": 0.8812573552131653,
                        "faceScaleY": 0.982491672039032,
                        "leftEye": [
                            9.169666290283203,
                            0.0,
                            1.2656536102294922,
                            0.9052804112434387,
                            0.0,
                            0.5,
                            0.5,
                            0.6418122053146362,
                            0.6418122053146362,
                            0.6418122053146362,
                            0.6418122053146362,
                            0.5,
                            0.5,
                            0.09998907148838043,
                            0.0,
                            0.0,
                            0.4457607865333557,
                            0.0,
                            0.0
                        ],
                        "rightEye": [
                            -10.206374168395996,
                            0.0,
                            1.2752023935317993,
                            0.9052804112434387,
                            0.0,
                            0.5,
                            0.5,
                            0.6418122053146362,
                            0.6418122053146362,
                            0.6418122053146362,
                            0.6418122053146362,
                            0.5,
                            0.5,
                            0.11437923461198807,
                            0.0,
                            0.0,
                            0.47168365120887756,
                            0.0,
                            0.0
                        ]
                    },
                    {
                        "triggerTime_ms": 1122,
                        "faceAngle": 0.0,
                        "faceCenterX": 0.0,
                        "faceCenterY": -6.568233489990234,
                        "faceScaleX": 0.9978980422019958,
                        "faceScaleY": 0.982491672039032,
                        "leftEye": [
                            9.169666290283203,
                            0.0,
                            1.2656536102294922,
                            0.9052804112434387,
                            0.0,
                            0.5,
                            0.5,
                            0.6340820789337158,
                            0.6340820789337158,
                            0.6340820789337158,
                            0.6340820789337158,
                            0.5,
                            0.5,
                            0.23298507928848267,
                            0.0,
                            0.0,
                            0.4457607865333557,
                            0.0,
                            0.0
                        ],
                        "rightEye": [
                            -10.206374168395996,
                            0.0,
                            1.2752023935317993,
                            0.9052804112434387,
                            0.0,
                            0.5,
                            0.5,
                            0.6340820789337158,
                            0.6340820789337158,
                            0.6340820789337158,
                            0.6340820789337158,
                            0.5,
                            0.5,
                            0.26224830746650696,
                            0.0,
                            0.0,
                            0.47168365120887756,
                            0.0,
                            0.0
                        ]
                    },
                    {
                        "triggerTime_ms": 1155,
                        "faceAngle": 0.0,
                        "faceCenterX": 0.0,
                        "faceCenterY": -4.369134902954102,
                        "faceScaleX": 0.9734820127487183,
                        "faceScaleY": 0.9829525351524353,
                        "leftEye": [
                            9.882121086120605,
                            0.0,
                            1.2399932146072388,
                            0.9052804112434387,
                            0.0,
                            0.5,
                            0.5,
                            0.6179706454277039,
                            0.6179706454277039,
                            0.6179706454277039,
                            0.6179706454277039,
                            0.5,
                            0.5,
                            0.20564870536327362,
                            0.0,
                            0.0,
                            0.3800167739391327,
                            0.0,
                            0.0
                        ],
                        "rightEye": [
                            -10.95131778717041,
                            0.0,
                            1.2486196756362915,
                            0.9052804112434387,
                            0.0,
                            0.5,
                            0.5,
                            0.6179706454277039,
                            0.6179706454277039,
                            0.6179706454277039,
                            0.6179706454277039,
                            0.5,
                            0.5,
                            0.22957739233970642,
                            0.0,
                            0.0,
                            0.3916463255882263,
                            0.0,
                            0.0
                        ]
                    },
                    {
                        "triggerTime_ms": 1188,
                        "faceAngle": 0.0,
                        "faceCenterX": 0.0,
                        "faceCenterY": -0.9447739720344543,
                        "faceScaleX": 0.8640262484550476,
                        "faceScaleY": 0.9834133982658386,
                        "leftEye": [
                            10.59458065032959,
                            0.0,
                            1.214332938194275,
                            0.9052804112434387,
                            0.0,
                            0.5,
                            0.5,
                            0.607566773891449,
                            0.607566773891449,
                            0.607566773891449,
                            0.607566773891449,
                            0.5,
                            0.5,
                            0.15800511837005615,
                            0.0,
                            0.0,
                            0.2654338777065277,
                            0.0,
                            0.0
                        ],
                        "rightEye": [
                            -11.696266174316406,
                            0.0,
                            1.2220369577407837,
                            0.9052804112434387,
                            0.0,
                            0.5,
                            0.5,
                            0.607566773891449,
                            0.607566773891449,
                            0.607566773891449,
                            0.607566773891449,
                            0.5,
                            0.5,
                            0.17263640463352203,
                            0.0,
                            0.0,
                            0.2577979564666748,
                            0.0,
                            0.0
                        ]
                    },
                    {
                        "triggerTime_ms": 1221,
                        "faceAngle": 0.0,
                        "faceCenterX": 0.0,
                        "faceCenterY": 0.7832581400871277,
                        "faceScaleX": 0.8422096967697144,
                        "faceScaleY": 0.9833027720451355,
                        "leftEye": [
                            10.566544532775879,
                            0.0,
                            1.214332938194275,
                            0.9052804112434387,
                            0.0,
                            0.5,
                            0.5,
                            0.607566773891449,
                            0.607566773891449,
                            0.607566773891449,
                            0.607566773891449,
                            0.5,
                            0.5,
                            0.11114274710416794,
                            0.0,
                            0.0,
                            0.15272986888885498,
                            0.0,
                            0.0
                        ],
                        "rightEye": [
                            -11.666951179504395,
                            0.0,
                            1.2220369577407837,
                            0.9052804112434387,
                            0.0,
                            0.5,
                            0.5,
                            0.607566773891449,
                            0.607566773891449,
                            0.607566773891449,
                            0.607566773891449,
                            0.5,
                            0.5,
                            0.11662909388542175,
                            0.0,
                            0.0,
                            0.14882071316242218,
                            0.0,
                            0.0
                        ]
                    },
                    {
                        "triggerTime_ms": 1254,
                        "faceAngle": 0.0,
                        "faceCenterX": 0.0,
                        "faceCenterY": -1.2843809127807617,
                        "faceScaleX": 0.8577386140823364,
                        "faceScaleY": 0.9828600883483887,
                        "leftEye": [
                            10.464498519897461,
                            0.0,
                            1.214332938194275,
                            0.9052804112434387,
                            0.0,
                            0.5,
                            0.5,
                            0.607566773891449,
                            0.607566773891449,
                            0.607566773891449,
                            0.607566773891449,
                            0.5,
                            0.5,
                            0.08302534371614456,
                            0.0,
                            0.0,
                            0.0851074829697609,
                            0.0,
                            0.0
                        ],
                        "rightEye": [
                            -11.560251235961914,
                            0.0,
                            1.2220369577407837,
                            0.9052804112434387,
                            0.0,
                            0.5,
                            0.5,
                            0.607566773891449,
                            0.607566773891449,
                            0.607566773891449,
                            0.607566773891449,
                            0.5,
                            0.5,
                            0.08302471041679382,
                            0.0,
                            0.0,
                            0.08233658224344254,
                            0.0,
                            0.0
                        ]
                    },
                    {
                        "triggerTime_ms": 1287,
                        "faceAngle": 0.0,
                        "faceCenterX": 0.0,
                        "faceCenterY": -3.352020025253296,
                        "faceScaleX": 0.9037956595420837,
                        "faceScaleY": 0.9804255962371826,
                        "leftEye": [
                            10.325382232666016,
                            0.0,
                            1.214332938194275,
                            0.9052804112434387,
                            0.0,
                            0.5,
                            0.5,
                            0.607566773891449,
                            0.607566773891449,
                            0.607566773891449,
                            0.607566773891449,
                            0.5,
                            0.5,
                            0.08302534371614456,
                            0.0,
                            0.0,
                            0.0851074829697609,
                            0.0,
                            0.0
                        ],
                        "rightEye": [
                            -11.414791107177734,
                            0.0,
                            1.2220369577407837,
                            0.9052804112434387,
                            0.0,
                            0.5,
                            0.5,
                            0.607566773891449,
                            0.607566773891449,
                            0.607566773891449,
                            0.607566773891449,
                            0.5,
                            0.5,
                            0.08302471041679382,
                            0.0,
                            0.0,
                            0.08233658224344254,
                            0.0,
                            0.0
                        ]
                    },
                    {
                        "triggerTime_ms": 1320,
                        "faceAngle": 0.0,
                        "faceCenterX": 0.0,
                        "faceCenterY": -3.2644565105438232,
                        "faceScaleX": 1.0214943885803223,
                        "faceScaleY": 0.8216230273246765,
                        "leftEye": [
                            10.174333572387695,
                            0.0,
                            1.214332938194275,
                            0.9052804112434387,
                            0.0,
                            0.5,
                            0.5,
                            0.607566773891449,
                            0.607566773891449,
                            0.607566773891449,
                            0.607566773891449,
                            0.5,
                            0.5,
                            0.09883396327495575,
                            0.0,
                            0.0,
                            0.20010992884635925,
                            0.0,
                            0.0
                        ],
                        "rightEye": [
                            -11.256855010986328,
                            0.0,
                            1.2220369577407837,
                            0.9052804112434387,
                            0.0,
                            0.5,
                            0.5,
                            0.607566773891449,
                            0.607566773891449,
                            0.607566773891449,
                            0.607566773891449,
                            0.5,
                            0.5,
                            0.09883321076631546,
                            0.0,
                            0.0,
                            0.18342076241970062,
                            0.0,
                            0.0
                        ]
                    },
                    {
                        "triggerTime_ms": 1353,
                        "faceAngle": 0.0,
                        "faceCenterX": 0.0,
                        "faceCenterY": 0.6452407836914062,
                        "faceScaleX": 1.0989848375320435,
                        "faceScaleY": 0.6664730906486511,
                        "leftEye": [
                            10.022871017456055,
                            0.0,
                            1.214332938194275,
                            0.9052804112434387,
                            0.0,
                            0.5,
                            0.5,
                            0.607566773891449,
                            0.607566773891449,
                            0.607566773891449,
                            0.607566773891449,
                            0.5,
                            0.5,
                            0.12382166087627411,
                            0.0,
                            0.0,
                            0.3818871080875397,
                            0.0,
                            0.0
                        ],
                        "rightEye": [
                            -11.098485946655273,
                            0.0,
                            1.2220369577407837,
                            0.9052804112434387,
                            0.0,
                            0.5,
                            0.5,
                            0.607566773891449,
                            0.607566773891449,
                            0.607566773891449,
                            0.607566773891449,
                            0.5,
                            0.5,
                            0.1238207221031189,
                            0.0,
                            0.0,
                            0.3493955731391907,
                            0.0,
                            0.0
                        ]
                    },
                    {
                        "triggerTime_ms": 1386,
                        "faceAngle": 0.0,
                        "faceCenterX": 0.0,
                        "faceCenterY": 6.298551082611084,
                        "faceScaleX": 1.0935016870498657,
                        "faceScaleY": 0.703027069568634,
                        "leftEye": [
                            9.881264686584473,
                            0.0,
                            1.214332938194275,
                            0.9052804112434387,
                            0.0,
                            0.5,
                            0.5,
                            0.607566773891449,
                            0.607566773891449,
                            0.607566773891449,
                            0.607566773891449,
                            0.5,
                            0.5,
                            0.13810034096240997,
                            0.0,
                            0.0,
                            0.4857596457004547,
                            0.0,
                            0.0
                        ],
                        "rightEye": [
                            -10.950422286987305,
                            0.0,
                            1.2220369577407837,
                            0.9052804112434387,
                            0.0,
                            0.5,
                            0.5,
                            0.607566773891449,
                            0.607566773891449,
                            0.607566773891449,
                            0.607566773891449,
                            0.5,
                            0.5,
                            0.1380992829799652,
                            0.0,
                            0.0,
                            0.47168365120887756,
                            0.0,
                            0.0
                        ]
                    },
                    {
                        "triggerTime_ms": 1419,
                        "faceAngle": 0.0,
                        "faceCenterX": 0.0,
                        "faceCenterY": 7.985292911529541,
                        "faceScaleX": 1.0689113140106201,
                        "faceScaleY": 0.8170784115791321,
                        "leftEye": [
                            9.726251602172852,
                            0.0,
                            1.214332938194275,
                            0.9052804112434387,
                            0.0,
                            0.5,
                            0.5,
                            0.607566773891449,
                            0.607566773891449,
                            0.607566773891449,
                            0.607566773891449,
                            0.5,
                            0.5,
                            0.13810034096240997,
                            0.0,
                            0.0,
                            0.4857596457004547,
                            0.0,
                            0.0
                        ],
                        "rightEye": [
                            -10.78834056854248,
                            0.0,
                            1.2220369577407837,
                            0.9052804112434387,
                            0.0,
                            0.5,
                            0.5,
                            0.607566773891449,
                            0.607566773891449,
                            0.607566773891449,
                            0.607566773891449,
                            0.5,
                            0.5,
                            0.1380992829799652,
                            0.0,
                            0.0,
                            0.47168365120887756,
                            0.0,
                            0.0
                        ]
                    },
                    {
                        "triggerTime_ms": 1485,
                        "faceAngle": 0.0,
                        "faceCenterX": 0.0,
                        "faceCenterY": 4.415130615234375,
                        "faceScaleX": 1.0144587755203247,
                        "faceScaleY": 1.0,
                        "leftEye": [
                            9.434051513671875,
                            0.0,
                            1.214332938194275,
                            0.9052804112434387,
                            0.0,
                            0.5,
                            0.5,
                            0.607566773891449,
                            0.607566773891449,
                            0.607566773891449,
                            0.607566773891449,
                            0.5,
                            0.5,
                            0.13810034096240997,
                            0.0,
                            0.0,
                            0.4857596457004547,
                            0.0,
                            0.0
                        ],
                        "rightEye": [
                            -10.48281478881836,
                            0.0,
                            1.2220369577407837,
                            0.9052804112434387,
                            0.0,
                            0.5,
                            0.5,
                            0.607566773891449,
                            0.607566773891449,
                            0.607566773891449,
                            0.607566773891449,
                            0.5,
                            0.5,
                            0.1380992829799652,
                            0.0,
                            0.0,
                            0.47168365120887756,
                            0.0,
                            0.0
                        ]
                    },
                    {
                        "triggerTime_ms": 1584,
                        "faceAngle": 0.0,
                        "faceCenterX": 0.0,
                        "faceCenterY": 4.415130615234375,
                        "faceScaleX": 1.0,
                        "faceScaleY": 1.0,
                        "leftEye": [
                            9.169666290283203,
                            0.0,
                            1.214332938194275,
                            0.9052804112434387,
                            0.0,
                            0.5,
                            0.5,
                            0.607566773891449,
                            0.607566773891449,
                            0.607566773891449,
                            0.607566773891449,
                            0.5,
                            0.5,
                            0.13810034096240997,
                            0.0,
                            0.0,
                            0.4857596457004547,
                            0.0,
                            0.0
                        ],
                        "rightEye": [
                            -10.206374168395996,
                            0.0,
                            1.2220369577407837,
                            0.9052804112434387,
                            0.0,
                            0.5,
                            0.5,
                            0.607566773891449,
                            0.607566773891449,
                            0.607566773891449,
                            0.607566773891449,
                            0.5,
                            0.5,
                            0.1380992829799652,
                            0.0,
                            0.0,
                            0.47168365120887756,
                            0.0,
                            0.0
                        ]
                    },
                    {
                        "triggerTime_ms": 1650,
                        "faceAngle": 0.0,
                        "faceCenterX": 0.0,
                        "faceCenterY": 4.415130615234375,
                        "faceScaleX": 1.0,
                        "faceScaleY": 1.0,
                        "leftEye": [
                            9.169666290283203,
                            0.0,
                            1.214332938194275,
                            0.9052804112434387,
                            0.0,
                            0.5,
                            0.5,
                            0.607566773891449,
                            0.607566773891449,
                            0.607566773891449,
                            0.607566773891449,
                            0.5,
                            0.5,
                            0.13810034096240997,
                            0.0,
                            0.0,
                            0.4857596457004547,
                            0.0,
                            0.0
                        ],
                        "rightEye": [
                            -10.206374168395996,
                            0.0,
                            1.2220369577407837,
                            0.9052804112434387,
                            0.0,
                            0.5,
                            0.5,
                            0.607566773891449,
                            0.607566773891449,
                            0.607566773891449,
                            0.607566773891449,
                            0.5,
                            0.5,
                            0.1380992829799652,
                            0.0,
                            0.0,
                            0.47168365120887756,
                            0.0,
                            0.0
                        ]
                    },
                    {
                        "triggerTime_ms": 1782,
                        "faceAngle": 0.0,
                        "faceCenterX": 0.0,
                        "faceCenterY": 4.415130615234375,
                        "faceScaleX": 1.0,
                        "faceScaleY": 1.0,
                        "leftEye": [
                            9.169666290283203,
                            0.0,
                            1.214332938194275,
                            0.9052804112434387,
                            0.0,
                            0.5,
                            0.5,
                            0.607566773891449,
                            0.607566773891449,
                            0.607566773891449,
                            0.607566773891449,
                            0.5,
                            0.5,
                            0.13810034096240997,
                            0.0,
                            0.0,
                            0.4857596457004547,
                            0.0,
                            0.0
                        ],
                        "rightEye": [
                            -10.206374168395996,
                            0.0,
                            1.2220369577407837,
                            0.9052804112434387,
                            0.0,
                            0.5,
                            0.5,
                            0.607566773891449,
                            0.607566773891449,
                            0.607566773891449,
                            0.607566773891449,
                            0.5,
                            0.5,
                            0.1380992829799652,
                            0.0,
                            0.0,
                            0.47168365120887756,
                            0.0,
                            0.0
                        ]
                    }
                ],
                "HeadAngleKeyFrame": [
                    {
                        "triggerTime_ms": 0,
                        "durationTime_ms": 132,
                        "angle_deg": 0,
                        "angleVariability_deg": 0
                    },
                    {
                        "triggerTime_ms": 132,
                        "durationTime_ms": 264,
                        "angle_deg": -11,
                        "angleVariability_deg": 0
                    },
                    {
                        "triggerTime_ms": 396,
                        "durationTime_ms": 231,
                        "angle_deg": -15,
                        "angleVariability_deg": 0
                    },
                    {
                        "triggerTime_ms": 627,
                        "durationTime_ms": 165,
                        "angle_deg": 5,
                        "angleVariability_deg": 0
                    },
                    {
                        "triggerTime_ms": 792,
                        "durationTime_ms": 330,
                        "angle_deg": 12,
                        "angleVariability_deg": 0
                    },
                    {
                        "triggerTime_ms": 1122,
                        "durationTime_ms": 264,
                        "angle_deg": -5,
                        "angleVariability_deg": 0
                    },
                    {
                        "triggerTime_ms": 1386,
                        "durationTime_ms": 165,
                        "angle_deg": 8,
                        "angleVariability_deg": 0
                    },
                    {
                        "triggerTime_ms": 1551,
                        "durationTime_ms": 231,
                        "angle_deg": 6,
                        "angleVariability_deg": 0
                    }
                ],
                "RobotAudioKeyFrame": [
                    {
                        "triggerTime_ms": 264,
                        "audioEventId": [
                            974094096
                        ],
                        "volume": 1.0,
                        "probability": [
                            1.0
                        ],
                        "hasAlts": true
                    },
                    {
                        "triggerTime_ms": 561,
                        "audioEventId": [
                            1844409553
                        ],
                        "volume": 1.0,
                        "probability": [
                            1.0
                        ],
                        "hasAlts": true
                    },
                    {
                        "triggerTime_ms": 1320,
                        "audioEventId": [
                            1701725212
                        ],
                        "volume": 1.0,
                        "probability": [
                            1.0
                        ],
                        "hasAlts": true
                    }
                ],
                "BackpackLightsKeyFrame": [],
                "FaceAnimationKeyFrame": [],
                "EventKeyFrame": [],
                "BodyMotionKeyFrame": [
                    {
                        "triggerTime_ms": 264,
                        "durationTime_ms": 264,
                        "radius_mm": "STRAIGHT",
                        "speed": 13
                    },
                    {
                        "triggerTime_ms": 594,
                        "durationTime_ms": 231,
                        "radius_mm": "STRAIGHT",
                        "speed": -25
                    },
                    {
                        "triggerTime_ms": 1089,
                        "durationTime_ms": 297,
                        "radius_mm": "STRAIGHT",
                        "speed": 28
                    }
                ],
                "RecordHeadingKeyFrame": [],
                "TurnToRecordedHeadingKeyFrame": []
            }
        }
    ]
}