Original file = data/sdk_converted/anim_fistbump_success_01
Animation anim_fistbump_success_01 clip 1/3
---------------------------------------
Process lift height
---------------------------------------
Trigger time ms = 0 --> set_lift_height(80, duration=0.462)
Trigger time ms = 594 --> set_lift_height(75, duration=0.066)
Trigger time ms = 660 --> set_lift_height(81, duration=0.066)
Trigger time ms = 726 --> set_lift_height(75, duration=0.066)
Trigger time ms = 792 --> set_lift_height(81, duration=0.066)
Trigger time ms = 858 --> set_lift_height(75, duration=0.066)
Trigger time ms = 924 --> set_lift_height(83, duration=0.066)
Trigger time ms = 990 --> set_lift_height(77, duration=0.066)
Trigger time ms = 1056 --> set_lift_height(82, duration=0.066)
Trigger time ms = 1122 --> set_lift_height(74, duration=0.066)
Trigger time ms = 1188 --> set_lift_height(82, duration=0.066)
Trigger time ms = 1254 --> set_lift_height(77, duration=0.033)
Trigger time ms = 1287 --> set_lift_height(78, duration=0.066)
Trigger time ms = 1353 --> set_lift_height(78, duration=0.066)
Trigger time ms = 1419 --> set_lift_height(76, duration=0.33)
Trigger time ms = 1749 --> set_lift_height(0, duration=0.165)
---------------------------------------
Process Head angle animations
---------------------------------------
Trigger time ms = 0 --> set_head_angle(41, duration=0.165)
Trigger time ms = 165 --> set_head_angle(41, duration=0.33)
Trigger time ms = 495 --> set_head_angle(36, duration=0.066)
Trigger time ms = 561 --> set_head_angle(42, duration=0.066)
Trigger time ms = 627 --> set_head_angle(35, duration=0.066)
Trigger time ms = 693 --> set_head_angle(42, duration=0.066)
Trigger time ms = 759 --> set_head_angle(36, duration=0.066)
Trigger time ms = 825 --> set_head_angle(45, duration=0.066)
Trigger time ms = 891 --> set_head_angle(37, duration=0.066)
Trigger time ms = 957 --> set_head_angle(44, duration=0.066)
Trigger time ms = 1023 --> set_head_angle(34, duration=0.066)
Trigger time ms = 1089 --> set_head_angle(44, duration=0.066)
Trigger time ms = 1155 --> set_head_angle(38, duration=0.033)
Trigger time ms = 1188 --> set_head_angle(40, duration=0.066)
Trigger time ms = 1254 --> set_head_angle(39, duration=0.066)
Trigger time ms = 1584 --> set_head_angle(42, duration=0.132)
Trigger time ms = 1716 --> set_head_angle(-7, duration=0.099)
Trigger time ms = 1815 --> set_head_angle(0, duration=0.132)
---------------------------------------
Process body motion animations
---------------------------------------
Trigger time ms = 495 --> drive_wheels(l_wheel_speed=-7, r_wheel_speed=-7, duration=0.021)
Trigger time ms = 516 --> drive_wheels(l_wheel_speed=-4, r_wheel_speed=-4, duration=0.012)
Trigger time ms = 594 --> drive_wheels(l_wheel_speed=69.0, r_wheel_speed=-201.0, duration=0.066)
Trigger time ms = 660 --> drive_wheels(l_wheel_speed=1105.0, r_wheel_speed=-65.0, duration=0.066)
Trigger time ms = 726 --> drive_wheels(l_wheel_speed=-193.5, r_wheel_speed=-2128.5, duration=0.066)
Trigger time ms = 792 --> drive_wheels(l_wheel_speed=2328.0, r_wheel_speed=168.0, duration=0.066)
Trigger time ms = 858 --> drive_wheels(l_wheel_speed=-21.5, r_wheel_speed=-1956.5, duration=0.066)
Trigger time ms = 924 --> drive_wheels(l_wheel_speed=962.5, r_wheel_speed=-162.5, duration=0.066)
Trigger time ms = 990 --> drive_wheels(l_wheel_speed=26.0, r_wheel_speed=-2314.0, duration=0.066)
Trigger time ms = 1056 --> drive_wheels(l_wheel_speed=-427.5, r_wheel_speed=1597.5, duration=0.066)
Trigger time ms = 1122 --> drive_wheels(l_wheel_speed=-762.5, r_wheel_speed=362.5, duration=0.066)
Trigger time ms = 1188 --> drive_wheels(l_wheel_speed=-314.5, r_wheel_speed=1350.5, duration=0.066)
Trigger time ms = 1254 --> drive_wheels(l_wheel_speed=-661.5, r_wheel_speed=283.5, duration=0.066)
Trigger time ms = 1320 --> drive_wheels(l_wheel_speed=-162.0, r_wheel_speed=378.0, duration=0.066)
Trigger time ms = 1386 --> drive_wheels(l_wheel_speed=-57.0, r_wheel_speed=33.0, duration=0.066)
Trigger time ms = 1452 --> drive_wheels(l_wheel_speed=-33.0, r_wheel_speed=57.0, duration=0.066)
Trigger time ms = 1518 --> drive_wheels(l_wheel_speed=-147.5, r_wheel_speed=77.5, duration=0.046)
Trigger time ms = 1584 --> drive_wheels(l_wheel_speed=-171.0, r_wheel_speed=99.0, duration=0.033)
Trigger time ms = 1617 --> drive_wheels(l_wheel_speed=43.0, r_wheel_speed=-47.0, duration=0.033)
Trigger time ms = 1650 --> drive_wheels(l_wheel_speed=285.0, r_wheel_speed=-165.0, duration=0.033)
Trigger time ms = 1683 --> drive_wheels(l_wheel_speed=497.0, r_wheel_speed=-133.0, duration=0.033)
Trigger time ms = 1716 --> drive_wheels(l_wheel_speed=-220.5, r_wheel_speed=94.5, duration=0.066)
Trigger time ms = 1782 --> drive_wheels(l_wheel_speed=-61.0, r_wheel_speed=29.0, duration=0.066)
