Original file = data/sdk_converted/anim_cozmosings_120_song_01
Animation anim_cozmosings_120_song_01 clip 1/1
---------------------------------------
Process lift height
---------------------------------------
Trigger time ms = 660 --> set_lift_height(41, duration=0.231)
Trigger time ms = 924 --> set_lift_height(32, duration=0.099)
Trigger time ms = 1650 --> set_lift_height(41, duration=0.231)
Trigger time ms = 1914 --> set_lift_height(32, duration=0.099)
Trigger time ms = 2640 --> set_lift_height(41, duration=0.231)
Trigger time ms = 2904 --> set_lift_height(32, duration=0.165)
Trigger time ms = 4026 --> set_lift_height(41, duration=0.165)
Trigger time ms = 4191 --> set_lift_height(43, duration=0.099)
Trigger time ms = 4290 --> set_lift_height(32, duration=0.099)
Trigger time ms = 5016 --> set_lift_height(41, duration=0.165)
Trigger time ms = 5181 --> set_lift_height(43, duration=0.099)
Trigger time ms = 5280 --> set_lift_height(32, duration=0.099)
Trigger time ms = 6006 --> set_lift_height(41, duration=0.165)
Trigger time ms = 6171 --> set_lift_height(43, duration=0.099)
Trigger time ms = 6270 --> set_lift_height(32, duration=0.099)
---------------------------------------
Process Head angle animations
---------------------------------------
Trigger time ms = 0 --> set_head_angle(2, duration=0.132)
Trigger time ms = 132 --> set_head_angle(16, duration=0.165)
Trigger time ms = 297 --> set_head_angle(18, duration=0.099)
Trigger time ms = 396 --> set_head_angle(8, duration=0.099)
Trigger time ms = 495 --> set_head_angle(6, duration=0.132)
Trigger time ms = 627 --> set_head_angle(16, duration=0.165)
Trigger time ms = 792 --> set_head_angle(18, duration=0.099)
Trigger time ms = 891 --> set_head_angle(8, duration=0.099)
Trigger time ms = 990 --> set_head_angle(6, duration=0.132)
Trigger time ms = 1122 --> set_head_angle(16, duration=0.165)
Trigger time ms = 1287 --> set_head_angle(18, duration=0.099)
Trigger time ms = 1386 --> set_head_angle(8, duration=0.099)
Trigger time ms = 1485 --> set_head_angle(6, duration=0.132)
Trigger time ms = 1617 --> set_head_angle(25, duration=0.165)
Trigger time ms = 1782 --> set_head_angle(29, duration=0.099)
Trigger time ms = 1881 --> set_head_angle(14, duration=0.099)
Trigger time ms = 1980 --> set_head_angle(10, duration=0.132)
Trigger time ms = 2112 --> set_head_angle(25, duration=0.165)
Trigger time ms = 2277 --> set_head_angle(29, duration=0.099)
Trigger time ms = 2376 --> set_head_angle(14, duration=0.099)
Trigger time ms = 2475 --> set_head_angle(10, duration=0.132)
Trigger time ms = 2607 --> set_head_angle(25, duration=0.165)
Trigger time ms = 2772 --> set_head_angle(29, duration=0.099)
Trigger time ms = 2871 --> set_head_angle(14, duration=0.099)
Trigger time ms = 2970 --> set_head_angle(10, duration=0.132)
Trigger time ms = 3102 --> set_head_angle(25, duration=0.165)
Trigger time ms = 3267 --> set_head_angle(42, duration=0.33)
Trigger time ms = 3597 --> set_head_angle(38, duration=0.264)
Trigger time ms = 3861 --> set_head_angle(16, duration=0.099)
Trigger time ms = 3960 --> set_head_angle(-3, duration=0.132)
Trigger time ms = 4092 --> set_head_angle(20, duration=0.165)
Trigger time ms = 4257 --> set_head_angle(25, duration=0.099)
Trigger time ms = 4356 --> set_head_angle(4, duration=0.099)
Trigger time ms = 4455 --> set_head_angle(1, duration=0.132)
Trigger time ms = 4587 --> set_head_angle(20, duration=0.165)
Trigger time ms = 4752 --> set_head_angle(25, duration=0.099)
Trigger time ms = 4851 --> set_head_angle(4, duration=0.099)
Trigger time ms = 4950 --> set_head_angle(1, duration=0.132)
Trigger time ms = 5082 --> set_head_angle(20, duration=0.165)
Trigger time ms = 5247 --> set_head_angle(25, duration=0.099)
Trigger time ms = 5346 --> set_head_angle(4, duration=0.099)
Trigger time ms = 5445 --> set_head_angle(1, duration=0.132)
Trigger time ms = 5577 --> set_head_angle(20, duration=0.165)
Trigger time ms = 5742 --> set_head_angle(25, duration=0.099)
Trigger time ms = 5841 --> set_head_angle(4, duration=0.099)
Trigger time ms = 5940 --> set_head_angle(1, duration=0.132)
Trigger time ms = 6072 --> set_head_angle(20, duration=0.165)
Trigger time ms = 6237 --> set_head_angle(25, duration=0.099)
Trigger time ms = 6336 --> set_head_angle(4, duration=0.099)
Trigger time ms = 6435 --> set_head_angle(1, duration=0.132)
Trigger time ms = 6567 --> set_head_angle(20, duration=0.165)
Trigger time ms = 6732 --> set_head_angle(25, duration=0.099)
Trigger time ms = 6831 --> set_head_angle(4, duration=0.099)
Trigger time ms = 6930 --> set_head_angle(-1, duration=0.099)
Trigger time ms = 7029 --> set_head_angle(27, duration=0.33)
Trigger time ms = 7359 --> set_head_angle(20, duration=0.066)
Trigger time ms = 7425 --> set_head_angle(30, duration=0.066)
Trigger time ms = 7491 --> set_head_angle(23, duration=0.066)
Trigger time ms = 7557 --> set_head_angle(31, duration=0.066)
Trigger time ms = 7623 --> set_head_angle(24, duration=0.099)
Trigger time ms = 7722 --> set_head_angle(32, duration=0.099)
Trigger time ms = 7821 --> set_head_angle(35, duration=0.132)
Trigger time ms = 8019 --> set_head_angle(-1, duration=0.165)
Trigger time ms = 8184 --> set_head_angle(-6, duration=0.066)
Trigger time ms = 8250 --> set_head_angle(8, duration=0.198)
Trigger time ms = 8448 --> set_head_angle(0, duration=0.066)
---------------------------------------
Process body motion animations
---------------------------------------
Trigger time ms = 0 --> drive_wheels(l_wheel_speed=-42, r_wheel_speed=-42, duration=0.264)
Trigger time ms = 264 --> drive_wheels(l_wheel_speed=-17, r_wheel_speed=-17, duration=0.231)
Trigger time ms = 495 --> drive_wheels(l_wheel_speed=52, r_wheel_speed=52, duration=0.231)
Trigger time ms = 726 --> drive_wheels(l_wheel_speed=15, r_wheel_speed=15, duration=0.264)
Trigger time ms = 990 --> drive_wheels(l_wheel_speed=-52, r_wheel_speed=-52, duration=0.231)
Trigger time ms = 1221 --> drive_wheels(l_wheel_speed=-15, r_wheel_speed=-15, duration=0.264)
Trigger time ms = 1485 --> drive_wheels(l_wheel_speed=52, r_wheel_speed=52, duration=0.231)
Trigger time ms = 1716 --> drive_wheels(l_wheel_speed=19, r_wheel_speed=19, duration=0.264)
Trigger time ms = 1980 --> drive_wheels(l_wheel_speed=-56, r_wheel_speed=-56, duration=0.231)
Trigger time ms = 2211 --> drive_wheels(l_wheel_speed=-15, r_wheel_speed=-15, duration=0.264)
Trigger time ms = 2475 --> drive_wheels(l_wheel_speed=52, r_wheel_speed=52, duration=0.231)
Trigger time ms = 2706 --> drive_wheels(l_wheel_speed=19, r_wheel_speed=19, duration=0.264)
Trigger time ms = 2970 --> drive_wheels(l_wheel_speed=-44, r_wheel_speed=-44, duration=0.495)
Trigger time ms = 3465 --> drive_wheels(l_wheel_speed=-15, r_wheel_speed=-15, duration=0.462)
Trigger time ms = 3960 --> drive_wheels(l_wheel_speed=-43.0, r_wheel_speed=47.0, duration=0.099)
Trigger time ms = 4059 --> drive_wheels(l_wheel_speed=280.0, r_wheel_speed=-440.0, duration=0.231)
Trigger time ms = 4290 --> drive_wheels(l_wheel_speed=52.5, r_wheel_speed=-82.5, duration=0.165)
Trigger time ms = 4950 --> drive_wheels(l_wheel_speed=-262.5, r_wheel_speed=412.5, duration=0.33)
Trigger time ms = 5280 --> drive_wheels(l_wheel_speed=-87.5, r_wheel_speed=137.5, duration=0.165)
Trigger time ms = 5940 --> drive_wheels(l_wheel_speed=175.0, r_wheel_speed=-275.0, duration=0.33)
Trigger time ms = 6270 --> drive_wheels(l_wheel_speed=70.0, r_wheel_speed=-110.0, duration=0.165)
Trigger time ms = 6930 --> drive_wheels(l_wheel_speed=157.5, r_wheel_speed=-247.5, duration=0.066)
Trigger time ms = 6996 --> drive_wheels(l_wheel_speed=-407.0, r_wheel_speed=583.0, duration=0.066)
Trigger time ms = 7062 --> drive_wheels(l_wheel_speed=350.0, r_wheel_speed=-550.0, duration=0.066)
Trigger time ms = 7128 --> drive_wheels(l_wheel_speed=-102.5, r_wheel_speed=122.5, duration=0.132)
Trigger time ms = 7260 --> drive_wheels(l_wheel_speed=507.5, r_wheel_speed=-1067.5, duration=0.099)
Trigger time ms = 7359 --> drive_wheels(l_wheel_speed=-225.5, r_wheel_speed=269.5, duration=0.066)
Trigger time ms = 7425 --> drive_wheels(l_wheel_speed=367.5, r_wheel_speed=-577.5, duration=0.066)
Trigger time ms = 7491 --> drive_wheels(l_wheel_speed=-143.5, r_wheel_speed=171.5, duration=0.066)
Trigger time ms = 7557 --> drive_wheels(l_wheel_speed=264.0, r_wheel_speed=-456.0, duration=0.066)
Trigger time ms = 7623 --> drive_wheels(l_wheel_speed=-195.0, r_wheel_speed=255.0, duration=0.066)
Trigger time ms = 7689 --> drive_wheels(l_wheel_speed=140.0, r_wheel_speed=-220.0, duration=0.066)
Trigger time ms = 7755 --> drive_wheels(l_wheel_speed=-43.0, r_wheel_speed=47.0, duration=0.099)
Trigger time ms = 7854 --> drive_wheels(l_wheel_speed=-39.0, r_wheel_speed=51.0, duration=0.099)
Trigger time ms = 7986 --> drive_wheels(l_wheel_speed=-53, r_wheel_speed=-53, duration=0.132)
Trigger time ms = 8118 --> drive_wheels(l_wheel_speed=-10, r_wheel_speed=-10, duration=0.099)
Trigger time ms = 8217 --> drive_wheels(l_wheel_speed=8, r_wheel_speed=8, duration=0.132)
Trigger time ms = 8349 --> drive_wheels(l_wheel_speed=12, r_wheel_speed=12, duration=0.165)
