Original file = data/sdk_converted/anim_lookinplaceforface_keepalive
Animation anim_lookinplaceforfaces_keepalive_long_head_angle_40 clip 6/12
---------------------------------------
Process lift height
---------------------------------------
---------------------------------------
Process Head angle animations
---------------------------------------
Trigger time ms = 132 --> set_head_angle(39, duration=0.165)
Trigger time ms = 297 --> set_head_angle(45, duration=0.132)
Trigger time ms = 429 --> set_head_angle(45, duration=0.099)
Trigger time ms = 1716 --> set_head_angle(39, duration=0.132)
---------------------------------------
Process body motion animations
---------------------------------------
Trigger time ms = 429 --> turn_in_place(degrees(24))
Trigger time ms = 594 --> turn_in_place(degrees(5))
