Original file = data/sdk_converted/anim_petdetection_02
Animation anim_petdetection_cat_02 clip 2/8
---------------------------------------
Process lift height
---------------------------------------
Trigger time ms = 99 --> set_lift_height(46, duration=0.099)
Trigger time ms = 198 --> set_lift_height(0, duration=0.066)
Trigger time ms = 264 --> set_lift_height(38, duration=0.066)
Trigger time ms = 330 --> set_lift_height(0, duration=0.066)
Trigger time ms = 3399 --> set_lift_height(45, duration=0.132)
Trigger time ms = 3531 --> set_lift_height(4, duration=0.066)
Trigger time ms = 3597 --> set_lift_height(0, duration=0.033)
Trigger time ms = 3630 --> set_lift_height(40, duration=0.132)
Trigger time ms = 3762 --> set_lift_height(8, duration=0.033)
Trigger time ms = 3795 --> set_lift_height(0, duration=0.066)
Trigger time ms = 3861 --> set_lift_height(39, duration=0.132)
Trigger time ms = 3993 --> set_lift_height(8, duration=0.033)
Trigger time ms = 4026 --> set_lift_height(0, duration=0.066)
Trigger time ms = 4092 --> set_lift_height(39, duration=0.132)
Trigger time ms = 4224 --> set_lift_height(8, duration=0.033)
Trigger time ms = 4257 --> set_lift_height(0, duration=0.099)
Trigger time ms = 5544 --> set_lift_height(52, duration=0.099)
Trigger time ms = 5643 --> set_lift_height(0, duration=0.099)
Trigger time ms = 6402 --> set_lift_height(45, duration=0.132)
Trigger time ms = 6534 --> set_lift_height(8, duration=0.099)
Trigger time ms = 6633 --> set_lift_height(0, duration=0.165)
Trigger time ms = 6798 --> set_lift_height(45, duration=0.099)
Trigger time ms = 6897 --> set_lift_height(0, duration=0.099)
Trigger time ms = 7293 --> set_lift_height(39, duration=0.099)
Trigger time ms = 7392 --> set_lift_height(0, duration=0.099)
Trigger time ms = 8316 --> set_lift_height(32, duration=0.066)
Trigger time ms = 8382 --> set_lift_height(0, duration=0.099)
Trigger time ms = 8844 --> set_lift_height(56, duration=0.099)
Trigger time ms = 8943 --> set_lift_height(43, duration=0.066)
Trigger time ms = 9009 --> set_lift_height(52, duration=0.099)
Trigger time ms = 9108 --> set_lift_height(42, duration=0.099)
Trigger time ms = 9207 --> set_lift_height(53, duration=0.099)
Trigger time ms = 9306 --> set_lift_height(44, duration=0.099)
Trigger time ms = 9405 --> set_lift_height(52, duration=0.099)
Trigger time ms = 9504 --> set_lift_height(0, duration=0.099)
---------------------------------------
Process Head angle animations
---------------------------------------
Trigger time ms = 0 --> set_head_angle(-25, duration=0.165)
Trigger time ms = 165 --> set_head_angle(6, duration=0.132)
Trigger time ms = 297 --> set_head_angle(22, duration=0.231)
Trigger time ms = 528 --> set_head_angle(27, duration=0.429)
Trigger time ms = 957 --> set_head_angle(15, duration=0.165)
Trigger time ms = 1122 --> set_head_angle(27, duration=0.099)
Trigger time ms = 1221 --> set_head_angle(28, duration=0.231)
Trigger time ms = 1452 --> set_head_angle(28, duration=0.528)
Trigger time ms = 1980 --> set_head_angle(24, duration=0.132)
Trigger time ms = 2112 --> set_head_angle(20, duration=0.099)
Trigger time ms = 2211 --> set_head_angle(20, duration=0.132)
Trigger time ms = 2343 --> set_head_angle(20, duration=0.528)
Trigger time ms = 2871 --> set_head_angle(30, duration=0.396)
Trigger time ms = 3267 --> set_head_angle(30, duration=0.726)
Trigger time ms = 3993 --> set_head_angle(-3, duration=0.858)
Trigger time ms = 4851 --> set_head_angle(-11, duration=0.264)
Trigger time ms = 5115 --> set_head_angle(-17, duration=0.297)
Trigger time ms = 5412 --> set_head_angle(42, duration=0.198)
Trigger time ms = 5610 --> set_head_angle(-11, duration=0.231)
Trigger time ms = 5841 --> set_head_angle(6, duration=0.198)
Trigger time ms = 6039 --> set_head_angle(0, duration=0.198)
Trigger time ms = 6369 --> set_head_angle(-22, duration=0.33)
Trigger time ms = 6699 --> set_head_angle(16, duration=0.165)
Trigger time ms = 6864 --> set_head_angle(-24, duration=0.231)
Trigger time ms = 7095 --> set_head_angle(0, duration=0.165)
Trigger time ms = 7260 --> set_head_angle(4, duration=0.066)
Trigger time ms = 7326 --> set_head_angle(6, duration=0.099)
Trigger time ms = 7425 --> set_head_angle(-1, duration=0.165)
Trigger time ms = 7590 --> set_head_angle(-10, duration=0.231)
Trigger time ms = 7821 --> set_head_angle(-2, duration=0.231)
Trigger time ms = 8052 --> set_head_angle(21, duration=0.099)
Trigger time ms = 8151 --> set_head_angle(7, duration=0.066)
Trigger time ms = 8217 --> set_head_angle(34, duration=0.087)
Trigger time ms = 8304 --> set_head_angle(42, duration=0.066)
Trigger time ms = 8370 --> set_head_angle(22, duration=0.144)
Trigger time ms = 8514 --> set_head_angle(38, duration=0.132)
Trigger time ms = 8646 --> set_head_angle(22, duration=0.099)
Trigger time ms = 8745 --> set_head_angle(11, duration=0.099)
Trigger time ms = 8844 --> set_head_angle(6, duration=0.099)
Trigger time ms = 8943 --> set_head_angle(-25, duration=0.132)
Trigger time ms = 9075 --> set_head_angle(-9, duration=0.132)
Trigger time ms = 9207 --> set_head_angle(-19, duration=0.099)
Trigger time ms = 9306 --> set_head_angle(-6, duration=0.099)
Trigger time ms = 9405 --> set_head_angle(-21, duration=0.099)
Trigger time ms = 9504 --> set_head_angle(-6, duration=0.165)
Trigger time ms = 9669 --> set_head_angle(-19, duration=0.132)
Trigger time ms = 9801 --> set_head_angle(-9, duration=0.132)
Trigger time ms = 9933 --> set_head_angle(10, duration=0.165)
Trigger time ms = 10098 --> set_head_angle(2, duration=0.132)
Trigger time ms = 10230 --> set_head_angle(0, duration=0.198)
---------------------------------------
Process body motion animations
---------------------------------------
Trigger time ms = 33 --> turn_in_place(degrees(-939))
Trigger time ms = 99 --> turn_in_place(degrees(1232))
Trigger time ms = 198 --> turn_in_place(degrees(-2500))
Trigger time ms = 248 --> turn_in_place(degrees(-1345))
Trigger time ms = 277 --> turn_in_place(degrees(-1302))
Trigger time ms = 330 --> turn_in_place(degrees(-152))
Trigger time ms = 363 --> turn_in_place(degrees(-152))
Trigger time ms = 3597 --> drive_wheels(l_wheel_speed=40, r_wheel_speed=40, duration=0.165)
Trigger time ms = 3762 --> drive_wheels(l_wheel_speed=-44, r_wheel_speed=-44, duration=0.132)
Trigger time ms = 3894 --> drive_wheels(l_wheel_speed=-19, r_wheel_speed=-19, duration=0.132)
Trigger time ms = 4026 --> drive_wheels(l_wheel_speed=17, r_wheel_speed=17, duration=0.132)
Trigger time ms = 4158 --> drive_wheels(l_wheel_speed=4, r_wheel_speed=4, duration=0.132)
Trigger time ms = 4323 --> drive_wheels(l_wheel_speed=23.5, r_wheel_speed=-21.5, duration=0.099)
Trigger time ms = 4422 --> drive_wheels(l_wheel_speed=-47.0, r_wheel_speed=43.0, duration=0.066)
Trigger time ms = 4488 --> drive_wheels(l_wheel_speed=117.5, r_wheel_speed=-107.5, duration=0.033)
Trigger time ms = 4521 --> drive_wheels(l_wheel_speed=-122.5, r_wheel_speed=102.5, duration=0.066)
Trigger time ms = 4587 --> drive_wheels(l_wheel_speed=294.0, r_wheel_speed=-246.0, duration=0.033)
Trigger time ms = 4620 --> drive_wheels(l_wheel_speed=-98.0, r_wheel_speed=82.0, duration=0.099)
Trigger time ms = 4719 --> drive_wheels(l_wheel_speed=178.5, r_wheel_speed=-136.5, duration=0.066)
Trigger time ms = 4785 --> drive_wheels(l_wheel_speed=-178.5, r_wheel_speed=136.5, duration=0.099)
Trigger time ms = 4884 --> drive_wheels(l_wheel_speed=212.0, r_wheel_speed=-148.0, duration=0.099)
Trigger time ms = 4983 --> drive_wheels(l_wheel_speed=-185.5, r_wheel_speed=129.5, duration=0.066)
Trigger time ms = 5049 --> drive_wheels(l_wheel_speed=-302.5, r_wheel_speed=192.5, duration=0.033)
Trigger time ms = 5082 --> drive_wheels(l_wheel_speed=302.5, r_wheel_speed=-192.5, duration=0.066)
Trigger time ms = 5148 --> drive_wheels(l_wheel_speed=-247.5, r_wheel_speed=157.5, duration=0.066)
Trigger time ms = 5214 --> drive_wheels(l_wheel_speed=228.0, r_wheel_speed=-132.0, duration=0.066)
Trigger time ms = 5313 --> drive_wheels(l_wheel_speed=-7, r_wheel_speed=-7, duration=0.033)
Trigger time ms = 5346 --> drive_wheels(l_wheel_speed=-36, r_wheel_speed=-36, duration=0.165)
Trigger time ms = 5511 --> drive_wheels(l_wheel_speed=342, r_wheel_speed=342, duration=0.165)
Trigger time ms = 5676 --> drive_wheels(l_wheel_speed=-50, r_wheel_speed=-50, duration=0.198)
Trigger time ms = 6039 --> drive_wheels(l_wheel_speed=1, r_wheel_speed=1, duration=0.198)
Trigger time ms = 6666 --> drive_wheels(l_wheel_speed=-178.5, r_wheel_speed=136.5, duration=0.066)
Trigger time ms = 6732 --> drive_wheels(l_wheel_speed=192.5, r_wheel_speed=-302.5, duration=0.033)
Trigger time ms = 6765 --> drive_wheels(l_wheel_speed=1638.0, r_wheel_speed=-702.0, duration=0.066)
Trigger time ms = 6831 --> drive_wheels(l_wheel_speed=2244.5, r_wheel_speed=-770.5, duration=0.066)
Trigger time ms = 6897 --> drive_wheels(l_wheel_speed=620.5, r_wheel_speed=-144.5, duration=0.099)
Trigger time ms = 6996 --> turn_in_place(degrees(-394))
Trigger time ms = 7062 --> drive_wheels(l_wheel_speed=518.0, r_wheel_speed=-742.0, duration=0.033)
Trigger time ms = 7095 --> drive_wheels(l_wheel_speed=1038.5, r_wheel_speed=-1976.5, duration=0.033)
Trigger time ms = 7128 --> drive_wheels(l_wheel_speed=275.5, r_wheel_speed=-579.5, duration=0.066)
Trigger time ms = 7194 --> drive_wheels(l_wheel_speed=-304.5, r_wheel_speed=640.5, duration=0.132)
Trigger time ms = 7326 --> drive_wheels(l_wheel_speed=-33.0, r_wheel_speed=57.0, duration=0.165)
Trigger time ms = 7491 --> drive_wheels(l_wheel_speed=-0.0, r_wheel_speed=0.0, duration=0.231)
Trigger time ms = 8250 --> drive_wheels(l_wheel_speed=29, r_wheel_speed=29, duration=0.198)
Trigger time ms = 8448 --> drive_wheels(l_wheel_speed=-41, r_wheel_speed=-41, duration=0.297)
Trigger time ms = 8745 --> drive_wheels(l_wheel_speed=41, r_wheel_speed=41, duration=0.297)
Trigger time ms = 9042 --> drive_wheels(l_wheel_speed=-58, r_wheel_speed=-58, duration=0.198)
