Original file = data/sdk_converted/anim_peekaboo_requests_01
Animation anim_peekaboo_requesttwice_01 clip 1/4
---------------------------------------
Process lift height
---------------------------------------
Trigger time ms = 0 --> set_lift_height(0, duration=0.297)
Trigger time ms = 297 --> set_lift_height(27, duration=0.099)
Trigger time ms = 396 --> set_lift_height(0, duration=0.099)
Trigger time ms = 495 --> set_lift_height(92, duration=0.165)
Trigger time ms = 660 --> set_lift_height(75, duration=0.264)
Trigger time ms = 924 --> set_lift_height(82, duration=0.132)
Trigger time ms = 1650 --> set_lift_height(53, duration=0.165)
Trigger time ms = 2442 --> set_lift_height(82, duration=0.132)
Trigger time ms = 2838 --> set_lift_height(88, duration=0.099)
Trigger time ms = 2937 --> set_lift_height(90, duration=0.066)
Trigger time ms = 3003 --> set_lift_height(91, duration=0.033)
Trigger time ms = 3036 --> set_lift_height(92, duration=0.033)
Trigger time ms = 3069 --> set_lift_height(92, duration=0.033)
Trigger time ms = 3102 --> set_lift_height(0, duration=0.066)
Trigger time ms = 3168 --> set_lift_height(52, duration=0.132)
Trigger time ms = 3300 --> set_lift_height(1, duration=0.066)
Trigger time ms = 3366 --> set_lift_height(47, duration=0.066)
Trigger time ms = 3432 --> set_lift_height(0, duration=0.066)
Trigger time ms = 3498 --> set_lift_height(40, duration=0.066)
Trigger time ms = 3564 --> set_lift_height(0, duration=0.033)
---------------------------------------
Process Head angle animations
---------------------------------------
Trigger time ms = 0 --> set_head_angle(31, duration=0.198)
Trigger time ms = 198 --> set_head_angle(34, duration=0.099)
Trigger time ms = 297 --> set_head_angle(-12, duration=0.132)
Trigger time ms = 429 --> set_head_angle(-3, duration=0.099)
Trigger time ms = 528 --> set_head_angle(2, duration=0.099)
Trigger time ms = 627 --> set_head_angle(-18, duration=0.231)
Trigger time ms = 858 --> set_head_angle(-16, duration=0.066)
Trigger time ms = 1518 --> set_head_angle(-21, duration=0.132)
Trigger time ms = 1650 --> set_head_angle(11, duration=0.165)
Trigger time ms = 1815 --> set_head_angle(10, duration=0.132)
Trigger time ms = 2079 --> set_head_angle(8, duration=0.033)
Trigger time ms = 2112 --> set_head_angle(17, duration=0.099)
Trigger time ms = 2442 --> set_head_angle(-16, duration=0.132)
Trigger time ms = 2871 --> set_head_angle(-18, duration=0.132)
Trigger time ms = 3003 --> set_head_angle(23, duration=0.132)
Trigger time ms = 3135 --> set_head_angle(39, duration=0.198)
Trigger time ms = 3333 --> set_head_angle(23, duration=0.198)
Trigger time ms = 3531 --> set_head_angle(35, duration=0.231)
Trigger time ms = 3762 --> set_head_angle(31, duration=0.231)
Trigger time ms = 3993 --> set_head_angle(31, duration=0.231)
---------------------------------------
Process body motion animations
---------------------------------------
Trigger time ms = 297 --> turn_in_place(degrees(40))
Trigger time ms = 396 --> turn_in_place(degrees(-374))
Trigger time ms = 693 --> turn_in_place(degrees(81))
Trigger time ms = 1650 --> turn_in_place(degrees(248))
Trigger time ms = 2442 --> turn_in_place(degrees(-220))
Trigger time ms = 2706 --> turn_in_place(degrees(-91))
Trigger time ms = 2739 --> turn_in_place(degrees(182))
Trigger time ms = 2772 --> turn_in_place(degrees(-182))
Trigger time ms = 2805 --> turn_in_place(degrees(121))
Trigger time ms = 2838 --> turn_in_place(degrees(-152))
Trigger time ms = 2871 --> turn_in_place(degrees(-121))
Trigger time ms = 2904 --> turn_in_place(degrees(2273))
Trigger time ms = 2937 --> turn_in_place(degrees(2288))
Trigger time ms = 3003 --> turn_in_place(degrees(2288))
Trigger time ms = 3201 --> turn_in_place(degrees(2303))
Trigger time ms = 3234 --> turn_in_place(degrees(111))
