Original file = data/sdk_converted/anim_workout_lowenergy_weak_01
Animation anim_workout_lowenergy_weak_01 clip 1/1
---------------------------------------
Process lift height
---------------------------------------
Trigger time ms = 0 --> set_lift_height(53, duration=3.597)
Trigger time ms = 3597 --> set_lift_height(48, duration=0.165)
Trigger time ms = 3762 --> set_lift_height(63, duration=0.396)
Trigger time ms = 4158 --> set_lift_height(48, duration=0.198)
Trigger time ms = 4389 --> set_lift_height(53, duration=0.132)
---------------------------------------
Process Head angle animations
---------------------------------------
Trigger time ms = 0 --> set_head_angle(6, duration=0.198)
Trigger time ms = 198 --> set_head_angle(-2, duration=0.066)
Trigger time ms = 264 --> set_head_angle(2, duration=0.165)
Trigger time ms = 561 --> set_head_angle(7, duration=0.165)
Trigger time ms = 726 --> set_head_angle(-17, duration=0.264)
Trigger time ms = 990 --> set_head_angle(-12, duration=0.132)
Trigger time ms = 2772 --> set_head_angle(-6, duration=0.099)
Trigger time ms = 3135 --> set_head_angle(9, duration=0.198)
Trigger time ms = 3729 --> set_head_angle(45, duration=0.363)
Trigger time ms = 4257 --> set_head_angle(-8, duration=0.198)
Trigger time ms = 4455 --> set_head_angle(6, duration=0.099)
---------------------------------------
Process body motion animations
---------------------------------------
Trigger time ms = 297 --> drive_wheels(l_wheel_speed=-30, r_wheel_speed=-30, duration=0.33)
Trigger time ms = 627 --> drive_wheels(l_wheel_speed=-5, r_wheel_speed=-5, duration=0.099)
Trigger time ms = 726 --> drive_wheels(l_wheel_speed=24, r_wheel_speed=24, duration=0.264)
Trigger time ms = 1320 --> turn_in_place(degrees(-15))
Trigger time ms = 1386 --> turn_in_place(degrees(30))
Trigger time ms = 1452 --> turn_in_place(degrees(-30))
Trigger time ms = 1518 --> turn_in_place(degrees(30))
Trigger time ms = 1584 --> turn_in_place(degrees(-30))
Trigger time ms = 1650 --> turn_in_place(degrees(30))
Trigger time ms = 1716 --> turn_in_place(degrees(-30))
Trigger time ms = 1782 --> turn_in_place(degrees(30))
Trigger time ms = 1848 --> turn_in_place(degrees(-30))
Trigger time ms = 1914 --> turn_in_place(degrees(30))
Trigger time ms = 1980 --> turn_in_place(degrees(-30))
Trigger time ms = 2046 --> turn_in_place(degrees(30))
Trigger time ms = 2112 --> turn_in_place(degrees(-30))
Trigger time ms = 2178 --> turn_in_place(degrees(30))
Trigger time ms = 2244 --> turn_in_place(degrees(-30))
Trigger time ms = 2310 --> turn_in_place(degrees(30))
Trigger time ms = 2376 --> turn_in_place(degrees(-30))
Trigger time ms = 2442 --> turn_in_place(degrees(30))
Trigger time ms = 2508 --> turn_in_place(degrees(-30))
Trigger time ms = 2574 --> turn_in_place(degrees(30))
Trigger time ms = 2640 --> turn_in_place(degrees(-30))
Trigger time ms = 2706 --> turn_in_place(degrees(30))
Trigger time ms = 2772 --> turn_in_place(degrees(-30))
Trigger time ms = 2838 --> turn_in_place(degrees(30))
Trigger time ms = 2904 --> turn_in_place(degrees(-30))
Trigger time ms = 2970 --> turn_in_place(degrees(30))
Trigger time ms = 3036 --> turn_in_place(degrees(-30))
Trigger time ms = 3102 --> turn_in_place(degrees(30))
Trigger time ms = 3168 --> turn_in_place(degrees(-30))
Trigger time ms = 3234 --> turn_in_place(degrees(30))
Trigger time ms = 3300 --> turn_in_place(degrees(-30))
Trigger time ms = 3366 --> turn_in_place(degrees(30))
Trigger time ms = 3432 --> turn_in_place(degrees(-30))
Trigger time ms = 3498 --> turn_in_place(degrees(30))
Trigger time ms = 3564 --> turn_in_place(degrees(-30))
Trigger time ms = 3630 --> turn_in_place(degrees(30))
Trigger time ms = 3696 --> turn_in_place(degrees(-30))
Trigger time ms = 3762 --> turn_in_place(degrees(30))
Trigger time ms = 3828 --> turn_in_place(degrees(-30))
Trigger time ms = 3894 --> turn_in_place(degrees(30))
Trigger time ms = 3960 --> turn_in_place(degrees(-30))
Trigger time ms = 4026 --> turn_in_place(degrees(30))
Trigger time ms = 4092 --> turn_in_place(degrees(-15))
Trigger time ms = 4191 --> drive_wheels(l_wheel_speed=52, r_wheel_speed=52, duration=0.165)
Trigger time ms = 4356 --> drive_wheels(l_wheel_speed=22, r_wheel_speed=22, duration=0.132)
