Original file = data/sdk_converted/anim_petdetection_03
Animation anim_petdetection_misc_01 clip 1/4
---------------------------------------
Process lift height
---------------------------------------
Trigger time ms = 231 --> set_lift_height(37, duration=0.099)
Trigger time ms = 330 --> set_lift_height(0, duration=0.099)
Trigger time ms = 3300 --> set_lift_height(45, duration=0.132)
Trigger time ms = 3432 --> set_lift_height(8, duration=0.099)
Trigger time ms = 3531 --> set_lift_height(0, duration=0.165)
Trigger time ms = 4356 --> set_lift_height(41, duration=0.132)
Trigger time ms = 4488 --> set_lift_height(18, duration=0.099)
Trigger time ms = 4587 --> set_lift_height(41, duration=0.165)
Trigger time ms = 4752 --> set_lift_height(10, duration=0.165)
Trigger time ms = 4917 --> set_lift_height(41, duration=0.165)
Trigger time ms = 5082 --> set_lift_height(18, duration=0.099)
Trigger time ms = 5181 --> set_lift_height(41, duration=0.165)
Trigger time ms = 5346 --> set_lift_height(10, duration=0.165)
Trigger time ms = 5511 --> set_lift_height(41, duration=0.165)
Trigger time ms = 5676 --> set_lift_height(50, duration=0.297)
Trigger time ms = 5973 --> set_lift_height(57, duration=0.462)
Trigger time ms = 6435 --> set_lift_height(70, duration=0.132)
Trigger time ms = 6567 --> set_lift_height(0, duration=0.132)
Trigger time ms = 8943 --> set_lift_height(5, duration=0.033)
Trigger time ms = 8976 --> set_lift_height(16, duration=0.033)
Trigger time ms = 9009 --> set_lift_height(45, duration=0.099)
Trigger time ms = 9108 --> set_lift_height(7, duration=0.099)
Trigger time ms = 9207 --> set_lift_height(45, duration=0.132)
Trigger time ms = 9339 --> set_lift_height(0, duration=0.132)
---------------------------------------
Process Head angle animations
---------------------------------------
Trigger time ms = 0 --> set_head_angle(-3, duration=0.132)
Trigger time ms = 132 --> set_head_angle(-11, duration=0.099)
Trigger time ms = 231 --> set_head_angle(39, duration=0.231)
Trigger time ms = 462 --> set_head_angle(35, duration=0.231)
Trigger time ms = 693 --> set_head_angle(34, duration=0.297)
Trigger time ms = 990 --> set_head_angle(29, duration=0.165)
Trigger time ms = 1155 --> set_head_angle(35, duration=0.264)
Trigger time ms = 1881 --> set_head_angle(37, duration=0.429)
Trigger time ms = 2310 --> set_head_angle(28, duration=0.132)
Trigger time ms = 2442 --> set_head_angle(20, duration=0.165)
Trigger time ms = 2607 --> set_head_angle(43, duration=0.561)
Trigger time ms = 3168 --> set_head_angle(45, duration=0.165)
Trigger time ms = 3333 --> set_head_angle(29, duration=0.231)
Trigger time ms = 3564 --> set_head_angle(26, duration=0.231)
Trigger time ms = 3795 --> set_head_angle(37, duration=0.165)
Trigger time ms = 3960 --> set_head_angle(40, duration=0.165)
Trigger time ms = 4125 --> set_head_angle(38, duration=0.165)
Trigger time ms = 4290 --> set_head_angle(20, duration=0.198)
Trigger time ms = 4488 --> set_head_angle(29, duration=0.429)
Trigger time ms = 4917 --> set_head_angle(32, duration=0.396)
Trigger time ms = 5313 --> set_head_angle(0, duration=0.132)
Trigger time ms = 5445 --> set_head_angle(27, duration=0.528)
Trigger time ms = 5973 --> set_head_angle(36, duration=0.594)
Trigger time ms = 6567 --> set_head_angle(39, duration=0.132)
Trigger time ms = 6699 --> set_head_angle(-19, duration=0.099)
Trigger time ms = 6798 --> set_head_angle(10, duration=0.066)
Trigger time ms = 6864 --> set_head_angle(20, duration=0.066)
Trigger time ms = 6930 --> set_head_angle(0, duration=0.297)
Trigger time ms = 7326 --> set_head_angle(-6, duration=0.099)
Trigger time ms = 7425 --> set_head_angle(-1, duration=0.132)
Trigger time ms = 7557 --> set_head_angle(0, duration=0.132)
Trigger time ms = 7788 --> set_head_angle(1, duration=0.099)
Trigger time ms = 7887 --> set_head_angle(13, duration=0.165)
Trigger time ms = 8052 --> set_head_angle(15, duration=0.099)
Trigger time ms = 8580 --> set_head_angle(7, duration=0.099)
Trigger time ms = 8679 --> set_head_angle(36, duration=0.33)
Trigger time ms = 9009 --> set_head_angle(-13, duration=0.132)
Trigger time ms = 9141 --> set_head_angle(13, duration=0.231)
Trigger time ms = 9372 --> set_head_angle(-13, duration=0.165)
Trigger time ms = 9537 --> set_head_angle(15, duration=0.132)
Trigger time ms = 9669 --> set_head_angle(-9, duration=0.132)
Trigger time ms = 9801 --> set_head_angle(2, duration=0.165)
Trigger time ms = 9966 --> set_head_angle(-3, duration=0.198)
---------------------------------------
Process body motion animations
---------------------------------------
Trigger time ms = 132 --> drive_wheels(l_wheel_speed=-52, r_wheel_speed=-52, duration=0.066)
Trigger time ms = 198 --> drive_wheels(l_wheel_speed=54, r_wheel_speed=54, duration=0.165)
Trigger time ms = 1716 --> turn_in_place(degrees(-30))
Trigger time ms = 1947 --> turn_in_place(degrees(44))
Trigger time ms = 2475 --> turn_in_place(degrees(45))
Trigger time ms = 2673 --> turn_in_place(degrees(-30))
Trigger time ms = 2871 --> turn_in_place(degrees(42))
Trigger time ms = 3201 --> turn_in_place(degrees(-15))
Trigger time ms = 3267 --> turn_in_place(degrees(-106))
Trigger time ms = 3333 --> drive_wheels(l_wheel_speed=-1417.5, r_wheel_speed=-5062.5, duration=0.198)
Trigger time ms = 3531 --> drive_wheels(l_wheel_speed=441.0, r_wheel_speed=1071.0, duration=0.066)
Trigger time ms = 3597 --> drive_wheels(l_wheel_speed=562.5, r_wheel_speed=157.5, duration=1.683)
Trigger time ms = 5280 --> drive_wheels(l_wheel_speed=1098.0, r_wheel_speed=558.0, duration=1.254)
Trigger time ms = 6534 --> drive_wheels(l_wheel_speed=-199.5, r_wheel_speed=115.5, duration=0.099)
Trigger time ms = 6633 --> drive_wheels(l_wheel_speed=499037.5, r_wheel_speed=405662.5, duration=0.099)
Trigger time ms = 6963 --> drive_wheels(l_wheel_speed=26, r_wheel_speed=26, duration=0.165)
Trigger time ms = 7128 --> drive_wheels(l_wheel_speed=-47, r_wheel_speed=-47, duration=0.231)
Trigger time ms = 7359 --> drive_wheels(l_wheel_speed=20, r_wheel_speed=20, duration=0.33)
Trigger time ms = 7689 --> drive_wheels(l_wheel_speed=-20, r_wheel_speed=-20, duration=1.056)
Trigger time ms = 8745 --> drive_wheels(l_wheel_speed=-1, r_wheel_speed=-1, duration=0.066)
Trigger time ms = 8811 --> drive_wheels(l_wheel_speed=4, r_wheel_speed=4, duration=0.066)
Trigger time ms = 8976 --> drive_wheels(l_wheel_speed=367.5, r_wheel_speed=-577.5, duration=0.033)
Trigger time ms = 9009 --> drive_wheels(l_wheel_speed=2065.0, r_wheel_speed=-1085.0, duration=0.033)
Trigger time ms = 9042 --> drive_wheels(l_wheel_speed=522.5, r_wheel_speed=-1952.5, duration=0.033)
Trigger time ms = 9075 --> drive_wheels(l_wheel_speed=-2844.0, r_wheel_speed=396.0, duration=0.033)
Trigger time ms = 9108 --> drive_wheels(l_wheel_speed=-715.0, r_wheel_speed=4235.0, duration=0.033)
Trigger time ms = 9141 --> drive_wheels(l_wheel_speed=4162.5, r_wheel_speed=-832.5, duration=0.033)
Trigger time ms = 9174 --> drive_wheels(l_wheel_speed=987.5, r_wheel_speed=-2567.5, duration=0.033)
Trigger time ms = 9207 --> drive_wheels(l_wheel_speed=-3796.0, r_wheel_speed=884.0, duration=0.033)
Trigger time ms = 9240 --> drive_wheels(l_wheel_speed=-1091.5, r_wheel_speed=1563.5, duration=0.033)
Trigger time ms = 9273 --> drive_wheels(l_wheel_speed=-973.5, r_wheel_speed=511.5, duration=0.033)
Trigger time ms = 9306 --> turn_in_place(degrees(-242))
Trigger time ms = 9339 --> turn_in_place(degrees(-273))
Trigger time ms = 9372 --> turn_in_place(degrees(258))
Trigger time ms = 9438 --> turn_in_place(degrees(-182))
