Original file = data/sdk_converted/anim_cozmosays_speakloop_01
Animation anim_cozmosays_speakloop_02 clip 2/3
---------------------------------------
Process lift height
---------------------------------------
---------------------------------------
Process Head angle animations
---------------------------------------
---------------------------------------
Process body motion animations
---------------------------------------
