Original file = data/sdk_converted/anim_freeplay_reacttoface_like_01
Animation anim_freeplay_reacttoface_like_01 clip 1/1
---------------------------------------
Process lift height
---------------------------------------
Trigger time ms = 2442 --> set_lift_height(46, duration=0.099)
Trigger time ms = 2541 --> set_lift_height(27, duration=0.132)
Trigger time ms = 2673 --> set_lift_height(50, duration=0.132)
Trigger time ms = 2805 --> set_lift_height(30, duration=0.099)
Trigger time ms = 2904 --> set_lift_height(42, duration=0.165)
Trigger time ms = 3069 --> set_lift_height(2, duration=0.066)
Trigger time ms = 3135 --> set_lift_height(5, duration=0.528)
Trigger time ms = 3795 --> set_lift_height(42, duration=0.039)
Trigger time ms = 3834 --> set_lift_height(10, duration=0.032)
Trigger time ms = 3866 --> set_lift_height(0, duration=0.035)
---------------------------------------
Process Head angle animations
---------------------------------------
Trigger time ms = 66 --> set_head_angle(-6, duration=0.066)
Trigger time ms = 132 --> set_head_angle(32, duration=0.297)
Trigger time ms = 429 --> set_head_angle(26, duration=0.099)
Trigger time ms = 528 --> set_head_angle(27, duration=0.264)
Trigger time ms = 792 --> set_head_angle(29, duration=0.066)
Trigger time ms = 858 --> set_head_angle(30, duration=0.066)
Trigger time ms = 1188 --> set_head_angle(27, duration=0.066)
Trigger time ms = 1254 --> set_head_angle(33, duration=0.165)
Trigger time ms = 1419 --> set_head_angle(31, duration=0.099)
Trigger time ms = 1518 --> set_head_angle(30, duration=0.132)
Trigger time ms = 2046 --> set_head_angle(30, duration=0.066)
Trigger time ms = 2112 --> set_head_angle(13, duration=0.066)
Trigger time ms = 2178 --> set_head_angle(24, duration=0.099)
Trigger time ms = 2277 --> set_head_angle(20, duration=0.066)
Trigger time ms = 2508 --> set_head_angle(37, duration=0.132)
Trigger time ms = 2640 --> set_head_angle(13, duration=0.178)
Trigger time ms = 2818 --> set_head_angle(9, duration=0.065)
Trigger time ms = 2883 --> set_head_angle(15, duration=0.087)
Trigger time ms = 2970 --> set_head_angle(9, duration=0.132)
Trigger time ms = 3102 --> set_head_angle(17, duration=0.099)
Trigger time ms = 3201 --> set_head_angle(14, duration=0.144)
Trigger time ms = 3345 --> set_head_angle(28, duration=0.12)
Trigger time ms = 3465 --> set_head_angle(33, duration=0.495)
Trigger time ms = 4224 --> set_head_angle(35, duration=0.033)
Trigger time ms = 4257 --> set_head_angle(18, duration=0.165)
Trigger time ms = 4422 --> set_head_angle(33, duration=0.198)
---------------------------------------
Process body motion animations
---------------------------------------
Trigger time ms = 99 --> drive_wheels(l_wheel_speed=-135, r_wheel_speed=-135, duration=0.396)
Trigger time ms = 858 --> drive_wheels(l_wheel_speed=-19, r_wheel_speed=-19, duration=0.033)
Trigger time ms = 891 --> drive_wheels(l_wheel_speed=-19, r_wheel_speed=-19, duration=0.033)
Trigger time ms = 924 --> drive_wheels(l_wheel_speed=13, r_wheel_speed=13, duration=0.066)
Trigger time ms = 990 --> drive_wheels(l_wheel_speed=21, r_wheel_speed=21, duration=0.066)
Trigger time ms = 1056 --> drive_wheels(l_wheel_speed=4, r_wheel_speed=4, duration=0.033)
Trigger time ms = 1269 --> turn_in_place(degrees(26))
Trigger time ms = 1383 --> turn_in_place(degrees(29))
Trigger time ms = 1634 --> turn_in_place(degrees(-63))
Trigger time ms = 1683 --> turn_in_place(degrees(-24))
Trigger time ms = 2442 --> drive_wheels(l_wheel_speed=-73, r_wheel_speed=-73, duration=0.231)
Trigger time ms = 2706 --> drive_wheels(l_wheel_speed=58, r_wheel_speed=58, duration=0.396)
Trigger time ms = 3102 --> drive_wheels(l_wheel_speed=-34, r_wheel_speed=-34, duration=0.462)
