Original file = data/sdk_converted/anim_pyramid_reacttocube_frustrated
Animation anim_pyramid_reacttocube_frustrated_mid_01 clip 2/3
---------------------------------------
Process lift height
---------------------------------------
Trigger time ms = 0 --> set_lift_height(0, duration=0.165)
Trigger time ms = 495 --> set_lift_height(49, duration=0.066)
Trigger time ms = 561 --> set_lift_height(24, duration=0.066)
Trigger time ms = 627 --> set_lift_height(49, duration=0.066)
Trigger time ms = 693 --> set_lift_height(24, duration=0.066)
Trigger time ms = 759 --> set_lift_height(49, duration=0.066)
Trigger time ms = 825 --> set_lift_height(24, duration=0.066)
Trigger time ms = 891 --> set_lift_height(49, duration=0.066)
Trigger time ms = 957 --> set_lift_height(24, duration=0.066)
Trigger time ms = 1023 --> set_lift_height(49, duration=0.066)
Trigger time ms = 1089 --> set_lift_height(0, duration=0.132)
Trigger time ms = 1419 --> set_lift_height(65, duration=0.099)
Trigger time ms = 1518 --> set_lift_height(0, duration=0.099)
Trigger time ms = 1617 --> set_lift_height(0, duration=0.132)
Trigger time ms = 1980 --> set_lift_height(39, duration=0.066)
Trigger time ms = 2046 --> set_lift_height(0, duration=0.066)
Trigger time ms = 3003 --> set_lift_height(39, duration=0.066)
Trigger time ms = 3069 --> set_lift_height(0, duration=0.066)
Trigger time ms = 4081 --> set_lift_height(0, duration=0.473)
Trigger time ms = 4554 --> set_lift_height(0, duration=0.231)
---------------------------------------
Process Head angle animations
---------------------------------------
Trigger time ms = 0 --> set_head_angle(2, duration=0.132)
Trigger time ms = 132 --> set_head_angle(10, duration=0.099)
Trigger time ms = 231 --> set_head_angle(-9, duration=0.198)
Trigger time ms = 1056 --> set_head_angle(-15, duration=0.099)
Trigger time ms = 1155 --> set_head_angle(25, duration=0.165)
Trigger time ms = 1320 --> set_head_angle(-5, duration=0.165)
Trigger time ms = 2013 --> set_head_angle(-10, duration=0.066)
Trigger time ms = 2079 --> set_head_angle(-4, duration=0.099)
Trigger time ms = 2178 --> set_head_angle(-5, duration=0.825)
Trigger time ms = 3003 --> set_head_angle(-10, duration=0.066)
Trigger time ms = 3069 --> set_head_angle(-4, duration=0.066)
Trigger time ms = 3135 --> set_head_angle(-5, duration=0.363)
Trigger time ms = 3729 --> set_head_angle(3, duration=0.068)
Trigger time ms = 3797 --> set_head_angle(-10, duration=0.132)
Trigger time ms = 3929 --> set_head_angle(-15, duration=0.13)
Trigger time ms = 4323 --> set_head_angle(-3, duration=0.132)
Trigger time ms = 4455 --> set_head_angle(0, duration=0.299)
Trigger time ms = 5018 --> set_head_angle(-12, duration=0.097)
Trigger time ms = 5115 --> set_head_angle(-1, duration=0.134)
Trigger time ms = 5249 --> set_head_angle(0, duration=0.361)
---------------------------------------
Process body motion animations
---------------------------------------
Trigger time ms = 462 --> turn_in_place(degrees(-61))
Trigger time ms = 495 --> turn_in_place(degrees(-91))
Trigger time ms = 528 --> turn_in_place(degrees(76))
Trigger time ms = 594 --> turn_in_place(degrees(-76))
Trigger time ms = 660 --> turn_in_place(degrees(76))
Trigger time ms = 726 --> turn_in_place(degrees(-76))
Trigger time ms = 792 --> turn_in_place(degrees(76))
Trigger time ms = 858 --> turn_in_place(degrees(-76))
Trigger time ms = 924 --> turn_in_place(degrees(76))
Trigger time ms = 990 --> turn_in_place(degrees(-76))
Trigger time ms = 1056 --> turn_in_place(degrees(76))
Trigger time ms = 1122 --> turn_in_place(degrees(-280))
Trigger time ms = 1254 --> turn_in_place(degrees(160))
Trigger time ms = 2013 --> turn_in_place(degrees(-45))
Trigger time ms = 2079 --> turn_in_place(degrees(45))
Trigger time ms = 3003 --> turn_in_place(degrees(-45))
Trigger time ms = 3069 --> turn_in_place(degrees(45))
Trigger time ms = 3762 --> turn_in_place(degrees(78))
Trigger time ms = 3839 --> turn_in_place(degrees(-130))
Trigger time ms = 3916 --> turn_in_place(degrees(117))
Trigger time ms = 3993 --> turn_in_place(degrees(-136))
Trigger time ms = 4059 --> turn_in_place(degrees(136))
Trigger time ms = 4125 --> turn_in_place(degrees(-136))
Trigger time ms = 4191 --> turn_in_place(degrees(136))
Trigger time ms = 4257 --> turn_in_place(degrees(-121))
Trigger time ms = 4323 --> turn_in_place(degrees(91))
Trigger time ms = 4389 --> turn_in_place(degrees(-76))
Trigger time ms = 4455 --> turn_in_place(degrees(76))
Trigger time ms = 4521 --> turn_in_place(degrees(-91))
Trigger time ms = 4587 --> turn_in_place(degrees(45))
Trigger time ms = 5082 --> drive_wheels(l_wheel_speed=-34, r_wheel_speed=-34, duration=0.066)
Trigger time ms = 5148 --> drive_wheels(l_wheel_speed=34, r_wheel_speed=34, duration=0.231)
