Original file = data/sdk_converted/anim_petdetection_01
Animation anim_petdetection_dog_02 clip 2/12
---------------------------------------
Process lift height
---------------------------------------
Trigger time ms = 264 --> set_lift_height(38, duration=0.099)
Trigger time ms = 363 --> set_lift_height(0, duration=0.099)
Trigger time ms = 1749 --> set_lift_height(45, duration=0.132)
Trigger time ms = 1881 --> set_lift_height(8, duration=0.099)
Trigger time ms = 1980 --> set_lift_height(0, duration=0.165)
Trigger time ms = 4653 --> set_lift_height(3, duration=0.462)
Trigger time ms = 5115 --> set_lift_height(77, duration=1.254)
Trigger time ms = 6369 --> set_lift_height(92, duration=0.66)
Trigger time ms = 7095 --> set_lift_height(0, duration=0.099)
Trigger time ms = 7194 --> set_lift_height(40, duration=0.066)
Trigger time ms = 7260 --> set_lift_height(0, duration=0.066)
Trigger time ms = 7326 --> set_lift_height(37, duration=0.066)
Trigger time ms = 7392 --> set_lift_height(5, duration=0.066)
Trigger time ms = 7458 --> set_lift_height(0, duration=0.066)
Trigger time ms = 9900 --> set_lift_height(0, duration=0.033)
Trigger time ms = 9933 --> set_lift_height(41, duration=0.099)
Trigger time ms = 10032 --> set_lift_height(37, duration=0.099)
Trigger time ms = 10131 --> set_lift_height(37, duration=0.033)
Trigger time ms = 10164 --> set_lift_height(41, duration=0.132)
Trigger time ms = 10296 --> set_lift_height(41, duration=0.033)
Trigger time ms = 10329 --> set_lift_height(37, duration=0.066)
Trigger time ms = 10395 --> set_lift_height(37, duration=0.033)
Trigger time ms = 10428 --> set_lift_height(42, duration=0.099)
Trigger time ms = 10527 --> set_lift_height(42, duration=0.033)
Trigger time ms = 10560 --> set_lift_height(37, duration=0.099)
Trigger time ms = 10659 --> set_lift_height(37, duration=0.033)
Trigger time ms = 10692 --> set_lift_height(41, duration=0.099)
Trigger time ms = 10791 --> set_lift_height(41, duration=0.033)
Trigger time ms = 10824 --> set_lift_height(37, duration=0.132)
Trigger time ms = 10956 --> set_lift_height(43, duration=0.099)
Trigger time ms = 11055 --> set_lift_height(39, duration=0.066)
Trigger time ms = 11121 --> set_lift_height(0, duration=0.165)
---------------------------------------
Process Head angle animations
---------------------------------------
Trigger time ms = 0 --> set_head_angle(1, duration=0.099)
Trigger time ms = 99 --> set_head_angle(-12, duration=0.198)
Trigger time ms = 297 --> set_head_angle(28, duration=0.264)
Trigger time ms = 561 --> set_head_angle(24, duration=0.099)
Trigger time ms = 660 --> set_head_angle(23, duration=0.165)
Trigger time ms = 1650 --> set_head_angle(32, duration=0.165)
Trigger time ms = 1815 --> set_head_angle(10, duration=0.099)
Trigger time ms = 1914 --> set_head_angle(27, duration=0.198)
Trigger time ms = 2574 --> set_head_angle(30, duration=0.066)
Trigger time ms = 2640 --> set_head_angle(-9, duration=0.132)
Trigger time ms = 2772 --> set_head_angle(-13, duration=0.033)
Trigger time ms = 2805 --> set_head_angle(-18, duration=0.099)
Trigger time ms = 2904 --> set_head_angle(12, duration=0.231)
Trigger time ms = 3135 --> set_head_angle(-12, duration=0.198)
Trigger time ms = 3333 --> set_head_angle(12, duration=0.198)
Trigger time ms = 3531 --> set_head_angle(-4, duration=0.165)
Trigger time ms = 3696 --> set_head_angle(18, duration=0.264)
Trigger time ms = 3960 --> set_head_angle(-21, duration=0.363)
Trigger time ms = 4323 --> set_head_angle(-23, duration=0.198)
Trigger time ms = 4521 --> set_head_angle(6, duration=0.495)
Trigger time ms = 5016 --> set_head_angle(21, duration=0.792)
Trigger time ms = 5808 --> set_head_angle(29, duration=0.99)
Trigger time ms = 6798 --> set_head_angle(-2, duration=0.132)
Trigger time ms = 6930 --> set_head_angle(-6, duration=0.099)
Trigger time ms = 7029 --> set_head_angle(36, duration=0.165)
Trigger time ms = 8217 --> set_head_angle(45, duration=0.165)
Trigger time ms = 8580 --> set_head_angle(15, duration=0.099)
Trigger time ms = 8679 --> set_head_angle(41, duration=0.132)
Trigger time ms = 9042 --> set_head_angle(17, duration=0.132)
Trigger time ms = 9174 --> set_head_angle(36, duration=0.165)
Trigger time ms = 9504 --> set_head_angle(45, duration=0.165)
Trigger time ms = 9669 --> set_head_angle(41, duration=0.033)
Trigger time ms = 9702 --> set_head_angle(-25, duration=0.132)
Trigger time ms = 9834 --> set_head_angle(-24, duration=0.066)
Trigger time ms = 9900 --> set_head_angle(-7, duration=0.099)
Trigger time ms = 9999 --> set_head_angle(-25, duration=0.033)
Trigger time ms = 10065 --> set_head_angle(-15, duration=0.066)
Trigger time ms = 10131 --> set_head_angle(-12, duration=0.033)
Trigger time ms = 10164 --> set_head_angle(-25, duration=0.099)
Trigger time ms = 10296 --> set_head_angle(-12, duration=0.066)
Trigger time ms = 10362 --> set_head_angle(-25, duration=0.066)
Trigger time ms = 10461 --> set_head_angle(-15, duration=0.066)
Trigger time ms = 10527 --> set_head_angle(-12, duration=0.033)
Trigger time ms = 10560 --> set_head_angle(-25, duration=0.099)
Trigger time ms = 10692 --> set_head_angle(-12, duration=0.099)
Trigger time ms = 10791 --> set_head_angle(-12, duration=0.033)
Trigger time ms = 10824 --> set_head_angle(-16, duration=0.099)
Trigger time ms = 10923 --> set_head_angle(-13, duration=0.231)
Trigger time ms = 11484 --> set_head_angle(-20, duration=0.099)
Trigger time ms = 11583 --> set_head_angle(-2, duration=0.165)
Trigger time ms = 11748 --> set_head_angle(-1, duration=0.033)
Trigger time ms = 11781 --> set_head_angle(0, duration=0.066)
Trigger time ms = 11847 --> set_head_angle(0, duration=0.066)
Trigger time ms = 11913 --> set_head_angle(0, duration=0.066)
---------------------------------------
Process body motion animations
---------------------------------------
Trigger time ms = 231 --> turn_in_place(degrees(-61))
Trigger time ms = 264 --> turn_in_place(degrees(-45))
Trigger time ms = 396 --> turn_in_place(degrees(-55))
Trigger time ms = 561 --> turn_in_place(degrees(-45))
Trigger time ms = 627 --> turn_in_place(degrees(-13))
Trigger time ms = 1650 --> turn_in_place(degrees(111))
Trigger time ms = 1749 --> turn_in_place(degrees(-67))
Trigger time ms = 2838 --> drive_wheels(l_wheel_speed=49, r_wheel_speed=49, duration=0.198)
Trigger time ms = 3036 --> drive_wheels(l_wheel_speed=-220, r_wheel_speed=-220, duration=0.231)
Trigger time ms = 3267 --> drive_wheels(l_wheel_speed=115, r_wheel_speed=115, duration=0.198)
Trigger time ms = 3465 --> drive_wheels(l_wheel_speed=-131, r_wheel_speed=-131, duration=0.165)
Trigger time ms = 3630 --> drive_wheels(l_wheel_speed=115, r_wheel_speed=115, duration=0.231)
Trigger time ms = 3861 --> drive_wheels(l_wheel_speed=-147, r_wheel_speed=-147, duration=0.231)
Trigger time ms = 4092 --> drive_wheels(l_wheel_speed=135, r_wheel_speed=135, duration=0.297)
Trigger time ms = 4422 --> drive_wheels(l_wheel_speed=37.5, r_wheel_speed=1162.5, duration=0.066)
Trigger time ms = 4488 --> drive_wheels(l_wheel_speed=201.5, r_wheel_speed=-383.5, duration=0.066)
Trigger time ms = 4554 --> drive_wheels(l_wheel_speed=98.0, r_wheel_speed=-82.0, duration=0.033)
Trigger time ms = 4587 --> drive_wheels(l_wheel_speed=-324.0, r_wheel_speed=756.0, duration=0.033)
Trigger time ms = 4620 --> drive_wheels(l_wheel_speed=-629.0, r_wheel_speed=-3959.0, duration=0.066)
Trigger time ms = 4686 --> drive_wheels(l_wheel_speed=-368.0, r_wheel_speed=1072.0, duration=0.066)
Trigger time ms = 4752 --> drive_wheels(l_wheel_speed=43.0, r_wheel_speed=-47.0, duration=0.033)
Trigger time ms = 4785 --> drive_wheels(l_wheel_speed=255.0, r_wheel_speed=-1095.0, duration=0.033)
Trigger time ms = 4818 --> drive_wheels(l_wheel_speed=3710.0, r_wheel_speed=13250.0, duration=0.066)
Trigger time ms = 4884 --> drive_wheels(l_wheel_speed=397.5, r_wheel_speed=-6757.5, duration=0.066)
Trigger time ms = 4950 --> drive_wheels(l_wheel_speed=-987.5, r_wheel_speed=2567.5, duration=0.033)
Trigger time ms = 4983 --> drive_wheels(l_wheel_speed=-397.5, r_wheel_speed=6757.5, duration=0.033)
Trigger time ms = 5016 --> drive_wheels(l_wheel_speed=-3410.0, r_wheel_speed=-13310.0, duration=0.066)
Trigger time ms = 5082 --> drive_wheels(l_wheel_speed=550.0, r_wheel_speed=10450.0, duration=0.066)
Trigger time ms = 5148 --> drive_wheels(l_wheel_speed=729.0, r_wheel_speed=-6561.0, duration=0.033)
Trigger time ms = 5181 --> drive_wheels(l_wheel_speed=-550.0, r_wheel_speed=-10450.0, duration=0.033)
Trigger time ms = 5214 --> drive_wheels(l_wheel_speed=1870.0, r_wheel_speed=11770.0, duration=0.033)
Trigger time ms = 5247 --> drive_wheels(l_wheel_speed=-3410.0, r_wheel_speed=-13310.0, duration=0.033)
Trigger time ms = 5280 --> drive_wheels(l_wheel_speed=1430.0, r_wheel_speed=11330.0, duration=0.033)
Trigger time ms = 5313 --> drive_wheels(l_wheel_speed=550.0, r_wheel_speed=-9350.0, duration=0.033)
Trigger time ms = 5346 --> drive_wheels(l_wheel_speed=-2750.0, r_wheel_speed=7150.0, duration=0.033)
Trigger time ms = 5379 --> drive_wheels(l_wheel_speed=330.0, r_wheel_speed=-9570.0, duration=0.033)
Trigger time ms = 5412 --> drive_wheels(l_wheel_speed=2090.0, r_wheel_speed=11990.0, duration=0.033)
Trigger time ms = 5445 --> drive_wheels(l_wheel_speed=-4510.0, r_wheel_speed=-14410.0, duration=0.033)
Trigger time ms = 5478 --> drive_wheels(l_wheel_speed=2750.0, r_wheel_speed=12650.0, duration=0.033)
Trigger time ms = 5511 --> drive_wheels(l_wheel_speed=-1210.0, r_wheel_speed=-11110.0, duration=0.033)
Trigger time ms = 5544 --> drive_wheels(l_wheel_speed=-330.0, r_wheel_speed=9570.0, duration=0.033)
Trigger time ms = 5577 --> drive_wheels(l_wheel_speed=-2970.0, r_wheel_speed=-12870.0, duration=0.066)
Trigger time ms = 5643 --> drive_wheels(l_wheel_speed=550.0, r_wheel_speed=10450.0, duration=0.033)
Trigger time ms = 5676 --> drive_wheels(l_wheel_speed=1870.0, r_wheel_speed=-8030.0, duration=0.033)
Trigger time ms = 5709 --> drive_wheels(l_wheel_speed=1650.0, r_wheel_speed=11550.0, duration=0.033)
Trigger time ms = 5742 --> drive_wheels(l_wheel_speed=-4950.0, r_wheel_speed=-14850.0, duration=0.033)
Trigger time ms = 5775 --> drive_wheels(l_wheel_speed=330.0, r_wheel_speed=10230.0, duration=0.033)
Trigger time ms = 5808 --> drive_wheels(l_wheel_speed=2419.0, r_wheel_speed=-2891.0, duration=0.033)
Trigger time ms = 5841 --> drive_wheels(l_wheel_speed=2090.0, r_wheel_speed=11990.0, duration=0.033)
Trigger time ms = 5874 --> drive_wheels(l_wheel_speed=-8470.0, r_wheel_speed=-18370.0, duration=0.033)
Trigger time ms = 5907 --> drive_wheels(l_wheel_speed=550.0, r_wheel_speed=10450.0, duration=0.033)
Trigger time ms = 5940 --> drive_wheels(l_wheel_speed=-7590.0, r_wheel_speed=2310.0, duration=0.033)
Trigger time ms = 5973 --> drive_wheels(l_wheel_speed=3410.0, r_wheel_speed=13310.0, duration=0.066)
Trigger time ms = 6039 --> drive_wheels(l_wheel_speed=369.0, r_wheel_speed=-441.0, duration=0.066)
Trigger time ms = 6105 --> drive_wheels(l_wheel_speed=770.0, r_wheel_speed=10670.0, duration=0.033)
Trigger time ms = 6138 --> drive_wheels(l_wheel_speed=-5830.0, r_wheel_speed=-15730.0, duration=0.033)
Trigger time ms = 6171 --> drive_wheels(l_wheel_speed=-550.0, r_wheel_speed=9350.0, duration=0.033)
Trigger time ms = 6204 --> drive_wheels(l_wheel_speed=-6710.0, r_wheel_speed=3190.0, duration=0.033)
Trigger time ms = 6237 --> drive_wheels(l_wheel_speed=-1210.0, r_wheel_speed=8690.0, duration=0.033)
Trigger time ms = 6270 --> drive_wheels(l_wheel_speed=-4510.0, r_wheel_speed=-14410.0, duration=0.033)
Trigger time ms = 6303 --> drive_wheels(l_wheel_speed=2750.0, r_wheel_speed=12650.0, duration=0.033)
Trigger time ms = 6336 --> drive_wheels(l_wheel_speed=-1210.0, r_wheel_speed=-11110.0, duration=0.033)
Trigger time ms = 6369 --> drive_wheels(l_wheel_speed=-330.0, r_wheel_speed=9570.0, duration=0.033)
Trigger time ms = 6402 --> drive_wheels(l_wheel_speed=-1210.0, r_wheel_speed=-11110.0, duration=0.033)
Trigger time ms = 6435 --> drive_wheels(l_wheel_speed=2970.0, r_wheel_speed=12870.0, duration=0.033)
Trigger time ms = 6468 --> drive_wheels(l_wheel_speed=1071.0, r_wheel_speed=-4599.0, duration=0.066)
Trigger time ms = 6534 --> drive_wheels(l_wheel_speed=1650.0, r_wheel_speed=11550.0, duration=0.033)
Trigger time ms = 6567 --> drive_wheels(l_wheel_speed=-4950.0, r_wheel_speed=-14850.0, duration=0.033)
Trigger time ms = 6600 --> drive_wheels(l_wheel_speed=330.0, r_wheel_speed=10230.0, duration=0.033)
Trigger time ms = 6633 --> drive_wheels(l_wheel_speed=1455.5, r_wheel_speed=-1739.5, duration=0.033)
Trigger time ms = 6666 --> drive_wheels(l_wheel_speed=2090.0, r_wheel_speed=11990.0, duration=0.033)
Trigger time ms = 6699 --> drive_wheels(l_wheel_speed=-8470.0, r_wheel_speed=-18370.0, duration=0.033)
Trigger time ms = 6732 --> drive_wheels(l_wheel_speed=550.0, r_wheel_speed=10450.0, duration=0.033)
Trigger time ms = 6765 --> drive_wheels(l_wheel_speed=-7590.0, r_wheel_speed=2310.0, duration=0.033)
Trigger time ms = 6798 --> drive_wheels(l_wheel_speed=-2090.0, r_wheel_speed=7810.0, duration=0.033)
Trigger time ms = 6831 --> drive_wheels(l_wheel_speed=-3410.0, r_wheel_speed=-13310.0, duration=0.033)
Trigger time ms = 6864 --> drive_wheels(l_wheel_speed=-550.0, r_wheel_speed=9350.0, duration=0.033)
Trigger time ms = 6897 --> drive_wheels(l_wheel_speed=738.0, r_wheel_speed=-882.0, duration=0.033)
Trigger time ms = 6930 --> drive_wheels(l_wheel_speed=742.0, r_wheel_speed=-518.0, duration=0.066)
Trigger time ms = 6996 --> drive_wheels(l_wheel_speed=-2592.5, r_wheel_speed=1232.5, duration=0.033)
Trigger time ms = 7029 --> drive_wheels(l_wheel_speed=-7150.0, r_wheel_speed=2750.0, duration=0.495)
Trigger time ms = 7524 --> drive_wheels(l_wheel_speed=-7810.0, r_wheel_speed=2090.0, duration=0.759)
Trigger time ms = 8283 --> drive_wheels(l_wheel_speed=-8250.0, r_wheel_speed=1650.0, duration=0.132)
Trigger time ms = 8415 --> turn_in_place(degrees(300))
Trigger time ms = 8778 --> turn_in_place(degrees(300))
Trigger time ms = 9009 --> turn_in_place(degrees(-300))
Trigger time ms = 9702 --> turn_in_place(degrees(300))
Trigger time ms = 9768 --> turn_in_place(degrees(300))
Trigger time ms = 9801 --> turn_in_place(degrees(300))
Trigger time ms = 9966 --> drive_wheels(l_wheel_speed=-12, r_wheel_speed=-12, duration=0.033)
Trigger time ms = 10032 --> drive_wheels(l_wheel_speed=-35, r_wheel_speed=-35, duration=0.099)
Trigger time ms = 10131 --> drive_wheels(l_wheel_speed=4, r_wheel_speed=4, duration=0.033)
Trigger time ms = 10164 --> drive_wheels(l_wheel_speed=10, r_wheel_speed=10, duration=0.033)
Trigger time ms = 10197 --> drive_wheels(l_wheel_speed=14, r_wheel_speed=14, duration=0.066)
Trigger time ms = 10263 --> drive_wheels(l_wheel_speed=-5, r_wheel_speed=-5, duration=0.033)
Trigger time ms = 10296 --> drive_wheels(l_wheel_speed=-37, r_wheel_speed=-37, duration=0.099)
Trigger time ms = 10395 --> drive_wheels(l_wheel_speed=-5, r_wheel_speed=-5, duration=0.033)
Trigger time ms = 10428 --> drive_wheels(l_wheel_speed=31, r_wheel_speed=31, duration=0.066)
Trigger time ms = 10494 --> drive_wheels(l_wheel_speed=30, r_wheel_speed=30, duration=0.066)
Trigger time ms = 10560 --> drive_wheels(l_wheel_speed=-9, r_wheel_speed=-9, duration=0.033)
Trigger time ms = 10593 --> drive_wheels(l_wheel_speed=-42, r_wheel_speed=-42, duration=0.066)
Trigger time ms = 10659 --> drive_wheels(l_wheel_speed=-7, r_wheel_speed=-7, duration=0.033)
Trigger time ms = 10692 --> drive_wheels(l_wheel_speed=44, r_wheel_speed=44, duration=0.099)
Trigger time ms = 10791 --> drive_wheels(l_wheel_speed=8, r_wheel_speed=8, duration=0.033)
Trigger time ms = 10824 --> drive_wheels(l_wheel_speed=-53, r_wheel_speed=-53, duration=0.099)
Trigger time ms = 10923 --> drive_wheels(l_wheel_speed=-10, r_wheel_speed=-10, duration=0.033)
Trigger time ms = 10956 --> drive_wheels(l_wheel_speed=29, r_wheel_speed=29, duration=0.099)
Trigger time ms = 11055 --> drive_wheels(l_wheel_speed=5, r_wheel_speed=5, duration=0.033)
