Original file = data/sdk_converted/anim_repair_severe_state_01
Animation anim_repair_severe_reaction_01 clip 5/7
---------------------------------------
Process lift height
---------------------------------------
Trigger time ms = 0 --> set_lift_height(57, duration=0.066)
Trigger time ms = 66 --> set_lift_height(32, duration=0.033)
Trigger time ms = 99 --> set_lift_height(77, duration=0.099)
Trigger time ms = 198 --> set_lift_height(62, duration=0.066)
Trigger time ms = 264 --> set_lift_height(72, duration=0.066)
Trigger time ms = 726 --> set_lift_height(57, duration=0.99)
Trigger time ms = 2772 --> set_lift_height(47, duration=0.66)
Trigger time ms = 3432 --> set_lift_height(44, duration=0.858)
Trigger time ms = 6237 --> set_lift_height(57, duration=1.023)
---------------------------------------
Process Head angle animations
---------------------------------------
Trigger time ms = 0 --> set_head_angle(-16, duration=0.132)
Trigger time ms = 132 --> set_head_angle(5, duration=0.033)
Trigger time ms = 1023 --> set_head_angle(-16, duration=0.495)
Trigger time ms = 1716 --> set_head_angle(-17, duration=0.099)
Trigger time ms = 1815 --> set_head_angle(-16, duration=0.099)
Trigger time ms = 1914 --> set_head_angle(-16, duration=0.363)
Trigger time ms = 2277 --> set_head_angle(-16, duration=0.297)
Trigger time ms = 2574 --> set_head_angle(9, duration=0.759)
Trigger time ms = 3333 --> set_head_angle(14, duration=0.957)
Trigger time ms = 4290 --> set_head_angle(11, duration=0.858)
Trigger time ms = 5148 --> set_head_angle(-18, duration=0.231)
Trigger time ms = 5379 --> set_head_angle(-17, duration=0.198)
Trigger time ms = 5577 --> set_head_angle(-16, duration=0.297)
Trigger time ms = 6831 --> set_head_angle(-15, duration=0.231)
Trigger time ms = 7194 --> set_head_angle(-14, duration=0.165)
---------------------------------------
Process body motion animations
---------------------------------------
Trigger time ms = 66 --> drive_wheels(l_wheel_speed=4524.0, r_wheel_speed=9204.0, duration=0.033)
Trigger time ms = 99 --> drive_wheels(l_wheel_speed=1716.0, r_wheel_speed=-2964.0, duration=0.033)
Trigger time ms = 132 --> drive_wheels(l_wheel_speed=-580.5, r_wheel_speed=634.5, duration=0.033)
Trigger time ms = 165 --> drive_wheels(l_wheel_speed=795.5, r_wheel_speed=-869.5, duration=0.033)
Trigger time ms = 198 --> drive_wheels(l_wheel_speed=-795.5, r_wheel_speed=869.5, duration=0.033)
Trigger time ms = 231 --> drive_wheels(l_wheel_speed=2345.0, r_wheel_speed=-3685.0, duration=0.033)
Trigger time ms = 264 --> drive_wheels(l_wheel_speed=-2345.0, r_wheel_speed=3685.0, duration=0.033)
Trigger time ms = 297 --> drive_wheels(l_wheel_speed=817.0, r_wheel_speed=-893.0, duration=0.033)
Trigger time ms = 330 --> drive_wheels(l_wheel_speed=-817.0, r_wheel_speed=893.0, duration=0.033)
Trigger time ms = 363 --> drive_wheels(l_wheel_speed=2135.0, r_wheel_speed=-3355.0, duration=0.033)
Trigger time ms = 396 --> drive_wheels(l_wheel_speed=-2135.0, r_wheel_speed=3355.0, duration=0.033)
Trigger time ms = 429 --> drive_wheels(l_wheel_speed=580.5, r_wheel_speed=-634.5, duration=0.033)
Trigger time ms = 462 --> drive_wheels(l_wheel_speed=-3410.0, r_wheel_speed=6490.0, duration=0.033)
Trigger time ms = 495 --> drive_wheels(l_wheel_speed=2310.0, r_wheel_speed=-7590.0, duration=0.033)
Trigger time ms = 627 --> drive_wheels(l_wheel_speed=-1, r_wheel_speed=-1, duration=0.132)
Trigger time ms = 759 --> drive_wheels(l_wheel_speed=-2, r_wheel_speed=-2, duration=0.132)
Trigger time ms = 891 --> drive_wheels(l_wheel_speed=-4, r_wheel_speed=-4, duration=0.132)
Trigger time ms = 1023 --> drive_wheels(l_wheel_speed=-5, r_wheel_speed=-5, duration=0.132)
Trigger time ms = 1155 --> drive_wheels(l_wheel_speed=-7, r_wheel_speed=-7, duration=0.132)
Trigger time ms = 1287 --> drive_wheels(l_wheel_speed=-8, r_wheel_speed=-8, duration=0.132)
Trigger time ms = 1419 --> drive_wheels(l_wheel_speed=-9, r_wheel_speed=-9, duration=0.132)
Trigger time ms = 1551 --> drive_wheels(l_wheel_speed=-10, r_wheel_speed=-10, duration=0.132)
Trigger time ms = 1683 --> drive_wheels(l_wheel_speed=-11, r_wheel_speed=-11, duration=0.132)
Trigger time ms = 1815 --> drive_wheels(l_wheel_speed=-12, r_wheel_speed=-12, duration=0.132)
Trigger time ms = 1947 --> drive_wheels(l_wheel_speed=-13, r_wheel_speed=-13, duration=0.132)
Trigger time ms = 2079 --> drive_wheels(l_wheel_speed=-14, r_wheel_speed=-14, duration=0.132)
Trigger time ms = 2211 --> drive_wheels(l_wheel_speed=-19, r_wheel_speed=-19, duration=0.891)
Trigger time ms = 3102 --> drive_wheels(l_wheel_speed=-19, r_wheel_speed=-19, duration=0.132)
Trigger time ms = 3234 --> drive_wheels(l_wheel_speed=-16, r_wheel_speed=-16, duration=0.132)
Trigger time ms = 3366 --> drive_wheels(l_wheel_speed=-13, r_wheel_speed=-13, duration=0.132)
Trigger time ms = 3498 --> drive_wheels(l_wheel_speed=-11, r_wheel_speed=-11, duration=0.132)
Trigger time ms = 3630 --> drive_wheels(l_wheel_speed=-9, r_wheel_speed=-9, duration=0.132)
Trigger time ms = 3762 --> drive_wheels(l_wheel_speed=-7, r_wheel_speed=-7, duration=0.132)
Trigger time ms = 3894 --> drive_wheels(l_wheel_speed=-5, r_wheel_speed=-5, duration=0.132)
Trigger time ms = 4026 --> drive_wheels(l_wheel_speed=-4, r_wheel_speed=-4, duration=0.132)
Trigger time ms = 4158 --> drive_wheels(l_wheel_speed=-3, r_wheel_speed=-3, duration=0.132)
Trigger time ms = 4290 --> drive_wheels(l_wheel_speed=-1, r_wheel_speed=-1, duration=0.132)
Trigger time ms = 4422 --> drive_wheels(l_wheel_speed=0, r_wheel_speed=0, duration=0.132)
Trigger time ms = 5115 --> drive_wheels(l_wheel_speed=26, r_wheel_speed=26, duration=1.353)
