Original file = data/sdk_converted/anim_pounce_lookloop_01
Animation anim_pounce_lookloop_01 clip 1/3
---------------------------------------
Process lift height
---------------------------------------
---------------------------------------
Process Head angle animations
---------------------------------------
---------------------------------------
Process body motion animations
---------------------------------------
