Original file = data/sdk_converted/anim_legacy
Animation anim_poked_01 clip 1/4
---------------------------------------
Process lift height
---------------------------------------
Trigger time ms = 0 --> set_lift_height(31, duration=0.1)
Trigger time ms = 100 --> set_lift_height(31, duration=0.9)
---------------------------------------
Process Head angle animations
---------------------------------------
---------------------------------------
Process body motion animations
---------------------------------------
