Original file = data/sdk_converted/anim_reacttocliff_01
Animation anim_reacttocliff_pickup_03 clip 6/9
---------------------------------------
Process lift height
---------------------------------------
Trigger time ms = 836 --> set_lift_height(44, duration=0.108)
Trigger time ms = 943 --> set_lift_height(1, duration=0.056)
Trigger time ms = 999 --> set_lift_height(32, duration=0.11)
Trigger time ms = 1109 --> set_lift_height(1, duration=0.07)
Trigger time ms = 1179 --> set_lift_height(21, duration=0.09)
Trigger time ms = 1269 --> set_lift_height(1, duration=0.09)
Trigger time ms = 1359 --> set_lift_height(0, duration=0.093)
Trigger time ms = 1452 --> set_lift_height(1, duration=0.61)
Trigger time ms = 2063 --> set_lift_height(54, duration=0.045)
Trigger time ms = 2107 --> set_lift_height(1, duration=0.045)
Trigger time ms = 2152 --> set_lift_height(48, duration=0.045)
Trigger time ms = 2197 --> set_lift_height(1, duration=0.046)
Trigger time ms = 2243 --> set_lift_height(39, duration=0.046)
Trigger time ms = 2289 --> set_lift_height(1, duration=0.044)
Trigger time ms = 2333 --> set_lift_height(26, duration=0.046)
Trigger time ms = 2378 --> set_lift_height(1, duration=0.045)
Trigger time ms = 2424 --> set_lift_height(10, duration=0.064)
Trigger time ms = 2487 --> set_lift_height(1, duration=0.045)
Trigger time ms = 2533 --> set_lift_height(8, duration=0.044)
Trigger time ms = 2576 --> set_lift_height(1, duration=0.046)
Trigger time ms = 2622 --> set_lift_height(6, duration=0.046)
Trigger time ms = 2668 --> set_lift_height(1, duration=0.112)
Trigger time ms = 2780 --> set_lift_height(1, duration=0.003)
Trigger time ms = 2783 --> set_lift_height(0, duration=0.065)
---------------------------------------
Process Head angle animations
---------------------------------------
Trigger time ms = 198 --> set_head_angle(-7, duration=0.066)
Trigger time ms = 264 --> set_head_angle(-1, duration=0.099)
Trigger time ms = 561 --> set_head_angle(0, duration=0.269)
Trigger time ms = 830 --> set_head_angle(8, duration=0.092)
Trigger time ms = 923 --> set_head_angle(-11, duration=0.06)
Trigger time ms = 982 --> set_head_angle(3, duration=0.088)
Trigger time ms = 1071 --> set_head_angle(-11, duration=0.082)
Trigger time ms = 1153 --> set_head_angle(11, duration=0.085)
Trigger time ms = 1238 --> set_head_angle(-1, duration=0.087)
Trigger time ms = 1325 --> set_head_angle(8, duration=0.066)
Trigger time ms = 1391 --> set_head_angle(10, duration=0.164)
Trigger time ms = 1555 --> set_head_angle(9, duration=0.373)
Trigger time ms = 1928 --> set_head_angle(4, duration=0.041)
Trigger time ms = 1969 --> set_head_angle(44, duration=0.042)
Trigger time ms = 2010 --> set_head_angle(20, duration=0.039)
Trigger time ms = 2049 --> set_head_angle(45, duration=0.042)
Trigger time ms = 2091 --> set_head_angle(6, duration=0.04)
Trigger time ms = 2131 --> set_head_angle(45, duration=0.04)
Trigger time ms = 2171 --> set_head_angle(10, duration=0.041)
Trigger time ms = 2212 --> set_head_angle(45, duration=0.041)
Trigger time ms = 2253 --> set_head_angle(9, duration=0.048)
Trigger time ms = 2301 --> set_head_angle(45, duration=0.045)
Trigger time ms = 2346 --> set_head_angle(3, duration=0.042)
Trigger time ms = 2389 --> set_head_angle(45, duration=0.051)
Trigger time ms = 2440 --> set_head_angle(10, duration=0.04)
Trigger time ms = 2480 --> set_head_angle(40, duration=0.061)
Trigger time ms = 2541 --> set_head_angle(12, duration=0.036)
Trigger time ms = 2577 --> set_head_angle(32, duration=0.055)
Trigger time ms = 2632 --> set_head_angle(5, duration=0.163)
Trigger time ms = 2796 --> set_head_angle(14, duration=0.438)
Trigger time ms = 3234 --> set_head_angle(14, duration=0.033)
---------------------------------------
Process body motion animations
---------------------------------------
Trigger time ms = 1555 --> turn_in_place(degrees(-4))
Trigger time ms = 1810 --> turn_in_place(degrees(-578))
Trigger time ms = 1855 --> turn_in_place(degrees(578))
Trigger time ms = 1900 --> turn_in_place(degrees(-644))
Trigger time ms = 1945 --> turn_in_place(degrees(826))
Trigger time ms = 1991 --> turn_in_place(degrees(-1087))
Trigger time ms = 2036 --> turn_in_place(degrees(1136))
Trigger time ms = 2080 --> turn_in_place(degrees(-1022))
Trigger time ms = 2126 --> turn_in_place(degrees(1044))
Trigger time ms = 2171 --> turn_in_place(degrees(-734))
Trigger time ms = 2235 --> turn_in_place(degrees(778))
Trigger time ms = 2280 --> turn_in_place(degrees(-614))
Trigger time ms = 2324 --> turn_in_place(degrees(652))
Trigger time ms = 2370 --> turn_in_place(degrees(7))
