Original file = data/sdk_converted/anim_reacttocliff_sidestuck_01
Animation anim_reacttocliff_stuckleftside_01 clip 1/6
---------------------------------------
Process lift height
---------------------------------------
Trigger time ms = 396 --> set_lift_height(6, duration=0.033)
Trigger time ms = 429 --> set_lift_height(92, duration=0.099)
Trigger time ms = 528 --> set_lift_height(3, duration=0.099)
Trigger time ms = 627 --> set_lift_height(92, duration=0.099)
Trigger time ms = 726 --> set_lift_height(8, duration=0.099)
Trigger time ms = 825 --> set_lift_height(92, duration=0.066)
Trigger time ms = 891 --> set_lift_height(0, duration=0.132)
Trigger time ms = 1023 --> set_lift_height(0, duration=0.132)
Trigger time ms = 1155 --> set_lift_height(0, duration=0.429)
Trigger time ms = 1584 --> set_lift_height(92, duration=0.099)
Trigger time ms = 1683 --> set_lift_height(49, duration=0.076)
Trigger time ms = 1759 --> set_lift_height(92, duration=0.122)
Trigger time ms = 1881 --> set_lift_height(39, duration=0.146)
Trigger time ms = 2028 --> set_lift_height(92, duration=0.166)
Trigger time ms = 2193 --> set_lift_height(3, duration=0.111)
Trigger time ms = 2304 --> set_lift_height(92, duration=0.166)
Trigger time ms = 2470 --> set_lift_height(24, duration=0.113)
Trigger time ms = 2583 --> set_lift_height(92, duration=0.21)
Trigger time ms = 2792 --> set_lift_height(0, duration=0.122)
---------------------------------------
Process Head angle animations
---------------------------------------
Trigger time ms = 264 --> set_head_angle(8, duration=0.066)
Trigger time ms = 528 --> set_head_angle(0, duration=0.066)
Trigger time ms = 594 --> set_head_angle(11, duration=0.099)
Trigger time ms = 693 --> set_head_angle(28, duration=0.033)
Trigger time ms = 726 --> set_head_angle(2, duration=0.099)
Trigger time ms = 825 --> set_head_angle(39, duration=0.099)
Trigger time ms = 924 --> set_head_angle(5, duration=0.099)
Trigger time ms = 1023 --> set_head_angle(42, duration=0.066)
Trigger time ms = 1089 --> set_head_angle(11, duration=0.066)
Trigger time ms = 1804 --> set_head_angle(0, duration=0.111)
Trigger time ms = 1915 --> set_head_angle(30, duration=0.055)
Trigger time ms = 1970 --> set_head_angle(9, duration=0.113)
Trigger time ms = 2083 --> set_head_angle(20, duration=0.111)
Trigger time ms = 2194 --> set_head_angle(0, duration=0.166)
Trigger time ms = 2360 --> set_head_angle(0, duration=0.166)
Trigger time ms = 2525 --> set_head_angle(39, duration=0.113)
Trigger time ms = 2638 --> set_head_angle(5, duration=0.166)
Trigger time ms = 2804 --> set_head_angle(11, duration=0.232)
Trigger time ms = 3036 --> set_head_angle(11, duration=0.198)
Trigger time ms = 3234 --> set_head_angle(7, duration=0.033)
Trigger time ms = 3267 --> set_head_angle(11, duration=0.099)
Trigger time ms = 3366 --> set_head_angle(11, duration=0.231)
---------------------------------------
Process body motion animations
---------------------------------------
Trigger time ms = 429 --> drive_wheels(l_wheel_speed=-13786.5, r_wheel_speed=-9691.5, duration=0.594)
Trigger time ms = 1749 --> turn_in_place(degrees(-1491))
Trigger time ms = 1804 --> turn_in_place(degrees(440))
Trigger time ms = 1970 --> turn_in_place(degrees(-1618))
Trigger time ms = 2026 --> turn_in_place(degrees(784))
Trigger time ms = 2136 --> turn_in_place(degrees(-487))
Trigger time ms = 2249 --> turn_in_place(degrees(597))
Trigger time ms = 2316 --> turn_in_place(degrees(-297))
Trigger time ms = 2427 --> turn_in_place(degrees(532))
