Original file = data/sdk_converted/anim_launch_driving
Animation anim_launch_drivingloop_03 clip 4/5
---------------------------------------
Process lift height
---------------------------------------
---------------------------------------
Process Head angle animations
---------------------------------------
Trigger time ms = 1188 --> set_head_angle(-16, duration=0.198)
Trigger time ms = 1386 --> set_head_angle(-14, duration=0.165)
Trigger time ms = 2640 --> set_head_angle(-5, duration=0.264)
Trigger time ms = 2904 --> set_head_angle(-10, duration=0.165)
Trigger time ms = 3069 --> set_head_angle(-10, duration=0.132)
---------------------------------------
Process body motion animations
---------------------------------------
