Original file = data/sdk_converted/anim_energy_eating_lv1_03
Animation anim_energy_eat_lvl1_09 clip 4/4
---------------------------------------
Process lift height
---------------------------------------
Trigger time ms = 0 --> set_lift_height(77, duration=0.165)
Trigger time ms = 4158 --> set_lift_height(72, duration=0.066)
Trigger time ms = 4224 --> set_lift_height(83, duration=0.099)
Trigger time ms = 4323 --> set_lift_height(71, duration=0.066)
Trigger time ms = 4389 --> set_lift_height(81, duration=0.066)
Trigger time ms = 4455 --> set_lift_height(74, duration=0.066)
Trigger time ms = 4521 --> set_lift_height(81, duration=0.066)
Trigger time ms = 4587 --> set_lift_height(78, duration=0.033)
Trigger time ms = 4620 --> set_lift_height(81, duration=0.495)
Trigger time ms = 5115 --> set_lift_height(32, duration=0.132)
Trigger time ms = 6831 --> set_lift_height(70, duration=0.429)
Trigger time ms = 7788 --> set_lift_height(92, duration=0.066)
Trigger time ms = 7854 --> set_lift_height(32, duration=0.066)
Trigger time ms = 8019 --> set_lift_height(56, duration=0.099)
Trigger time ms = 8118 --> set_lift_height(32, duration=0.132)
---------------------------------------
Process Head angle animations
---------------------------------------
Trigger time ms = 0 --> set_head_angle(0, duration=0.198)
Trigger time ms = 198 --> set_head_angle(12, duration=0.132)
Trigger time ms = 330 --> set_head_angle(-6, duration=0.264)
Trigger time ms = 594 --> set_head_angle(-10, duration=0.396)
Trigger time ms = 990 --> set_head_angle(0, duration=0.099)
Trigger time ms = 1089 --> set_head_angle(-11, duration=0.066)
Trigger time ms = 1155 --> set_head_angle(-4, duration=0.099)
Trigger time ms = 1254 --> set_head_angle(-11, duration=0.066)
Trigger time ms = 1683 --> set_head_angle(-9, duration=0.297)
Trigger time ms = 1980 --> set_head_angle(6, duration=0.594)
Trigger time ms = 2574 --> set_head_angle(21, duration=0.165)
Trigger time ms = 2739 --> set_head_angle(6, duration=0.099)
Trigger time ms = 2838 --> set_head_angle(18, duration=0.825)
Trigger time ms = 3663 --> set_head_angle(33, duration=0.099)
Trigger time ms = 3762 --> set_head_angle(20, duration=0.099)
Trigger time ms = 3861 --> set_head_angle(27, duration=0.396)
Trigger time ms = 4257 --> set_head_angle(22, duration=0.066)
Trigger time ms = 4323 --> set_head_angle(33, duration=0.099)
Trigger time ms = 4422 --> set_head_angle(26, duration=0.066)
Trigger time ms = 4488 --> set_head_angle(39, duration=0.066)
Trigger time ms = 4554 --> set_head_angle(33, duration=0.066)
Trigger time ms = 4620 --> set_head_angle(43, duration=0.033)
Trigger time ms = 4653 --> set_head_angle(36, duration=0.066)
Trigger time ms = 4719 --> set_head_angle(45, duration=0.066)
Trigger time ms = 4950 --> set_head_angle(-2, duration=0.099)
Trigger time ms = 5049 --> set_head_angle(-20, duration=0.066)
Trigger time ms = 5115 --> set_head_angle(-5, duration=0.066)
Trigger time ms = 5181 --> set_head_angle(-2, duration=0.198)
Trigger time ms = 5379 --> set_head_angle(-25, duration=0.066)
Trigger time ms = 5445 --> set_head_angle(18, duration=0.165)
Trigger time ms = 6006 --> set_head_angle(10, duration=0.066)
Trigger time ms = 6072 --> set_head_angle(-20, duration=0.132)
Trigger time ms = 6204 --> set_head_angle(-20, duration=0.033)
Trigger time ms = 6237 --> set_head_angle(-20, duration=0.363)
Trigger time ms = 6600 --> set_head_angle(-25, duration=0.099)
Trigger time ms = 6699 --> set_head_angle(-5, duration=0.132)
Trigger time ms = 6831 --> set_head_angle(-17, duration=0.099)
Trigger time ms = 6930 --> set_head_angle(-7, duration=0.132)
Trigger time ms = 7062 --> set_head_angle(-20, duration=0.066)
Trigger time ms = 7128 --> set_head_angle(-6, duration=0.066)
Trigger time ms = 7194 --> set_head_angle(-17, duration=0.132)
Trigger time ms = 7326 --> set_head_angle(-7, duration=0.099)
Trigger time ms = 7425 --> set_head_angle(-20, duration=0.066)
Trigger time ms = 7491 --> set_head_angle(-6, duration=0.066)
Trigger time ms = 7557 --> set_head_angle(-17, duration=0.132)
Trigger time ms = 7689 --> set_head_angle(19, duration=0.099)
Trigger time ms = 7788 --> set_head_angle(20, duration=0.198)
Trigger time ms = 7986 --> set_head_angle(4, duration=0.066)
Trigger time ms = 8052 --> set_head_angle(33, duration=0.132)
Trigger time ms = 8184 --> set_head_angle(-2, duration=0.132)
Trigger time ms = 8778 --> set_head_angle(14, duration=0.099)
Trigger time ms = 8877 --> set_head_angle(-7, duration=0.099)
Trigger time ms = 8976 --> set_head_angle(10, duration=0.099)
Trigger time ms = 9075 --> set_head_angle(-3, duration=0.132)
Trigger time ms = 9207 --> set_head_angle(0, duration=0.165)
---------------------------------------
Process body motion animations
---------------------------------------
Trigger time ms = 5115 --> drive_wheels(l_wheel_speed=126, r_wheel_speed=126, duration=0.165)
Trigger time ms = 6072 --> drive_wheels(l_wheel_speed=-33, r_wheel_speed=-33, duration=0.165)
Trigger time ms = 6864 --> turn_in_place(degrees(300))
Trigger time ms = 6963 --> turn_in_place(degrees(-300))
Trigger time ms = 7062 --> turn_in_place(degrees(300))
Trigger time ms = 7161 --> turn_in_place(degrees(-300))
Trigger time ms = 7260 --> drive_wheels(l_wheel_speed=-3190.0, r_wheel_speed=6710.0, duration=0.099)
Trigger time ms = 7359 --> drive_wheels(l_wheel_speed=3190.0, r_wheel_speed=-6710.0, duration=0.099)
Trigger time ms = 7887 --> drive_wheels(l_wheel_speed=-220, r_wheel_speed=-220, duration=0.132)
Trigger time ms = 8019 --> drive_wheels(l_wheel_speed=-6188.0, r_wheel_speed=-68.0, duration=0.066)
Trigger time ms = 8778 --> drive_wheels(l_wheel_speed=-28, r_wheel_speed=-28, duration=0.099)
Trigger time ms = 8877 --> drive_wheels(l_wheel_speed=28, r_wheel_speed=28, duration=0.099)
Trigger time ms = 8976 --> drive_wheels(l_wheel_speed=-33, r_wheel_speed=-33, duration=0.099)
Trigger time ms = 9075 --> drive_wheels(l_wheel_speed=49, r_wheel_speed=49, duration=0.066)
