Original file = data/sdk_converted/anim_launch_driving
Animation anim_launch_startdriving_01 clip 1/5
---------------------------------------
Process lift height
---------------------------------------
---------------------------------------
Process Head angle animations
---------------------------------------
Trigger time ms = 297 --> set_head_angle(-18, duration=0.066)
Trigger time ms = 363 --> set_head_angle(-10, duration=0.165)
---------------------------------------
Process body motion animations
---------------------------------------
