Original file = data/sdk_converted/anim_explorer_idle
Animation anim_explorer_idle_01_head_angle_40 clip 9/21
---------------------------------------
Process lift height
---------------------------------------
---------------------------------------
Process Head angle animations
---------------------------------------
Trigger time ms = 528 --> set_head_angle(43, duration=0.066)
Trigger time ms = 990 --> set_head_angle(45, duration=0.066)
Trigger time ms = 1650 --> set_head_angle(40, duration=0.099)
---------------------------------------
Process body motion animations
---------------------------------------
