Original file = data/sdk_converted/anim_launch_driving
Animation anim_launch_enddriving_01 clip 5/5
---------------------------------------
Process lift height
---------------------------------------
---------------------------------------
Process Head angle animations
---------------------------------------
Trigger time ms = 231 --> set_head_angle(-12, duration=0.066)
Trigger time ms = 297 --> set_head_angle(-2, duration=0.198)
Trigger time ms = 495 --> set_head_angle(0, duration=0.231)
Trigger time ms = 957 --> set_head_angle(-11, duration=0.132)
Trigger time ms = 1089 --> set_head_angle(-10, duration=0.165)
---------------------------------------
Process body motion animations
---------------------------------------
