Original file = data/sdk_converted/anim_dizzy_shake
Animation anim_dizzy_shake_loop_01 clip 1/2
---------------------------------------
Process lift height
---------------------------------------
Trigger time ms = 0 --> set_lift_height(0, duration=0.033)
---------------------------------------
Process Head angle animations
---------------------------------------
Trigger time ms = 0 --> set_head_angle(9, duration=0.066)
Trigger time ms = 66 --> set_head_angle(-2, duration=0.066)
Trigger time ms = 132 --> set_head_angle(9, duration=0.066)
Trigger time ms = 198 --> set_head_angle(-1, duration=0.066)
Trigger time ms = 264 --> set_head_angle(9, duration=0.066)
Trigger time ms = 330 --> set_head_angle(-1, duration=0.066)
Trigger time ms = 396 --> set_head_angle(9, duration=0.066)
Trigger time ms = 462 --> set_head_angle(-1, duration=0.066)
Trigger time ms = 528 --> set_head_angle(9, duration=0.066)
Trigger time ms = 594 --> set_head_angle(-1, duration=0.066)
Trigger time ms = 660 --> set_head_angle(9, duration=0.066)
Trigger time ms = 726 --> set_head_angle(-1, duration=0.066)
Trigger time ms = 792 --> set_head_angle(9, duration=0.066)
Trigger time ms = 858 --> set_head_angle(-1, duration=0.066)
Trigger time ms = 924 --> set_head_angle(9, duration=0.066)
Trigger time ms = 990 --> set_head_angle(-1, duration=0.066)
Trigger time ms = 1056 --> set_head_angle(9, duration=0.066)
Trigger time ms = 1122 --> set_head_angle(-1, duration=0.066)
Trigger time ms = 1188 --> set_head_angle(9, duration=0.066)
Trigger time ms = 1254 --> set_head_angle(-1, duration=0.066)
Trigger time ms = 1320 --> set_head_angle(9, duration=0.066)
Trigger time ms = 1386 --> set_head_angle(-1, duration=0.066)
Trigger time ms = 1452 --> set_head_angle(9, duration=0.066)
Trigger time ms = 1518 --> set_head_angle(-1, duration=0.066)
Trigger time ms = 1584 --> set_head_angle(9, duration=0.066)
Trigger time ms = 1650 --> set_head_angle(-1, duration=0.066)
Trigger time ms = 1716 --> set_head_angle(9, duration=0.066)
Trigger time ms = 1782 --> set_head_angle(-1, duration=0.066)
Trigger time ms = 1848 --> set_head_angle(9, duration=0.066)
Trigger time ms = 1914 --> set_head_angle(-1, duration=0.066)
Trigger time ms = 1980 --> set_head_angle(9, duration=0.066)
Trigger time ms = 2046 --> set_head_angle(-1, duration=0.066)
Trigger time ms = 2112 --> set_head_angle(9, duration=0.066)
Trigger time ms = 2178 --> set_head_angle(-1, duration=0.066)
Trigger time ms = 2244 --> set_head_angle(9, duration=0.066)
Trigger time ms = 2310 --> set_head_angle(-1, duration=0.066)
Trigger time ms = 2376 --> set_head_angle(9, duration=0.066)
Trigger time ms = 2442 --> set_head_angle(-1, duration=0.066)
Trigger time ms = 2508 --> set_head_angle(9, duration=0.066)
Trigger time ms = 2574 --> set_head_angle(-1, duration=0.066)
Trigger time ms = 2640 --> set_head_angle(9, duration=0.066)
Trigger time ms = 2706 --> set_head_angle(-1, duration=0.066)
Trigger time ms = 2772 --> set_head_angle(9, duration=0.066)
Trigger time ms = 2838 --> set_head_angle(-1, duration=0.066)
Trigger time ms = 2904 --> set_head_angle(9, duration=0.066)
Trigger time ms = 2970 --> set_head_angle(-1, duration=0.066)
Trigger time ms = 3036 --> set_head_angle(9, duration=0.066)
Trigger time ms = 3102 --> set_head_angle(-1, duration=0.066)
Trigger time ms = 3168 --> set_head_angle(9, duration=0.066)
Trigger time ms = 3234 --> set_head_angle(-1, duration=0.066)
Trigger time ms = 3300 --> set_head_angle(9, duration=0.066)
Trigger time ms = 3366 --> set_head_angle(-1, duration=0.066)
Trigger time ms = 3432 --> set_head_angle(9, duration=0.066)
Trigger time ms = 3498 --> set_head_angle(-1, duration=0.066)
Trigger time ms = 3564 --> set_head_angle(9, duration=0.066)
Trigger time ms = 3630 --> set_head_angle(-1, duration=0.066)
Trigger time ms = 3696 --> set_head_angle(9, duration=0.066)
Trigger time ms = 3762 --> set_head_angle(-1, duration=0.066)
Trigger time ms = 3828 --> set_head_angle(9, duration=0.066)
Trigger time ms = 3894 --> set_head_angle(-1, duration=0.066)
Trigger time ms = 3960 --> set_head_angle(9, duration=0.066)
Trigger time ms = 4026 --> set_head_angle(-1, duration=0.066)
Trigger time ms = 4092 --> set_head_angle(9, duration=0.066)
Trigger time ms = 4158 --> set_head_angle(-1, duration=0.066)
Trigger time ms = 4224 --> set_head_angle(9, duration=0.066)
Trigger time ms = 4290 --> set_head_angle(-1, duration=0.066)
Trigger time ms = 4356 --> set_head_angle(9, duration=0.066)
Trigger time ms = 4422 --> set_head_angle(-1, duration=0.066)
Trigger time ms = 4488 --> set_head_angle(9, duration=0.066)
Trigger time ms = 4554 --> set_head_angle(-1, duration=0.066)
Trigger time ms = 4620 --> set_head_angle(9, duration=0.066)
Trigger time ms = 4686 --> set_head_angle(-1, duration=0.066)
Trigger time ms = 4752 --> set_head_angle(9, duration=0.066)
Trigger time ms = 4818 --> set_head_angle(-1, duration=0.066)
Trigger time ms = 4884 --> set_head_angle(9, duration=0.066)
Trigger time ms = 4950 --> set_head_angle(-1, duration=0.066)
Trigger time ms = 5016 --> set_head_angle(9, duration=0.066)
Trigger time ms = 5082 --> set_head_angle(-1, duration=0.066)
Trigger time ms = 5148 --> set_head_angle(9, duration=0.066)
Trigger time ms = 5214 --> set_head_angle(-1, duration=0.066)
Trigger time ms = 5280 --> set_head_angle(9, duration=0.066)
Trigger time ms = 5346 --> set_head_angle(-1, duration=0.066)
---------------------------------------
Process body motion animations
---------------------------------------
