Original file = data/sdk_converted/anim_laser_drive_01
Animation anim_laser_drive_03 clip 3/3
---------------------------------------
Process lift height
---------------------------------------
---------------------------------------
Process Head angle animations
---------------------------------------
---------------------------------------
Process body motion animations
---------------------------------------
