Original file = data/sdk_converted/anim_repair_severe_state_01
Animation anim_repair_severe_getin_01 clip 1/7
---------------------------------------
Process lift height
---------------------------------------
Trigger time ms = 0 --> set_lift_height(32, duration=0.165)
Trigger time ms = 165 --> set_lift_height(45, duration=0.099)
Trigger time ms = 264 --> set_lift_height(32, duration=0.033)
Trigger time ms = 4389 --> set_lift_height(46, duration=0.792)
Trigger time ms = 5181 --> set_lift_height(49, duration=0.033)
Trigger time ms = 5214 --> set_lift_height(44, duration=0.066)
Trigger time ms = 5280 --> set_lift_height(50, duration=0.099)
Trigger time ms = 5379 --> set_lift_height(57, duration=0.528)
Trigger time ms = 6303 --> set_lift_height(60, duration=0.033)
Trigger time ms = 6336 --> set_lift_height(56, duration=0.099)
Trigger time ms = 6435 --> set_lift_height(57, duration=0.066)
---------------------------------------
Process Head angle animations
---------------------------------------
Trigger time ms = 0 --> set_head_angle(10, duration=0.165)
Trigger time ms = 165 --> set_head_angle(0, duration=0.198)
Trigger time ms = 363 --> set_head_angle(-5, duration=0.033)
Trigger time ms = 396 --> set_head_angle(0, duration=0.033)
Trigger time ms = 429 --> set_head_angle(-5, duration=0.033)
Trigger time ms = 462 --> set_head_angle(0, duration=0.033)
Trigger time ms = 495 --> set_head_angle(-5, duration=0.033)
Trigger time ms = 528 --> set_head_angle(0, duration=0.033)
Trigger time ms = 561 --> set_head_angle(-5, duration=0.033)
Trigger time ms = 594 --> set_head_angle(0, duration=0.033)
Trigger time ms = 627 --> set_head_angle(-5, duration=0.033)
Trigger time ms = 660 --> set_head_angle(0, duration=0.033)
Trigger time ms = 693 --> set_head_angle(-5, duration=0.033)
Trigger time ms = 726 --> set_head_angle(0, duration=0.033)
Trigger time ms = 759 --> set_head_angle(-7, duration=0.033)
Trigger time ms = 792 --> set_head_angle(-2, duration=0.033)
Trigger time ms = 825 --> set_head_angle(-9, duration=0.033)
Trigger time ms = 858 --> set_head_angle(-4, duration=0.033)
Trigger time ms = 891 --> set_head_angle(-11, duration=0.033)
Trigger time ms = 924 --> set_head_angle(7, duration=0.033)
Trigger time ms = 1023 --> set_head_angle(4, duration=0.132)
Trigger time ms = 1353 --> set_head_angle(-8, duration=0.066)
Trigger time ms = 1749 --> set_head_angle(-16, duration=0.066)
Trigger time ms = 2013 --> set_head_angle(-25, duration=0.066)
Trigger time ms = 2079 --> set_head_angle(-10, duration=0.099)
Trigger time ms = 2178 --> set_head_angle(-14, duration=0.066)
Trigger time ms = 3465 --> set_head_angle(-18, duration=0.726)
Trigger time ms = 4191 --> set_head_angle(-21, duration=0.66)
Trigger time ms = 4851 --> set_head_angle(-20, duration=0.363)
Trigger time ms = 5214 --> set_head_angle(-11, duration=0.132)
Trigger time ms = 5346 --> set_head_angle(-18, duration=0.132)
Trigger time ms = 5478 --> set_head_angle(-14, duration=0.132)
Trigger time ms = 5610 --> set_head_angle(-16, duration=0.33)
Trigger time ms = 6765 --> set_head_angle(-17, duration=0.099)
Trigger time ms = 6864 --> set_head_angle(-17, duration=0.099)
---------------------------------------
Process body motion animations
---------------------------------------
Trigger time ms = 165 --> drive_wheels(l_wheel_speed=-115, r_wheel_speed=-115, duration=0.033)
Trigger time ms = 198 --> drive_wheels(l_wheel_speed=164, r_wheel_speed=164, duration=0.066)
Trigger time ms = 264 --> drive_wheels(l_wheel_speed=-71, r_wheel_speed=-71, duration=0.099)
Trigger time ms = 429 --> drive_wheels(l_wheel_speed=-47, r_wheel_speed=-47, duration=0.033)
Trigger time ms = 462 --> drive_wheels(l_wheel_speed=99, r_wheel_speed=99, duration=0.066)
Trigger time ms = 528 --> drive_wheels(l_wheel_speed=-220, r_wheel_speed=-220, duration=0.033)
Trigger time ms = 561 --> drive_wheels(l_wheel_speed=133, r_wheel_speed=133, duration=0.033)
Trigger time ms = 594 --> drive_wheels(l_wheel_speed=-86, r_wheel_speed=-86, duration=0.033)
Trigger time ms = 627 --> drive_wheels(l_wheel_speed=75, r_wheel_speed=75, duration=0.033)
Trigger time ms = 660 --> drive_wheels(l_wheel_speed=-85, r_wheel_speed=-85, duration=0.033)
Trigger time ms = 693 --> drive_wheels(l_wheel_speed=90, r_wheel_speed=90, duration=0.033)
Trigger time ms = 726 --> drive_wheels(l_wheel_speed=-51, r_wheel_speed=-51, duration=0.033)
Trigger time ms = 759 --> drive_wheels(l_wheel_speed=29, r_wheel_speed=29, duration=0.033)
Trigger time ms = 792 --> drive_wheels(l_wheel_speed=-38, r_wheel_speed=-38, duration=0.033)
Trigger time ms = 825 --> drive_wheels(l_wheel_speed=14, r_wheel_speed=14, duration=0.066)
Trigger time ms = 990 --> drive_wheels(l_wheel_speed=117, r_wheel_speed=117, duration=0.033)
Trigger time ms = 1023 --> drive_wheels(l_wheel_speed=-161, r_wheel_speed=-161, duration=0.033)
Trigger time ms = 1353 --> drive_wheels(l_wheel_speed=-138, r_wheel_speed=-138, duration=0.033)
Trigger time ms = 1386 --> drive_wheels(l_wheel_speed=49, r_wheel_speed=49, duration=0.033)
Trigger time ms = 1419 --> drive_wheels(l_wheel_speed=3, r_wheel_speed=3, duration=0.33)
Trigger time ms = 1749 --> drive_wheels(l_wheel_speed=73, r_wheel_speed=73, duration=0.033)
Trigger time ms = 1782 --> drive_wheels(l_wheel_speed=-100, r_wheel_speed=-100, duration=0.033)
Trigger time ms = 1815 --> drive_wheels(l_wheel_speed=-3, r_wheel_speed=-3, duration=0.363)
Trigger time ms = 2178 --> drive_wheels(l_wheel_speed=-135, r_wheel_speed=-135, duration=0.033)
Trigger time ms = 2211 --> drive_wheels(l_wheel_speed=37359.0, r_wheel_speed=36549.0, duration=2.838)
Trigger time ms = 5049 --> drive_wheels(l_wheel_speed=-12530.0, r_wheel_speed=-13790.0, duration=0.066)
Trigger time ms = 5115 --> drive_wheels(l_wheel_speed=-11102.0, r_wheel_speed=-12362.0, duration=0.066)
Trigger time ms = 5181 --> drive_wheels(l_wheel_speed=-518.0, r_wheel_speed=6142.0, duration=0.033)
Trigger time ms = 5214 --> drive_wheels(l_wheel_speed=-738.5, r_wheel_speed=-10233.5, duration=0.066)
Trigger time ms = 5280 --> drive_wheels(l_wheel_speed=-342.0, r_wheel_speed=1278.0, duration=0.099)
Trigger time ms = 5379 --> drive_wheels(l_wheel_speed=-11677.5, r_wheel_speed=-12892.5, duration=0.066)
Trigger time ms = 5445 --> drive_wheels(l_wheel_speed=-12298.5, r_wheel_speed=-13513.5, duration=0.066)
Trigger time ms = 5511 --> drive_wheels(l_wheel_speed=-17244.0, r_wheel_speed=-18324.0, duration=0.66)
Trigger time ms = 6171 --> drive_wheels(l_wheel_speed=-54976.5, r_wheel_speed=-55831.5, duration=0.066)
Trigger time ms = 6237 --> drive_wheels(l_wheel_speed=-132507.0, r_wheel_speed=-133317.0, duration=0.066)
Trigger time ms = 6303 --> drive_wheels(l_wheel_speed=8536.0, r_wheel_speed=616.0, duration=0.033)
Trigger time ms = 6336 --> drive_wheels(l_wheel_speed=-1856.5, r_wheel_speed=258.5, duration=0.099)
Trigger time ms = 6435 --> drive_wheels(l_wheel_speed=2092.5, r_wheel_speed=697.5, duration=0.066)
Trigger time ms = 6501 --> drive_wheels(l_wheel_speed=-464152.5, r_wheel_speed=-465097.5, duration=0.627)
