Original file = data/sdk_converted/anim_keepalive_eyesonly_01
Animation anim_keepalive_eyesonly_loop_01 clip 1/3
---------------------------------------
Process lift height
---------------------------------------
---------------------------------------
Process Head angle animations
---------------------------------------
---------------------------------------
Process body motion animations
---------------------------------------
