Original file = data/sdk_converted/anim_repair_severe_driveset_01
Animation anim_repair_severe_driving_loop_03 clip 5/5
---------------------------------------
Process lift height
---------------------------------------
---------------------------------------
Process Head angle animations
---------------------------------------
Trigger time ms = 0 --> set_head_angle(-13, duration=1.023)
Trigger time ms = 1023 --> set_head_angle(-5, duration=0.462)
Trigger time ms = 2310 --> set_head_angle(-13, duration=0.99)
---------------------------------------
Process body motion animations
---------------------------------------
