Original file = data/sdk_converted/anim_guarddog_getout_playersucess
Animation anim_guarddog_getout_playersucess_01 clip 1/2
---------------------------------------
Process lift height
---------------------------------------
Trigger time ms = 0 --> set_lift_height(32, duration=0.033)
Trigger time ms = 660 --> set_lift_height(63, duration=0.132)
Trigger time ms = 792 --> set_lift_height(32, duration=0.033)
Trigger time ms = 1188 --> set_lift_height(32, duration=0.231)
Trigger time ms = 1419 --> set_lift_height(32, duration=1.122)
Trigger time ms = 2541 --> set_lift_height(32, duration=0.66)
Trigger time ms = 3201 --> set_lift_height(32, duration=0.363)
Trigger time ms = 3861 --> set_lift_height(32, duration=0.165)
Trigger time ms = 4026 --> set_lift_height(32, duration=0.066)
Trigger time ms = 4092 --> set_lift_height(32, duration=0.165)
Trigger time ms = 4257 --> set_lift_height(32, duration=0.198)
Trigger time ms = 4455 --> set_lift_height(32, duration=0.33)
Trigger time ms = 4785 --> set_lift_height(35, duration=0.132)
Trigger time ms = 4917 --> set_lift_height(32, duration=0.165)
Trigger time ms = 7557 --> set_lift_height(54, duration=0.165)
Trigger time ms = 7722 --> set_lift_height(32, duration=0.429)
---------------------------------------
Process Head angle animations
---------------------------------------
Trigger time ms = 0 --> set_head_angle(0, duration=0.099)
Trigger time ms = 99 --> set_head_angle(-3, duration=0.099)
Trigger time ms = 198 --> set_head_angle(0, duration=0.066)
Trigger time ms = 264 --> set_head_angle(0, duration=0.396)
Trigger time ms = 660 --> set_head_angle(0, duration=0.033)
Trigger time ms = 693 --> set_head_angle(-14, duration=0.132)
Trigger time ms = 825 --> set_head_angle(-3, duration=0.066)
Trigger time ms = 891 --> set_head_angle(0, duration=0.099)
Trigger time ms = 990 --> set_head_angle(-7, duration=0.231)
Trigger time ms = 1221 --> set_head_angle(-9, duration=0.066)
Trigger time ms = 1287 --> set_head_angle(-2, duration=0.066)
Trigger time ms = 1353 --> set_head_angle(-15, duration=0.099)
Trigger time ms = 1452 --> set_head_angle(-1, duration=0.165)
Trigger time ms = 1617 --> set_head_angle(-6, duration=0.198)
Trigger time ms = 1815 --> set_head_angle(-7, duration=0.462)
Trigger time ms = 2277 --> set_head_angle(-21, duration=0.066)
Trigger time ms = 2343 --> set_head_angle(-7, duration=0.132)
Trigger time ms = 2475 --> set_head_angle(-7, duration=0.165)
Trigger time ms = 2640 --> set_head_angle(-20, duration=0.066)
Trigger time ms = 2706 --> set_head_angle(-2, duration=0.099)
Trigger time ms = 2805 --> set_head_angle(-8, duration=0.165)
Trigger time ms = 3366 --> set_head_angle(-11, duration=0.099)
Trigger time ms = 3465 --> set_head_angle(0, duration=0.165)
Trigger time ms = 3630 --> set_head_angle(1, duration=0.231)
Trigger time ms = 3861 --> set_head_angle(1, duration=0.165)
Trigger time ms = 4026 --> set_head_angle(1, duration=0.066)
Trigger time ms = 4092 --> set_head_angle(0, duration=0.165)
Trigger time ms = 4455 --> set_head_angle(0, duration=0.264)
Trigger time ms = 4719 --> set_head_angle(0, duration=0.132)
Trigger time ms = 4851 --> set_head_angle(-5, duration=0.264)
Trigger time ms = 5115 --> set_head_angle(-6, duration=0.231)
Trigger time ms = 5346 --> set_head_angle(-5, duration=0.132)
Trigger time ms = 5478 --> set_head_angle(-6, duration=0.231)
Trigger time ms = 5709 --> set_head_angle(-6, duration=0.297)
Trigger time ms = 6006 --> set_head_angle(-5, duration=0.33)
Trigger time ms = 6336 --> set_head_angle(-4, duration=0.792)
Trigger time ms = 7128 --> set_head_angle(-4, duration=0.132)
Trigger time ms = 7260 --> set_head_angle(5, duration=0.165)
Trigger time ms = 7425 --> set_head_angle(7, duration=0.099)
Trigger time ms = 7524 --> set_head_angle(8, duration=0.198)
Trigger time ms = 7722 --> set_head_angle(-6, duration=0.231)
Trigger time ms = 7953 --> set_head_angle(-1, duration=0.363)
Trigger time ms = 8316 --> set_head_angle(-3, duration=0.924)
Trigger time ms = 9240 --> set_head_angle(-9, duration=0.066)
Trigger time ms = 9306 --> set_head_angle(0, duration=0.099)
Trigger time ms = 9405 --> set_head_angle(9, duration=0.198)
Trigger time ms = 9603 --> set_head_angle(2, duration=0.132)
---------------------------------------
Process body motion animations
---------------------------------------
Trigger time ms = 726 --> drive_wheels(l_wheel_speed=-220, r_wheel_speed=-220, duration=0.099)
Trigger time ms = 825 --> drive_wheels(l_wheel_speed=220, r_wheel_speed=220, duration=0.066)
Trigger time ms = 2277 --> turn_in_place(degrees(61))
Trigger time ms = 2607 --> turn_in_place(degrees(-96))
Trigger time ms = 3300 --> turn_in_place(degrees(27))
Trigger time ms = 4653 --> drive_wheels(l_wheel_speed=-19, r_wheel_speed=-19, duration=0.264)
Trigger time ms = 4917 --> drive_wheels(l_wheel_speed=-22, r_wheel_speed=-22, duration=0.363)
Trigger time ms = 6039 --> turn_in_place(degrees(3))
Trigger time ms = 6831 --> turn_in_place(degrees(-111))
Trigger time ms = 6930 --> turn_in_place(degrees(91))
Trigger time ms = 7029 --> turn_in_place(degrees(-61))
Trigger time ms = 7128 --> turn_in_place(degrees(-61))
Trigger time ms = 7161 --> turn_in_place(degrees(76))
Trigger time ms = 7227 --> turn_in_place(degrees(-91))
Trigger time ms = 7260 --> turn_in_place(degrees(-61))
Trigger time ms = 7326 --> turn_in_place(degrees(30))
Trigger time ms = 7392 --> turn_in_place(degrees(23))
Trigger time ms = 7524 --> turn_in_place(degrees(15))
Trigger time ms = 7656 --> turn_in_place(degrees(22))
Trigger time ms = 8019 --> turn_in_place(degrees(-8))
