Original file = data/sdk_converted/anim_reacttocliff_turtleroll_02
Animation anim_reacttocliff_turtleroll_04 clip 1/3
---------------------------------------
Process lift height
---------------------------------------
Trigger time ms = 0 --> set_lift_height(0, duration=0.363)
Trigger time ms = 363 --> set_lift_height(50, duration=0.099)
Trigger time ms = 1815 --> set_lift_height(46, duration=0.099)
Trigger time ms = 2937 --> set_lift_height(92, duration=0.297)
Trigger time ms = 3432 --> set_lift_height(0, duration=0.099)
Trigger time ms = 6303 --> set_lift_height(77, duration=0.33)
Trigger time ms = 6633 --> set_lift_height(92, duration=0.198)
Trigger time ms = 6831 --> set_lift_height(0, duration=0.033)
Trigger time ms = 9339 --> set_lift_height(92, duration=0.33)
Trigger time ms = 10659 --> set_lift_height(0, duration=0.066)
---------------------------------------
Process Head angle animations
---------------------------------------
Trigger time ms = 0 --> set_head_angle(0, duration=0.264)
Trigger time ms = 264 --> set_head_angle(-10, duration=0.033)
Trigger time ms = 297 --> set_head_angle(17, duration=0.099)
Trigger time ms = 396 --> set_head_angle(20, duration=0.132)
Trigger time ms = 1683 --> set_head_angle(-25, duration=0.099)
Trigger time ms = 2970 --> set_head_angle(5, duration=0.33)
Trigger time ms = 3498 --> set_head_angle(28, duration=0.099)
Trigger time ms = 3597 --> set_head_angle(-16, duration=0.33)
Trigger time ms = 4290 --> set_head_angle(-2, duration=0.033)
Trigger time ms = 4323 --> set_head_angle(-7, duration=0.066)
Trigger time ms = 4818 --> set_head_angle(-25, duration=0.066)
Trigger time ms = 4884 --> set_head_angle(8, duration=0.066)
Trigger time ms = 4950 --> set_head_angle(-20, duration=0.066)
Trigger time ms = 5016 --> set_head_angle(-1, duration=0.066)
Trigger time ms = 5082 --> set_head_angle(-9, duration=0.165)
Trigger time ms = 5478 --> set_head_angle(-14, duration=0.099)
Trigger time ms = 5577 --> set_head_angle(-15, duration=0.099)
Trigger time ms = 5676 --> set_head_angle(-10, duration=0.165)
Trigger time ms = 6237 --> set_head_angle(40, duration=0.462)
Trigger time ms = 6831 --> set_head_angle(-20, duration=0.132)
Trigger time ms = 7128 --> set_head_angle(5, duration=0.132)
Trigger time ms = 8349 --> set_head_angle(-25, duration=0.033)
Trigger time ms = 8415 --> set_head_angle(8, duration=0.066)
Trigger time ms = 9768 --> set_head_angle(-25, duration=0.033)
Trigger time ms = 9801 --> set_head_angle(27, duration=0.165)
Trigger time ms = 10956 --> set_head_angle(-20, duration=0.132)
Trigger time ms = 11088 --> set_head_angle(-6, duration=0.198)
Trigger time ms = 11286 --> set_head_angle(-25, duration=0.066)
Trigger time ms = 11352 --> set_head_angle(8, duration=0.099)
Trigger time ms = 11451 --> set_head_angle(-16, duration=0.099)
Trigger time ms = 11550 --> set_head_angle(3, duration=0.165)
Trigger time ms = 11715 --> set_head_angle(-4, duration=0.132)
Trigger time ms = 12144 --> set_head_angle(-8, duration=0.033)
Trigger time ms = 12177 --> set_head_angle(-2, duration=0.066)
Trigger time ms = 12309 --> set_head_angle(-8, duration=0.033)
Trigger time ms = 12342 --> set_head_angle(0, duration=0.099)
---------------------------------------
Process body motion animations
---------------------------------------
Trigger time ms = 3498 --> turn_in_place(degrees(-482))
Trigger time ms = 6864 --> turn_in_place(degrees(-2098))
Trigger time ms = 10659 --> drive_wheels(l_wheel_speed=176, r_wheel_speed=176, duration=0.066)
Trigger time ms = 10725 --> drive_wheels(l_wheel_speed=-1176, r_wheel_speed=-1176, duration=0.264)
Trigger time ms = 11022 --> drive_wheels(l_wheel_speed=-124, r_wheel_speed=-124, duration=0.198)
Trigger time ms = 11220 --> drive_wheels(l_wheel_speed=124, r_wheel_speed=124, duration=0.231)
