Original file = data/sdk_converted/anim_explorer_idle
Animation anim_explorer_idle_01_head_angle_-20 clip 4/21
---------------------------------------
Process lift height
---------------------------------------
---------------------------------------
Process Head angle animations
---------------------------------------
Trigger time ms = 528 --> set_head_angle(-17, duration=0.066)
Trigger time ms = 990 --> set_head_angle(-15, duration=0.066)
Trigger time ms = 1650 --> set_head_angle(-20, duration=0.099)
---------------------------------------
Process body motion animations
---------------------------------------
