Original file = data/sdk_converted/anim_dizzy_reaction_soft
Animation anim_dizzy_reaction_soft_03 clip 3/3
---------------------------------------
Process lift height
---------------------------------------
Trigger time ms = 0 --> set_lift_height(0, duration=1.947)
Trigger time ms = 1980 --> set_lift_height(56, duration=0.066)
Trigger time ms = 2046 --> set_lift_height(0, duration=0.066)
Trigger time ms = 4917 --> set_lift_height(50, duration=0.099)
Trigger time ms = 5016 --> set_lift_height(0, duration=0.099)
---------------------------------------
Process Head angle animations
---------------------------------------
Trigger time ms = 0 --> set_head_angle(0, duration=0.033)
Trigger time ms = 33 --> set_head_angle(9, duration=0.066)
Trigger time ms = 99 --> set_head_angle(-1, duration=0.066)
Trigger time ms = 165 --> set_head_angle(9, duration=0.066)
Trigger time ms = 231 --> set_head_angle(-1, duration=0.066)
Trigger time ms = 297 --> set_head_angle(10, duration=0.066)
Trigger time ms = 363 --> set_head_angle(-1, duration=0.066)
Trigger time ms = 429 --> set_head_angle(10, duration=0.066)
Trigger time ms = 495 --> set_head_angle(-1, duration=0.066)
Trigger time ms = 561 --> set_head_angle(10, duration=0.066)
Trigger time ms = 627 --> set_head_angle(-1, duration=0.066)
Trigger time ms = 693 --> set_head_angle(9, duration=0.099)
Trigger time ms = 792 --> set_head_angle(-1, duration=0.099)
Trigger time ms = 891 --> set_head_angle(10, duration=0.099)
Trigger time ms = 990 --> set_head_angle(-1, duration=0.099)
Trigger time ms = 1089 --> set_head_angle(10, duration=0.099)
Trigger time ms = 1188 --> set_head_angle(-1, duration=0.099)
Trigger time ms = 1287 --> set_head_angle(9, duration=0.099)
Trigger time ms = 1386 --> set_head_angle(-1, duration=0.132)
Trigger time ms = 1518 --> set_head_angle(10, duration=0.132)
Trigger time ms = 1650 --> set_head_angle(0, duration=0.165)
Trigger time ms = 1815 --> set_head_angle(9, duration=0.165)
Trigger time ms = 1980 --> set_head_angle(8, duration=0.033)
Trigger time ms = 2013 --> set_head_angle(-12, duration=0.066)
Trigger time ms = 2079 --> set_head_angle(-9, duration=0.033)
Trigger time ms = 2112 --> set_head_angle(17, duration=0.099)
Trigger time ms = 2211 --> set_head_angle(0, duration=0.099)
Trigger time ms = 2310 --> set_head_angle(0, duration=0.066)
Trigger time ms = 2376 --> set_head_angle(1, duration=1.221)
Trigger time ms = 3597 --> set_head_angle(-6, duration=0.033)
Trigger time ms = 3630 --> set_head_angle(0, duration=0.132)
Trigger time ms = 3762 --> set_head_angle(0, duration=0.165)
Trigger time ms = 3927 --> set_head_angle(-8, duration=0.033)
Trigger time ms = 3960 --> set_head_angle(2, duration=0.099)
Trigger time ms = 4059 --> set_head_angle(3, duration=0.033)
Trigger time ms = 4092 --> set_head_angle(2, duration=0.33)
Trigger time ms = 4422 --> set_head_angle(-4, duration=0.066)
Trigger time ms = 4488 --> set_head_angle(-5, duration=0.297)
Trigger time ms = 4785 --> set_head_angle(-6, duration=0.165)
Trigger time ms = 4950 --> set_head_angle(-11, duration=0.099)
Trigger time ms = 5049 --> set_head_angle(6, duration=0.099)
Trigger time ms = 5148 --> set_head_angle(0, duration=0.132)
---------------------------------------
Process body motion animations
---------------------------------------
Trigger time ms = 0 --> drive_wheels(l_wheel_speed=-34, r_wheel_speed=-34, duration=2.013)
Trigger time ms = 2046 --> turn_in_place(degrees(-101))
Trigger time ms = 2145 --> turn_in_place(degrees(76))
Trigger time ms = 4950 --> turn_in_place(degrees(242))
