Original file = data/sdk_converted/anim_launch_firsttimewakeup
Animation anim_launch_firsttimewakeup clip 1/1
---------------------------------------
Process lift height
---------------------------------------
Trigger time ms = 11154 --> set_lift_height(41, duration=0.198)
Trigger time ms = 13200 --> set_lift_height(45, duration=0.231)
Trigger time ms = 13431 --> set_lift_height(41, duration=0.264)
Trigger time ms = 13959 --> set_lift_height(0, duration=0.165)
Trigger time ms = 20229 --> set_lift_height(42, duration=0.132)
Trigger time ms = 20361 --> set_lift_height(0, duration=0.165)
---------------------------------------
Process Head angle animations
---------------------------------------
Trigger time ms = 165 --> set_head_angle(-20, duration=0.099)
Trigger time ms = 264 --> set_head_angle(-19, duration=3.267)
Trigger time ms = 6006 --> set_head_angle(-19, duration=0.231)
Trigger time ms = 6237 --> set_head_angle(-19, duration=0.99)
Trigger time ms = 7227 --> set_head_angle(-18, duration=0.528)
Trigger time ms = 7755 --> set_head_angle(-18, duration=0.462)
Trigger time ms = 8217 --> set_head_angle(-18, duration=3.399)
Trigger time ms = 11616 --> set_head_angle(-12, duration=0.132)
Trigger time ms = 11748 --> set_head_angle(-12, duration=0.198)
Trigger time ms = 12342 --> set_head_angle(-17, duration=0.099)
Trigger time ms = 13596 --> set_head_angle(-19, duration=0.066)
Trigger time ms = 13662 --> set_head_angle(-17, duration=0.099)
Trigger time ms = 13761 --> set_head_angle(-17, duration=1.056)
Trigger time ms = 14817 --> set_head_angle(-11, duration=0.231)
Trigger time ms = 15048 --> set_head_angle(-11, duration=0.264)
Trigger time ms = 15543 --> set_head_angle(-5, duration=0.132)
Trigger time ms = 15675 --> set_head_angle(-12, duration=0.198)
Trigger time ms = 15873 --> set_head_angle(-5, duration=0.33)
Trigger time ms = 16203 --> set_head_angle(-7, duration=0.363)
Trigger time ms = 16566 --> set_head_angle(-8, duration=0.528)
Trigger time ms = 17094 --> set_head_angle(-20, duration=0.297)
Trigger time ms = 17391 --> set_head_angle(-21, duration=0.99)
Trigger time ms = 18381 --> set_head_angle(-3, duration=0.231)
Trigger time ms = 18612 --> set_head_angle(-3, duration=0.627)
Trigger time ms = 19239 --> set_head_angle(25, duration=0.33)
Trigger time ms = 19569 --> set_head_angle(25, duration=0.495)
Trigger time ms = 20064 --> set_head_angle(15, duration=0.132)
Trigger time ms = 20196 --> set_head_angle(14, duration=0.33)
Trigger time ms = 20526 --> set_head_angle(2, duration=0.165)
Trigger time ms = 20691 --> set_head_angle(1, duration=0.297)
Trigger time ms = 20988 --> set_head_angle(-5, duration=0.198)
Trigger time ms = 21186 --> set_head_angle(-7, duration=1.122)
Trigger time ms = 22308 --> set_head_angle(-8, duration=0.033)
Trigger time ms = 22341 --> set_head_angle(5, duration=0.066)
Trigger time ms = 22407 --> set_head_angle(8, duration=0.363)
Trigger time ms = 22770 --> set_head_angle(9, duration=0.33)
Trigger time ms = 23100 --> set_head_angle(11, duration=1.122)
Trigger time ms = 24222 --> set_head_angle(3, duration=0.066)
Trigger time ms = 24288 --> set_head_angle(6, duration=0.132)
Trigger time ms = 24420 --> set_head_angle(6, duration=0.264)
---------------------------------------
Process body motion animations
---------------------------------------
Trigger time ms = 15477 --> drive_wheels(l_wheel_speed=85, r_wheel_speed=85, duration=0.231)
Trigger time ms = 15708 --> drive_wheels(l_wheel_speed=-15, r_wheel_speed=-15, duration=0.429)
Trigger time ms = 17490 --> drive_wheels(l_wheel_speed=16, r_wheel_speed=16, duration=0.363)
Trigger time ms = 18216 --> drive_wheels(l_wheel_speed=2373.5, r_wheel_speed=4488.5, duration=0.594)
Trigger time ms = 19140 --> drive_wheels(l_wheel_speed=13243.5, r_wheel_speed=16888.5, duration=1.287)
Trigger time ms = 21054 --> turn_in_place(degrees(-81))
Trigger time ms = 21846 --> turn_in_place(degrees(-71))
Trigger time ms = 22440 --> turn_in_place(degrees(-24))
Trigger time ms = 23463 --> turn_in_place(degrees(61))
