Original file = data/sdk_converted/anim_energy_idles
Animation anim_energy_idlel2_02_nohead clip 14/15
---------------------------------------
Process lift height
---------------------------------------
---------------------------------------
Process Head angle animations
---------------------------------------
---------------------------------------
Process body motion animations
---------------------------------------
Trigger time ms = 198 --> turn_in_place(degrees(30))
Trigger time ms = 2607 --> turn_in_place(degrees(-36))
