Original file = data/sdk_converted/anim_hiking_driving_02
Animation anim_hiking_driving_start_04 clip 6/6
---------------------------------------
Process lift height
---------------------------------------
---------------------------------------
Process Head angle animations
---------------------------------------
Trigger time ms = 99 --> set_head_angle(0, duration=0.033)
Trigger time ms = 132 --> set_head_angle(-12, duration=0.198)
Trigger time ms = 1023 --> set_head_angle(-7, duration=0.165)
---------------------------------------
Process body motion animations
---------------------------------------
