Original file = data/sdk_converted/anim_launch_eyeson_01
Animation anim_launch_eyeson_01 clip 1/1
---------------------------------------
Process lift height
---------------------------------------
---------------------------------------
Process Head angle animations
---------------------------------------
Trigger time ms = 99 --> set_head_angle(-20, duration=0.231)
Trigger time ms = 330 --> set_head_angle(-16, duration=0.165)
---------------------------------------
Process body motion animations
---------------------------------------
