Original file = data/sdk_converted/anim_sparking_driving
Animation anim_sparking_driving_loop_01 clip 2/5
---------------------------------------
Process lift height
---------------------------------------
---------------------------------------
Process Head angle animations
---------------------------------------
Trigger time ms = 231 --> set_head_angle(-9, duration=0.165)
Trigger time ms = 759 --> set_head_angle(-4, duration=0.066)
Trigger time ms = 1683 --> set_head_angle(-10, duration=0.132)
Trigger time ms = 1815 --> set_head_angle(-10, duration=0.165)
---------------------------------------
Process body motion animations
---------------------------------------
