Original file = data/sdk_converted/anim_codelab_rattle_snake_01
Animation anim_codelab_rattle_snake_01 clip 1/1
---------------------------------------
Process lift height
---------------------------------------
Trigger time ms = 0 --> set_lift_height(0, duration=0.165)
Trigger time ms = 165 --> set_lift_height(48, duration=0.061)
Trigger time ms = 226 --> set_lift_height(5, duration=0.104)
Trigger time ms = 330 --> set_lift_height(2, duration=0.132)
Trigger time ms = 462 --> set_lift_height(2, duration=0.132)
Trigger time ms = 594 --> set_lift_height(0, duration=0.165)
---------------------------------------
Process Head angle animations
---------------------------------------
Trigger time ms = 0 --> set_head_angle(35, duration=0.207)
Trigger time ms = 207 --> set_head_angle(17, duration=0.065)
Trigger time ms = 272 --> set_head_angle(6, duration=0.058)
Trigger time ms = 330 --> set_head_angle(10, duration=0.066)
Trigger time ms = 396 --> set_head_angle(37, duration=0.066)
Trigger time ms = 462 --> set_head_angle(29, duration=0.099)
Trigger time ms = 561 --> set_head_angle(34, duration=0.039)
Trigger time ms = 600 --> set_head_angle(37, duration=0.093)
Trigger time ms = 693 --> set_head_angle(41, duration=0.083)
Trigger time ms = 846 --> set_head_angle(36, duration=0.066)
Trigger time ms = 912 --> set_head_angle(43, duration=0.066)
Trigger time ms = 978 --> set_head_angle(36, duration=0.066)
Trigger time ms = 1044 --> set_head_angle(43, duration=0.066)
Trigger time ms = 1110 --> set_head_angle(36, duration=0.066)
Trigger time ms = 1176 --> set_head_angle(43, duration=0.066)
Trigger time ms = 1242 --> set_head_angle(36, duration=0.066)
Trigger time ms = 1308 --> set_head_angle(43, duration=0.066)
Trigger time ms = 1374 --> set_head_angle(36, duration=0.066)
Trigger time ms = 1440 --> set_head_angle(43, duration=0.066)
Trigger time ms = 1506 --> set_head_angle(36, duration=0.066)
Trigger time ms = 1572 --> set_head_angle(43, duration=0.066)
Trigger time ms = 1638 --> set_head_angle(36, duration=0.066)
Trigger time ms = 1704 --> set_head_angle(38, duration=0.111)
Trigger time ms = 1815 --> set_head_angle(37, duration=0.132)
Trigger time ms = 1947 --> set_head_angle(28, duration=0.066)
Trigger time ms = 2013 --> set_head_angle(37, duration=0.066)
Trigger time ms = 2079 --> set_head_angle(34, duration=0.132)
---------------------------------------
Process body motion animations
---------------------------------------
Trigger time ms = 264 --> drive_wheels(l_wheel_speed=-161, r_wheel_speed=-161, duration=0.132)
Trigger time ms = 396 --> drive_wheels(l_wheel_speed=26, r_wheel_speed=26, duration=0.132)
Trigger time ms = 528 --> drive_wheels(l_wheel_speed=11, r_wheel_speed=11, duration=0.054)
Trigger time ms = 582 --> drive_wheels(l_wheel_speed=-1, r_wheel_speed=-1, duration=0.045)
Trigger time ms = 726 --> drive_wheels(l_wheel_speed=9, r_wheel_speed=9, duration=0.021)
Trigger time ms = 747 --> drive_wheels(l_wheel_speed=5, r_wheel_speed=5, duration=0.012)
Trigger time ms = 825 --> drive_wheels(l_wheel_speed=-52.5, r_wheel_speed=622.5, duration=0.066)
Trigger time ms = 891 --> drive_wheels(l_wheel_speed=-4446.0, r_wheel_speed=-1026.0, duration=0.066)
Trigger time ms = 957 --> drive_wheels(l_wheel_speed=3238.5, r_wheel_speed=8953.5, duration=0.066)
Trigger time ms = 1023 --> drive_wheels(l_wheel_speed=-10001.0, r_wheel_speed=-3431.0, duration=0.066)
Trigger time ms = 1089 --> drive_wheels(l_wheel_speed=2222.5, r_wheel_speed=7937.5, duration=0.066)
Trigger time ms = 1155 --> drive_wheels(l_wheel_speed=-3965.5, r_wheel_speed=-500.5, duration=0.066)
Trigger time ms = 1221 --> drive_wheels(l_wheel_speed=2557.5, r_wheel_speed=9532.5, duration=0.066)
Trigger time ms = 1287 --> drive_wheels(l_wheel_speed=-67.0, r_wheel_speed=-6097.0, duration=0.066)
Trigger time ms = 1353 --> drive_wheels(l_wheel_speed=2962.5, r_wheel_speed=-592.5, duration=0.066)
Trigger time ms = 1419 --> drive_wheels(l_wheel_speed=-265.0, r_wheel_speed=-5035.0, duration=0.066)
Trigger time ms = 1485 --> drive_wheels(l_wheel_speed=2362.5, r_wheel_speed=-472.5, duration=0.066)
Trigger time ms = 1551 --> drive_wheels(l_wheel_speed=247.5, r_wheel_speed=-1777.5, duration=0.066)
Trigger time ms = 1617 --> drive_wheels(l_wheel_speed=301.5, r_wheel_speed=-103.5, duration=0.066)
Trigger time ms = 1683 --> drive_wheels(l_wheel_speed=62.5, r_wheel_speed=-162.5, duration=0.066)
