Original file = data/sdk_converted/anim_codelab_tiger_01
Animation anim_codelab_tiger_01_head_angle_-20 clip 2/4
---------------------------------------
Process lift height
---------------------------------------
Trigger time ms = 264 --> set_lift_height(38, duration=0.099)
Trigger time ms = 363 --> set_lift_height(0, duration=0.099)
Trigger time ms = 1749 --> set_lift_height(45, duration=0.132)
Trigger time ms = 1881 --> set_lift_height(8, duration=0.099)
Trigger time ms = 1980 --> set_lift_height(0, duration=0.165)
Trigger time ms = 2343 --> set_lift_height(45, duration=0.33)
Trigger time ms = 2673 --> set_lift_height(4, duration=0.066)
Trigger time ms = 2739 --> set_lift_height(0, duration=0.033)
Trigger time ms = 2772 --> set_lift_height(40, duration=0.132)
Trigger time ms = 2904 --> set_lift_height(8, duration=0.033)
Trigger time ms = 2937 --> set_lift_height(0, duration=0.066)
Trigger time ms = 3003 --> set_lift_height(39, duration=0.132)
Trigger time ms = 3135 --> set_lift_height(8, duration=0.033)
Trigger time ms = 3168 --> set_lift_height(0, duration=0.066)
Trigger time ms = 3234 --> set_lift_height(39, duration=0.132)
Trigger time ms = 3366 --> set_lift_height(8, duration=0.033)
Trigger time ms = 3399 --> set_lift_height(0, duration=0.099)
Trigger time ms = 4686 --> set_lift_height(52, duration=0.099)
Trigger time ms = 4785 --> set_lift_height(0, duration=0.099)
Trigger time ms = 5544 --> set_lift_height(45, duration=0.132)
Trigger time ms = 5676 --> set_lift_height(8, duration=0.099)
Trigger time ms = 5775 --> set_lift_height(0, duration=0.165)
Trigger time ms = 5940 --> set_lift_height(45, duration=0.099)
Trigger time ms = 6039 --> set_lift_height(0, duration=0.099)
Trigger time ms = 6435 --> set_lift_height(39, duration=0.099)
Trigger time ms = 6534 --> set_lift_height(0, duration=0.099)
Trigger time ms = 7458 --> set_lift_height(32, duration=0.066)
Trigger time ms = 7524 --> set_lift_height(0, duration=0.099)
---------------------------------------
Process Head angle animations
---------------------------------------
Trigger time ms = 0 --> set_head_angle(-19, duration=0.099)
Trigger time ms = 99 --> set_head_angle(-25, duration=0.198)
Trigger time ms = 297 --> set_head_angle(15, duration=0.264)
Trigger time ms = 561 --> set_head_angle(11, duration=0.099)
Trigger time ms = 660 --> set_head_angle(10, duration=0.165)
Trigger time ms = 1650 --> set_head_angle(19, duration=0.165)
Trigger time ms = 1815 --> set_head_angle(-3, duration=0.099)
Trigger time ms = 1914 --> set_head_angle(15, duration=0.198)
Trigger time ms = 2112 --> set_head_angle(17, duration=1.089)
Trigger time ms = 3201 --> set_head_angle(22, duration=0.099)
Trigger time ms = 3300 --> set_head_angle(-25, duration=0.165)
Trigger time ms = 3465 --> set_head_angle(2, duration=0.198)
Trigger time ms = 3663 --> set_head_angle(-10, duration=0.33)
Trigger time ms = 3993 --> set_head_angle(-18, duration=0.264)
Trigger time ms = 4257 --> set_head_angle(-24, duration=0.297)
Trigger time ms = 4554 --> set_head_angle(34, duration=0.198)
Trigger time ms = 4752 --> set_head_angle(-18, duration=0.231)
Trigger time ms = 4983 --> set_head_angle(-1, duration=0.198)
Trigger time ms = 5181 --> set_head_angle(-7, duration=0.198)
Trigger time ms = 5511 --> set_head_angle(-25, duration=0.231)
Trigger time ms = 5742 --> set_head_angle(13, duration=0.165)
Trigger time ms = 5907 --> set_head_angle(-25, duration=0.231)
Trigger time ms = 6138 --> set_head_angle(-1, duration=0.264)
Trigger time ms = 6402 --> set_head_angle(3, duration=0.066)
Trigger time ms = 6468 --> set_head_angle(5, duration=0.099)
Trigger time ms = 6567 --> set_head_angle(-3, duration=0.165)
Trigger time ms = 6732 --> set_head_angle(-11, duration=0.231)
Trigger time ms = 6963 --> set_head_angle(-3, duration=0.231)
Trigger time ms = 7194 --> set_head_angle(20, duration=0.099)
Trigger time ms = 7293 --> set_head_angle(6, duration=0.066)
Trigger time ms = 7359 --> set_head_angle(32, duration=0.087)
Trigger time ms = 7446 --> set_head_angle(40, duration=0.066)
Trigger time ms = 7512 --> set_head_angle(21, duration=0.144)
Trigger time ms = 7656 --> set_head_angle(37, duration=0.132)
Trigger time ms = 7788 --> set_head_angle(35, duration=0.297)
Trigger time ms = 8085 --> set_head_angle(-10, duration=0.165)
Trigger time ms = 8250 --> set_head_angle(-1, duration=0.198)
---------------------------------------
Process body motion animations
---------------------------------------
Trigger time ms = 231 --> turn_in_place(degrees(-61))
Trigger time ms = 264 --> turn_in_place(degrees(-45))
Trigger time ms = 396 --> turn_in_place(degrees(-55))
Trigger time ms = 561 --> turn_in_place(degrees(-45))
Trigger time ms = 627 --> turn_in_place(degrees(-13))
Trigger time ms = 1650 --> turn_in_place(degrees(111))
Trigger time ms = 1749 --> turn_in_place(degrees(-67))
Trigger time ms = 1914 --> drive_wheels(l_wheel_speed=53.0, r_wheel_speed=-37.0, duration=0.792)
Trigger time ms = 2739 --> drive_wheels(l_wheel_speed=68, r_wheel_speed=68, duration=0.165)
Trigger time ms = 2904 --> drive_wheels(l_wheel_speed=-44, r_wheel_speed=-44, duration=0.132)
Trigger time ms = 3036 --> drive_wheels(l_wheel_speed=-19, r_wheel_speed=-19, duration=0.132)
Trigger time ms = 3168 --> drive_wheels(l_wheel_speed=17, r_wheel_speed=17, duration=0.132)
Trigger time ms = 3300 --> drive_wheels(l_wheel_speed=4, r_wheel_speed=4, duration=0.132)
Trigger time ms = 3432 --> drive_wheels(l_wheel_speed=2, r_wheel_speed=2, duration=0.033)
Trigger time ms = 3465 --> drive_wheels(l_wheel_speed=23.5, r_wheel_speed=-21.5, duration=0.099)
Trigger time ms = 3564 --> drive_wheels(l_wheel_speed=-47.0, r_wheel_speed=43.0, duration=0.066)
Trigger time ms = 3630 --> drive_wheels(l_wheel_speed=117.5, r_wheel_speed=-107.5, duration=0.033)
Trigger time ms = 3663 --> drive_wheels(l_wheel_speed=-122.5, r_wheel_speed=102.5, duration=0.066)
Trigger time ms = 3729 --> drive_wheels(l_wheel_speed=294.0, r_wheel_speed=-246.0, duration=0.033)
Trigger time ms = 3762 --> drive_wheels(l_wheel_speed=-98.0, r_wheel_speed=82.0, duration=0.099)
Trigger time ms = 3861 --> drive_wheels(l_wheel_speed=178.5, r_wheel_speed=-136.5, duration=0.066)
Trigger time ms = 3927 --> drive_wheels(l_wheel_speed=-178.5, r_wheel_speed=136.5, duration=0.099)
Trigger time ms = 4026 --> drive_wheels(l_wheel_speed=212.0, r_wheel_speed=-148.0, duration=0.099)
Trigger time ms = 4125 --> drive_wheels(l_wheel_speed=-185.5, r_wheel_speed=129.5, duration=0.066)
Trigger time ms = 4191 --> drive_wheels(l_wheel_speed=-302.5, r_wheel_speed=192.5, duration=0.033)
Trigger time ms = 4224 --> drive_wheels(l_wheel_speed=302.5, r_wheel_speed=-192.5, duration=0.066)
Trigger time ms = 4290 --> drive_wheels(l_wheel_speed=-247.5, r_wheel_speed=157.5, duration=0.066)
Trigger time ms = 4356 --> drive_wheels(l_wheel_speed=228.0, r_wheel_speed=-132.0, duration=0.066)
Trigger time ms = 4422 --> turn_in_place(degrees(-61))
Trigger time ms = 4455 --> drive_wheels(l_wheel_speed=-7, r_wheel_speed=-7, duration=0.033)
Trigger time ms = 4488 --> drive_wheels(l_wheel_speed=-36, r_wheel_speed=-36, duration=0.165)
Trigger time ms = 4653 --> drive_wheels(l_wheel_speed=220, r_wheel_speed=220, duration=0.165)
Trigger time ms = 4818 --> drive_wheels(l_wheel_speed=-50, r_wheel_speed=-50, duration=0.198)
Trigger time ms = 5181 --> drive_wheels(l_wheel_speed=1, r_wheel_speed=1, duration=0.198)
Trigger time ms = 5676 --> drive_wheels(l_wheel_speed=-81, r_wheel_speed=-81, duration=0.264)
Trigger time ms = 5940 --> drive_wheels(l_wheel_speed=150, r_wheel_speed=150, duration=0.165)
Trigger time ms = 6105 --> drive_wheels(l_wheel_speed=-22, r_wheel_speed=-22, duration=0.231)
