Original file = data/sdk_converted/id_react2block_02
Animation anim_react2block_02 clip 1/1
---------------------------------------
Process lift height
---------------------------------------
---------------------------------------
Process Head angle animations
---------------------------------------
Trigger time ms = 528 --> set_head_angle(-4, duration=0.165)
Trigger time ms = 957 --> set_head_angle(0, duration=0.198)
---------------------------------------
Process body motion animations
---------------------------------------
