Original file = data/sdk_converted/mm_thinking
Animation anim_mm_thinking clip 1/1
---------------------------------------
Process lift height
---------------------------------------
---------------------------------------
Process Head angle animations
---------------------------------------
Trigger time ms = 0 --> set_head_angle(-7, duration=0.33)
---------------------------------------
Process body motion animations
---------------------------------------
