Original file = data/sdk_converted/vs_speedtap_game
Animation anim_speedtap_getout_01 clip 8/8
---------------------------------------
Process lift height
---------------------------------------
Trigger time ms = 99 --> set_lift_height(0, duration=0.264)
---------------------------------------
Process Head angle animations
---------------------------------------
Trigger time ms = 0 --> set_head_angle(0, duration=0.231)
---------------------------------------
Process body motion animations
---------------------------------------
