Original file = data/sdk_converted/vs_speedtap_gamereact_02
Animation anim_speedtap_losegame_intensity03_03 clip 4/4
---------------------------------------
Process lift height
---------------------------------------
Trigger time ms = 0 --> set_lift_height(92, duration=0.165)
Trigger time ms = 165 --> set_lift_height(32, duration=0.066)
Trigger time ms = 5544 --> set_lift_height(63, duration=0.066)
Trigger time ms = 5610 --> set_lift_height(32, duration=0.066)
Trigger time ms = 7062 --> set_lift_height(92, duration=0.066)
Trigger time ms = 7128 --> set_lift_height(32, duration=0.099)
Trigger time ms = 7920 --> set_lift_height(51, duration=0.066)
Trigger time ms = 7986 --> set_lift_height(32, duration=0.066)
Trigger time ms = 8052 --> set_lift_height(45, duration=0.066)
Trigger time ms = 8118 --> set_lift_height(32, duration=0.099)
Trigger time ms = 9141 --> set_lift_height(92, duration=0.165)
---------------------------------------
Process Head angle animations
---------------------------------------
Trigger time ms = 0 --> set_head_angle(-25, duration=0.099)
Trigger time ms = 99 --> set_head_angle(25, duration=0.198)
Trigger time ms = 297 --> set_head_angle(-13, duration=0.264)
Trigger time ms = 561 --> set_head_angle(-4, duration=0.264)
Trigger time ms = 1683 --> set_head_angle(-21, duration=0.099)
Trigger time ms = 1782 --> set_head_angle(9, duration=0.099)
Trigger time ms = 1881 --> set_head_angle(1, duration=0.132)
Trigger time ms = 2013 --> set_head_angle(-4, duration=0.297)
Trigger time ms = 2310 --> set_head_angle(13, duration=0.099)
Trigger time ms = 2409 --> set_head_angle(-17, duration=0.099)
Trigger time ms = 2508 --> set_head_angle(1, duration=0.132)
Trigger time ms = 3465 --> set_head_angle(14, duration=2.013)
Trigger time ms = 5478 --> set_head_angle(-4, duration=0.066)
Trigger time ms = 5544 --> set_head_angle(24, duration=0.099)
Trigger time ms = 5643 --> set_head_angle(0, duration=0.099)
Trigger time ms = 6963 --> set_head_angle(-25, duration=0.165)
Trigger time ms = 7128 --> set_head_angle(30, duration=0.165)
Trigger time ms = 7293 --> set_head_angle(0, duration=0.297)
Trigger time ms = 7887 --> set_head_angle(-14, duration=0.066)
Trigger time ms = 7953 --> set_head_angle(11, duration=0.066)
Trigger time ms = 8019 --> set_head_angle(-14, duration=0.066)
Trigger time ms = 8085 --> set_head_angle(0, duration=0.099)
Trigger time ms = 8679 --> set_head_angle(22, duration=0.132)
Trigger time ms = 8811 --> set_head_angle(0, duration=0.231)
---------------------------------------
Process body motion animations
---------------------------------------
Trigger time ms = 0 --> drive_wheels(l_wheel_speed=-168, r_wheel_speed=-168, duration=0.264)
Trigger time ms = 264 --> drive_wheels(l_wheel_speed=-10923.0, r_wheel_speed=-9933.0, duration=0.429)
Trigger time ms = 1584 --> drive_wheels(l_wheel_speed=27.0, r_wheel_speed=2457.0, duration=0.066)
Trigger time ms = 1650 --> drive_wheels(l_wheel_speed=-1138.5, r_wheel_speed=346.5, duration=0.066)
Trigger time ms = 1716 --> drive_wheels(l_wheel_speed=-10077.5, r_wheel_speed=-11382.5, duration=0.165)
Trigger time ms = 1881 --> drive_wheels(l_wheel_speed=637.0, r_wheel_speed=7.0, duration=0.066)
Trigger time ms = 2310 --> drive_wheels(l_wheel_speed=21.5, r_wheel_speed=1956.5, duration=0.066)
Trigger time ms = 2376 --> drive_wheels(l_wheel_speed=-442.5, r_wheel_speed=232.5, duration=0.066)
Trigger time ms = 2442 --> drive_wheels(l_wheel_speed=-3615.0, r_wheel_speed=-4965.0, duration=0.099)
Trigger time ms = 2541 --> drive_wheels(l_wheel_speed=591.5, r_wheel_speed=6.5, duration=0.066)
Trigger time ms = 3465 --> drive_wheels(l_wheel_speed=-819.0, r_wheel_speed=-9.0, duration=0.033)
Trigger time ms = 3498 --> drive_wheels(l_wheel_speed=-3066.0, r_wheel_speed=-1806.0, duration=0.033)
Trigger time ms = 3531 --> drive_wheels(l_wheel_speed=441.0, r_wheel_speed=-189.0, duration=0.033)
Trigger time ms = 3564 --> drive_wheels(l_wheel_speed=11497.5, r_wheel_speed=9472.5, duration=0.033)
Trigger time ms = 3597 --> drive_wheels(l_wheel_speed=-98.0, r_wheel_speed=82.0, duration=0.033)
Trigger time ms = 3630 --> drive_wheels(l_wheel_speed=-11722.5, r_wheel_speed=-9697.5, duration=0.033)
Trigger time ms = 3663 --> drive_wheels(l_wheel_speed=98.0, r_wheel_speed=-82.0, duration=0.033)
Trigger time ms = 3696 --> drive_wheels(l_wheel_speed=11983.0, r_wheel_speed=9913.0, duration=0.033)
Trigger time ms = 3729 --> drive_wheels(l_wheel_speed=-98.0, r_wheel_speed=82.0, duration=0.033)
Trigger time ms = 3762 --> drive_wheels(l_wheel_speed=-11722.5, r_wheel_speed=-9697.5, duration=0.033)
Trigger time ms = 3795 --> drive_wheels(l_wheel_speed=98.0, r_wheel_speed=-82.0, duration=0.033)
Trigger time ms = 3828 --> drive_wheels(l_wheel_speed=11983.0, r_wheel_speed=9913.0, duration=0.033)
Trigger time ms = 3861 --> drive_wheels(l_wheel_speed=-98.0, r_wheel_speed=82.0, duration=0.033)
Trigger time ms = 3894 --> drive_wheels(l_wheel_speed=-11722.5, r_wheel_speed=-9697.5, duration=0.033)
Trigger time ms = 3927 --> drive_wheels(l_wheel_speed=98.0, r_wheel_speed=-82.0, duration=0.033)
Trigger time ms = 3960 --> drive_wheels(l_wheel_speed=11983.0, r_wheel_speed=9913.0, duration=0.033)
Trigger time ms = 3993 --> drive_wheels(l_wheel_speed=-98.0, r_wheel_speed=82.0, duration=0.033)
Trigger time ms = 4026 --> drive_wheels(l_wheel_speed=-11722.5, r_wheel_speed=-9697.5, duration=0.033)
Trigger time ms = 4059 --> drive_wheels(l_wheel_speed=98.0, r_wheel_speed=-82.0, duration=0.033)
Trigger time ms = 4092 --> drive_wheels(l_wheel_speed=11983.0, r_wheel_speed=9913.0, duration=0.033)
Trigger time ms = 4125 --> drive_wheels(l_wheel_speed=-98.0, r_wheel_speed=82.0, duration=0.033)
Trigger time ms = 4158 --> drive_wheels(l_wheel_speed=-11722.5, r_wheel_speed=-9697.5, duration=0.033)
Trigger time ms = 4191 --> drive_wheels(l_wheel_speed=98.0, r_wheel_speed=-82.0, duration=0.033)
Trigger time ms = 4224 --> drive_wheels(l_wheel_speed=11983.0, r_wheel_speed=9913.0, duration=0.033)
Trigger time ms = 4257 --> drive_wheels(l_wheel_speed=-98.0, r_wheel_speed=82.0, duration=0.033)
Trigger time ms = 4290 --> drive_wheels(l_wheel_speed=-11722.5, r_wheel_speed=-9697.5, duration=0.033)
Trigger time ms = 4323 --> drive_wheels(l_wheel_speed=98.0, r_wheel_speed=-82.0, duration=0.033)
Trigger time ms = 4356 --> drive_wheels(l_wheel_speed=11983.0, r_wheel_speed=9913.0, duration=0.033)
Trigger time ms = 4389 --> drive_wheels(l_wheel_speed=-98.0, r_wheel_speed=82.0, duration=0.033)
Trigger time ms = 4422 --> drive_wheels(l_wheel_speed=-11722.5, r_wheel_speed=-9697.5, duration=0.033)
Trigger time ms = 4455 --> drive_wheels(l_wheel_speed=98.0, r_wheel_speed=-82.0, duration=0.033)
Trigger time ms = 4488 --> drive_wheels(l_wheel_speed=11983.0, r_wheel_speed=9913.0, duration=0.033)
Trigger time ms = 4521 --> drive_wheels(l_wheel_speed=-98.0, r_wheel_speed=82.0, duration=0.033)
Trigger time ms = 4554 --> drive_wheels(l_wheel_speed=-11722.5, r_wheel_speed=-9697.5, duration=0.033)
Trigger time ms = 4587 --> drive_wheels(l_wheel_speed=98.0, r_wheel_speed=-82.0, duration=0.033)
Trigger time ms = 4620 --> drive_wheels(l_wheel_speed=11983.0, r_wheel_speed=9913.0, duration=0.033)
Trigger time ms = 4653 --> drive_wheels(l_wheel_speed=-153.0, r_wheel_speed=117.0, duration=0.033)
Trigger time ms = 4686 --> drive_wheels(l_wheel_speed=-12029.5, r_wheel_speed=-9824.5, duration=0.033)
Trigger time ms = 4719 --> drive_wheels(l_wheel_speed=98.0, r_wheel_speed=-82.0, duration=0.033)
Trigger time ms = 4752 --> drive_wheels(l_wheel_speed=-20707.5, r_wheel_speed=-23182.5, duration=0.033)
Trigger time ms = 4785 --> drive_wheels(l_wheel_speed=43.0, r_wheel_speed=-47.0, duration=0.033)
Trigger time ms = 4818 --> drive_wheels(l_wheel_speed=23072.5, r_wheel_speed=25547.5, duration=0.033)
Trigger time ms = 4851 --> drive_wheels(l_wheel_speed=-166.5, r_wheel_speed=238.5, duration=0.033)
Trigger time ms = 4884 --> drive_wheels(l_wheel_speed=-4654.0, r_wheel_speed=-6994.0, duration=0.033)
Trigger time ms = 4917 --> drive_wheels(l_wheel_speed=102.5, r_wheel_speed=-122.5, duration=0.033)
Trigger time ms = 4950 --> drive_wheels(l_wheel_speed=11370.0, r_wheel_speed=14070.0, duration=0.033)
Trigger time ms = 4983 --> drive_wheels(l_wheel_speed=-156.0, r_wheel_speed=204.0, duration=0.033)
Trigger time ms = 5016 --> drive_wheels(l_wheel_speed=-7168.5, r_wheel_speed=-9823.5, duration=0.033)
Trigger time ms = 5049 --> drive_wheels(l_wheel_speed=185.0, r_wheel_speed=-265.0, duration=0.033)
Trigger time ms = 5082 --> drive_wheels(l_wheel_speed=5790.0, r_wheel_speed=8490.0, duration=0.033)
Trigger time ms = 5115 --> drive_wheels(l_wheel_speed=-247.5, r_wheel_speed=427.5, duration=0.033)
Trigger time ms = 5148 --> drive_wheels(l_wheel_speed=-4262.5, r_wheel_speed=-6737.5, duration=0.033)
Trigger time ms = 5181 --> drive_wheels(l_wheel_speed=248.0, r_wheel_speed=-472.0, duration=0.033)
Trigger time ms = 5214 --> drive_wheels(l_wheel_speed=3240.0, r_wheel_speed=5400.0, duration=0.033)
Trigger time ms = 5247 --> drive_wheels(l_wheel_speed=-217.0, r_wheel_speed=413.0, duration=0.033)
Trigger time ms = 5280 --> drive_wheels(l_wheel_speed=-2793.0, r_wheel_speed=-4683.0, duration=0.033)
Trigger time ms = 5313 --> drive_wheels(l_wheel_speed=-13.5, r_wheel_speed=-1228.5, duration=0.033)
Trigger time ms = 5346 --> drive_wheels(l_wheel_speed=10.5, r_wheel_speed=955.5, duration=0.033)
Trigger time ms = 5379 --> drive_wheels(l_wheel_speed=10.5, r_wheel_speed=955.5, duration=0.033)
Trigger time ms = 5445 --> drive_wheels(l_wheel_speed=1319.5, r_wheel_speed=14.5, duration=0.033)
Trigger time ms = 5478 --> drive_wheels(l_wheel_speed=-2915.0, r_wheel_speed=-7865.0, duration=0.066)
Trigger time ms = 5544 --> drive_wheels(l_wheel_speed=457.5, r_wheel_speed=-217.5, duration=0.033)
Trigger time ms = 5577 --> drive_wheels(l_wheel_speed=4312.5, r_wheel_speed=5437.5, duration=0.198)
Trigger time ms = 5775 --> drive_wheels(l_wheel_speed=-500.5, r_wheel_speed=-5.5, duration=0.033)
Trigger time ms = 6435 --> drive_wheels(l_wheel_speed=77051.5, r_wheel_speed=80336.5, duration=0.693)
Trigger time ms = 7128 --> drive_wheels(l_wheel_speed=-72, r_wheel_speed=-72, duration=0.165)
Trigger time ms = 8679 --> drive_wheels(l_wheel_speed=5270.0, r_wheel_speed=-310.0, duration=0.396)
