Original file = ../../data/cozmo/natural_language_converted/anim_keepalive_eyesonly_01
Animation anim_keepalive_eyesonly_loop_03 clip 3/3
---------------------------------------
Process lift height
---------------------------------------
---------------------------------------
Process Head angle animations
---------------------------------------
---------------------------------------
Process body motion animations
---------------------------------------
