Original file = ../../data/cozmo/natural_language_converted/anim_explorer_driving_01
Animation anim_explorer_driving01_turbo_01_head_angle_40 clip 49/49
---------------------------------------
Process lift height
---------------------------------------
---------------------------------------
Process Head angle animations
---------------------------------------
Trigger time ms = 0 --> Look all the way up
Trigger time ms = 66 --> Look all the way up
Trigger time ms = 165 --> Look all the way up
Trigger time ms = 264 --> Look all the way up
Trigger time ms = 726 --> Look all the way up
Trigger time ms = 825 --> Look all the way up
---------------------------------------
Process body motion animations
---------------------------------------
