Original file = ../../data/cozmo/natural_language_converted/anim_launch_searchforface
Animation anim_launch_search clip 1/4
---------------------------------------
Process lift height
---------------------------------------
---------------------------------------
Process Head angle animations
---------------------------------------
Trigger time ms = 99 --> Look to the front
Trigger time ms = 495 --> Look up a little bit
---------------------------------------
Process body motion animations
---------------------------------------
Trigger time ms = 132 --> turn forward in place medium slow
Trigger time ms = 495 --> turn back in place medium slow
