Original file = ../../data/cozmo/natural_language_converted/anim_fistbump_idle_01
Animation anim_fistbump_idle_02 clip 2/3
---------------------------------------
Process lift height
---------------------------------------
Trigger time ms = 0 --> raise arms fully
---------------------------------------
Process Head angle animations
---------------------------------------
---------------------------------------
Process body motion animations
---------------------------------------
