Original file = ../../data/cozmo/natural_language_converted/anim_pause_idle_01
Animation anim_pause_idle_01 clip 1/3
---------------------------------------
Process lift height
---------------------------------------
---------------------------------------
Process Head angle animations
---------------------------------------
Trigger time ms = 0 --> Look up a little bit
Trigger time ms = 198 --> Look up a little bit
Trigger time ms = 1815 --> Look up a little bit
Trigger time ms = 4026 --> Look to the front
Trigger time ms = 4191 --> Look to the front
---------------------------------------
Process body motion animations
---------------------------------------
Trigger time ms = 495 --> turn forward in place medium slow
Trigger time ms = 693 --> turn back in place slow
Trigger time ms = 759 --> turn back in place slow
Trigger time ms = 4356 --> walk back  slow
Trigger time ms = 4851 --> turn back in place slow
