Original file = ../../data/cozmo/natural_language_converted/anim_hiking_driving_01
Animation anim_hiking_driving_loop_03 clip 5/6
---------------------------------------
Process lift height
---------------------------------------
---------------------------------------
Process Head angle animations
---------------------------------------
Trigger time ms = 0 --> Look down a little bit
Trigger time ms = 924 --> Look down a little bit
Trigger time ms = 1980 --> Look to the front
Trigger time ms = 2607 --> Look down a little bit
---------------------------------------
Process body motion animations
---------------------------------------
