Original file = ../../data/cozmo/natural_language_converted/anim_pause_idle_01
Animation anim_pause_idle_03 clip 3/3
---------------------------------------
Process lift height
---------------------------------------
---------------------------------------
Process Head angle animations
---------------------------------------
Trigger time ms = 0 --> Look to the front
Trigger time ms = 66 --> Look to the front
Trigger time ms = 198 --> Look to the front
Trigger time ms = 1188 --> Look to the front
Trigger time ms = 2046 --> Look to the front
Trigger time ms = 2145 --> Look to the front
---------------------------------------
Process body motion animations
---------------------------------------
Trigger time ms = 0 --> walk back  slow
Trigger time ms = 99 --> walk forward  slow
Trigger time ms = 1155 --> walk back  slow
