Original file = ../../data/cozmo/natural_language_converted/anim_sparking_driving
Animation anim_sparking_driving_loop_01 clip 2/5
---------------------------------------
Process lift height
---------------------------------------
---------------------------------------
Process Head angle animations
---------------------------------------
Trigger time ms = 231 --> Look down a little bit
Trigger time ms = 759 --> Look to the front
Trigger time ms = 1683 --> Look down a little bit
Trigger time ms = 1815 --> Look down a little bit
---------------------------------------
Process body motion animations
---------------------------------------
