Original file = ../../data/cozmo/natural_language_converted/anim_energy_idles
Animation anim_energy_idlel2_03 clip 4/15
---------------------------------------
Process lift height
---------------------------------------
---------------------------------------
Process Head angle animations
---------------------------------------
Trigger time ms = 0 --> Look down a little bit
Trigger time ms = 660 --> Look down a little bit
Trigger time ms = 759 --> Look down a little bit
Trigger time ms = 891 --> Look to the front
Trigger time ms = 1023 --> Look down a little bit
Trigger time ms = 2739 --> Look down a little bit
Trigger time ms = 2805 --> Look down a little bit
---------------------------------------
Process body motion animations
---------------------------------------
