Original file = ../../data/cozmo/natural_language_converted/anim_explorer_drvback
Animation anim_explorer_drvback_loop_02 clip 3/6
---------------------------------------
Process lift height
---------------------------------------
---------------------------------------
Process Head angle animations
---------------------------------------
---------------------------------------
Process body motion animations
---------------------------------------
