Original file = ../../data/cozmo/natural_language_converted/anim_explorer_idle
Animation anim_explorer_idle_02_head_angle_-20 clip 10/21
---------------------------------------
Process lift height
---------------------------------------
---------------------------------------
Process Head angle animations
---------------------------------------
Trigger time ms = 132 --> Look all the way down
Trigger time ms = 297 --> Look down a little bit
Trigger time ms = 429 --> Look down a little bit
Trigger time ms = 1716 --> Look all the way down
---------------------------------------
Process body motion animations
---------------------------------------
