Original file = ../../data/cozmo/natural_language_converted/anim_explorer_driving_01
Animation anim_explorer_driving01_start_02 clip 6/49
---------------------------------------
Process lift height
---------------------------------------
---------------------------------------
Process Head angle animations
---------------------------------------
---------------------------------------
Process body motion animations
---------------------------------------
