Original file = ../../data/cozmo/natural_language_converted/anim_legacy
Animation anim_poked_02 clip 2/4
---------------------------------------
Process lift height
---------------------------------------
Trigger time ms = 0 --> lower arms a bit
Trigger time ms = 100 --> lower arms a bit
Trigger time ms = 400 --> arms to front
Trigger time ms = 500 --> lower arms a bit
Trigger time ms = 600 --> arms to front
Trigger time ms = 700 --> lower arms a bit
Trigger time ms = 800 --> arms to front
Trigger time ms = 900 --> lower arms a bit
Trigger time ms = 1000 --> lower arms a bit
---------------------------------------
Process Head angle animations
---------------------------------------
---------------------------------------
Process body motion animations
---------------------------------------
