Original file = ../../data/cozmo/natural_language_converted/anim_laser_drive_01
Animation anim_laser_drive_01 clip 1/3
---------------------------------------
Process lift height
---------------------------------------
---------------------------------------
Process Head angle animations
---------------------------------------
Trigger time ms = 0 --> Look all the way down
---------------------------------------
Process body motion animations
---------------------------------------
