Original file = ../../data/cozmo/natural_language_converted/anim_launch_driving
Animation anim_launch_startdriving_01 clip 1/5
---------------------------------------
Process lift height
---------------------------------------
---------------------------------------
Process Head angle animations
---------------------------------------
Trigger time ms = 297 --> Look all the way down
Trigger time ms = 363 --> Look down a little bit
---------------------------------------
Process body motion animations
---------------------------------------
