Original file = ../../data/cozmo/natural_language_converted/anim_hiking_driving_02
Animation anim_hiking_driving_loop_06 clip 5/6
---------------------------------------
Process lift height
---------------------------------------
Trigger time ms = 0 --> lower arms fully
---------------------------------------
Process Head angle animations
---------------------------------------
Trigger time ms = 0 --> Look down a little bit
Trigger time ms = 495 --> Look down a little bit
Trigger time ms = 594 --> Look down a little bit
Trigger time ms = 1584 --> Look to the front
Trigger time ms = 3267 --> Look down a little bit
---------------------------------------
Process body motion animations
---------------------------------------
