Original file = ../../data/cozmo/natural_language_converted/anim_explorer_drvback
Animation anim_explorer_drvback_end_01 clip 4/6
---------------------------------------
Process lift height
---------------------------------------
---------------------------------------
Process Head angle animations
---------------------------------------
---------------------------------------
Process body motion animations
---------------------------------------
