Original file = ../../data/cozmo/natural_language_converted/anim_launch_idle_01
Animation anim_launch_idle_03 clip 3/3
---------------------------------------
Process lift height
---------------------------------------
---------------------------------------
Process Head angle animations
---------------------------------------
Trigger time ms = 231 --> Look all the way down
Trigger time ms = 363 --> Look down a little bit
Trigger time ms = 594 --> Look down a little bit
Trigger time ms = 858 --> Look down a little bit
Trigger time ms = 1089 --> Look down a little bit
---------------------------------------
Process body motion animations
---------------------------------------
Trigger time ms = 462 --> walk back  slow
Trigger time ms = 660 --> walk forward  slow
