Original file = ../../data/cozmo/natural_language_converted/anim_loco_driving_01
Animation anim_loco_driving01_start_02 clip 6/6
---------------------------------------
Process lift height
---------------------------------------
---------------------------------------
Process Head angle animations
---------------------------------------
Trigger time ms = 0 --> Look down a little bit
Trigger time ms = 924 --> Look down a little bit
---------------------------------------
Process body motion animations
---------------------------------------
