Original file = ../../data/cozmo/natural_language_converted/anim_loco_driving_upset
Animation anim_driving_upset_loop_01 clip 2/5
---------------------------------------
Process lift height
---------------------------------------
---------------------------------------
Process Head angle animations
---------------------------------------
Trigger time ms = 495 --> Look to the front
Trigger time ms = 594 --> Look to the front
Trigger time ms = 891 --> Look down a little bit
---------------------------------------
Process body motion animations
---------------------------------------
