Original file = ../../data/cozmo/natural_language_converted/anim_launch_searchforface
Animation anim_launch_search_head_angle_40 clip 4/4
---------------------------------------
Process lift height
---------------------------------------
---------------------------------------
Process Head angle animations
---------------------------------------
Trigger time ms = 99 --> Look all the way up
Trigger time ms = 495 --> Look all the way up
---------------------------------------
Process body motion animations
---------------------------------------
Trigger time ms = 132 --> turn forward in place medium slow
Trigger time ms = 495 --> turn back in place medium slow
