Original file = ../../data/cozmo/natural_language_converted/anim_lookinplaceforface_keepalive
Animation anim_lookinplaceforfaces_keepalive_short_head_angle_-20 clip 10/12
---------------------------------------
Process lift height
---------------------------------------
---------------------------------------
Process Head angle animations
---------------------------------------
---------------------------------------
Process body motion animations
---------------------------------------
