Original file = ../../data/cozmo/natural_language_converted/anim_peekaboo_idle_01
Animation anim_peekaboo_idle_03 clip 3/3
---------------------------------------
Process lift height
---------------------------------------
Trigger time ms = 0 --> lower arms fully
---------------------------------------
Process Head angle animations
---------------------------------------
Trigger time ms = 0 --> Look all the way up
Trigger time ms = 132 --> Look all the way up
Trigger time ms = 297 --> Look all the way up
Trigger time ms = 429 --> Look all the way up
Trigger time ms = 2079 --> Look all the way up
Trigger time ms = 3234 --> Look all the way up
Trigger time ms = 3366 --> Look all the way up
Trigger time ms = 3597 --> Look all the way up
Trigger time ms = 3960 --> Look all the way up
---------------------------------------
Process body motion animations
---------------------------------------
