Original file = ../../data/cozmo/natural_language_converted/anim_explorer_idle
Animation anim_explorer_idle_03 clip 3/21
---------------------------------------
Process lift height
---------------------------------------
---------------------------------------
Process Head angle animations
---------------------------------------
Trigger time ms = 825 --> Look to the front
Trigger time ms = 3003 --> Look to the front
---------------------------------------
Process body motion animations
---------------------------------------
