Original file = ../../data/cozmo/natural_language_converted/anim_cozmosays_speakloop_01
Animation anim_cozmosays_speakloop_03 clip 3/3
---------------------------------------
Process lift height
---------------------------------------
---------------------------------------
Process Head angle animations
---------------------------------------
---------------------------------------
Process body motion animations
---------------------------------------
