Original file = ../../data/cozmo/natural_language_converted/anim_pyramid_lookforface
Animation anim_pyramid_lookinplaceforfaces_short_head_angle_-20 clip 10/12
---------------------------------------
Process lift height
---------------------------------------
Trigger time ms = 0 --> lower arms fully
---------------------------------------
Process Head angle animations
---------------------------------------
Trigger time ms = 0 --> Look all the way down
---------------------------------------
Process body motion animations
---------------------------------------
