Original file = ../../data/cozmo/natural_language_converted/anim_energy_idles
Animation anim_energy_idlel1_02 clip 5/15
---------------------------------------
Process lift height
---------------------------------------
---------------------------------------
Process Head angle animations
---------------------------------------
Trigger time ms = 0 --> Look all the way up
Trigger time ms = 825 --> Look all the way up
Trigger time ms = 3003 --> Look all the way up
---------------------------------------
Process body motion animations
---------------------------------------
Trigger time ms = 858 --> walk back  medium slow
Trigger time ms = 3069 --> walk forward  medium slow
