Original file = ../../data/cozmo/natural_language_converted/anim_explorer_driving_01
Animation anim_explorer_driving01_loop_03_head_angle_-20 clip 32/49
---------------------------------------
Process lift height
---------------------------------------
---------------------------------------
Process Head angle animations
---------------------------------------
---------------------------------------
Process body motion animations
---------------------------------------
