Original file = ../../data/cozmo/natural_language_converted/anim_gotosleep
Animation anim_gotosleep_sleeploop_01 clip 1/1
---------------------------------------
Process lift height
---------------------------------------
---------------------------------------
Process Head angle animations
---------------------------------------
Trigger time ms = 2805 --> Look down a little bit
Trigger time ms = 4125 --> Look all the way down
Trigger time ms = 4950 --> Look all the way down
Trigger time ms = 6237 --> Look down a little bit
Trigger time ms = 6699 --> Look down a little bit
Trigger time ms = 6831 --> Look all the way down
Trigger time ms = 9339 --> Look down a little bit
Trigger time ms = 9801 --> Look down a little bit
Trigger time ms = 10362 --> Look down a little bit
Trigger time ms = 11154 --> Look all the way down
---------------------------------------
Process body motion animations
---------------------------------------
