Original file = ../../data/cozmo/natural_language_converted/anim_sparking_idle
Animation anim_sparking_idle_02 clip 2/3
---------------------------------------
Process lift height
---------------------------------------
---------------------------------------
Process Head angle animations
---------------------------------------
Trigger time ms = 759 --> Look to the front
Trigger time ms = 858 --> Look to the front
Trigger time ms = 1650 --> Look to the front
Trigger time ms = 1716 --> Look to the front
Trigger time ms = 3036 --> Look to the front
Trigger time ms = 3102 --> Look to the front
---------------------------------------
Process body motion animations
---------------------------------------
Trigger time ms = 759 --> turn forward in place medium fast
Trigger time ms = 1650 --> turn forward in place medium slow
Trigger time ms = 3036 --> turn back in place medium slow
