Original file = ../../data/cozmo/natural_language_converted/anim_launch_backpackidle
Animation anim_launch_backpackidle clip 1/2
---------------------------------------
Process lift height
---------------------------------------
---------------------------------------
Process Head angle animations
---------------------------------------
---------------------------------------
Process body motion animations
---------------------------------------
