Original file = ../../data/cozmo/natural_language_converted/anim_reacttoblock_lifteffort_01
Animation anim_reacttoblock_lifteffortplacehigh_01 clip 2/4
---------------------------------------
Process lift height
---------------------------------------
---------------------------------------
Process Head angle animations
---------------------------------------
---------------------------------------
Process body motion animations
---------------------------------------
