Original file = ../../data/cozmo/natural_language_converted/anim_sparking_idle
Animation anim_sparking_idle_01 clip 1/3
---------------------------------------
Process lift height
---------------------------------------
---------------------------------------
Process Head angle animations
---------------------------------------
Trigger time ms = 759 --> Look to the front
Trigger time ms = 1683 --> Look to the front
Trigger time ms = 3036 --> Look to the front
Trigger time ms = 3135 --> Look to the front
---------------------------------------
Process body motion animations
---------------------------------------
Trigger time ms = 792 --> turn forward in place medium slow
Trigger time ms = 1650 --> turn forward in place medium fast
Trigger time ms = 3069 --> turn back in place medium fast
Trigger time ms = 3168 --> turn back in place medium fast
