Original file = ../../data/cozmo/natural_language_converted/anim_energy_idles
Animation anim_energy_idlel2_02_nohead clip 14/15
---------------------------------------
Process lift height
---------------------------------------
---------------------------------------
Process Head angle animations
---------------------------------------
---------------------------------------
Process body motion animations
---------------------------------------
Trigger time ms = 198 --> turn forward in place medium slow
Trigger time ms = 2607 --> turn back in place medium slow
