Original file = ../../data/cozmo/natural_language_converted/anim_codelab_staring_loop
Animation anim_codelab_staring_loop clip 1/1
---------------------------------------
Process lift height
---------------------------------------
---------------------------------------
Process Head angle animations
---------------------------------------
---------------------------------------
Process body motion animations
---------------------------------------
