Original file = ../../data/cozmo/natural_language_converted/anim_codelab_lightshow_idle
Animation anim_codelab_lightshow_idle clip 1/1
---------------------------------------
Process lift height
---------------------------------------
Trigger time ms = 0 --> lower arms a bit
Trigger time ms = 3003 --> arms to front
Trigger time ms = 3267 --> arms to front
Trigger time ms = 3366 --> lower arms a bit
Trigger time ms = 4158 --> arms to front
Trigger time ms = 4455 --> arms to front
Trigger time ms = 4554 --> lower arms a bit
Trigger time ms = 4917 --> lower arms a bit
Trigger time ms = 5049 --> lower arms a bit
Trigger time ms = 5214 --> lower arms a bit
Trigger time ms = 5346 --> lower arms a bit
Trigger time ms = 5511 --> lower arms a bit
Trigger time ms = 5643 --> lower arms a bit
Trigger time ms = 5808 --> lower arms a bit
Trigger time ms = 5940 --> lower arms a bit
Trigger time ms = 6105 --> lower arms a bit
Trigger time ms = 6237 --> lower arms a bit
Trigger time ms = 6402 --> lower arms a bit
Trigger time ms = 6534 --> lower arms a bit
Trigger time ms = 8448 --> raise arms fully
Trigger time ms = 9306 --> lower arms a bit
---------------------------------------
Process Head angle animations
---------------------------------------
Trigger time ms = 0 --> Look up a little bit
Trigger time ms = 165 --> Look to the front
Trigger time ms = 297 --> Look up a little bit
Trigger time ms = 396 --> Look all the way up
Trigger time ms = 594 --> Look up a little bit
Trigger time ms = 759 --> Look to the front
Trigger time ms = 891 --> Look up a little bit
Trigger time ms = 990 --> Look all the way up
Trigger time ms = 1188 --> Look up a little bit
Trigger time ms = 1353 --> Look to the front
Trigger time ms = 1485 --> Look up a little bit
Trigger time ms = 1584 --> Look all the way up
Trigger time ms = 1782 --> Look up a little bit
Trigger time ms = 1947 --> Look to the front
Trigger time ms = 2079 --> Look up a little bit
Trigger time ms = 2178 --> Look all the way up
Trigger time ms = 2376 --> Look to the front
Trigger time ms = 2574 --> Look down a little bit
Trigger time ms = 2970 --> Look all the way up
Trigger time ms = 3267 --> Look all the way up
Trigger time ms = 3564 --> Look to the front
Trigger time ms = 3762 --> Look down a little bit
Trigger time ms = 4158 --> Look all the way up
Trigger time ms = 4455 --> Look all the way up
Trigger time ms = 4785 --> Look up a little bit
Trigger time ms = 4917 --> Look up a little bit
Trigger time ms = 5115 --> Look up a little bit
Trigger time ms = 5214 --> Look up a little bit
Trigger time ms = 5346 --> Look up a little bit
Trigger time ms = 5511 --> Look up a little bit
Trigger time ms = 5676 --> Look up a little bit
Trigger time ms = 5775 --> Look up a little bit
Trigger time ms = 5907 --> Look up a little bit
Trigger time ms = 6072 --> Look up a little bit
Trigger time ms = 6237 --> Look up a little bit
Trigger time ms = 6336 --> Look up a little bit
Trigger time ms = 6468 --> Look to the front
Trigger time ms = 6666 --> Look all the way up
Trigger time ms = 6996 --> Look all the way up
Trigger time ms = 7128 --> Look up a little bit
Trigger time ms = 7227 --> Look up a little bit
Trigger time ms = 7326 --> Look all the way up
Trigger time ms = 7392 --> Look up a little bit
Trigger time ms = 7458 --> Look up a little bit
Trigger time ms = 7524 --> Look up a little bit
Trigger time ms = 7656 --> Look all the way up
Trigger time ms = 7722 --> Look up a little bit
Trigger time ms = 7788 --> Look up a little bit
Trigger time ms = 7854 --> Look up a little bit
Trigger time ms = 7986 --> Look all the way up
Trigger time ms = 8052 --> Look up a little bit
Trigger time ms = 8118 --> Look up a little bit
Trigger time ms = 8184 --> Look up a little bit
Trigger time ms = 8283 --> Look all the way up
Trigger time ms = 8382 --> Look up a little bit
Trigger time ms = 8481 --> Look all the way up
Trigger time ms = 8547 --> Look up a little bit
Trigger time ms = 8613 --> Look all the way up
Trigger time ms = 8679 --> Look all the way up
Trigger time ms = 8745 --> Look all the way up
Trigger time ms = 8811 --> Look all the way up
Trigger time ms = 8877 --> Look all the way up
Trigger time ms = 8943 --> Look all the way up
Trigger time ms = 9009 --> Look all the way up
Trigger time ms = 9075 --> Look all the way up
Trigger time ms = 9174 --> Look all the way up
Trigger time ms = 9471 --> Look down a little bit
Trigger time ms = 9702 --> Look to the front
---------------------------------------
Process body motion animations
---------------------------------------
Trigger time ms = 0 --> walk back  medium slow
Trigger time ms = 231 --> walk forward  medium slow
Trigger time ms = 594 --> walk back  medium slow
Trigger time ms = 825 --> walk forward  medium slow
Trigger time ms = 1188 --> walk back  medium slow
Trigger time ms = 1419 --> walk forward  medium slow
Trigger time ms = 1716 --> walk back  medium slow
Trigger time ms = 2013 --> walk forward  medium slow
Trigger time ms = 2310 --> walk back  medium slow
Trigger time ms = 2607 --> walk back  medium slow
Trigger time ms = 2904 --> walk forward  medium slow
Trigger time ms = 3201 --> walk forward  medium slow
Trigger time ms = 3498 --> walk back  medium slow
Trigger time ms = 3795 --> walk back  medium slow
Trigger time ms = 4092 --> walk forward  medium slow
Trigger time ms = 4389 --> walk forward  medium slow
Trigger time ms = 4785 --> walk forward turning slow
Trigger time ms = 4950 --> walk forward turning slow
Trigger time ms = 5049 --> walk back turning slow
Trigger time ms = 5181 --> walk back turning slow
Trigger time ms = 5346 --> walk forward turning slow
Trigger time ms = 5544 --> walk forward turning slow
Trigger time ms = 5643 --> walk back turning slow
Trigger time ms = 5775 --> walk back turning slow
Trigger time ms = 5940 --> walk forward turning slow
Trigger time ms = 6138 --> walk forward turning slow
Trigger time ms = 6237 --> walk back turning slow
Trigger time ms = 6369 --> walk back turning slow
Trigger time ms = 6534 --> walk forward turning slow
Trigger time ms = 6732 --> walk forward turning slow
Trigger time ms = 6831 --> walk back turning slow
Trigger time ms = 7128 --> walk back  medium fast
Trigger time ms = 7260 --> walk back  slow
Trigger time ms = 7359 --> walk back  medium slow
Trigger time ms = 7425 --> walk forward  medium fast
Trigger time ms = 7557 --> walk forward  medium slow
Trigger time ms = 7722 --> walk back  medium fast
Trigger time ms = 7854 --> walk back  medium slow
Trigger time ms = 8019 --> walk forward  medium fast
Trigger time ms = 8151 --> walk forward  medium slow
Trigger time ms = 8382 --> walk back  medium fast
Trigger time ms = 8514 --> walk back  medium slow
Trigger time ms = 9273 --> walk back  medium slow
Trigger time ms = 9405 --> walk back  slow
Trigger time ms = 9504 --> walk forward  medium fast
