Original file = ../../data/cozmo/natural_language_converted/anim_play_03
Animation anim_play_driving_loop_01 clip 9/12
---------------------------------------
Process lift height
---------------------------------------
Trigger time ms = 0 --> lower arms a bit
---------------------------------------
Process Head angle animations
---------------------------------------
Trigger time ms = 0 --> Look to the front
Trigger time ms = 231 --> Look to the front
Trigger time ms = 264 --> Look to the front
Trigger time ms = 1155 --> Look to the front
Trigger time ms = 1485 --> Look to the front
---------------------------------------
Process body motion animations
---------------------------------------
