Original file = ../../data/cozmo/natural_language_converted/anim_explorer_idle
Animation anim_explorer_idle_03_head_angle_20 clip 19/21
---------------------------------------
Process lift height
---------------------------------------
---------------------------------------
Process Head angle animations
---------------------------------------
Trigger time ms = 825 --> Look up a little bit
Trigger time ms = 3003 --> Look all the way up
---------------------------------------
Process body motion animations
---------------------------------------
