Original file = ../../data/cozmo/natural_language_converted/anim_vc_laser_lookdown_01
Animation anim_vc_laser_lookdown_01 clip 1/1
---------------------------------------
Process lift height
---------------------------------------
---------------------------------------
Process Head angle animations
---------------------------------------
Trigger time ms = 0 --> Look to the front
Trigger time ms = 66 --> Look all the way down
Trigger time ms = 198 --> Look all the way down
Trigger time ms = 330 --> Look all the way down
---------------------------------------
Process body motion animations
---------------------------------------
Trigger time ms = 0 --> walk back  medium slow
