Original file = ../../data/cozmo/natural_language_converted/anim_dizzy_reaction_medium
Animation anim_dizzy_reaction_medium_03 clip 3/3
---------------------------------------
Process lift height
---------------------------------------
Trigger time ms = 0 --> raise arms fully
Trigger time ms = 3036 --> lower arms fully
Trigger time ms = 3168 --> arms to front
Trigger time ms = 3300 --> lower arms fully
Trigger time ms = 3432 --> lower arms fully
Trigger time ms = 3465 --> lower arms fully
Trigger time ms = 3861 --> lower arms fully
Trigger time ms = 4125 --> lower arms fully
Trigger time ms = 4752 --> lower arms fully
Trigger time ms = 4983 --> lower arms a bit
Trigger time ms = 5049 --> lower arms a bit
Trigger time ms = 5115 --> arms to front
Trigger time ms = 5181 --> lower arms a bit
Trigger time ms = 5247 --> arms to front
Trigger time ms = 5313 --> lower arms a bit
Trigger time ms = 5379 --> arms to front
Trigger time ms = 5445 --> lower arms a bit
Trigger time ms = 5511 --> arms to front
Trigger time ms = 5577 --> lower arms a bit
Trigger time ms = 5643 --> arms to front
Trigger time ms = 5709 --> lower arms a bit
Trigger time ms = 5775 --> arms to front
Trigger time ms = 5841 --> lower arms a bit
Trigger time ms = 5907 --> arms to front
Trigger time ms = 5973 --> lower arms a bit
Trigger time ms = 6039 --> lower arms a bit
Trigger time ms = 6105 --> lower arms fully
Trigger time ms = 6336 --> arms to front
Trigger time ms = 6501 --> lower arms fully
---------------------------------------
Process Head angle animations
---------------------------------------
Trigger time ms = 0 --> Look to the front
Trigger time ms = 33 --> Look up a little bit
Trigger time ms = 99 --> Look to the front
Trigger time ms = 165 --> Look up a little bit
Trigger time ms = 231 --> Look to the front
Trigger time ms = 297 --> Look up a little bit
Trigger time ms = 363 --> Look to the front
Trigger time ms = 429 --> Look up a little bit
Trigger time ms = 495 --> Look to the front
Trigger time ms = 561 --> Look up a little bit
Trigger time ms = 627 --> Look up a little bit
Trigger time ms = 693 --> Look all the way up
Trigger time ms = 792 --> Look up a little bit
Trigger time ms = 891 --> Look all the way up
Trigger time ms = 990 --> Look up a little bit
Trigger time ms = 1089 --> Look all the way up
Trigger time ms = 1188 --> Look up a little bit
Trigger time ms = 1287 --> Look all the way up
Trigger time ms = 1386 --> Look up a little bit
Trigger time ms = 1518 --> Look all the way up
Trigger time ms = 1650 --> Look all the way up
Trigger time ms = 1815 --> Look all the way up
Trigger time ms = 1980 --> Look all the way up
Trigger time ms = 2178 --> Look all the way up
Trigger time ms = 2376 --> Look all the way up
Trigger time ms = 2574 --> Look all the way up
Trigger time ms = 2772 --> Look all the way up
Trigger time ms = 2970 --> Look all the way up
Trigger time ms = 3036 --> Look all the way up
Trigger time ms = 3069 --> Look all the way down
Trigger time ms = 3135 --> Look all the way up
Trigger time ms = 3201 --> Look all the way down
Trigger time ms = 3300 --> Look to the front
Trigger time ms = 3399 --> Look to the front
Trigger time ms = 4158 --> Look to the front
Trigger time ms = 4224 --> Look to the front
Trigger time ms = 4323 --> Look to the front
Trigger time ms = 4356 --> Look to the front
Trigger time ms = 4752 --> Look to the front
Trigger time ms = 4818 --> Look to the front
Trigger time ms = 4917 --> Look down a little bit
Trigger time ms = 5016 --> Look down a little bit
Trigger time ms = 5049 --> Look down a little bit
Trigger time ms = 5102 --> Look down a little bit
Trigger time ms = 5154 --> Look down a little bit
Trigger time ms = 5247 --> Look down a little bit
Trigger time ms = 5313 --> Look down a little bit
Trigger time ms = 5379 --> Look down a little bit
Trigger time ms = 5445 --> Look down a little bit
Trigger time ms = 5511 --> Look all the way down
Trigger time ms = 5577 --> Look down a little bit
Trigger time ms = 5643 --> Look down a little bit
Trigger time ms = 5709 --> Look down a little bit
Trigger time ms = 5775 --> Look down a little bit
Trigger time ms = 5841 --> Look down a little bit
Trigger time ms = 5907 --> Look down a little bit
Trigger time ms = 5973 --> Look down a little bit
Trigger time ms = 6039 --> Look down a little bit
Trigger time ms = 6369 --> Look all the way down
Trigger time ms = 6468 --> Look up a little bit
Trigger time ms = 6567 --> Look all the way down
Trigger time ms = 6666 --> Look all the way down
Trigger time ms = 7953 --> Look all the way down
Trigger time ms = 8019 --> Look all the way down
Trigger time ms = 8778 --> Look to the front
---------------------------------------
Process body motion animations
---------------------------------------
Trigger time ms = 0 --> walk back  medium slow
Trigger time ms = 3135 --> turn forward in place fast
Trigger time ms = 3201 --> turn back in place fast
Trigger time ms = 4983 --> turn forward in place slow
Trigger time ms = 5049 --> turn back in place medium slow
Trigger time ms = 5115 --> turn forward in place medium slow
Trigger time ms = 5181 --> turn back in place medium slow
Trigger time ms = 5247 --> turn forward in place medium fast
Trigger time ms = 5313 --> turn back in place medium fast
Trigger time ms = 5379 --> turn forward in place medium fast
Trigger time ms = 5445 --> turn back in place medium fast
Trigger time ms = 5511 --> turn forward in place medium fast
Trigger time ms = 5577 --> turn back in place medium fast
Trigger time ms = 5643 --> turn forward in place medium slow
Trigger time ms = 5709 --> turn back in place medium slow
Trigger time ms = 5775 --> turn forward in place medium slow
Trigger time ms = 5841 --> turn back in place medium slow
Trigger time ms = 5907 --> turn forward in place medium slow
Trigger time ms = 5973 --> turn back in place medium slow
Trigger time ms = 6039 --> turn forward in place medium slow
Trigger time ms = 6105 --> turn back in place medium slow
Trigger time ms = 6237 --> walk back  slow
Trigger time ms = 6402 --> walk back  slow
Trigger time ms = 6501 --> walk forward  slow
Trigger time ms = 8844 --> turn back in place medium slow
