Original file = ../../data/cozmo/natural_language_converted/anim_hiking_driving_01
Animation anim_hiking_driving_end_01 clip 4/6
---------------------------------------
Process lift height
---------------------------------------
---------------------------------------
Process Head angle animations
---------------------------------------
Trigger time ms = 0 --> Look to the front
Trigger time ms = 66 --> Look down a little bit
Trigger time ms = 231 --> Look down a little bit
---------------------------------------
Process body motion animations
---------------------------------------
