Original file = ../../data/cozmo/natural_language_converted/id_pokedreaction_01
Animation anim_pokedreaction_01 clip 1/1
---------------------------------------
Process lift height
---------------------------------------
---------------------------------------
Process Head angle animations
---------------------------------------
Trigger time ms = 0 --> Look down a little bit
Trigger time ms = 198 --> Look up a little bit
Trigger time ms = 297 --> Look to the front
---------------------------------------
Process body motion animations
---------------------------------------
Trigger time ms = 66 --> walk back  medium slow
Trigger time ms = 198 --> walk forward  medium slow
