Original file = ../../data/cozmo/natural_language_converted/id_rollblock_fail_01
Animation anim_rollblock_fail_01 clip 1/1
---------------------------------------
Process lift height
---------------------------------------
---------------------------------------
Process Head angle animations
---------------------------------------
Trigger time ms = 0 --> Look down a little bit
Trigger time ms = 825 --> Look to the front
---------------------------------------
Process body motion animations
---------------------------------------
