Original file = ../../data/cozmo/natural_language_converted/launch
Animation anim_launch_wakeup_drivingloop_01 clip 8/11
---------------------------------------
Process lift height
---------------------------------------
---------------------------------------
Process Head angle animations
---------------------------------------
Trigger time ms = 0 --> Look to the front
Trigger time ms = 660 --> Look to the front
---------------------------------------
Process body motion animations
---------------------------------------
