Original file = ../../data/cozmo/natural_language_converted/vs_speedtap_ask2play
Animation anim_speedtap_foundblock_01 clip 2/7
---------------------------------------
Process lift height
---------------------------------------
---------------------------------------
Process Head angle animations
---------------------------------------
Trigger time ms = 0 --> Look all the way down
Trigger time ms = 66 --> Look up a little bit
Trigger time ms = 231 --> Look to the front
---------------------------------------
Process body motion animations
---------------------------------------
