Original file = ../../data/cozmo/natural_language_converted/vs_speedtap_wait
Animation anim_speedtap_wait_medium_02 clip 4/5
---------------------------------------
Process lift height
---------------------------------------
---------------------------------------
Process Head angle animations
---------------------------------------
---------------------------------------
Process body motion animations
---------------------------------------
Trigger time ms = 231 --> turn back in place medium slow
Trigger time ms = 396 --> turn forward in place slow
Trigger time ms = 759 --> turn forward in place medium slow
