{
    "clips": [
        {
            "Name": "anim_workout_lowenergy_getready_01",
            "keyframes": {
                "LiftHeightKeyFrame": [
                    {
                        "triggerTime_ms": 0,
                        "durationTime_ms": 330,
                        "height_mm": 92,
                        "heightVariability_mm": 0
                    },
                    {
                        "triggerTime_ms": 330,
                        "durationTime_ms": 462,
                        "height_mm": 53,
                        "heightVariability_mm": 0
                    }
                ],
                "ProceduralFaceKeyFrame": [
                    {
                        "triggerTime_ms": 0,
                        "faceAngle": 0.0,
                        "faceCenterX": 0.0,
                        "faceCenterY": -15.202447891235352,
                        "faceScaleX": 1.0,
                        "faceScaleY": 1.0,
                        "leftEye": [
                            9.169666290283203,
                            -7.1392598152160645,
                            1.214332938194275,
                            0.9052804112434387,
                            0.0,
                            0.5,
                            0.5,
                            0.607566773891449,
                            0.607566773891449,
                            0.607566773891449,
                            0.607566773891449,
                            0.5,
                            0.5,
                            0.7493976354598999,
                            0.0,
                            0.0,
                            0.0,
                            0.0,
                            0.0
                        ],
                        "rightEye": [
                            -10.206374168395996,
                            -7.581854343414307,
                            1.2220369577407837,
                            0.9052804112434387,
                            0.0,
                            0.5,
                            0.5,
                            0.607566773891449,
                            0.607566773891449,
                            0.607566773891449,
                            0.607566773891449,
                            0.5,
                            0.5,
                            0.8196125626564026,
                            0.0,
                            0.0,
                            0.0,
                            0.0,
                            0.0
                        ]
                    },
                    {
                        "triggerTime_ms": 1518,
                        "faceAngle": 0.0,
                        "faceCenterX": 0.0,
                        "faceCenterY": -15.202447891235352,
                        "faceScaleX": 1.0,
                        "faceScaleY": 1.0,
                        "leftEye": [
                            9.169666290283203,
                            -7.1392598152160645,
                            1.214332938194275,
                            0.9052804112434387,
                            0.0,
                            0.5,
                            0.5,
                            0.607566773891449,
                            0.607566773891449,
                            0.607566773891449,
                            0.607566773891449,
                            0.5,
                            0.5,
                            0.7493976354598999,
                            0.0,
                            0.0,
                            0.0,
                            0.0,
                            0.0
                        ],
                        "rightEye": [
                            -10.206374168395996,
                            -7.581854343414307,
                            1.2220369577407837,
                            0.9052804112434387,
                            0.0,
                            0.5,
                            0.5,
                            0.607566773891449,
                            0.607566773891449,
                            0.607566773891449,
                            0.607566773891449,
                            0.5,
                            0.5,
                            0.8196125626564026,
                            0.0,
                            0.0,
                            0.0,
                            0.0,
                            0.0
                        ]
                    },
                    {
                        "triggerTime_ms": 1584,
                        "faceAngle": 0.0,
                        "faceCenterX": 0.0,
                        "faceCenterY": -16.459964752197266,
                        "faceScaleX": 0.8701813220977783,
                        "faceScaleY": 1.0,
                        "leftEye": [
                            9.169666290283203,
                            -7.1392598152160645,
                            1.214332938194275,
                            0.9052804112434387,
                            0.0,
                            0.5,
                            0.5,
                            0.607566773891449,
                            0.607566773891449,
                            0.607566773891449,
                            0.607566773891449,
                            0.5,
                            0.5,
                            0.6764534711837769,
                            0.0,
                            0.0,
                            0.0,
                            0.0,
                            0.0
                        ],
                        "rightEye": [
                            -10.206374168395996,
                            -7.581854343414307,
                            1.2220369577407837,
                            0.9052804112434387,
                            0.0,
                            0.5,
                            0.5,
                            0.607566773891449,
                            0.607566773891449,
                            0.607566773891449,
                            0.607566773891449,
                            0.5,
                            0.5,
                            0.746668815612793,
                            0.0,
                            0.0,
                            0.0,
                            0.0,
                            0.0
                        ]
                    },
                    {
                        "triggerTime_ms": 1617,
                        "faceAngle": 0.0,
                        "faceCenterX": 0.0,
                        "faceCenterY": -16.263479232788086,
                        "faceScaleX": 0.8247449398040771,
                        "faceScaleY": 1.0,
                        "leftEye": [
                            9.169666290283203,
                            -7.1392598152160645,
                            1.214332938194275,
                            0.9052804112434387,
                            0.0,
                            0.5,
                            0.5,
                            0.607566773891449,
                            0.607566773891449,
                            0.607566773891449,
                            0.607566773891449,
                            0.5,
                            0.5,
                            0.6832024455070496,
                            0.0,
                            0.0,
                            0.0,
                            0.0,
                            0.0
                        ],
                        "rightEye": [
                            -10.206374168395996,
                            -7.581854343414307,
                            1.2220369577407837,
                            0.9052804112434387,
                            0.0,
                            0.5,
                            0.5,
                            0.607566773891449,
                            0.607566773891449,
                            0.607566773891449,
                            0.607566773891449,
                            0.5,
                            0.5,
                            0.7534177899360657,
                            0.0,
                            0.0,
                            0.0,
                            0.0,
                            0.0
                        ]
                    },
                    {
                        "triggerTime_ms": 1716,
                        "faceAngle": 0.0,
                        "faceCenterX": 0.0,
                        "faceCenterY": -15.202447891235352,
                        "faceScaleX": 0.97261643409729,
                        "faceScaleY": 1.0,
                        "leftEye": [
                            9.169666290283203,
                            -7.1392598152160645,
                            1.214332938194275,
                            0.9052804112434387,
                            0.0,
                            0.5,
                            0.5,
                            0.607566773891449,
                            0.607566773891449,
                            0.607566773891449,
                            0.607566773891449,
                            0.5,
                            0.5,
                            0.7493976354598999,
                            0.0,
                            0.0,
                            0.0,
                            0.0,
                            0.0
                        ],
                        "rightEye": [
                            -10.206374168395996,
                            -7.581854343414307,
                            1.2220369577407837,
                            0.9052804112434387,
                            0.0,
                            0.5,
                            0.5,
                            0.607566773891449,
                            0.607566773891449,
                            0.607566773891449,
                            0.607566773891449,
                            0.5,
                            0.5,
                            0.8196125626564026,
                            0.0,
                            0.0,
                            0.0,
                            0.0,
                            0.0
                        ]
                    },
                    {
                        "triggerTime_ms": 1749,
                        "faceAngle": 0.0,
                        "faceCenterX": 0.0,
                        "faceCenterY": -15.202447891235352,
                        "faceScaleX": 1.0,
                        "faceScaleY": 1.0,
                        "leftEye": [
                            9.169666290283203,
                            -7.1392598152160645,
                            1.214332938194275,
                            0.9052804112434387,
                            0.0,
                            0.5,
                            0.5,
                            0.607566773891449,
                            0.607566773891449,
                            0.607566773891449,
                            0.607566773891449,
                            0.5,
                            0.5,
                            0.7493976354598999,
                            0.0,
                            0.0,
                            0.0,
                            0.0,
                            0.0
                        ],
                        "rightEye": [
                            -10.206374168395996,
                            -7.581854343414307,
                            1.2220369577407837,
                            0.9052804112434387,
                            0.0,
                            0.5,
                            0.5,
                            0.607566773891449,
                            0.607566773891449,
                            0.607566773891449,
                            0.607566773891449,
                            0.5,
                            0.5,
                            0.8196125626564026,
                            0.0,
                            0.0,
                            0.0,
                            0.0,
                            0.0
                        ]
                    },
                    {
                        "triggerTime_ms": 2442,
                        "faceAngle": 0.0,
                        "faceCenterX": 0.0,
                        "faceCenterY": -15.202447891235352,
                        "faceScaleX": 1.0,
                        "faceScaleY": 1.0,
                        "leftEye": [
                            9.169666290283203,
                            -7.1392598152160645,
                            1.214332938194275,
                            0.9052804112434387,
                            0.0,
                            0.5,
                            0.5,
                            0.607566773891449,
                            0.607566773891449,
                            0.607566773891449,
                            0.607566773891449,
                            0.5,
                            0.5,
                            0.7493976354598999,
                            0.0,
                            0.0,
                            0.0,
                            0.0,
                            0.0
                        ],
                        "rightEye": [
                            -10.206374168395996,
                            -7.581854343414307,
                            1.2220369577407837,
                            0.9052804112434387,
                            0.0,
                            0.5,
                            0.5,
                            0.607566773891449,
                            0.607566773891449,
                            0.607566773891449,
                            0.607566773891449,
                            0.5,
                            0.5,
                            0.8196125626564026,
                            0.0,
                            0.0,
                            0.0,
                            0.0,
                            0.0
                        ]
                    },
                    {
                        "triggerTime_ms": 2508,
                        "faceAngle": 0.0,
                        "faceCenterX": 0.0,
                        "faceCenterY": -11.014734268188477,
                        "faceScaleX": 1.0,
                        "faceScaleY": 1.0,
                        "leftEye": [
                            9.169666290283203,
                            -7.1392598152160645,
                            1.3343077898025513,
                            0.9052804112434387,
                            0.0,
                            0.009999999776482582,
                            0.009999999776482582,
                            0.009999999776482582,
                            0.009999999776482582,
                            0.009999999776482582,
                            0.009999999776482582,
                            0.009999999776482582,
                            0.009999999776482582,
                            0.7861576080322266,
                            0.0,
                            0.0,
                            0.12931033968925476,
                            0.0,
                            0.0
                        ],
                        "rightEye": [
                            -10.206374168395996,
                            -6.42596435546875,
                            1.3463243246078491,
                            0.9052804112434387,
                            0.0,
                            0.009999999776482582,
                            0.009999999776482582,
                            0.009999999776482582,
                            0.009999999776482582,
                            0.009999999776482582,
                            0.009999999776482582,
                            0.009999999776482582,
                            0.009999999776482582,
                            0.771273672580719,
                            0.0,
                            0.0,
                            0.12556327879428864,
                            0.0,
                            0.0
                        ]
                    },
                    {
                        "triggerTime_ms": 2541,
                        "faceAngle": 0.0,
                        "faceCenterX": 0.0,
                        "faceCenterY": -3.6792943477630615,
                        "faceScaleX": 1.0,
                        "faceScaleY": 1.0,
                        "leftEye": [
                            9.169666290283203,
                            -7.1392598152160645,
                            1.5523511171340942,
                            0.6250395178794861,
                            0.0,
                            0.09932316839694977,
                            0.09932316839694977,
                            0.11893174797296524,
                            0.11893174797296524,
                            0.11893174797296524,
                            0.11893174797296524,
                            0.09932316839694977,
                            0.09932316839694977,
                            0.7573440670967102,
                            0.0,
                            0.0,
                            0.1057380810379982,
                            0.0,
                            0.0
                        ],
                        "rightEye": [
                            -10.206374168395996,
                            -7.017023086547852,
                            1.5722050666809082,
                            0.6250395178794861,
                            0.0,
                            0.09932316839694977,
                            0.09932316839694977,
                            0.11893174797296524,
                            0.11893174797296524,
                            0.11893174797296524,
                            0.11893174797296524,
                            0.09932316839694977,
                            0.09932316839694977,
                            0.7745630741119385,
                            0.0,
                            0.0,
                            0.10267407447099686,
                            0.0,
                            0.0
                        ]
                    },
                    {
                        "triggerTime_ms": 2574,
                        "faceAngle": 0.0,
                        "faceCenterX": 0.0,
                        "faceCenterY": 0.2964441478252411,
                        "faceScaleX": 1.1299208402633667,
                        "faceScaleY": 1.0,
                        "leftEye": [
                            9.169666290283203,
                            -7.1392598152160645,
                            1.5523511171340942,
                            0.6250395178794861,
                            0.0,
                            0.09932316839694977,
                            0.09932316839694977,
                            0.11893174797296524,
                            0.11893174797296524,
                            0.11893174797296524,
                            0.11893174797296524,
                            0.09932316839694977,
                            0.09932316839694977,
                            0.7573440670967102,
                            0.0,
                            0.0,
                            0.1057380810379982,
                            0.0,
                            0.0
                        ],
                        "rightEye": [
                            -10.206374168395996,
                            -7.581854343414307,
                            1.5722050666809082,
                            0.6250395178794861,
                            0.0,
                            0.09932316839694977,
                            0.09932316839694977,
                            0.11893174797296524,
                            0.11893174797296524,
                            0.11893174797296524,
                            0.11893174797296524,
                            0.09932316839694977,
                            0.09932316839694977,
                            0.7745630741119385,
                            0.0,
                            0.0,
                            0.10267407447099686,
                            0.0,
                            0.0
                        ]
                    },
                    {
                        "triggerTime_ms": 2607,
                        "faceAngle": 0.0,
                        "faceCenterX": 0.0,
                        "faceCenterY": -7.03341817855835,
                        "faceScaleX": 0.9860168099403381,
                        "faceScaleY": 1.0,
                        "leftEye": [
                            9.169666290283203,
                            -7.1392598152160645,
                            1.3489720821380615,
                            0.7339228391647339,
                            0.0,
                            0.2549999952316284,
                            0.2549999952316284,
                            0.3087833821773529,
                            0.3087833821773529,
                            0.3087833821773529,
                            0.3087833821773529,
                            0.2549999952316284,
                            0.2549999952316284,
                            0.713126540184021,
                            0.0,
                            0.0,
                            0.06465516984462738,
                            0.0,
                            0.0
                        ],
                        "rightEye": [
                            -10.206374168395996,
                            -7.581854343414307,
                            1.361515760421753,
                            0.7339228391647339,
                            0.0,
                            0.2549999952316284,
                            0.2549999952316284,
                            0.3087833821773529,
                            0.3087833821773529,
                            0.3087833821773529,
                            0.3087833821773529,
                            0.2549999952316284,
                            0.2549999952316284,
                            0.7435948848724365,
                            0.0,
                            0.0,
                            0.06278163939714432,
                            0.0,
                            0.0
                        ]
                    },
                    {
                        "triggerTime_ms": 2640,
                        "faceAngle": 0.0,
                        "faceCenterX": 0.0,
                        "faceCenterY": -9.098745346069336,
                        "faceScaleX": 0.9860168099403381,
                        "faceScaleY": 1.0,
                        "leftEye": [
                            9.169666290283203,
                            -7.1392598152160645,
                            1.252310037612915,
                            0.8410212993621826,
                            0.0,
                            0.40812498331069946,
                            0.40812498331069946,
                            0.49552300572395325,
                            0.49552300572395325,
                            0.49552300572395325,
                            0.49552300572395325,
                            0.40812498331069946,
                            0.40812498331069946,
                            0.6689090132713318,
                            0.0,
                            0.0,
                            0.024245688691735268,
                            0.0,
                            0.0
                        ],
                        "rightEye": [
                            -10.206374168395996,
                            -7.581854343414307,
                            1.2613791227340698,
                            0.8410212993621826,
                            0.0,
                            0.40812498331069946,
                            0.40812498331069946,
                            0.49552300572395325,
                            0.49552300572395325,
                            0.49552300572395325,
                            0.49552300572395325,
                            0.40812498331069946,
                            0.40812498331069946,
                            0.712626576423645,
                            0.0,
                            0.0,
                            0.023543113842606544,
                            0.0,
                            0.0
                        ]
                    },
                    {
                        "triggerTime_ms": 2673,
                        "faceAngle": 0.0,
                        "faceCenterX": 0.0,
                        "faceCenterY": -11.164072036743164,
                        "faceScaleX": 0.9860168099403381,
                        "faceScaleY": 1.0,
                        "leftEye": [
                            9.169666290283203,
                            -7.1392598152160645,
                            1.214332938194275,
                            0.9052804112434387,
                            0.0,
                            0.5,
                            0.5,
                            0.607566773891449,
                            0.607566773891449,
                            0.607566773891449,
                            0.607566773891449,
                            0.5,
                            0.5,
                            0.6932053565979004,
                            0.0,
                            0.0,
                            0.0,
                            0.0,
                            0.0
                        ],
                        "rightEye": [
                            -10.206374168395996,
                            -7.581854343414307,
                            1.2220369577407837,
                            0.9052804112434387,
                            0.0,
                            0.5,
                            0.5,
                            0.607566773891449,
                            0.607566773891449,
                            0.607566773891449,
                            0.607566773891449,
                            0.5,
                            0.5,
                            0.7493436336517334,
                            0.0,
                            0.0,
                            0.0,
                            0.0,
                            0.0
                        ]
                    },
                    {
                        "triggerTime_ms": 2706,
                        "faceAngle": 0.0,
                        "faceCenterX": 0.0,
                        "faceCenterY": -13.229399681091309,
                        "faceScaleX": 0.9860168099403381,
                        "faceScaleY": 1.0,
                        "leftEye": [
                            9.169666290283203,
                            -7.1392598152160645,
                            1.214332938194275,
                            0.9052804112434387,
                            0.0,
                            0.5,
                            0.5,
                            0.607566773891449,
                            0.607566773891449,
                            0.607566773891449,
                            0.607566773891449,
                            0.5,
                            0.5,
                            0.7225322723388672,
                            0.0,
                            0.0,
                            0.0,
                            0.0,
                            0.0
                        ],
                        "rightEye": [
                            -10.206374168395996,
                            -7.581854343414307,
                            1.2220369577407837,
                            0.9052804112434387,
                            0.0,
                            0.5,
                            0.5,
                            0.607566773891449,
                            0.607566773891449,
                            0.607566773891449,
                            0.607566773891449,
                            0.5,
                            0.5,
                            0.7927473783493042,
                            0.0,
                            0.0,
                            0.0,
                            0.0,
                            0.0
                        ]
                    },
                    {
                        "triggerTime_ms": 2904,
                        "faceAngle": 0.0,
                        "faceCenterX": 0.0,
                        "faceCenterY": -13.229399681091309,
                        "faceScaleX": 1.0114933252334595,
                        "faceScaleY": 1.001794457435608,
                        "leftEye": [
                            9.169666290283203,
                            -7.1392598152160645,
                            1.214332938194275,
                            0.9052804112434387,
                            0.0,
                            0.5,
                            0.5,
                            0.607566773891449,
                            0.607566773891449,
                            0.607566773891449,
                            0.607566773891449,
                            0.5,
                            0.5,
                            0.7493976354598999,
                            0.0,
                            0.0,
                            0.0,
                            0.0,
                            0.0
                        ],
                        "rightEye": [
                            -10.206374168395996,
                            -7.581854343414307,
                            1.2220369577407837,
                            0.9052804112434387,
                            0.0,
                            0.5,
                            0.5,
                            0.607566773891449,
                            0.607566773891449,
                            0.607566773891449,
                            0.607566773891449,
                            0.5,
                            0.5,
                            0.8196125626564026,
                            0.0,
                            0.0,
                            0.0,
                            0.0,
                            0.0
                        ]
                    },
                    {
                        "triggerTime_ms": 3696,
                        "faceAngle": 0.0,
                        "faceCenterX": 0.0,
                        "faceCenterY": -13.229399681091309,
                        "faceScaleX": 1.0114933252334595,
                        "faceScaleY": 1.001794457435608,
                        "leftEye": [
                            9.169666290283203,
                            -7.1392598152160645,
                            1.214332938194275,
                            0.9052804112434387,
                            0.0,
                            0.5,
                            0.5,
                            0.607566773891449,
                            0.607566773891449,
                            0.607566773891449,
                            0.607566773891449,
                            0.5,
                            0.5,
                            0.7493976354598999,
                            0.0,
                            0.0,
                            0.0,
                            0.0,
                            0.0
                        ],
                        "rightEye": [
                            -10.206374168395996,
                            -7.581854343414307,
                            1.2220369577407837,
                            0.9052804112434387,
                            0.0,
                            0.5,
                            0.5,
                            0.607566773891449,
                            0.607566773891449,
                            0.607566773891449,
                            0.607566773891449,
                            0.5,
                            0.5,
                            0.8196125626564026,
                            0.0,
                            0.0,
                            0.0,
                            0.0,
                            0.0
                        ]
                    },
                    {
                        "triggerTime_ms": 3795,
                        "faceAngle": 0.0,
                        "faceCenterX": 0.0,
                        "faceCenterY": -15.232683181762695,
                        "faceScaleX": 0.9632024765014648,
                        "faceScaleY": 0.9446340799331665,
                        "leftEye": [
                            9.169666290283203,
                            -5.555525302886963,
                            1.214332938194275,
                            0.9052804112434387,
                            0.0,
                            0.5,
                            0.5,
                            0.607566773891449,
                            0.607566773891449,
                            0.607566773891449,
                            0.607566773891449,
                            0.5,
                            0.5,
                            0.7493976354598999,
                            0.0,
                            0.0,
                            0.0,
                            0.0,
                            0.0
                        ],
                        "rightEye": [
                            -10.206374168395996,
                            -6.02078914642334,
                            1.2220369577407837,
                            0.9052804112434387,
                            0.0,
                            0.5,
                            0.5,
                            0.607566773891449,
                            0.607566773891449,
                            0.607566773891449,
                            0.607566773891449,
                            0.5,
                            0.5,
                            0.8196125626564026,
                            0.0,
                            0.0,
                            0.0,
                            0.0,
                            0.0
                        ]
                    },
                    {
                        "triggerTime_ms": 3993,
                        "faceAngle": 0.0,
                        "faceCenterX": 0.0,
                        "faceCenterY": -15.202447891235352,
                        "faceScaleX": 1.0,
                        "faceScaleY": 1.0,
                        "leftEye": [
                            9.169666290283203,
                            -7.1392598152160645,
                            1.214332938194275,
                            0.9052804112434387,
                            0.0,
                            0.5,
                            0.5,
                            0.607566773891449,
                            0.607566773891449,
                            0.607566773891449,
                            0.607566773891449,
                            0.5,
                            0.5,
                            0.7493976354598999,
                            0.0,
                            0.0,
                            0.0,
                            0.0,
                            0.0
                        ],
                        "rightEye": [
                            -10.206374168395996,
                            -7.581854343414307,
                            1.2220369577407837,
                            0.9052804112434387,
                            0.0,
                            0.5,
                            0.5,
                            0.607566773891449,
                            0.607566773891449,
                            0.607566773891449,
                            0.607566773891449,
                            0.5,
                            0.5,
                            0.8196125626564026,
                            0.0,
                            0.0,
                            0.0,
                            0.0,
                            0.0
                        ]
                    },
                    {
                        "triggerTime_ms": 4158,
                        "faceAngle": 0.0,
                        "faceCenterX": 0.0,
                        "faceCenterY": -15.202447891235352,
                        "faceScaleX": 1.0,
                        "faceScaleY": 1.0,
                        "leftEye": [
                            9.169666290283203,
                            -7.1392598152160645,
                            1.214332938194275,
                            0.9052804112434387,
                            0.0,
                            0.5,
                            0.5,
                            0.607566773891449,
                            0.607566773891449,
                            0.607566773891449,
                            0.607566773891449,
                            0.5,
                            0.5,
                            0.7493976354598999,
                            0.0,
                            0.0,
                            0.0,
                            0.0,
                            0.0
                        ],
                        "rightEye": [
                            -10.206374168395996,
                            -7.581854343414307,
                            1.2220369577407837,
                            0.9052804112434387,
                            0.0,
                            0.5,
                            0.5,
                            0.607566773891449,
                            0.607566773891449,
                            0.607566773891449,
                            0.607566773891449,
                            0.5,
                            0.5,
                            0.8196125626564026,
                            0.0,
                            0.0,
                            0.0,
                            0.0,
                            0.0
                        ]
                    }
                ],
                "HeadAngleKeyFrame": [
                    {
                        "triggerTime_ms": 0,
                        "durationTime_ms": 132,
                        "angle_deg": 0,
                        "angleVariability_deg": 0
                    },
                    {
                        "triggerTime_ms": 132,
                        "durationTime_ms": 363,
                        "angle_deg": -20,
                        "angleVariability_deg": 0
                    },
                    {
                        "triggerTime_ms": 1089,
                        "durationTime_ms": 462,
                        "angle_deg": 13,
                        "angleVariability_deg": 0
                    },
                    {
                        "triggerTime_ms": 1551,
                        "durationTime_ms": 66,
                        "angle_deg": 13,
                        "angleVariability_deg": 0
                    },
                    {
                        "triggerTime_ms": 2475,
                        "durationTime_ms": 66,
                        "angle_deg": 10,
                        "angleVariability_deg": 0
                    },
                    {
                        "triggerTime_ms": 2541,
                        "durationTime_ms": 99,
                        "angle_deg": 13,
                        "angleVariability_deg": 0
                    },
                    {
                        "triggerTime_ms": 3630,
                        "durationTime_ms": 297,
                        "angle_deg": 8,
                        "angleVariability_deg": 0
                    },
                    {
                        "triggerTime_ms": 3927,
                        "durationTime_ms": 231,
                        "angle_deg": 6,
                        "angleVariability_deg": 0
                    }
                ],
                "RobotAudioKeyFrame": [
                    {
                        "triggerTime_ms": 231,
                        "audioEventId": [
                            3613386685
                        ],
                        "volume": 1.0,
                        "probability": [
                            1.0
                        ],
                        "hasAlts": true
                    },
                    {
                        "triggerTime_ms": 1254,
                        "audioEventId": [
                            2974471057
                        ],
                        "volume": 1.0,
                        "probability": [
                            1.0
                        ],
                        "hasAlts": true
                    },
                    {
                        "triggerTime_ms": 1419,
                        "audioEventId": [
                            2741090610
                        ],
                        "volume": 1.0,
                        "probability": [
                            1.0
                        ],
                        "hasAlts": true
                    },
                    {
                        "triggerTime_ms": 2541,
                        "audioEventId": [
                            105427450
                        ],
                        "volume": 1.0,
                        "probability": [
                            1.0
                        ],
                        "hasAlts": true
                    }
                ],
                "BackpackLightsKeyFrame": [],
                "FaceAnimationKeyFrame": [],
                "EventKeyFrame": [],
                "BodyMotionKeyFrame": [
                    {
                        "triggerTime_ms": 330,
                        "durationTime_ms": 297,
                        "radius_mm": "STRAIGHT",
                        "speed": 31
                    },
                    {
                        "triggerTime_ms": 627,
                        "durationTime_ms": 198,
                        "radius_mm": "STRAIGHT",
                        "speed": 6
                    },
                    {
                        "triggerTime_ms": 825,
                        "durationTime_ms": 165,
                        "radius_mm": "STRAIGHT",
                        "speed": -41
                    },
                    {
                        "triggerTime_ms": 990,
                        "durationTime_ms": 99,
                        "radius_mm": "STRAIGHT",
                        "speed": -8
                    },
                    {
                        "triggerTime_ms": 1452,
                        "durationTime_ms": 165,
                        "radius_mm": "STRAIGHT",
                        "speed": -33
                    },
                    {
                        "triggerTime_ms": 1617,
                        "durationTime_ms": 99,
                        "radius_mm": "STRAIGHT",
                        "speed": 6
                    },
                    {
                        "triggerTime_ms": 3729,
                        "durationTime_ms": 264,
                        "radius_mm": "STRAIGHT",
                        "speed": -13
                    },
                    {
                        "triggerTime_ms": 3993,
                        "durationTime_ms": 165,
                        "radius_mm": "STRAIGHT",
                        "speed": -1
                    }
                ],
                "RecordHeadingKeyFrame": [],
                "TurnToRecordedHeadingKeyFrame": []
            }
        }
    ]
}