{
    "clips": [
        {
            "Name": "anim_hiking_edgesquintgetin_01",
            "keyframes": {
                "LiftHeightKeyFrame": [],
                "ProceduralFaceKeyFrame": [
                    {
                        "triggerTime_ms": 0,
                        "faceAngle": 0.0,
                        "faceCenterX": 0.0,
                        "faceCenterY": 0.0,
                        "faceScaleX": 1.0,
                        "faceScaleY": 1.0,
                        "leftEye": [
                            9.169666290283203,
                            0.0,
                            1.214332938194275,
                            0.9052804112434387,
                            0.0,
                            0.5,
                            0.5,
                            0.5,
                            0.5,
                            0.5,
                            0.5,
                            0.5,
                            0.5,
                            0.0,
                            0.0,
                            0.0,
                            0.0,
                            0.0,
                            0.0
                        ],
                        "rightEye": [
                            -10.206374168395996,
                            0.0,
                            1.2220369577407837,
                            0.9052804112434387,
                            0.0,
                            0.5,
                            0.5,
                            0.5,
                            0.5,
                            0.5,
                            0.5,
                            0.5,
                            0.5,
                            0.0,
                            0.0,
                            0.0,
                            0.0,
                            0.0,
                            0.0
                        ]
                    },
                    {
                        "triggerTime_ms": 99,
                        "faceAngle": 0.0,
                        "faceCenterX": 0.0,
                        "faceCenterY": 0.0,
                        "faceScaleX": 1.0,
                        "faceScaleY": 1.0,
                        "leftEye": [
                            9.169666290283203,
                            0.0,
                            1.214332938194275,
                            0.9052804112434387,
                            0.0,
                            0.5,
                            0.5,
                            0.5,
                            0.5,
                            0.5,
                            0.5,
                            0.5,
                            0.5,
                            0.0,
                            0.0,
                            0.0,
                            0.0,
                            0.0,
                            0.0
                        ],
                        "rightEye": [
                            -10.206374168395996,
                            0.0,
                            1.2220369577407837,
                            0.9052804112434387,
                            0.0,
                            0.5,
                            0.5,
                            0.5,
                            0.5,
                            0.5,
                            0.5,
                            0.5,
                            0.5,
                            0.0,
                            0.0,
                            0.0,
                            0.0,
                            0.0,
                            0.0
                        ]
                    },
                    {
                        "triggerTime_ms": 198,
                        "faceAngle": 0.0,
                        "faceCenterX": 0.0,
                        "faceCenterY": 0.0,
                        "faceScaleX": 1.0,
                        "faceScaleY": 1.0,
                        "leftEye": [
                            9.169666290283203,
                            0.0,
                            1.214332938194275,
                            0.9052804112434387,
                            0.0,
                            0.5,
                            0.5,
                            0.5,
                            0.5,
                            0.5,
                            0.5,
                            0.5,
                            0.5,
                            0.0,
                            0.0,
                            0.0,
                            0.0,
                            0.0,
                            0.0
                        ],
                        "rightEye": [
                            -10.206374168395996,
                            0.0,
                            1.2220369577407837,
                            0.9052804112434387,
                            0.0,
                            0.5,
                            0.5,
                            0.5,
                            0.5,
                            0.5,
                            0.5,
                            0.5,
                            0.5,
                            0.0,
                            0.0,
                            0.0,
                            0.0,
                            0.0,
                            0.0
                        ]
                    },
                    {
                        "triggerTime_ms": 231,
                        "faceAngle": 0.0,
                        "faceCenterX": 1.18024480342865,
                        "faceCenterY": 12.247025489807129,
                        "faceScaleX": 1.2045998573303223,
                        "faceScaleY": 0.7686663269996643,
                        "leftEye": [
                            16.714120864868164,
                            0.34231165051460266,
                            1.30036199092865,
                            0.804384171962738,
                            0.0,
                            0.4377177655696869,
                            0.4377177655696869,
                            0.4377177655696869,
                            0.4377177655696869,
                            0.4377177655696869,
                            0.4377177655696869,
                            0.4377177655696869,
                            0.4377177655696869,
                            0.0,
                            0.0,
                            0.0,
                            0.0,
                            0.0,
                            0.0
                        ],
                        "rightEye": [
                            -4.9859418869018555,
                            -0.4078260064125061,
                            1.2550896406173706,
                            0.8472986221313477,
                            0.0,
                            0.3774999976158142,
                            0.3774999976158142,
                            0.3774999976158142,
                            0.3774999976158142,
                            0.3774999976158142,
                            0.3774999976158142,
                            0.3774999976158142,
                            0.3774999976158142,
                            0.0,
                            0.0,
                            0.0,
                            0.0,
                            0.0,
                            0.0
                        ]
                    },
                    {
                        "triggerTime_ms": 264,
                        "faceAngle": 0.0,
                        "faceCenterX": -0.23760245740413666,
                        "faceCenterY": 16.33774757385254,
                        "faceScaleX": 1.4091997146606445,
                        "faceScaleY": 0.5373326539993286,
                        "leftEye": [
                            12.003162384033203,
                            0.7224477529525757,
                            1.386391043663025,
                            0.8972259759902954,
                            0.0,
                            0.295145183801651,
                            0.295145183801651,
                            0.295145183801651,
                            0.295145183801651,
                            0.295145183801651,
                            0.295145183801651,
                            0.295145183801651,
                            0.295145183801651,
                            0.0,
                            0.0,
                            0.0,
                            0.0,
                            0.0,
                            0.0
                        ],
                        "rightEye": [
                            -8.318923950195312,
                            0.02427018992602825,
                            1.2881423234939575,
                            0.9187648296356201,
                            0.0,
                            0.2549999952316284,
                            0.2549999952316284,
                            0.2549999952316284,
                            0.2549999952316284,
                            0.2549999952316284,
                            0.2549999952316284,
                            0.2549999952316284,
                            0.2549999952316284,
                            0.0,
                            0.0,
                            0.0,
                            0.0,
                            0.0,
                            0.0
                        ]
                    },
                    {
                        "triggerTime_ms": 396,
                        "faceAngle": 0.0,
                        "faceCenterX": -0.40224403142929077,
                        "faceCenterY": 9.75503921508789,
                        "faceScaleX": 1.0678070783615112,
                        "faceScaleY": 1.1128133535385132,
                        "leftEye": [
                            9.169666290283203,
                            -0.8992766737937927,
                            1.1918162107467651,
                            0.9501301646232605,
                            0.0,
                            0.5,
                            0.5,
                            0.5,
                            0.5,
                            0.5,
                            0.5,
                            0.5,
                            0.5,
                            0.0,
                            0.0,
                            0.0,
                            0.0,
                            0.0,
                            0.0
                        ],
                        "rightEye": [
                            -15.558992385864258,
                            0.011888939887285233,
                            1.1524056196212769,
                            0.8885842561721802,
                            0.0,
                            0.5,
                            0.5,
                            0.5,
                            0.5,
                            0.5,
                            0.5,
                            0.5,
                            0.5,
                            0.0,
                            0.0,
                            0.0,
                            0.0,
                            0.0,
                            0.0
                        ]
                    },
                    {
                        "triggerTime_ms": 495,
                        "faceAngle": 0.0,
                        "faceCenterX": -0.3870161771774292,
                        "faceCenterY": 8.989754676818848,
                        "faceScaleX": 1.0627843141555786,
                        "faceScaleY": 1.115208387374878,
                        "leftEye": [
                            9.169666290283203,
                            -0.8992766737937927,
                            1.1918162107467651,
                            0.9470818042755127,
                            0.0,
                            0.5,
                            0.5,
                            0.5,
                            0.5,
                            0.5,
                            0.5,
                            0.5,
                            0.5,
                            0.0,
                            0.0,
                            0.0,
                            0.0,
                            0.0,
                            0.0
                        ],
                        "rightEye": [
                            -15.589630126953125,
                            0.011888939887285233,
                            1.1511144638061523,
                            0.8873255848884583,
                            0.0,
                            0.5,
                            0.5,
                            0.5,
                            0.5,
                            0.5,
                            0.5,
                            0.5,
                            0.5,
                            0.0,
                            0.0,
                            0.0,
                            0.0,
                            0.0,
                            0.0
                        ]
                    },
                    {
                        "triggerTime_ms": 594,
                        "faceAngle": 0.0,
                        "faceCenterX": -0.34529173374176025,
                        "faceCenterY": 8.686668395996094,
                        "faceScaleX": 1.0490219593048096,
                        "faceScaleY": 1.1217707395553589,
                        "leftEye": [
                            9.169666290283203,
                            -0.8992766737937927,
                            1.1918162107467651,
                            0.9387295246124268,
                            0.0,
                            0.5,
                            0.5,
                            0.5,
                            0.5,
                            0.5,
                            0.5,
                            0.5,
                            0.5,
                            0.0,
                            0.0,
                            0.0,
                            0.0,
                            0.0,
                            0.0
                        ],
                        "rightEye": [
                            -15.673577308654785,
                            0.011888939887285233,
                            1.1475768089294434,
                            0.8838768005371094,
                            0.0,
                            0.5,
                            0.5,
                            0.5,
                            0.5,
                            0.5,
                            0.5,
                            0.5,
                            0.5,
                            0.0,
                            0.0,
                            0.0,
                            0.0,
                            0.0,
                            0.0
                        ]
                    },
                    {
                        "triggerTime_ms": 693,
                        "faceAngle": 0.0,
                        "faceCenterX": -0.30065497756004333,
                        "faceCenterY": 8.45151138305664,
                        "faceScaleX": 1.0342991352081299,
                        "faceScaleY": 1.1287912130355835,
                        "leftEye": [
                            9.169666290283203,
                            -0.8992766737937927,
                            1.1918162107467651,
                            0.929794192314148,
                            0.0,
                            0.5,
                            0.5,
                            0.5,
                            0.5,
                            0.5,
                            0.5,
                            0.5,
                            0.5,
                            0.0,
                            0.0,
                            0.0,
                            0.0,
                            0.0,
                            0.0
                        ],
                        "rightEye": [
                            -15.763385772705078,
                            0.011888939887285233,
                            1.1437921524047852,
                            0.8801872730255127,
                            0.0,
                            0.5,
                            0.5,
                            0.5,
                            0.5,
                            0.5,
                            0.5,
                            0.5,
                            0.5,
                            0.0,
                            0.0,
                            0.0,
                            0.0,
                            0.0,
                            0.0
                        ]
                    },
                    {
                        "triggerTime_ms": 825,
                        "faceAngle": 0.0,
                        "faceCenterX": -0.24200066924095154,
                        "faceCenterY": 8.160629272460938,
                        "faceScaleX": 1.0149526596069336,
                        "faceScaleY": 1.1380163431167603,
                        "leftEye": [
                            9.169666290283203,
                            -0.8992766737937927,
                            1.1918162107467651,
                            0.9180527925491333,
                            0.0,
                            0.5,
                            0.5,
                            0.5,
                            0.5,
                            0.5,
                            0.5,
                            0.5,
                            0.5,
                            0.0,
                            0.0,
                            0.0,
                            0.0,
                            0.0,
                            0.0
                        ],
                        "rightEye": [
                            -15.881396293640137,
                            0.011888939887285233,
                            1.1388190984725952,
                            0.8753390908241272,
                            0.0,
                            0.5,
                            0.5,
                            0.5,
                            0.5,
                            0.5,
                            0.5,
                            0.5,
                            0.5,
                            0.0,
                            0.0,
                            0.0,
                            0.0,
                            0.0,
                            0.0
                        ]
                    },
                    {
                        "triggerTime_ms": 990,
                        "faceAngle": 0.0,
                        "faceCenterX": -0.19666752219200134,
                        "faceCenterY": 7.938539505004883,
                        "faceScaleX": 1.0,
                        "faceScaleY": 1.1451462507247925,
                        "leftEye": [
                            9.169666290283203,
                            -0.8992766737937927,
                            1.1918162107467651,
                            0.9089780449867249,
                            0.0,
                            0.5,
                            0.5,
                            0.5,
                            0.5,
                            0.5,
                            0.5,
                            0.5,
                            0.5,
                            0.0,
                            0.0,
                            0.0,
                            0.0,
                            0.0,
                            0.0
                        ],
                        "rightEye": [
                            -15.972604751586914,
                            0.011888939887285233,
                            1.1349754333496094,
                            0.8715919852256775,
                            0.0,
                            0.5,
                            0.5,
                            0.5,
                            0.5,
                            0.5,
                            0.5,
                            0.5,
                            0.5,
                            0.0,
                            0.0,
                            0.0,
                            0.0,
                            0.0,
                            0.0
                        ]
                    },
                    {
                        "triggerTime_ms": 1122,
                        "faceAngle": 0.0,
                        "faceCenterX": -0.19666752219200134,
                        "faceCenterY": 7.938539505004883,
                        "faceScaleX": 1.0,
                        "faceScaleY": 1.1451462507247925,
                        "leftEye": [
                            9.169666290283203,
                            -0.8992766737937927,
                            1.1918162107467651,
                            0.9089780449867249,
                            0.0,
                            0.5,
                            0.5,
                            0.5,
                            0.5,
                            0.5,
                            0.5,
                            0.5,
                            0.5,
                            0.0,
                            0.0,
                            0.0,
                            0.0,
                            0.0,
                            0.0
                        ],
                        "rightEye": [
                            -15.972604751586914,
                            0.011888939887285233,
                            1.1349754333496094,
                            0.8715919852256775,
                            0.0,
                            0.5,
                            0.5,
                            0.5,
                            0.5,
                            0.5,
                            0.5,
                            0.5,
                            0.5,
                            0.0,
                            0.0,
                            0.0,
                            0.0,
                            0.0,
                            0.0
                        ]
                    },
                    {
                        "triggerTime_ms": 1155,
                        "faceAngle": 0.0,
                        "faceCenterX": -0.19666752219200134,
                        "faceCenterY": 7.938539505004883,
                        "faceScaleX": 1.0,
                        "faceScaleY": 1.1451462507247925,
                        "leftEye": [
                            9.169666290283203,
                            -0.8992766737937927,
                            1.1918162107467651,
                            0.9089780449867249,
                            0.0,
                            0.5,
                            0.5,
                            0.5,
                            0.5,
                            0.5,
                            0.5,
                            0.5,
                            0.5,
                            0.0,
                            0.0,
                            0.0,
                            0.0,
                            0.0,
                            0.0
                        ],
                        "rightEye": [
                            -15.972604751586914,
                            0.011888939887285233,
                            1.1349754333496094,
                            0.8715919852256775,
                            0.0,
                            0.5,
                            0.5,
                            0.5,
                            0.5,
                            0.5,
                            0.5,
                            0.5,
                            0.5,
                            0.0,
                            0.0,
                            0.0,
                            0.0,
                            0.0,
                            0.0
                        ]
                    },
                    {
                        "triggerTime_ms": 1254,
                        "faceAngle": 0.0,
                        "faceCenterX": -0.18350663781166077,
                        "faceCenterY": 8.001546859741211,
                        "faceScaleX": 1.0,
                        "faceScaleY": 1.1451462507247925,
                        "leftEye": [
                            9.178085327148438,
                            -0.8390976190567017,
                            1.1933231353759766,
                            0.889689028263092,
                            0.0,
                            0.5,
                            0.5,
                            0.5237632989883423,
                            0.5237632989883423,
                            0.5237632989883423,
                            0.5237632989883423,
                            0.5,
                            0.5,
                            0.00920909270644188,
                            0.0,
                            0.0,
                            0.03484027832746506,
                            0.30673596262931824,
                            0.0
                        ],
                        "rightEye": [
                            -15.860465049743652,
                            0.010190644301474094,
                            1.1408015489578247,
                            0.8548048138618469,
                            0.0,
                            0.5,
                            0.5,
                            0.5237632989883423,
                            0.5237632989883423,
                            0.5237632989883423,
                            0.5237632989883423,
                            0.5,
                            0.5,
                            0.009951472282409668,
                            0.0,
                            0.0,
                            0.03259197995066643,
                            0.30673596262931824,
                            0.0
                        ]
                    },
                    {
                        "triggerTime_ms": 1452,
                        "faceAngle": 0.0,
                        "faceCenterX": -0.10118399560451508,
                        "faceCenterY": 8.268680572509766,
                        "faceScaleX": 1.0,
                        "faceScaleY": 1.1451462507247925,
                        "leftEye": [
                            9.242996215820312,
                            -0.4626712501049042,
                            1.2027482986450195,
                            0.7690338492393494,
                            0.0,
                            0.5,
                            0.5,
                            0.6724051833152771,
                            0.6724051833152771,
                            0.6724051833152771,
                            0.6724051833152771,
                            0.5,
                            0.5,
                            0.06681293249130249,
                            0.0,
                            0.0,
                            0.2084483504295349,
                            2.2254016399383545,
                            0.0
                        ],
                        "rightEye": [
                            -15.159017562866211,
                            0.005499695893377066,
                            1.1772444248199463,
                            0.7497990131378174,
                            0.0,
                            0.5,
                            0.5,
                            0.6724051833152771,
                            0.6724051833152771,
                            0.6724051833152771,
                            0.6724051833152771,
                            0.5,
                            0.5,
                            0.07219897210597992,
                            0.0,
                            0.0,
                            0.19342103600502014,
                            2.2254016399383545,
                            0.0
                        ]
                    },
                    {
                        "triggerTime_ms": 1584,
                        "faceAngle": 0.0,
                        "faceCenterX": -0.04905162379145622,
                        "faceCenterY": 8.469327926635742,
                        "faceScaleX": 1.0,
                        "faceScaleY": 1.1451462507247925,
                        "leftEye": [
                            9.303753852844238,
                            -0.22429214417934418,
                            1.2087169885635376,
                            0.6926267147064209,
                            0.0,
                            0.5,
                            0.5,
                            0.7665354013442993,
                            0.7665354013442993,
                            0.7665354013442993,
                            0.7665354013442993,
                            0.5,
                            0.5,
                            0.10329166054725647,
                            0.0,
                            0.0,
                            0.3356754779815674,
                            3.4404330253601074,
                            0.0
                        ],
                        "rightEye": [
                            -14.714811325073242,
                            0.002646644599735737,
                            1.2003226280212402,
                            0.683302104473114,
                            0.0,
                            0.5,
                            0.5,
                            0.7665354013442993,
                            0.7665354013442993,
                            0.7665354013442993,
                            0.7665354013442993,
                            0.5,
                            0.5,
                            0.11161838471889496,
                            0.0,
                            0.0,
                            0.31205472350120544,
                            3.4404330253601074,
                            0.0
                        ]
                    },
                    {
                        "triggerTime_ms": 1782,
                        "faceAngle": 0.0,
                        "faceCenterX": 0.0,
                        "faceCenterY": 8.89870548248291,
                        "faceScaleX": 1.0,
                        "faceScaleY": 1.1451462507247925,
                        "leftEye": [
                            9.421220779418945,
                            0.0,
                            1.214332938194275,
                            0.6207348108291626,
                            0.0,
                            0.5,
                            0.5,
                            0.8551031351089478,
                            0.8551031351089478,
                            0.8551031351089478,
                            0.8551031351089478,
                            0.5,
                            0.5,
                            0.1376146823167801,
                            0.0,
                            0.0,
                            0.40084248781204224,
                            4.583662509918213,
                            0.0
                        ],
                        "rightEye": [
                            -14.296857833862305,
                            0.0,
                            1.2220369577407837,
                            0.6207348108291626,
                            0.0,
                            0.5,
                            0.5,
                            0.8551031351089478,
                            0.8551031351089478,
                            0.8551031351089478,
                            0.8551031351089478,
                            0.5,
                            0.5,
                            0.1487082988023758,
                            0.0,
                            0.0,
                            0.37071654200553894,
                            4.583662509918213,
                            0.0
                        ]
                    },
                    {
                        "triggerTime_ms": 1914,
                        "faceAngle": 0.0,
                        "faceCenterX": 0.0,
                        "faceCenterY": 9.451287269592285,
                        "faceScaleX": 1.0,
                        "faceScaleY": 1.1451462507247925,
                        "leftEye": [
                            9.546402931213379,
                            0.0,
                            1.214332938194275,
                            0.6207348108291626,
                            0.0,
                            0.5,
                            0.5,
                            0.8551031351089478,
                            0.8551031351089478,
                            0.8551031351089478,
                            0.8551031351089478,
                            0.5,
                            0.5,
                            0.1376146823167801,
                            0.0,
                            0.0,
                            0.40084248781204224,
                            4.583662509918213,
                            0.0
                        ],
                        "rightEye": [
                            -14.255549430847168,
                            0.0,
                            1.2220369577407837,
                            0.6207348108291626,
                            0.0,
                            0.5,
                            0.5,
                            0.8551031351089478,
                            0.8551031351089478,
                            0.8551031351089478,
                            0.8551031351089478,
                            0.5,
                            0.5,
                            0.1487082988023758,
                            0.0,
                            0.0,
                            0.37071654200553894,
                            4.583662509918213,
                            0.0
                        ]
                    },
                    {
                        "triggerTime_ms": 2079,
                        "faceAngle": 0.0,
                        "faceCenterX": 0.0,
                        "faceCenterY": 10.206337928771973,
                        "faceScaleX": 1.0,
                        "faceScaleY": 1.1451462507247925,
                        "leftEye": [
                            9.714112281799316,
                            0.0,
                            1.214332938194275,
                            0.6207348108291626,
                            0.0,
                            0.5,
                            0.5,
                            0.8551031351089478,
                            0.8551031351089478,
                            0.8551031351089478,
                            0.8551031351089478,
                            0.5,
                            0.5,
                            0.1376146823167801,
                            0.0,
                            0.0,
                            0.40084248781204224,
                            4.583662509918213,
                            0.0
                        ],
                        "rightEye": [
                            -14.121901512145996,
                            0.0,
                            1.2220369577407837,
                            0.6207348108291626,
                            0.0,
                            0.5,
                            0.5,
                            0.8551031351089478,
                            0.8551031351089478,
                            0.8551031351089478,
                            0.8551031351089478,
                            0.5,
                            0.5,
                            0.1487082988023758,
                            0.0,
                            0.0,
                            0.37071654200553894,
                            4.583662509918213,
                            0.0
                        ]
                    },
                    {
                        "triggerTime_ms": 2244,
                        "faceAngle": 0.0,
                        "faceCenterX": 0.0,
                        "faceCenterY": 10.925677299499512,
                        "faceScaleX": 1.0,
                        "faceScaleY": 1.1451462507247925,
                        "leftEye": [
                            9.873468399047852,
                            0.0,
                            1.214332938194275,
                            0.6207348108291626,
                            0.0,
                            0.5,
                            0.5,
                            0.8551031351089478,
                            0.8551031351089478,
                            0.8551031351089478,
                            0.8551031351089478,
                            0.5,
                            0.5,
                            0.1376146823167801,
                            0.0,
                            0.0,
                            0.40084248781204224,
                            4.583662509918213,
                            0.0
                        ],
                        "rightEye": [
                            -13.984820365905762,
                            0.0,
                            1.2220369577407837,
                            0.6207348108291626,
                            0.0,
                            0.5,
                            0.5,
                            0.8551031351089478,
                            0.8551031351089478,
                            0.8551031351089478,
                            0.8551031351089478,
                            0.5,
                            0.5,
                            0.1487082988023758,
                            0.0,
                            0.0,
                            0.37071654200553894,
                            4.583662509918213,
                            0.0
                        ]
                    },
                    {
                        "triggerTime_ms": 2376,
                        "faceAngle": 0.0,
                        "faceCenterX": 0.0,
                        "faceCenterY": 11.391963958740234,
                        "faceScaleX": 1.0,
                        "faceScaleY": 1.1451462507247925,
                        "leftEye": [
                            9.976702690124512,
                            0.0,
                            1.214332938194275,
                            0.6207348108291626,
                            0.0,
                            0.5,
                            0.5,
                            0.8551031351089478,
                            0.8551031351089478,
                            0.8551031351089478,
                            0.8551031351089478,
                            0.5,
                            0.5,
                            0.1376146823167801,
                            0.0,
                            0.0,
                            0.40084248781204224,
                            4.583662509918213,
                            0.0
                        ],
                        "rightEye": [
                            -13.894524574279785,
                            0.0,
                            1.2220369577407837,
                            0.6207348108291626,
                            0.0,
                            0.5,
                            0.5,
                            0.8551031351089478,
                            0.8551031351089478,
                            0.8551031351089478,
                            0.8551031351089478,
                            0.5,
                            0.5,
                            0.1487082988023758,
                            0.0,
                            0.0,
                            0.37071654200553894,
                            4.583662509918213,
                            0.0
                        ]
                    },
                    {
                        "triggerTime_ms": 2442,
                        "faceAngle": 0.0,
                        "faceCenterX": 0.0,
                        "faceCenterY": 11.53512191772461,
                        "faceScaleX": 1.0,
                        "faceScaleY": 1.1451462507247925,
                        "leftEye": [
                            10.008390426635742,
                            0.0,
                            1.214332938194275,
                            0.6207348108291626,
                            0.0,
                            0.5,
                            0.5,
                            0.8551031351089478,
                            0.8551031351089478,
                            0.8551031351089478,
                            0.8551031351089478,
                            0.5,
                            0.5,
                            0.1376146823167801,
                            0.0,
                            0.0,
                            0.40084248781204224,
                            4.583662509918213,
                            0.0
                        ],
                        "rightEye": [
                            -13.866646766662598,
                            0.0,
                            1.2220369577407837,
                            0.6207348108291626,
                            0.0,
                            0.5,
                            0.5,
                            0.8551031351089478,
                            0.8551031351089478,
                            0.8551031351089478,
                            0.8551031351089478,
                            0.5,
                            0.5,
                            0.1487082988023758,
                            0.0,
                            0.0,
                            0.37071654200553894,
                            4.583662509918213,
                            0.0
                        ]
                    }
                ],
                "HeadAngleKeyFrame": [],
                "RobotAudioKeyFrame": [
                    {
                        "triggerTime_ms": 264,
                        "audioEventId": [
                            1701725212
                        ],
                        "volume": 1.0,
                        "probability": [
                            1.0
                        ],
                        "hasAlts": true
                    },
                    {
                        "triggerTime_ms": 363,
                        "audioEventId": [
                            1609212516
                        ],
                        "volume": 1.0,
                        "probability": [
                            1.0
                        ],
                        "hasAlts": true
                    },
                    {
                        "triggerTime_ms": 1188,
                        "audioEventId": [
                            2057205297
                        ],
                        "volume": 1.0,
                        "probability": [
                            1.0
                        ],
                        "hasAlts": true
                    },
                    {
                        "triggerTime_ms": 1287,
                        "audioEventId": [
                            3031263429
                        ],
                        "volume": 1.0,
                        "probability": [
                            1.0
                        ],
                        "hasAlts": true
                    }
                ],
                "BackpackLightsKeyFrame": [],
                "FaceAnimationKeyFrame": [],
                "EventKeyFrame": [],
                "BodyMotionKeyFrame": [],
                "RecordHeadingKeyFrame": [],
                "TurnToRecordedHeadingKeyFrame": []
            }
        },
        {
            "Name": "anim_hiking_edgesquintloop_01",
            "keyframes": {
                "LiftHeightKeyFrame": [],
                "ProceduralFaceKeyFrame": [
                    {
                        "triggerTime_ms": 0,
                        "faceAngle": 0.0,
                        "faceCenterX": 0.0,
                        "faceCenterY": 11.558122634887695,
                        "faceScaleX": 1.0,
                        "faceScaleY": 1.1451462507247925,
                        "leftEye": [
                            10.013481140136719,
                            0.0,
                            1.214332938194275,
                            0.6207348108291626,
                            0.0,
                            0.5,
                            0.5,
                            0.8551031351089478,
                            0.8551031351089478,
                            0.8551031351089478,
                            0.8551031351089478,
                            0.5,
                            0.5,
                            0.1376146823167801,
                            0.0,
                            0.0,
                            0.40084248781204224,
                            4.583662509918213,
                            0.0
                        ],
                        "rightEye": [
                            -13.862146377563477,
                            0.0,
                            1.2220369577407837,
                            0.6207348108291626,
                            0.0,
                            0.5,
                            0.5,
                            0.8551031351089478,
                            0.8551031351089478,
                            0.8551031351089478,
                            0.8551031351089478,
                            0.5,
                            0.5,
                            0.1487082988023758,
                            0.0,
                            0.0,
                            0.37071654200553894,
                            4.583662509918213,
                            0.0
                        ]
                    },
                    {
                        "triggerTime_ms": 165,
                        "faceAngle": 0.0,
                        "faceCenterX": 0.0,
                        "faceCenterY": 11.558122634887695,
                        "faceScaleX": 1.0,
                        "faceScaleY": 1.1451462507247925,
                        "leftEye": [
                            10.013481140136719,
                            0.0,
                            1.214332938194275,
                            0.6207348108291626,
                            0.0,
                            0.5,
                            0.5,
                            0.8551031351089478,
                            0.8551031351089478,
                            0.8551031351089478,
                            0.8551031351089478,
                            0.5,
                            0.5,
                            0.1376146823167801,
                            0.0,
                            0.0,
                            0.40084248781204224,
                            4.583662509918213,
                            0.0
                        ],
                        "rightEye": [
                            -13.862146377563477,
                            0.0,
                            1.2220369577407837,
                            0.6207348108291626,
                            0.0,
                            0.5,
                            0.5,
                            0.8551031351089478,
                            0.8551031351089478,
                            0.8551031351089478,
                            0.8551031351089478,
                            0.5,
                            0.5,
                            0.1487082988023758,
                            0.0,
                            0.0,
                            0.37071654200553894,
                            4.583662509918213,
                            0.0
                        ]
                    },
                    {
                        "triggerTime_ms": 198,
                        "faceAngle": 0.0,
                        "faceCenterX": 3.6642606258392334,
                        "faceCenterY": 11.558122634887695,
                        "faceScaleX": 1.0,
                        "faceScaleY": 1.1451462507247925,
                        "leftEye": [
                            12.43986701965332,
                            0.0,
                            1.1923500299453735,
                            0.4320615231990814,
                            0.0,
                            0.5,
                            0.5,
                            0.8551031351089478,
                            0.8551031351089478,
                            0.8551031351089478,
                            0.8551031351089478,
                            0.5,
                            0.5,
                            0.1376146823167801,
                            0.0,
                            0.0,
                            0.423873633146286,
                            4.583662509918213,
                            0.0
                        ],
                        "rightEye": [
                            -11.035664558410645,
                            0.0,
                            1.207240104675293,
                            0.4515821933746338,
                            0.0,
                            0.5,
                            0.5,
                            0.8551031351089478,
                            0.8551031351089478,
                            0.8551031351089478,
                            0.8551031351089478,
                            0.5,
                            0.5,
                            0.1487082988023758,
                            0.0,
                            0.0,
                            0.39308029413223267,
                            4.583662509918213,
                            0.0
                        ]
                    },
                    {
                        "triggerTime_ms": 264,
                        "faceAngle": 0.0,
                        "faceCenterX": 3.8872907161712646,
                        "faceCenterY": 11.558122634887695,
                        "faceScaleX": 1.0,
                        "faceScaleY": 1.1451462507247925,
                        "leftEye": [
                            12.709346771240234,
                            0.0,
                            1.1902599334716797,
                            0.6692102551460266,
                            0.0,
                            0.5,
                            0.5,
                            0.8551031351089478,
                            0.8551031351089478,
                            0.8551031351089478,
                            0.8551031351089478,
                            0.5,
                            0.5,
                            0.1376146823167801,
                            0.0,
                            0.0,
                            0.4265311062335968,
                            4.583662509918213,
                            0.0
                        ],
                        "rightEye": [
                            -10.955849647521973,
                            0.0,
                            1.2066360712051392,
                            0.5956323146820068,
                            0.0,
                            0.5,
                            0.5,
                            0.8551031351089478,
                            0.8551031351089478,
                            0.8551031351089478,
                            0.8551031351089478,
                            0.5,
                            0.5,
                            0.1487082988023758,
                            0.0,
                            0.0,
                            0.39566075801849365,
                            4.583662509918213,
                            0.0
                        ]
                    },
                    {
                        "triggerTime_ms": 792,
                        "faceAngle": 0.0,
                        "faceCenterX": 3.8872907161712646,
                        "faceCenterY": 11.558122634887695,
                        "faceScaleX": 1.0,
                        "faceScaleY": 1.1451462507247925,
                        "leftEye": [
                            12.709346771240234,
                            0.0,
                            1.1902599334716797,
                            0.6692102551460266,
                            0.0,
                            0.5,
                            0.5,
                            0.8551031351089478,
                            0.8551031351089478,
                            0.8551031351089478,
                            0.8551031351089478,
                            0.5,
                            0.5,
                            0.1376146823167801,
                            0.0,
                            0.0,
                            0.4265311062335968,
                            4.583662509918213,
                            0.0
                        ],
                        "rightEye": [
                            -10.955849647521973,
                            0.0,
                            1.2066360712051392,
                            0.5956323146820068,
                            0.0,
                            0.5,
                            0.5,
                            0.8551031351089478,
                            0.8551031351089478,
                            0.8551031351089478,
                            0.8551031351089478,
                            0.5,
                            0.5,
                            0.1487082988023758,
                            0.0,
                            0.0,
                            0.39566075801849365,
                            4.583662509918213,
                            0.0
                        ]
                    },
                    {
                        "triggerTime_ms": 825,
                        "faceAngle": 0.0,
                        "faceCenterX": 0.14300113916397095,
                        "faceCenterY": 11.558122634887695,
                        "faceScaleX": 1.0,
                        "faceScaleY": 1.1451462507247925,
                        "leftEye": [
                            12.43986701965332,
                            0.0,
                            1.1923500299453735,
                            0.4320615231990814,
                            0.0,
                            0.5,
                            0.5,
                            0.8551031351089478,
                            0.8551031351089478,
                            0.8551031351089478,
                            0.8551031351089478,
                            0.5,
                            0.5,
                            0.1376146823167801,
                            0.0,
                            0.0,
                            0.423873633146286,
                            4.583662509918213,
                            0.0
                        ],
                        "rightEye": [
                            -11.035664558410645,
                            0.0,
                            1.207240104675293,
                            0.4515821933746338,
                            0.0,
                            0.5,
                            0.5,
                            0.8551031351089478,
                            0.8551031351089478,
                            0.8551031351089478,
                            0.8551031351089478,
                            0.5,
                            0.5,
                            0.1487082988023758,
                            0.0,
                            0.0,
                            0.39308029413223267,
                            4.583662509918213,
                            0.0
                        ]
                    },
                    {
                        "triggerTime_ms": 891,
                        "faceAngle": 0.0,
                        "faceCenterX": 0.0,
                        "faceCenterY": 11.558122634887695,
                        "faceScaleX": 1.0,
                        "faceScaleY": 1.1451462507247925,
                        "leftEye": [
                            10.013481140136719,
                            0.0,
                            1.214332938194275,
                            0.6207348108291626,
                            0.0,
                            0.5,
                            0.5,
                            0.8551031351089478,
                            0.8551031351089478,
                            0.8551031351089478,
                            0.8551031351089478,
                            0.5,
                            0.5,
                            0.1376146823167801,
                            0.0,
                            0.0,
                            0.40084248781204224,
                            4.583662509918213,
                            0.0
                        ],
                        "rightEye": [
                            -13.862771034240723,
                            0.0,
                            1.2220369577407837,
                            0.6207348108291626,
                            0.0,
                            0.5,
                            0.5,
                            0.8551031351089478,
                            0.8551031351089478,
                            0.8551031351089478,
                            0.8551031351089478,
                            0.5,
                            0.5,
                            0.1487082988023758,
                            0.0,
                            0.0,
                            0.37071654200553894,
                            4.583662509918213,
                            0.0
                        ]
                    },
                    {
                        "triggerTime_ms": 1122,
                        "faceAngle": 0.0,
                        "faceCenterX": 0.0,
                        "faceCenterY": 11.558122634887695,
                        "faceScaleX": 1.0,
                        "faceScaleY": 1.1451462507247925,
                        "leftEye": [
                            10.013481140136719,
                            0.0,
                            1.214332938194275,
                            0.6207348108291626,
                            0.0,
                            0.5,
                            0.5,
                            0.8551031351089478,
                            0.8551031351089478,
                            0.8551031351089478,
                            0.8551031351089478,
                            0.5,
                            0.5,
                            0.1376146823167801,
                            0.0,
                            0.0,
                            0.40084248781204224,
                            4.583662509918213,
                            0.0
                        ],
                        "rightEye": [
                            -13.862146377563477,
                            0.0,
                            1.2220369577407837,
                            0.6207348108291626,
                            0.0,
                            0.5,
                            0.5,
                            0.8551031351089478,
                            0.8551031351089478,
                            0.8551031351089478,
                            0.8551031351089478,
                            0.5,
                            0.5,
                            0.1487082988023758,
                            0.0,
                            0.0,
                            0.37071654200553894,
                            4.583662509918213,
                            0.0
                        ]
                    }
                ],
                "HeadAngleKeyFrame": [],
                "RobotAudioKeyFrame": [
                    {
                        "triggerTime_ms": 165,
                        "audioEventId": [
                            2347235575
                        ],
                        "volume": 1.0,
                        "probability": [
                            1.0
                        ],
                        "hasAlts": true
                    },
                    {
                        "triggerTime_ms": 792,
                        "audioEventId": [
                            2347235575
                        ],
                        "volume": 1.0,
                        "probability": [
                            1.0
                        ],
                        "hasAlts": true
                    }
                ],
                "BackpackLightsKeyFrame": [],
                "FaceAnimationKeyFrame": [],
                "EventKeyFrame": [],
                "BodyMotionKeyFrame": [],
                "RecordHeadingKeyFrame": [],
                "TurnToRecordedHeadingKeyFrame": []
            }
        },
        {
            "Name": "anim_hiking_edgesquintgetout_01",
            "keyframes": {
                "LiftHeightKeyFrame": [],
                "ProceduralFaceKeyFrame": [
                    {
                        "triggerTime_ms": 0,
                        "faceAngle": 0.0,
                        "faceCenterX": 0.0,
                        "faceCenterY": 11.558122634887695,
                        "faceScaleX": 1.0,
                        "faceScaleY": 1.1451462507247925,
                        "leftEye": [
                            10.013481140136719,
                            0.0,
                            1.214332938194275,
                            0.6207348108291626,
                            0.0,
                            0.5,
                            0.5,
                            0.8551031351089478,
                            0.8551031351089478,
                            0.8551031351089478,
                            0.8551031351089478,
                            0.5,
                            0.5,
                            0.1376146823167801,
                            0.0,
                            0.0,
                            0.40084248781204224,
                            4.583662509918213,
                            0.0
                        ],
                        "rightEye": [
                            -13.862810134887695,
                            0.0,
                            1.2220369577407837,
                            0.6207348108291626,
                            0.0,
                            0.5,
                            0.5,
                            0.8551031351089478,
                            0.8551031351089478,
                            0.8551031351089478,
                            0.8551031351089478,
                            0.5,
                            0.5,
                            0.1487082988023758,
                            0.0,
                            0.0,
                            0.37071654200553894,
                            4.583662509918213,
                            0.0
                        ]
                    },
                    {
                        "triggerTime_ms": 66,
                        "faceAngle": 0.0,
                        "faceCenterX": 0.0,
                        "faceCenterY": 11.558122634887695,
                        "faceScaleX": 1.0,
                        "faceScaleY": 1.1451462507247925,
                        "leftEye": [
                            10.013481140136719,
                            0.0,
                            1.214332938194275,
                            0.6207348108291626,
                            0.0,
                            0.5,
                            0.5,
                            0.8551031351089478,
                            0.8551031351089478,
                            0.8551031351089478,
                            0.8551031351089478,
                            0.5,
                            0.5,
                            0.1376146823167801,
                            0.0,
                            0.0,
                            0.40084248781204224,
                            4.583662509918213,
                            0.0
                        ],
                        "rightEye": [
                            -13.862810134887695,
                            0.0,
                            1.2220369577407837,
                            0.6207348108291626,
                            0.0,
                            0.5,
                            0.5,
                            0.8551031351089478,
                            0.8551031351089478,
                            0.8551031351089478,
                            0.8551031351089478,
                            0.5,
                            0.5,
                            0.1487082988023758,
                            0.0,
                            0.0,
                            0.37071654200553894,
                            4.583662509918213,
                            0.0
                        ]
                    },
                    {
                        "triggerTime_ms": 99,
                        "faceAngle": 0.0,
                        "faceCenterX": 1.4206064939498901,
                        "faceCenterY": 11.613008499145508,
                        "faceScaleX": 0.9805749654769897,
                        "faceScaleY": 1.169920563697815,
                        "leftEye": [
                            9.988672256469727,
                            2.133157253265381,
                            1.3155677318572998,
                            0.7999396324157715,
                            0.0,
                            0.5,
                            0.5,
                            0.7504405975341797,
                            0.7320207953453064,
                            0.7254582643508911,
                            0.7320207953453064,
                            0.5,
                            0.5,
                            0.0688077062368393,
                            0.0,
                            0.0,
                            0.45983263850212097,
                            2.2918434143066406,
                            0.03981813043355942
                        ],
                        "rightEye": [
                            -11.416391372680664,
                            0.20017530024051666,
                            1.3119901418685913,
                            0.7446930408477783,
                            0.0,
                            0.5,
                            0.5,
                            0.7560546398162842,
                            0.7320207953453064,
                            0.761173665523529,
                            0.8569765686988831,
                            0.5,
                            0.5,
                            0.07435455173254013,
                            0.0,
                            0.0,
                            0.438928484916687,
                            2.2918434143066406,
                            0.03568126633763313
                        ]
                    },
                    {
                        "triggerTime_ms": 132,
                        "faceAngle": 0.0,
                        "faceCenterX": 2.225001096725464,
                        "faceCenterY": 12.644397735595703,
                        "faceScaleX": 0.9611497521400452,
                        "faceScaleY": 1.1965649127960205,
                        "leftEye": [
                            8.553426742553711,
                            4.2663373947143555,
                            1.3882449865341187,
                            0.9996808767318726,
                            0.0,
                            0.5,
                            0.5,
                            0.6457769870758057,
                            0.6089372038841248,
                            0.5958120226860046,
                            0.6089372038841248,
                            0.5,
                            0.5,
                            0.0,
                            0.0,
                            0.0,
                            0.5188233852386475,
                            0.0,
                            0.07963676005601883
                        ],
                        "rightEye": [
                            -9.92170524597168,
                            2.898298740386963,
                            1.4019441604614258,
                            0.9330204129219055,
                            0.0,
                            0.5,
                            0.5,
                            0.6570051908493042,
                            0.6089372038841248,
                            0.667243242263794,
                            0.8588500618934631,
                            0.5,
                            0.5,
                            0.0,
                            0.0,
                            0.0,
                            0.5071411728858948,
                            0.0,
                            0.07136297971010208
                        ]
                    },
                    {
                        "triggerTime_ms": 165,
                        "faceAngle": 0.0,
                        "faceCenterX": 2.225001096725464,
                        "faceCenterY": 12.953883171081543,
                        "faceScaleX": 0.9611497521400452,
                        "faceScaleY": 1.1965649127960205,
                        "leftEye": [
                            4.74384069442749,
                            4.2663373947143555,
                            1.3209198713302612,
                            1.0736007690429688,
                            0.0,
                            0.5,
                            0.5,
                            0.6457769870758057,
                            0.6089372038841248,
                            0.5958120226860046,
                            0.6089372038841248,
                            0.5,
                            0.5,
                            0.0,
                            0.0,
                            0.0,
                            0.5188233852386475,
                            0.0,
                            0.07963676005601883
                        ],
                        "rightEye": [
                            -7.354733943939209,
                            2.898298740386963,
                            1.3321990966796875,
                            1.0069403648376465,
                            0.0,
                            0.5,
                            0.5,
                            0.6570051908493042,
                            0.6089372038841248,
                            0.667243242263794,
                            0.8588500618934631,
                            0.5,
                            0.5,
                            0.0,
                            0.0,
                            0.0,
                            0.5071411728858948,
                            0.0,
                            0.07136297971010208
                        ]
                    },
                    {
                        "triggerTime_ms": 198,
                        "faceAngle": 0.0,
                        "faceCenterX": 0.5290546417236328,
                        "faceCenterY": 5.963191986083984,
                        "faceScaleX": 1.1734261512756348,
                        "faceScaleY": 0.42402613162994385,
                        "leftEye": [
                            6.956752777099609,
                            2.1331686973571777,
                            1.3104684352874756,
                            0.9052804112434387,
                            0.0,
                            0.27274197340011597,
                            0.27274197340011597,
                            0.356829434633255,
                            0.33620721101760864,
                            0.3279515206813812,
                            0.33620721101760864,
                            0.27274197340011597,
                            0.27274197340011597,
                            0.0,
                            0.0,
                            0.0,
                            0.3839591443538666,
                            0.0,
                            0.023884549736976624
                        ],
                        "rightEye": [
                            -8.780553817749023,
                            1.4491493701934814,
                            1.3216279745101929,
                            0.9052804112434387,
                            0.0,
                            0.27274197340011597,
                            0.27274197340011597,
                            0.3633189797401428,
                            0.33620721101760864,
                            0.36923617124557495,
                            0.48064786195755005,
                            0.27274197340011597,
                            0.27274197340011597,
                            0.0,
                            0.0,
                            0.0,
                            0.3813962936401367,
                            0.0,
                            0.023911911994218826
                        ]
                    },
                    {
                        "triggerTime_ms": 231,
                        "faceAngle": 0.0,
                        "faceCenterX": 0.8087096810340881,
                        "faceCenterY": 14.501934051513672,
                        "faceScaleX": 1.2387584447860718,
                        "faceScaleY": 0.07466530054807663,
                        "leftEye": [
                            9.169666290283203,
                            0.0,
                            1.558449149131775,
                            0.9052804112434387,
                            0.0,
                            0.2805355489253998,
                            0.2805355489253998,
                            0.3617393374443054,
                            0.34182432293891907,
                            0.33385175466537476,
                            0.34182432293891907,
                            0.2805355489253998,
                            0.2805355489253998,
                            0.0,
                            0.0,
                            0.0,
                            0.33778703212738037,
                            0.0,
                            0.016774827614426613
                        ],
                        "rightEye": [
                            -10.206374168395996,
                            0.0,
                            1.3680742979049683,
                            0.9052804112434387,
                            0.0,
                            0.2805355489253998,
                            0.2805355489253998,
                            0.36800631880760193,
                            0.34182432293891907,
                            0.37372058629989624,
                            0.48131152987480164,
                            0.2805355489253998,
                            0.2805355489253998,
                            0.0,
                            0.0,
                            0.0,
                            0.3360036313533783,
                            0.0,
                            0.017453225329518318
                        ]
                    },
                    {
                        "triggerTime_ms": 264,
                        "faceAngle": 0.0,
                        "faceCenterX": 0.0,
                        "faceCenterY": 20.07672119140625,
                        "faceScaleX": 1.818399429321289,
                        "faceScaleY": 0.07466530054807663,
                        "leftEye": [
                            9.703347206115723,
                            0.0,
                            1.558449149131775,
                            0.9052804112434387,
                            0.0,
                            0.3078664243221283,
                            0.3078664243221283,
                            0.3789575397968292,
                            0.3615226447582245,
                            0.35454291105270386,
                            0.3615226447582245,
                            0.3078664243221283,
                            0.3078664243221283,
                            0.0,
                            0.0,
                            0.0,
                            0.2977604866027832,
                            0.0,
                            0.014022152870893478
                        ],
                        "rightEye": [
                            -10.690312385559082,
                            0.0,
                            1.295055627822876,
                            0.9052804112434387,
                            0.0,
                            0.3078664243221283,
                            0.3078664243221283,
                            0.38444405794143677,
                            0.3615226447582245,
                            0.3894467353820801,
                            0.4836388826370239,
                            0.3078664243221283,
                            0.3078664243221283,
                            0.0,
                            0.0,
                            0.0,
                            0.2960645258426666,
                            0.0,
                            0.014669175259768963
                        ]
                    },
                    {
                        "triggerTime_ms": 297,
                        "faceAngle": 0.0,
                        "faceCenterX": 0.0,
                        "faceCenterY": 15.380037307739258,
                        "faceScaleX": 1.176682472229004,
                        "faceScaleY": 0.42043358087539673,
                        "leftEye": [
                            9.892297744750977,
                            0.0,
                            1.355303168296814,
                            0.9052804112434387,
                            0.0,
                            0.33866429328918457,
                            0.33866429328918457,
                            0.39835992455482483,
                            0.38371971249580383,
                            0.37785881757736206,
                            0.38371971249580383,
                            0.33866429328918457,
                            0.33866429328918457,
                            0.0,
                            0.0,
                            0.0,
                            0.2477586418390274,
                            0.0,
                            0.011704923585057259
                        ],
                        "rightEye": [
                            -10.961795806884766,
                            0.0,
                            1.2220369577407837,
                            0.9052804112434387,
                            0.0,
                            0.33866429328918457,
                            0.33866429328918457,
                            0.4029669761657715,
                            0.38371971249580383,
                            0.4071677625179291,
                            0.4862614572048187,
                            0.33866429328918457,
                            0.33866429328918457,
                            0.0,
                            0.0,
                            0.0,
                            0.24639245867729187,
                            0.0,
                            0.012253742665052414
                        ]
                    },
                    {
                        "triggerTime_ms": 363,
                        "faceAngle": 0.0,
                        "faceCenterX": 0.0,
                        "faceCenterY": 5.328335285186768,
                        "faceScaleX": 0.9145689606666565,
                        "faceScaleY": 1.0977808237075806,
                        "leftEye": [
                            10.478224754333496,
                            0.0,
                            1.214332938194275,
                            0.9052804112434387,
                            0.0,
                            0.4048899710178375,
                            0.4048899710178375,
                            0.44008153676986694,
                            0.43145090341567993,
                            0.42799580097198486,
                            0.43145090341567993,
                            0.4048899710178375,
                            0.4048899710178375,
                            0.0,
                            0.0,
                            0.0,
                            0.18478140234947205,
                            0.0,
                            0.006889696698635817
                        ],
                        "rightEye": [
                            -11.578417778015137,
                            0.0,
                            1.2220369577407837,
                            0.9052804112434387,
                            0.0,
                            0.4048899710178375,
                            0.4048899710178375,
                            0.4427974820137024,
                            0.43145090341567993,
                            0.44527387619018555,
                            0.4919009208679199,
                            0.4048899710178375,
                            0.4048899710178375,
                            0.0,
                            0.0,
                            0.0,
                            0.18285270035266876,
                            0.0,
                            0.007214045617729425
                        ]
                    },
                    {
                        "triggerTime_ms": 396,
                        "faceAngle": 0.0,
                        "faceCenterX": 0.0,
                        "faceCenterY": 3.0539045333862305,
                        "faceScaleX": 0.9279175400733948,
                        "faceScaleY": 1.0825026035308838,
                        "leftEye": [
                            10.614930152893066,
                            0.0,
                            1.214332938194275,
                            0.9052804112434387,
                            0.0,
                            0.43487614393234253,
                            0.43487614393234253,
                            0.4589725434780121,
                            0.4530629515647888,
                            0.4506971836090088,
                            0.4530629515647888,
                            0.43487614393234253,
                            0.43487614393234253,
                            0.0,
                            0.0,
                            0.0,
                            0.12650537490844727,
                            0.0,
                            0.004715879447758198
                        ],
                        "rightEye": [
                            -11.717217445373535,
                            0.0,
                            1.2220369577407837,
                            0.9052804112434387,
                            0.0,
                            0.43487614393234253,
                            0.43487614393234253,
                            0.4608322083950043,
                            0.4530629515647888,
                            0.462527871131897,
                            0.49445438385009766,
                            0.43487614393234253,
                            0.43487614393234253,
                            0.0,
                            0.0,
                            0.0,
                            0.12518510222434998,
                            0.0,
                            0.004938129335641861
                        ]
                    },
                    {
                        "triggerTime_ms": 495,
                        "faceAngle": 0.0,
                        "faceCenterX": 0.0,
                        "faceCenterY": 0.0,
                        "faceScaleX": 1.0,
                        "faceScaleY": 1.0,
                        "leftEye": [
                            9.425490379333496,
                            0.0,
                            1.214332938194275,
                            0.9052804112434387,
                            0.0,
                            0.5,
                            0.5,
                            0.5,
                            0.5,
                            0.5,
                            0.5,
                            0.5,
                            0.5,
                            0.0,
                            0.0,
                            0.0,
                            0.0,
                            0.0,
                            0.0
                        ],
                        "rightEye": [
                            -10.512076377868652,
                            0.0,
                            1.2220369577407837,
                            0.9052804112434387,
                            0.0,
                            0.5,
                            0.5,
                            0.5,
                            0.5,
                            0.5,
                            0.5,
                            0.5,
                            0.5,
                            0.0,
                            0.0,
                            0.0,
                            0.0,
                            0.0,
                            0.0
                        ]
                    },
                    {
                        "triggerTime_ms": 594,
                        "faceAngle": 0.0,
                        "faceCenterX": 0.0,
                        "faceCenterY": 0.0,
                        "faceScaleX": 1.0,
                        "faceScaleY": 1.0,
                        "leftEye": [
                            8.66573429107666,
                            0.0,
                            1.214332938194275,
                            0.9052804112434387,
                            0.0,
                            0.5,
                            0.5,
                            0.5,
                            0.5,
                            0.5,
                            0.5,
                            0.5,
                            0.5,
                            0.0,
                            0.0,
                            0.0,
                            0.0,
                            0.0,
                            0.0
                        ],
                        "rightEye": [
                            -9.369584083557129,
                            0.0,
                            1.2220369577407837,
                            0.9052804112434387,
                            0.0,
                            0.5,
                            0.5,
                            0.5,
                            0.5,
                            0.5,
                            0.5,
                            0.5,
                            0.5,
                            0.0,
                            0.0,
                            0.0,
                            0.0,
                            0.0,
                            0.0
                        ]
                    },
                    {
                        "triggerTime_ms": 792,
                        "faceAngle": 0.0,
                        "faceCenterX": 0.0,
                        "faceCenterY": 0.0,
                        "faceScaleX": 1.0,
                        "faceScaleY": 1.0,
                        "leftEye": [
                            8.789788246154785,
                            0.0,
                            1.214332938194275,
                            0.9052804112434387,
                            0.0,
                            0.5,
                            0.5,
                            0.5,
                            0.5,
                            0.5,
                            0.5,
                            0.5,
                            0.5,
                            0.0,
                            0.0,
                            0.0,
                            0.0,
                            0.0,
                            0.0
                        ],
                        "rightEye": [
                            -9.477352142333984,
                            0.0,
                            1.2220369577407837,
                            0.9052804112434387,
                            0.0,
                            0.5,
                            0.5,
                            0.5,
                            0.5,
                            0.5,
                            0.5,
                            0.5,
                            0.5,
                            0.0,
                            0.0,
                            0.0,
                            0.0,
                            0.0,
                            0.0
                        ]
                    }
                ],
                "HeadAngleKeyFrame": [],
                "RobotAudioKeyFrame": [
                    {
                        "triggerTime_ms": 0,
                        "audioEventId": [
                            3774252557
                        ],
                        "volume": 1.0,
                        "probability": [
                            1.0
                        ],
                        "hasAlts": true
                    },
                    {
                        "triggerTime_ms": 264,
                        "audioEventId": [
                            1143549143
                        ],
                        "volume": 1.0,
                        "probability": [
                            1.0
                        ],
                        "hasAlts": true
                    }
                ],
                "BackpackLightsKeyFrame": [],
                "FaceAnimationKeyFrame": [],
                "EventKeyFrame": [],
                "BodyMotionKeyFrame": [],
                "RecordHeadingKeyFrame": [],
                "TurnToRecordedHeadingKeyFrame": []
            }
        }
    ]
}