{
    "clips": [
        {
            "Name": "anim_workout_mediumenergy_getin_01",
            "keyframes": {
                "LiftHeightKeyFrame": [
                    {
                        "triggerTime_ms": 0,
                        "durationTime_ms": 33,
                        "height_mm": 0,
                        "heightVariability_mm": 0
                    },
                    {
                        "triggerTime_ms": 495,
                        "durationTime_ms": 66,
                        "height_mm": 40,
                        "heightVariability_mm": 0
                    },
                    {
                        "triggerTime_ms": 561,
                        "durationTime_ms": 33,
                        "height_mm": 0,
                        "heightVariability_mm": 0
                    }
                ],
                "ProceduralFaceKeyFrame": [
                    {
                        "triggerTime_ms": 0,
                        "faceAngle": 0.0,
                        "faceCenterX": 0.0,
                        "faceCenterY": 0.0,
                        "faceScaleX": 1.0,
                        "faceScaleY": 1.0,
                        "leftEye": [
                            9.169666290283203,
                            0.0,
                            1.214332938194275,
                            0.9052804112434387,
                            0.0,
                            0.5,
                            0.5,
                            0.5,
                            0.5,
                            0.5,
                            0.5,
                            0.5,
                            0.5,
                            0.0,
                            0.0,
                            0.0,
                            0.0,
                            0.0,
                            0.0
                        ],
                        "rightEye": [
                            -10.206374168395996,
                            0.0,
                            1.2220369577407837,
                            0.9052804112434387,
                            0.0,
                            0.5,
                            0.5,
                            0.5,
                            0.5,
                            0.5,
                            0.5,
                            0.5,
                            0.5,
                            0.0,
                            0.0,
                            0.0,
                            0.0,
                            0.0,
                            0.0
                        ]
                    },
                    {
                        "triggerTime_ms": 33,
                        "faceAngle": 0.0,
                        "faceCenterX": 0.0,
                        "faceCenterY": 0.0,
                        "faceScaleX": 1.0213825702667236,
                        "faceScaleY": 0.9923902750015259,
                        "leftEye": [
                            9.380230903625488,
                            0.0,
                            1.214332938194275,
                            0.9052804112434387,
                            0.0,
                            0.5,
                            0.5,
                            0.5,
                            0.5,
                            0.5,
                            0.5,
                            0.5,
                            0.5,
                            0.0,
                            0.0,
                            0.0,
                            0.0,
                            0.0,
                            0.0
                        ],
                        "rightEye": [
                            -10.42654037475586,
                            0.0,
                            1.2220369577407837,
                            0.9052804112434387,
                            0.0,
                            0.5,
                            0.5,
                            0.5,
                            0.5,
                            0.5,
                            0.5,
                            0.5,
                            0.5,
                            0.0,
                            0.0,
                            0.0,
                            0.0,
                            0.0,
                            0.0
                        ]
                    },
                    {
                        "triggerTime_ms": 99,
                        "faceAngle": 0.0,
                        "faceCenterX": 0.0,
                        "faceCenterY": 0.0,
                        "faceScaleX": 0.8202203512191772,
                        "faceScaleY": 1.0091825723648071,
                        "leftEye": [
                            10.303206443786621,
                            0.0,
                            1.214332938194275,
                            0.9052804112434387,
                            0.0,
                            0.5,
                            0.5,
                            0.5,
                            0.5,
                            0.5,
                            0.5,
                            0.5,
                            0.5,
                            0.0,
                            0.0,
                            0.0,
                            0.0,
                            0.0,
                            0.0
                        ],
                        "rightEye": [
                            -12.287869453430176,
                            0.0,
                            1.2220369577407837,
                            0.9052804112434387,
                            0.0,
                            0.5,
                            0.5,
                            0.5,
                            0.5,
                            0.5,
                            0.5,
                            0.5,
                            0.5,
                            0.0,
                            0.0,
                            0.0,
                            0.0,
                            0.0,
                            0.0
                        ]
                    },
                    {
                        "triggerTime_ms": 132,
                        "faceAngle": 0.0,
                        "faceCenterX": 0.0,
                        "faceCenterY": -0.5221061706542969,
                        "faceScaleX": 0.7997741103172302,
                        "faceScaleY": 1.0159937143325806,
                        "leftEye": [
                            10.303206443786621,
                            0.0,
                            1.214332938194275,
                            0.9052804112434387,
                            0.0,
                            0.5,
                            0.5,
                            0.5,
                            0.5,
                            0.5,
                            0.5,
                            0.5,
                            0.5,
                            0.0,
                            0.0,
                            0.0,
                            0.0,
                            0.0,
                            0.0
                        ],
                        "rightEye": [
                            -12.287869453430176,
                            0.0,
                            1.2220369577407837,
                            0.9052804112434387,
                            0.0,
                            0.5,
                            0.5,
                            0.5,
                            0.5,
                            0.5,
                            0.5,
                            0.5,
                            0.5,
                            0.0,
                            0.0,
                            0.0,
                            0.0,
                            0.0,
                            0.0
                        ]
                    },
                    {
                        "triggerTime_ms": 165,
                        "faceAngle": 0.0,
                        "faceCenterX": 0.0,
                        "faceCenterY": -3.6921844482421875,
                        "faceScaleX": 0.7988207936286926,
                        "faceScaleY": 0.9356145858764648,
                        "leftEye": [
                            10.303206443786621,
                            0.0,
                            1.214332938194275,
                            0.9387609362602234,
                            0.0,
                            0.5,
                            0.5,
                            0.5,
                            0.5,
                            0.5,
                            0.5,
                            0.5,
                            0.5,
                            0.0,
                            0.0,
                            0.0,
                            0.0,
                            0.0,
                            0.0
                        ],
                        "rightEye": [
                            -12.287869453430176,
                            0.0,
                            1.2220369577407837,
                            0.901468813419342,
                            0.0,
                            0.5,
                            0.5,
                            0.5,
                            0.5,
                            0.5,
                            0.5,
                            0.5,
                            0.5,
                            0.0,
                            0.0,
                            0.0,
                            0.0,
                            0.0,
                            0.0
                        ]
                    },
                    {
                        "triggerTime_ms": 198,
                        "faceAngle": 0.0,
                        "faceCenterX": 0.0,
                        "faceCenterY": -6.129656791687012,
                        "faceScaleX": 0.8055657148361206,
                        "faceScaleY": 0.9162425994873047,
                        "leftEye": [
                            7.9654860496521,
                            0.0,
                            1.3666794300079346,
                            0.987975001335144,
                            0.0,
                            0.5,
                            0.5,
                            0.5,
                            0.5,
                            0.5,
                            0.5,
                            0.5,
                            0.5,
                            0.0,
                            0.0,
                            0.0,
                            0.0,
                            0.0,
                            0.0001356006832793355
                        ],
                        "rightEye": [
                            -9.319169044494629,
                            0.0,
                            1.3796350955963135,
                            0.8958660364151001,
                            0.0,
                            0.5,
                            0.5,
                            0.5,
                            0.5,
                            0.5,
                            0.5,
                            0.5,
                            0.5,
                            0.0,
                            0.0,
                            0.0,
                            0.0,
                            0.0,
                            0.00017354542796965688
                        ]
                    },
                    {
                        "triggerTime_ms": 231,
                        "faceAngle": 0.0,
                        "faceCenterX": 0.0,
                        "faceCenterY": -4.999651908874512,
                        "faceScaleX": 0.8503757119178772,
                        "faceScaleY": 0.9054940342903137,
                        "leftEye": [
                            7.723074436187744,
                            0.0,
                            1.3882449865341187,
                            0.9996808767318726,
                            0.0,
                            0.5,
                            0.5,
                            0.5,
                            0.5,
                            0.5,
                            0.5,
                            0.5,
                            0.5,
                            0.0,
                            0.0,
                            0.0,
                            0.0,
                            0.0,
                            0.0001356006832793355
                        ],
                        "rightEye": [
                            -9.250374794006348,
                            0.0,
                            1.4019441604614258,
                            0.8945333957672119,
                            0.0,
                            0.5,
                            0.5,
                            0.5,
                            0.5,
                            0.5,
                            0.5,
                            0.5,
                            0.5,
                            0.0,
                            0.0,
                            0.0,
                            0.0,
                            0.0,
                            0.00017354542796965688
                        ]
                    },
                    {
                        "triggerTime_ms": 264,
                        "faceAngle": 0.0,
                        "faceCenterX": 0.0,
                        "faceCenterY": -2.085278034210205,
                        "faceScaleX": 0.8746170401573181,
                        "faceScaleY": 0.8964713215827942,
                        "leftEye": [
                            7.6275835037231445,
                            0.0,
                            1.3882449865341187,
                            0.9996808767318726,
                            0.0,
                            0.5,
                            0.5,
                            0.5,
                            0.5,
                            0.5,
                            0.5,
                            0.5,
                            0.5,
                            0.0,
                            0.0,
                            0.0,
                            0.0,
                            0.0,
                            0.0001356006832793355
                        ],
                        "rightEye": [
                            -9.223275184631348,
                            0.0,
                            1.4019441604614258,
                            0.8945333957672119,
                            0.0,
                            0.5,
                            0.5,
                            0.5,
                            0.5,
                            0.5,
                            0.5,
                            0.5,
                            0.5,
                            0.0,
                            0.0,
                            0.0,
                            0.0,
                            0.0,
                            0.00017354542796965688
                        ]
                    },
                    {
                        "triggerTime_ms": 330,
                        "faceAngle": 0.0,
                        "faceCenterX": 0.0,
                        "faceCenterY": -1.004835844039917,
                        "faceScaleX": 0.8768152594566345,
                        "faceScaleY": 0.8843572735786438,
                        "leftEye": [
                            7.46659517288208,
                            0.0,
                            1.3882449865341187,
                            0.9996808767318726,
                            0.0,
                            0.5,
                            0.5,
                            0.5,
                            0.5,
                            0.5,
                            0.5,
                            0.5,
                            0.5,
                            0.0,
                            0.0,
                            0.0,
                            0.0,
                            0.0,
                            0.0001356006832793355
                        ],
                        "rightEye": [
                            -9.17758846282959,
                            0.0,
                            1.4019441604614258,
                            0.8945333957672119,
                            0.0,
                            0.5,
                            0.5,
                            0.5,
                            0.5,
                            0.5,
                            0.5,
                            0.5,
                            0.5,
                            0.0,
                            0.0,
                            0.0,
                            0.0,
                            0.0,
                            0.00017354542796965688
                        ]
                    },
                    {
                        "triggerTime_ms": 396,
                        "faceAngle": 0.0,
                        "faceCenterX": 0.0,
                        "faceCenterY": -0.6544000506401062,
                        "faceScaleX": 0.877422571182251,
                        "faceScaleY": 0.8843572735786438,
                        "leftEye": [
                            7.337099075317383,
                            0.0,
                            1.3882449865341187,
                            0.9996808767318726,
                            0.0,
                            0.5,
                            0.5,
                            0.5,
                            0.5,
                            0.5,
                            0.5,
                            0.5,
                            0.5,
                            0.0,
                            0.0,
                            0.0,
                            0.0,
                            0.0,
                            0.0001356006832793355
                        ],
                        "rightEye": [
                            -9.140837669372559,
                            0.0,
                            1.4019441604614258,
                            0.8945333957672119,
                            0.0,
                            0.5,
                            0.5,
                            0.5,
                            0.5,
                            0.5,
                            0.5,
                            0.5,
                            0.5,
                            0.0,
                            0.0,
                            0.0,
                            0.0,
                            0.0,
                            0.00017354542796965688
                        ]
                    },
                    {
                        "triggerTime_ms": 429,
                        "faceAngle": 0.0,
                        "faceCenterX": 0.0,
                        "faceCenterY": -0.5479020476341248,
                        "faceScaleX": 0.8781332969665527,
                        "faceScaleY": 0.8843572735786438,
                        "leftEye": [
                            7.3107829093933105,
                            0.0,
                            1.3882449865341187,
                            0.9996808767318726,
                            0.0,
                            0.5,
                            0.5,
                            0.5,
                            0.5,
                            0.5,
                            0.5,
                            0.5,
                            0.5,
                            0.0,
                            0.0,
                            0.0,
                            0.0,
                            0.0,
                            0.0001356006832793355
                        ],
                        "rightEye": [
                            -9.133369445800781,
                            0.0,
                            1.4019441604614258,
                            0.8945333957672119,
                            0.0,
                            0.5,
                            0.5,
                            0.5,
                            0.5,
                            0.5,
                            0.5,
                            0.5,
                            0.5,
                            0.0,
                            0.0,
                            0.0,
                            0.0,
                            0.0,
                            0.00017354542796965688
                        ]
                    },
                    {
                        "triggerTime_ms": 495,
                        "faceAngle": 0.0,
                        "faceCenterX": 0.0,
                        "faceCenterY": -0.37255147099494934,
                        "faceScaleX": 0.8823778033256531,
                        "faceScaleY": 0.8843572735786438,
                        "leftEye": [
                            7.3107829093933105,
                            0.0,
                            1.3882449865341187,
                            0.9996808767318726,
                            0.0,
                            0.5,
                            0.5,
                            0.5,
                            0.5,
                            0.5,
                            0.5,
                            0.5,
                            0.5,
                            0.0,
                            0.0,
                            0.0,
                            0.0,
                            0.0,
                            0.0001356006832793355
                        ],
                        "rightEye": [
                            -9.133369445800781,
                            0.0,
                            1.4019441604614258,
                            0.8945333957672119,
                            0.0,
                            0.5,
                            0.5,
                            0.5,
                            0.5,
                            0.5,
                            0.5,
                            0.5,
                            0.5,
                            0.0,
                            0.0,
                            0.0,
                            0.0,
                            0.0,
                            0.00017354542796965688
                        ]
                    },
                    {
                        "triggerTime_ms": 561,
                        "faceAngle": 0.0,
                        "faceCenterX": 0.0,
                        "faceCenterY": -0.2734007239341736,
                        "faceScaleX": 0.8850890398025513,
                        "faceScaleY": 0.8843572735786438,
                        "leftEye": [
                            7.3107829093933105,
                            0.0,
                            1.3882449865341187,
                            0.9996808767318726,
                            0.0,
                            0.5,
                            0.5,
                            0.5,
                            0.5,
                            0.5,
                            0.5,
                            0.5,
                            0.5,
                            0.0,
                            0.0,
                            0.0,
                            0.0,
                            0.0,
                            0.0001356006832793355
                        ],
                        "rightEye": [
                            -9.133369445800781,
                            0.0,
                            1.4019441604614258,
                            0.8945333957672119,
                            0.0,
                            0.5,
                            0.5,
                            0.5,
                            0.5,
                            0.5,
                            0.5,
                            0.5,
                            0.5,
                            0.0,
                            0.0,
                            0.0,
                            0.0,
                            0.0,
                            0.00017354542796965688
                        ]
                    },
                    {
                        "triggerTime_ms": 594,
                        "faceAngle": 0.0,
                        "faceCenterX": 0.0,
                        "faceCenterY": -0.2734007239341736,
                        "faceScaleX": 0.8850890398025513,
                        "faceScaleY": 0.8843572735786438,
                        "leftEye": [
                            7.3107829093933105,
                            0.0,
                            1.3882449865341187,
                            0.9996808767318726,
                            0.0,
                            0.5,
                            0.5,
                            0.5,
                            0.5,
                            0.5,
                            0.5,
                            0.5,
                            0.5,
                            0.0,
                            0.0,
                            0.0,
                            0.0,
                            0.0,
                            0.0001356006832793355
                        ],
                        "rightEye": [
                            -9.133369445800781,
                            0.0,
                            1.4019441604614258,
                            0.8945333957672119,
                            0.0,
                            0.5,
                            0.5,
                            0.5,
                            0.5,
                            0.5,
                            0.5,
                            0.5,
                            0.5,
                            0.0,
                            0.0,
                            0.0,
                            0.0,
                            0.0,
                            0.00017354542796965688
                        ]
                    },
                    {
                        "triggerTime_ms": 627,
                        "faceAngle": 0.0,
                        "faceCenterX": 0.0,
                        "faceCenterY": -0.2734007239341736,
                        "faceScaleX": 0.8850890398025513,
                        "faceScaleY": 0.8843572735786438,
                        "leftEye": [
                            7.3107829093933105,
                            0.0,
                            1.3882449865341187,
                            0.9996808767318726,
                            0.0,
                            0.5,
                            0.5,
                            0.5,
                            0.5,
                            0.5,
                            0.5,
                            0.5,
                            0.5,
                            0.0,
                            0.0,
                            0.0,
                            0.0,
                            0.0,
                            0.0001356006832793355
                        ],
                        "rightEye": [
                            -9.133369445800781,
                            0.0,
                            1.4019441604614258,
                            0.8945333957672119,
                            0.0,
                            0.5,
                            0.5,
                            0.5,
                            0.5,
                            0.5,
                            0.5,
                            0.5,
                            0.5,
                            0.0,
                            0.0,
                            0.0,
                            0.0,
                            0.0,
                            0.00017354542796965688
                        ]
                    },
                    {
                        "triggerTime_ms": 759,
                        "faceAngle": 0.0,
                        "faceCenterX": 0.0,
                        "faceCenterY": -0.2734007239341736,
                        "faceScaleX": 0.8850890398025513,
                        "faceScaleY": 0.8843572735786438,
                        "leftEye": [
                            7.3107829093933105,
                            0.0,
                            1.3882449865341187,
                            0.9996808767318726,
                            0.0,
                            0.5,
                            0.5,
                            0.5,
                            0.5,
                            0.5,
                            0.5,
                            0.5,
                            0.5,
                            0.0,
                            0.0,
                            0.0,
                            0.0,
                            0.0,
                            0.0001356006832793355
                        ],
                        "rightEye": [
                            -9.133369445800781,
                            0.0,
                            1.4019441604614258,
                            0.8945333957672119,
                            0.0,
                            0.5,
                            0.5,
                            0.5,
                            0.5,
                            0.5,
                            0.5,
                            0.5,
                            0.5,
                            0.0,
                            0.0,
                            0.0,
                            0.0,
                            0.0,
                            0.00017354542796965688
                        ]
                    },
                    {
                        "triggerTime_ms": 792,
                        "faceAngle": 0.0,
                        "faceCenterX": 0.0,
                        "faceCenterY": -0.1083054319024086,
                        "faceScaleX": 0.9426915645599365,
                        "faceScaleY": 0.1637985110282898,
                        "leftEye": [
                            9.875345230102539,
                            0.0,
                            1.3450627326965332,
                            0.9524805545806885,
                            0.0,
                            0.25499966740608215,
                            0.25499966740608215,
                            0.3278880715370178,
                            0.30946823954582214,
                            0.3029056489467621,
                            0.30946823954582214,
                            0.25499966740608215,
                            0.25499966740608215,
                            0.0,
                            0.0,
                            0.0,
                            0.0,
                            0.0,
                            0.0001356006832793355
                        ],
                        "rightEye": [
                            -10.637458801269531,
                            0.0,
                            1.3573377132415771,
                            0.8999068737030029,
                            0.0,
                            0.25499966740608215,
                            0.25499966740608215,
                            0.3335022032260895,
                            0.30946823954582214,
                            0.33862119913101196,
                            0.434424489736557,
                            0.25499966740608215,
                            0.25499966740608215,
                            0.0,
                            0.0,
                            0.0,
                            0.0,
                            0.0,
                            0.00017354542796965688
                        ]
                    },
                    {
                        "triggerTime_ms": 825,
                        "faceAngle": 0.0,
                        "faceCenterX": 0.0,
                        "faceCenterY": 0.2956776022911072,
                        "faceScaleX": 1.0636426210403442,
                        "faceScaleY": 0.10174008458852768,
                        "leftEye": [
                            11.779664993286133,
                            0.0,
                            1.3018803596496582,
                            0.9052804112434387,
                            0.0,
                            0.009999999776482582,
                            0.009999999776482582,
                            0.009999999776482582,
                            0.009999999776482582,
                            0.009999999776482582,
                            0.009999999776482582,
                            0.009999999776482582,
                            0.009999999776482582,
                            0.0,
                            0.0,
                            0.0,
                            0.0,
                            0.0,
                            0.0001356006832793355
                        ],
                        "rightEye": [
                            -12.831886291503906,
                            0.0,
                            1.3127312660217285,
                            0.9052804112434387,
                            0.0,
                            0.009999999776482582,
                            0.009999999776482582,
                            0.009999999776482582,
                            0.009999999776482582,
                            0.009999999776482582,
                            0.009999999776482582,
                            0.009999999776482582,
                            0.009999999776482582,
                            0.0,
                            0.0,
                            0.0,
                            0.0,
                            0.0,
                            0.00017354542796965688
                        ]
                    },
                    {
                        "triggerTime_ms": 858,
                        "faceAngle": 0.0,
                        "faceCenterX": 0.0,
                        "faceCenterY": 1.1599293947219849,
                        "faceScaleX": 1.7022377252578735,
                        "faceScaleY": 0.10174008458852768,
                        "leftEye": [
                            11.779664993286133,
                            0.0,
                            1.3018803596496582,
                            0.9052804112434387,
                            0.0,
                            0.009999999776482582,
                            0.009999999776482582,
                            0.009999999776482582,
                            0.009999999776482582,
                            0.009999999776482582,
                            0.009999999776482582,
                            0.009999999776482582,
                            0.009999999776482582,
                            0.0,
                            0.0,
                            0.0,
                            0.0,
                            0.0,
                            0.0001356006832793355
                        ],
                        "rightEye": [
                            -12.831886291503906,
                            0.0,
                            1.3127312660217285,
                            0.9052804112434387,
                            0.0,
                            0.009999999776482582,
                            0.009999999776482582,
                            0.009999999776482582,
                            0.009999999776482582,
                            0.009999999776482582,
                            0.009999999776482582,
                            0.009999999776482582,
                            0.009999999776482582,
                            0.0,
                            0.0,
                            0.0,
                            0.0,
                            0.0,
                            0.00017354542796965688
                        ]
                    },
                    {
                        "triggerTime_ms": 891,
                        "faceAngle": 0.0,
                        "faceCenterX": 0.0,
                        "faceCenterY": 1.0003412961959839,
                        "faceScaleX": 1.1378716230392456,
                        "faceScaleY": 0.16086925566196442,
                        "leftEye": [
                            11.754840850830078,
                            0.0,
                            1.214332938194275,
                            0.9052804112434387,
                            0.0,
                            0.2900380790233612,
                            0.2900380790233612,
                            0.36991196870803833,
                            0.36184272170066833,
                            0.35861238837242126,
                            0.36184272170066833,
                            0.2900380790233612,
                            0.2900380790233612,
                            0.0,
                            0.0,
                            0.0,
                            0.0,
                            0.0,
                            0.0001356006832793355
                        ],
                        "rightEye": [
                            -12.806914329528809,
                            0.0,
                            1.2220369577407837,
                            0.9052804112434387,
                            0.0,
                            0.2900380790233612,
                            0.2900380790233612,
                            0.3724512755870819,
                            0.36184272170066833,
                            0.37476661801338196,
                            0.3922194838523865,
                            0.2900380790233612,
                            0.2900380790233612,
                            0.0,
                            0.0,
                            0.0,
                            0.0,
                            0.0,
                            0.00017354542796965688
                        ]
                    },
                    {
                        "triggerTime_ms": 924,
                        "faceAngle": 0.0,
                        "faceCenterX": 0.0,
                        "faceCenterY": -0.26472020149230957,
                        "faceScaleX": 0.9389079213142395,
                        "faceScaleY": 0.34145575761795044,
                        "leftEye": [
                            11.671594619750977,
                            0.0,
                            1.214332938194275,
                            0.9052804112434387,
                            0.0,
                            0.37139424681663513,
                            0.37139424681663513,
                            0.426973432302475,
                            0.4186772406101227,
                            0.4153560698032379,
                            0.4186772406101227,
                            0.37139424681663513,
                            0.37139424681663513,
                            0.0,
                            0.0,
                            0.0,
                            0.0,
                            0.0,
                            0.0001356006832793355
                        ],
                        "rightEye": [
                            -12.723173141479492,
                            0.0,
                            1.2220369577407837,
                            0.9052804112434387,
                            0.0,
                            0.37139424681663513,
                            0.37139424681663513,
                            0.4295841157436371,
                            0.4186772406101227,
                            0.43196454644203186,
                            0.4779859185218811,
                            0.37139424681663513,
                            0.37139424681663513,
                            0.0,
                            0.0,
                            0.0,
                            0.0,
                            0.0,
                            0.00017354542796965688
                        ]
                    },
                    {
                        "triggerTime_ms": 957,
                        "faceAngle": 0.0,
                        "faceCenterX": 0.0,
                        "faceCenterY": -3.556009531021118,
                        "faceScaleX": 0.888561487197876,
                        "faceScaleY": 0.5350918173789978,
                        "leftEye": [
                            11.531917572021484,
                            0.0,
                            1.214332938194275,
                            0.9052804112434387,
                            0.0,
                            0.41107645630836487,
                            0.41107645630836487,
                            0.4439789354801178,
                            0.4359096884727478,
                            0.43267932534217834,
                            0.4359096884727478,
                            0.41107645630836487,
                            0.41107645630836487,
                            0.0,
                            0.0,
                            0.0,
                            0.0,
                            0.0,
                            0.0001356006832793355
                        ],
                        "rightEye": [
                            -12.582666397094727,
                            0.0,
                            1.2220369577407837,
                            0.9052804112434387,
                            0.0,
                            0.41107645630836487,
                            0.41107645630836487,
                            0.4465182423591614,
                            0.4359096884727478,
                            0.44883355498313904,
                            0.4924277365207672,
                            0.41107645630836487,
                            0.41107645630836487,
                            0.0,
                            0.0,
                            0.0,
                            0.0,
                            0.0,
                            0.00017354542796965688
                        ]
                    },
                    {
                        "triggerTime_ms": 990,
                        "faceAngle": 0.0,
                        "faceCenterX": 0.0,
                        "faceCenterY": -5.330002307891846,
                        "faceScaleX": 0.8957077860832214,
                        "faceScaleY": 0.7272869944572449,
                        "leftEye": [
                            11.285819053649902,
                            0.0,
                            1.214332938194275,
                            0.9052804112434387,
                            0.0,
                            0.44108131527900696,
                            0.44108131527900696,
                            0.46288177371025085,
                            0.4575352668762207,
                            0.4553948938846588,
                            0.4575352668762207,
                            0.44108131527900696,
                            0.44108131527900696,
                            0.0,
                            0.0,
                            0.0,
                            0.0,
                            0.0,
                            0.0001356006832793355
                        ],
                        "rightEye": [
                            -12.335103988647461,
                            0.0,
                            1.2220369577407837,
                            0.9052804112434387,
                            0.0,
                            0.44108131527900696,
                            0.44108131527900696,
                            0.4645642340183258,
                            0.4575352668762207,
                            0.4660983383655548,
                            0.4949827790260315,
                            0.44108131527900696,
                            0.44108131527900696,
                            0.0,
                            0.0,
                            0.0,
                            0.0,
                            0.0,
                            0.00017354542796965688
                        ]
                    },
                    {
                        "triggerTime_ms": 1089,
                        "faceAngle": 0.0,
                        "faceCenterX": 0.0,
                        "faceCenterY": -2.986313819885254,
                        "faceScaleX": 0.9704620838165283,
                        "faceScaleY": 1.1691793203353882,
                        "leftEye": [
                            9.825665473937988,
                            0.0,
                            1.214332938194275,
                            0.9052804112434387,
                            0.0,
                            0.49412858486175537,
                            0.49412858486175537,
                            0.4963010549545288,
                            0.495768278837204,
                            0.49555498361587524,
                            0.495768278837204,
                            0.49412858486175537,
                            0.49412858486175537,
                            0.0,
                            0.0,
                            0.0,
                            0.0,
                            0.0,
                            0.0001356006832793355
                        ],
                        "rightEye": [
                            -10.866272926330566,
                            0.0,
                            1.2220369577407837,
                            0.9052804112434387,
                            0.0,
                            0.49412858486175537,
                            0.49412858486175537,
                            0.496468722820282,
                            0.495768278837204,
                            0.49662160873413086,
                            0.49950000643730164,
                            0.49412858486175537,
                            0.49412858486175537,
                            0.0,
                            0.0,
                            0.0,
                            0.0,
                            0.0,
                            0.00017354542796965688
                        ]
                    },
                    {
                        "triggerTime_ms": 1122,
                        "faceAngle": 0.0,
                        "faceCenterX": 0.0,
                        "faceCenterY": -1.9822347164154053,
                        "faceScaleX": 0.9917024970054626,
                        "faceScaleY": 1.161909818649292,
                        "leftEye": [
                            9.498839378356934,
                            0.0,
                            1.214332938194275,
                            0.9052804112434387,
                            0.0,
                            0.5,
                            0.5,
                            0.5,
                            0.5,
                            0.5,
                            0.5,
                            0.5,
                            0.5,
                            0.0,
                            0.0,
                            0.0,
                            0.0,
                            0.0,
                            0.0
                        ],
                        "rightEye": [
                            -10.537504196166992,
                            0.0,
                            1.2220369577407837,
                            0.9052804112434387,
                            0.0,
                            0.5,
                            0.5,
                            0.5,
                            0.5,
                            0.5,
                            0.5,
                            0.5,
                            0.5,
                            0.0,
                            0.0,
                            0.0,
                            0.0,
                            0.0,
                            0.0
                        ]
                    },
                    {
                        "triggerTime_ms": 1155,
                        "faceAngle": 0.0,
                        "faceCenterX": 0.0,
                        "faceCenterY": -0.8885061740875244,
                        "faceScaleX": 1.008562684059143,
                        "faceScaleY": 1.137404203414917,
                        "leftEye": [
                            9.279586791992188,
                            0.0,
                            1.214332938194275,
                            0.9052804112434387,
                            0.0,
                            0.5,
                            0.5,
                            0.5,
                            0.5,
                            0.5,
                            0.5,
                            0.5,
                            0.5,
                            0.0,
                            0.0,
                            0.0,
                            0.0,
                            0.0,
                            0.0
                        ],
                        "rightEye": [
                            -10.316947937011719,
                            0.0,
                            1.2220369577407837,
                            0.9052804112434387,
                            0.0,
                            0.5,
                            0.5,
                            0.5,
                            0.5,
                            0.5,
                            0.5,
                            0.5,
                            0.5,
                            0.0,
                            0.0,
                            0.0,
                            0.0,
                            0.0,
                            0.0
                        ]
                    },
                    {
                        "triggerTime_ms": 1188,
                        "faceAngle": 0.0,
                        "faceCenterX": 0.0,
                        "faceCenterY": -0.1994270384311676,
                        "faceScaleX": 1.0175713300704956,
                        "faceScaleY": 1.11116361618042,
                        "leftEye": [
                            9.169666290283203,
                            0.0,
                            1.214332938194275,
                            0.9052804112434387,
                            0.0,
                            0.5,
                            0.5,
                            0.5,
                            0.5,
                            0.5,
                            0.5,
                            0.5,
                            0.5,
                            0.0,
                            0.0,
                            0.0,
                            0.0,
                            0.0,
                            0.0
                        ],
                        "rightEye": [
                            -10.206374168395996,
                            0.0,
                            1.2220369577407837,
                            0.9052804112434387,
                            0.0,
                            0.5,
                            0.5,
                            0.5,
                            0.5,
                            0.5,
                            0.5,
                            0.5,
                            0.5,
                            0.0,
                            0.0,
                            0.0,
                            0.0,
                            0.0,
                            0.0
                        ]
                    },
                    {
                        "triggerTime_ms": 1254,
                        "faceAngle": 0.0,
                        "faceCenterX": 0.0,
                        "faceCenterY": -0.043076299130916595,
                        "faceScaleX": 1.0113862752914429,
                        "faceScaleY": 1.0555455684661865,
                        "leftEye": [
                            9.169666290283203,
                            0.0,
                            1.214332938194275,
                            0.9052804112434387,
                            0.0,
                            0.5,
                            0.5,
                            0.5,
                            0.5,
                            0.5,
                            0.5,
                            0.5,
                            0.5,
                            0.0,
                            0.0,
                            0.0,
                            0.0,
                            0.0,
                            0.0
                        ],
                        "rightEye": [
                            -10.206374168395996,
                            0.0,
                            1.2220369577407837,
                            0.9052804112434387,
                            0.0,
                            0.5,
                            0.5,
                            0.5,
                            0.5,
                            0.5,
                            0.5,
                            0.5,
                            0.5,
                            0.0,
                            0.0,
                            0.0,
                            0.0,
                            0.0,
                            0.0
                        ]
                    },
                    {
                        "triggerTime_ms": 1353,
                        "faceAngle": 0.0,
                        "faceCenterX": 0.0,
                        "faceCenterY": 0.0,
                        "faceScaleX": 1.0,
                        "faceScaleY": 1.0,
                        "leftEye": [
                            9.169666290283203,
                            0.0,
                            1.214332938194275,
                            0.9052804112434387,
                            0.0,
                            0.5,
                            0.5,
                            0.5,
                            0.5,
                            0.5,
                            0.5,
                            0.5,
                            0.5,
                            0.0,
                            0.0,
                            0.0,
                            0.0,
                            0.0,
                            0.0
                        ],
                        "rightEye": [
                            -10.206374168395996,
                            0.0,
                            1.2220369577407837,
                            0.9052804112434387,
                            0.0,
                            0.5,
                            0.5,
                            0.5,
                            0.5,
                            0.5,
                            0.5,
                            0.5,
                            0.5,
                            0.0,
                            0.0,
                            0.0,
                            0.0,
                            0.0,
                            0.0
                        ]
                    }
                ],
                "HeadAngleKeyFrame": [
                    {
                        "triggerTime_ms": 0,
                        "durationTime_ms": 33,
                        "angle_deg": 0,
                        "angleVariability_deg": 0
                    },
                    {
                        "triggerTime_ms": 33,
                        "durationTime_ms": 66,
                        "angle_deg": -7,
                        "angleVariability_deg": 0
                    },
                    {
                        "triggerTime_ms": 99,
                        "durationTime_ms": 33,
                        "angle_deg": -1,
                        "angleVariability_deg": 0
                    },
                    {
                        "triggerTime_ms": 132,
                        "durationTime_ms": 33,
                        "angle_deg": 5,
                        "angleVariability_deg": 0
                    },
                    {
                        "triggerTime_ms": 165,
                        "durationTime_ms": 99,
                        "angle_deg": 10,
                        "angleVariability_deg": 0
                    },
                    {
                        "triggerTime_ms": 264,
                        "durationTime_ms": 66,
                        "angle_deg": 12,
                        "angleVariability_deg": 0
                    },
                    {
                        "triggerTime_ms": 330,
                        "durationTime_ms": 66,
                        "angle_deg": 12,
                        "angleVariability_deg": 0
                    },
                    {
                        "triggerTime_ms": 396,
                        "durationTime_ms": 33,
                        "angle_deg": 12,
                        "angleVariability_deg": 0
                    },
                    {
                        "triggerTime_ms": 429,
                        "durationTime_ms": 66,
                        "angle_deg": 13,
                        "angleVariability_deg": 0
                    },
                    {
                        "triggerTime_ms": 495,
                        "durationTime_ms": 66,
                        "angle_deg": 13,
                        "angleVariability_deg": 0
                    },
                    {
                        "triggerTime_ms": 561,
                        "durationTime_ms": 33,
                        "angle_deg": 13,
                        "angleVariability_deg": 0
                    },
                    {
                        "triggerTime_ms": 594,
                        "durationTime_ms": 33,
                        "angle_deg": 13,
                        "angleVariability_deg": 0
                    },
                    {
                        "triggerTime_ms": 627,
                        "durationTime_ms": 132,
                        "angle_deg": 2,
                        "angleVariability_deg": 0
                    },
                    {
                        "triggerTime_ms": 759,
                        "durationTime_ms": 33,
                        "angle_deg": -1,
                        "angleVariability_deg": 0
                    },
                    {
                        "triggerTime_ms": 792,
                        "durationTime_ms": 33,
                        "angle_deg": -2,
                        "angleVariability_deg": 0
                    },
                    {
                        "triggerTime_ms": 825,
                        "durationTime_ms": 33,
                        "angle_deg": -2,
                        "angleVariability_deg": 0
                    },
                    {
                        "triggerTime_ms": 858,
                        "durationTime_ms": 33,
                        "angle_deg": -1,
                        "angleVariability_deg": 0
                    },
                    {
                        "triggerTime_ms": 891,
                        "durationTime_ms": 33,
                        "angle_deg": 0,
                        "angleVariability_deg": 0
                    },
                    {
                        "triggerTime_ms": 924,
                        "durationTime_ms": 33,
                        "angle_deg": 1,
                        "angleVariability_deg": 0
                    },
                    {
                        "triggerTime_ms": 957,
                        "durationTime_ms": 33,
                        "angle_deg": 1,
                        "angleVariability_deg": 0
                    },
                    {
                        "triggerTime_ms": 990,
                        "durationTime_ms": 99,
                        "angle_deg": 0,
                        "angleVariability_deg": 0
                    },
                    {
                        "triggerTime_ms": 1089,
                        "durationTime_ms": 33,
                        "angle_deg": 0,
                        "angleVariability_deg": 0
                    },
                    {
                        "triggerTime_ms": 1122,
                        "durationTime_ms": 33,
                        "angle_deg": 0,
                        "angleVariability_deg": 0
                    },
                    {
                        "triggerTime_ms": 1155,
                        "durationTime_ms": 33,
                        "angle_deg": 0,
                        "angleVariability_deg": 0
                    },
                    {
                        "triggerTime_ms": 1188,
                        "durationTime_ms": 66,
                        "angle_deg": 0,
                        "angleVariability_deg": 0
                    }
                ],
                "RobotAudioKeyFrame": [
                    {
                        "triggerTime_ms": 132,
                        "audioEventId": [
                            302804072
                        ],
                        "volume": 1.0,
                        "probability": [
                            1.0
                        ],
                        "hasAlts": true
                    },
                    {
                        "triggerTime_ms": 165,
                        "audioEventId": [
                            3531557633
                        ],
                        "volume": 1.0,
                        "probability": [
                            1.0
                        ],
                        "hasAlts": true
                    },
                    {
                        "triggerTime_ms": 825,
                        "audioEventId": [
                            2666670780
                        ],
                        "volume": 1.0,
                        "probability": [
                            1.0
                        ],
                        "hasAlts": true
                    }
                ],
                "BackpackLightsKeyFrame": [],
                "FaceAnimationKeyFrame": [],
                "EventKeyFrame": [],
                "BodyMotionKeyFrame": [
                    {
                        "triggerTime_ms": 165,
                        "durationTime_ms": 99,
                        "radius_mm": "STRAIGHT",
                        "speed": -33
                    },
                    {
                        "triggerTime_ms": 264,
                        "durationTime_ms": 66,
                        "radius_mm": "STRAIGHT",
                        "speed": -22
                    },
                    {
                        "triggerTime_ms": 330,
                        "durationTime_ms": 66,
                        "radius_mm": "STRAIGHT",
                        "speed": -22
                    },
                    {
                        "triggerTime_ms": 396,
                        "durationTime_ms": 33,
                        "radius_mm": "STRAIGHT",
                        "speed": -3
                    },
                    {
                        "triggerTime_ms": 429,
                        "durationTime_ms": 66,
                        "radius_mm": "STRAIGHT",
                        "speed": -6
                    },
                    {
                        "triggerTime_ms": 495,
                        "durationTime_ms": 66,
                        "radius_mm": "STRAIGHT",
                        "speed": 58
                    },
                    {
                        "triggerTime_ms": 561,
                        "durationTime_ms": 33,
                        "radius_mm": "STRAIGHT",
                        "speed": 29
                    },
                    {
                        "triggerTime_ms": 594,
                        "durationTime_ms": 33,
                        "radius_mm": "STRAIGHT",
                        "speed": 15
                    },
                    {
                        "triggerTime_ms": 627,
                        "durationTime_ms": 132,
                        "radius_mm": "STRAIGHT",
                        "speed": 10
                    }
                ],
                "RecordHeadingKeyFrame": [],
                "TurnToRecordedHeadingKeyFrame": []
            }
        }
    ]
}