{
    "clips": [
        {
            "Name": "anim_energy_getin_01",
            "keyframes": {
                "LiftHeightKeyFrame": [
                    {
                        "triggerTime_ms": 0,
                        "durationTime_ms": 132,
                        "height_mm": 32,
                        "heightVariability_mm": 0
                    },
                    {
                        "triggerTime_ms": 132,
                        "durationTime_ms": 264,
                        "height_mm": 65,
                        "heightVariability_mm": 0
                    },
                    {
                        "triggerTime_ms": 1353,
                        "durationTime_ms": 198,
                        "height_mm": 35,
                        "heightVariability_mm": 0
                    },
                    {
                        "triggerTime_ms": 1551,
                        "durationTime_ms": 198,
                        "height_mm": 32,
                        "heightVariability_mm": 0
                    }
                ],
                "ProceduralFaceKeyFrame": [
                    {
                        "triggerTime_ms": 0,
                        "faceAngle": 0.0,
                        "faceCenterX": 0.0,
                        "faceCenterY": 0.0,
                        "faceScaleX": 1.0,
                        "faceScaleY": 1.0,
                        "leftEye": [
                            9.169666290283203,
                            0.0,
                            1.214332938194275,
                            0.9052804112434387,
                            0.0,
                            0.5,
                            0.5,
                            0.5,
                            0.5,
                            0.5,
                            0.5,
                            0.5,
                            0.5,
                            0.0,
                            0.0,
                            0.0,
                            0.0,
                            0.0,
                            0.0
                        ],
                        "rightEye": [
                            -10.206374168395996,
                            0.0,
                            1.2220369577407837,
                            0.9052804112434387,
                            0.0,
                            0.5,
                            0.5,
                            0.5,
                            0.5,
                            0.5,
                            0.5,
                            0.5,
                            0.5,
                            0.0,
                            0.0,
                            0.0,
                            0.0,
                            0.0,
                            0.0
                        ]
                    },
                    {
                        "triggerTime_ms": 33,
                        "faceAngle": 0.0,
                        "faceCenterX": 0.0,
                        "faceCenterY": 0.593746542930603,
                        "faceScaleX": 0.9999394416809082,
                        "faceScaleY": 0.9983894228935242,
                        "leftEye": [
                            9.373918533325195,
                            0.7717188000679016,
                            1.214332938194275,
                            0.9566535949707031,
                            0.0,
                            0.5,
                            0.5,
                            0.5,
                            0.5,
                            0.5,
                            0.5,
                            0.5,
                            0.5,
                            0.0,
                            0.0,
                            0.0,
                            0.0,
                            0.0,
                            0.0
                        ],
                        "rightEye": [
                            -10.400362968444824,
                            0.7453998327255249,
                            1.2220369577407837,
                            0.9566535949707031,
                            0.0,
                            0.5,
                            0.5,
                            0.5,
                            0.5,
                            0.5,
                            0.5,
                            0.5,
                            0.5,
                            0.0,
                            0.0,
                            0.0,
                            0.0,
                            0.0,
                            0.0
                        ]
                    },
                    {
                        "triggerTime_ms": 66,
                        "faceAngle": 0.0,
                        "faceCenterX": 0.0,
                        "faceCenterY": 2.8530287742614746,
                        "faceScaleX": 0.9995157718658447,
                        "faceScaleY": 0.9871154427528381,
                        "leftEye": [
                            9.806631088256836,
                            0.0,
                            1.214332938194275,
                            1.0194430351257324,
                            0.0,
                            0.5,
                            0.5,
                            0.5,
                            0.5,
                            0.5,
                            0.5,
                            0.5,
                            0.5,
                            0.0,
                            0.0,
                            0.0,
                            0.0,
                            0.0,
                            0.0
                        ],
                        "rightEye": [
                            -10.782437324523926,
                            0.0,
                            1.2220369577407837,
                            1.0194430351257324,
                            0.0,
                            0.5,
                            0.5,
                            0.5,
                            0.5,
                            0.5,
                            0.5,
                            0.5,
                            0.5,
                            0.0,
                            0.0,
                            0.0,
                            0.0,
                            0.0,
                            0.0
                        ]
                    },
                    {
                        "triggerTime_ms": 132,
                        "faceAngle": 0.0,
                        "faceCenterX": 0.0,
                        "faceCenterY": 13.324335098266602,
                        "faceScaleX": 0.9954277873039246,
                        "faceScaleY": 0.8098767995834351,
                        "leftEye": [
                            10.921323776245117,
                            0.0,
                            1.214332938194275,
                            0.9623623490333557,
                            0.0,
                            0.5,
                            0.5,
                            0.5,
                            0.5,
                            0.5,
                            0.5,
                            0.5,
                            0.5,
                            0.0,
                            0.0,
                            0.0,
                            0.0,
                            0.0,
                            0.0
                        ],
                        "rightEye": [
                            -11.79055118560791,
                            0.0,
                            1.2220369577407837,
                            0.9623623490333557,
                            0.0,
                            0.5,
                            0.5,
                            0.5,
                            0.5,
                            0.5,
                            0.5,
                            0.5,
                            0.5,
                            0.0,
                            0.0,
                            0.0,
                            0.0,
                            0.0,
                            0.0
                        ]
                    },
                    {
                        "triggerTime_ms": 231,
                        "faceAngle": 0.0,
                        "faceCenterX": 0.0,
                        "faceCenterY": 15.524348258972168,
                        "faceScaleX": 1.0812487602233887,
                        "faceScaleY": 0.7433322072029114,
                        "leftEye": [
                            11.626550674438477,
                            0.0,
                            1.214332938194275,
                            0.9052804112434387,
                            0.0,
                            0.5,
                            0.5,
                            0.5,
                            0.5,
                            0.5,
                            0.5,
                            0.5,
                            0.5,
                            0.16675062477588654,
                            -11.920621871948242,
                            0.0,
                            0.0,
                            0.0,
                            0.0
                        ],
                        "rightEye": [
                            -12.428350448608398,
                            1.2330479621887207,
                            1.2220369577407837,
                            0.8503124713897705,
                            0.0,
                            0.5,
                            0.5,
                            0.5,
                            0.5,
                            0.5,
                            0.5,
                            0.5,
                            0.5,
                            0.16674935817718506,
                            -11.920621871948242,
                            0.0,
                            0.0,
                            0.0,
                            0.0
                        ]
                    },
                    {
                        "triggerTime_ms": 297,
                        "faceAngle": 0.0,
                        "faceCenterX": 0.0,
                        "faceCenterY": 8.523149490356445,
                        "faceScaleX": 0.8781221508979797,
                        "faceScaleY": 1.0495247840881348,
                        "leftEye": [
                            11.53195571899414,
                            0.0,
                            1.214332938194275,
                            0.9052804112434387,
                            0.0,
                            0.5,
                            0.5,
                            0.5,
                            0.5,
                            0.5,
                            0.5,
                            0.5,
                            0.5,
                            0.16675062477588654,
                            -11.920621871948242,
                            0.0,
                            0.0,
                            0.0,
                            0.0
                        ],
                        "rightEye": [
                            -12.226351737976074,
                            2.336301565170288,
                            1.2220369577407837,
                            0.798566460609436,
                            0.0,
                            0.5,
                            0.5,
                            0.5,
                            0.5,
                            0.5,
                            0.5,
                            0.5,
                            0.5,
                            0.16674935817718506,
                            -11.920621871948242,
                            0.0,
                            0.0,
                            0.0,
                            0.0
                        ]
                    },
                    {
                        "triggerTime_ms": 396,
                        "faceAngle": 0.0,
                        "faceCenterX": 0.0,
                        "faceCenterY": 1.1388328075408936,
                        "faceScaleX": 0.951498806476593,
                        "faceScaleY": 1.028945803642273,
                        "leftEye": [
                            11.128602027893066,
                            0.0,
                            1.214332938194275,
                            0.9052804112434387,
                            0.0,
                            0.5,
                            0.5,
                            0.5,
                            0.5,
                            0.5,
                            0.5,
                            0.5,
                            0.5,
                            0.16675062477588654,
                            -11.920621871948242,
                            0.0,
                            0.0,
                            0.0,
                            0.0
                        ],
                        "rightEye": [
                            -11.484517097473145,
                            0.8223781585693359,
                            1.2220369577407837,
                            0.9610263705253601,
                            0.0,
                            0.5,
                            0.5,
                            0.5,
                            0.5,
                            0.5,
                            0.5,
                            0.5,
                            0.5,
                            0.16674935817718506,
                            -11.920621871948242,
                            0.0,
                            0.0,
                            0.0,
                            0.0
                        ]
                    },
                    {
                        "triggerTime_ms": 462,
                        "faceAngle": 0.0,
                        "faceCenterX": 0.0,
                        "faceCenterY": 0.0,
                        "faceScaleX": 0.9952860474586487,
                        "faceScaleY": 1.0116528272628784,
                        "leftEye": [
                            10.854805946350098,
                            0.0,
                            1.214332938194275,
                            0.9052804112434387,
                            0.0,
                            0.5,
                            0.5,
                            0.5,
                            0.5,
                            0.5,
                            0.5,
                            0.5,
                            0.5,
                            0.16675062477588654,
                            -11.920621871948242,
                            0.0,
                            0.0,
                            0.0,
                            0.0
                        ],
                        "rightEye": [
                            -10.98491096496582,
                            0.0,
                            1.273793339729309,
                            0.9610263705253601,
                            0.0,
                            0.5,
                            0.5,
                            0.5,
                            0.5,
                            0.5,
                            0.5,
                            0.5,
                            0.5,
                            0.16674935817718506,
                            -11.920621871948242,
                            0.0,
                            0.0,
                            0.0,
                            0.0
                        ]
                    },
                    {
                        "triggerTime_ms": 594,
                        "faceAngle": 0.0,
                        "faceCenterX": 0.0,
                        "faceCenterY": 0.0,
                        "faceScaleX": 1.0,
                        "faceScaleY": 1.0,
                        "leftEye": [
                            10.427462577819824,
                            0.0,
                            1.214332938194275,
                            0.9052804112434387,
                            0.0,
                            0.5,
                            0.5,
                            0.5,
                            0.5,
                            0.5,
                            0.5,
                            0.5,
                            0.5,
                            0.16675062477588654,
                            -11.920621871948242,
                            0.0,
                            0.0,
                            0.0,
                            0.0
                        ],
                        "rightEye": [
                            -10.653229713439941,
                            0.0,
                            1.273793339729309,
                            0.9610263705253601,
                            0.0,
                            0.5,
                            0.5,
                            0.5,
                            0.5,
                            0.5,
                            0.5,
                            0.5,
                            0.5,
                            0.16674935817718506,
                            -11.920621871948242,
                            0.0,
                            0.0,
                            0.0,
                            0.0
                        ]
                    },
                    {
                        "triggerTime_ms": 660,
                        "faceAngle": 0.0,
                        "faceCenterX": 0.0,
                        "faceCenterY": 0.0,
                        "faceScaleX": 1.0,
                        "faceScaleY": 1.0,
                        "leftEye": [
                            10.427462577819824,
                            0.0,
                            1.214332938194275,
                            0.9052804112434387,
                            0.0,
                            0.5,
                            0.5,
                            0.5,
                            0.5,
                            0.5,
                            0.5,
                            0.5,
                            0.5,
                            0.16675062477588654,
                            -11.920621871948242,
                            0.0,
                            0.0,
                            0.0,
                            0.0
                        ],
                        "rightEye": [
                            -10.653229713439941,
                            0.0,
                            1.273793339729309,
                            0.9610263705253601,
                            0.0,
                            0.5,
                            0.5,
                            0.5,
                            0.5,
                            0.5,
                            0.5,
                            0.5,
                            0.5,
                            0.16674935817718506,
                            -11.920621871948242,
                            0.0,
                            0.0,
                            0.0,
                            0.0
                        ]
                    },
                    {
                        "triggerTime_ms": 1386,
                        "faceAngle": 0.0,
                        "faceCenterX": 0.0,
                        "faceCenterY": 0.0,
                        "faceScaleX": 1.0,
                        "faceScaleY": 1.0,
                        "leftEye": [
                            10.427462577819824,
                            0.0,
                            1.214332938194275,
                            0.9052804112434387,
                            0.0,
                            0.5,
                            0.5,
                            0.5,
                            0.5,
                            0.5,
                            0.5,
                            0.5,
                            0.5,
                            0.16675062477588654,
                            -11.920621871948242,
                            0.0,
                            0.0,
                            0.0,
                            0.0
                        ],
                        "rightEye": [
                            -10.653229713439941,
                            0.0,
                            1.273793339729309,
                            0.9610263705253601,
                            0.0,
                            0.5,
                            0.5,
                            0.5,
                            0.5,
                            0.5,
                            0.5,
                            0.5,
                            0.5,
                            0.16674935817718506,
                            -11.920621871948242,
                            0.0,
                            0.0,
                            0.0,
                            0.0
                        ]
                    },
                    {
                        "triggerTime_ms": 1419,
                        "faceAngle": 0.0,
                        "faceCenterX": 0.0,
                        "faceCenterY": 1.1388328075408936,
                        "faceScaleX": 0.951498806476593,
                        "faceScaleY": 1.028945803642273,
                        "leftEye": [
                            10.392066955566406,
                            0.836524248123169,
                            1.214332938194275,
                            0.9610263705253601,
                            0.0,
                            0.5,
                            0.5,
                            0.5,
                            0.5,
                            0.5,
                            0.5,
                            0.5,
                            0.5,
                            0.16675062477588654,
                            -11.920621871948242,
                            0.0,
                            0.0,
                            0.0,
                            0.0
                        ],
                        "rightEye": [
                            -12.254639625549316,
                            0.0,
                            1.2220369577407837,
                            0.9052804112434387,
                            0.0,
                            0.5,
                            0.5,
                            0.5,
                            0.5,
                            0.5,
                            0.5,
                            0.5,
                            0.5,
                            0.16674935817718506,
                            -11.920621871948242,
                            0.0,
                            0.0,
                            0.0,
                            0.0
                        ]
                    },
                    {
                        "triggerTime_ms": 1485,
                        "faceAngle": 0.0,
                        "faceCenterX": 0.0,
                        "faceCenterY": 8.523149490356445,
                        "faceScaleX": 0.8781221508979797,
                        "faceScaleY": 1.0495247840881348,
                        "leftEye": [
                            11.10154914855957,
                            2.3764894008636475,
                            1.214332938194275,
                            0.798566460609436,
                            0.0,
                            0.5,
                            0.5,
                            0.5,
                            0.5,
                            0.5,
                            0.5,
                            0.5,
                            0.5,
                            0.16675062477588654,
                            -11.920621871948242,
                            0.0,
                            0.0,
                            0.0,
                            0.0
                        ],
                        "rightEye": [
                            -12.676385879516602,
                            0.0,
                            1.2220369577407837,
                            0.9052804112434387,
                            0.0,
                            0.5,
                            0.5,
                            0.5,
                            0.5,
                            0.5,
                            0.5,
                            0.5,
                            0.5,
                            0.16674935817718506,
                            -11.920621871948242,
                            0.0,
                            0.0,
                            0.0,
                            0.0
                        ]
                    },
                    {
                        "triggerTime_ms": 1551,
                        "faceAngle": 0.0,
                        "faceCenterX": 0.0,
                        "faceCenterY": 15.524348258972168,
                        "faceScaleX": 0.9752769470214844,
                        "faceScaleY": 1.0035669803619385,
                        "leftEye": [
                            11.294737815856934,
                            1.2542582750320435,
                            1.214332938194275,
                            0.798566460609436,
                            0.0,
                            0.5,
                            0.5,
                            0.5,
                            0.5,
                            0.5,
                            0.5,
                            0.5,
                            0.5,
                            0.3669789433479309,
                            -11.920621871948242,
                            0.0,
                            0.0,
                            0.0,
                            0.0
                        ],
                        "rightEye": [
                            -11.03682804107666,
                            0.0,
                            1.3455464839935303,
                            0.9822254180908203,
                            0.0,
                            0.5,
                            0.5,
                            0.5,
                            0.5,
                            0.5,
                            0.5,
                            0.5,
                            0.5,
                            0.5338227152824402,
                            -11.920621871948242,
                            0.0,
                            0.0,
                            0.0,
                            0.0
                        ]
                    },
                    {
                        "triggerTime_ms": 1617,
                        "faceAngle": 0.0,
                        "faceCenterX": 0.0,
                        "faceCenterY": 12.935738563537598,
                        "faceScaleX": 1.0,
                        "faceScaleY": 1.0,
                        "leftEye": [
                            9.682978630065918,
                            4.272152423858643,
                            1.0457555055618286,
                            0.7967790365219116,
                            0.0,
                            0.5236950516700745,
                            0.5236950516700745,
                            0.37372201681137085,
                            0.37372201681137085,
                            0.37372201681137085,
                            0.37372201681137085,
                            0.5236950516700745,
                            0.5236950516700745,
                            0.6508574485778809,
                            -5.078874111175537,
                            0.0,
                            0.0,
                            0.0,
                            0.0
                        ],
                        "rightEye": [
                            -10.206374168395996,
                            0.0,
                            1.434769868850708,
                            1.0304944515228271,
                            0.0,
                            0.4289896786212921,
                            0.4289896786212921,
                            0.30640196800231934,
                            0.30640196800231934,
                            0.30640196800231934,
                            0.30640196800231934,
                            0.4289896786212921,
                            0.4289896786212921,
                            0.7960919141769409,
                            -2.911733388900757,
                            0.0,
                            0.0,
                            0.0,
                            0.0
                        ]
                    },
                    {
                        "triggerTime_ms": 1650,
                        "faceAngle": 0.0,
                        "faceCenterX": 0.0,
                        "faceCenterY": 12.935738563537598,
                        "faceScaleX": 1.0,
                        "faceScaleY": 1.0,
                        "leftEye": [
                            9.682978630065918,
                            4.272152423858643,
                            1.0457555055618286,
                            0.7967790365219116,
                            0.0,
                            0.47520309686660767,
                            0.47520309686660767,
                            0.33925217390060425,
                            0.33925217390060425,
                            0.33925217390060425,
                            0.33925217390060425,
                            0.47520309686660767,
                            0.47520309686660767,
                            0.7550777196884155,
                            -3.9692342281341553,
                            0.0,
                            0.0,
                            0.0,
                            0.0
                        ],
                        "rightEye": [
                            -10.206374168395996,
                            0.0,
                            1.42357337474823,
                            1.0304944515228271,
                            0.0,
                            0.4083973467350006,
                            0.4083973467350006,
                            0.29176419973373413,
                            0.29176419973373413,
                            0.29176419973373413,
                            0.29176419973373413,
                            0.4083973467350006,
                            0.4083973467350006,
                            0.8143700361251831,
                            -2.4405195713043213,
                            0.0,
                            0.0,
                            0.0,
                            0.0
                        ]
                    },
                    {
                        "triggerTime_ms": 1716,
                        "faceAngle": 0.0,
                        "faceCenterX": 0.0,
                        "faceCenterY": 12.935738563537598,
                        "faceScaleX": 1.0,
                        "faceScaleY": 1.0,
                        "leftEye": [
                            9.682978630065918,
                            4.272152423858643,
                            1.0457555055618286,
                            0.7967790365219116,
                            0.0,
                            0.4083973467350006,
                            0.4083973467350006,
                            0.29176419973373413,
                            0.29176419973373413,
                            0.29176419973373413,
                            0.29176419973373413,
                            0.4083973467350006,
                            0.4083973467350006,
                            0.814376175403595,
                            -2.4405195713043213,
                            0.0,
                            0.0,
                            0.0,
                            0.0
                        ],
                        "rightEye": [
                            -10.206374168395996,
                            0.0,
                            1.4054350852966309,
                            1.0304944515228271,
                            0.0,
                            0.40886351466178894,
                            0.40886351466178894,
                            0.29711487889289856,
                            0.29711487889289856,
                            0.29711487889289856,
                            0.29711487889289856,
                            0.40886351466178894,
                            0.40886351466178894,
                            0.7791398167610168,
                            -3.543776273727417,
                            0.0,
                            0.0,
                            0.0,
                            0.0
                        ]
                    },
                    {
                        "triggerTime_ms": 1815,
                        "faceAngle": 0.0,
                        "faceCenterX": 0.0,
                        "faceCenterY": 12.935738563537598,
                        "faceScaleX": 1.0,
                        "faceScaleY": 1.0,
                        "leftEye": [
                            9.682978630065918,
                            4.272152423858643,
                            1.0457555055618286,
                            0.7967790365219116,
                            0.0,
                            0.4099706709384918,
                            0.4099706709384918,
                            0.3044206202030182,
                            0.3044206202030182,
                            0.3044206202030182,
                            0.3044206202030182,
                            0.4099706709384918,
                            0.4099706709384918,
                            0.7460163235664368,
                            -4.578589916229248,
                            0.0,
                            0.0,
                            0.0,
                            0.0
                        ],
                        "rightEye": [
                            -10.206374168395996,
                            0.0,
                            1.42357337474823,
                            1.0304944515228271,
                            0.0,
                            0.41568124294281006,
                            0.41568124294281006,
                            0.33035069704055786,
                            0.33035069704055786,
                            0.33035069704055786,
                            0.33035069704055786,
                            0.41568124294281006,
                            0.41568124294281006,
                            0.685086727142334,
                            -6.46706485748291,
                            0.0,
                            0.0,
                            0.0,
                            0.0
                        ]
                    },
                    {
                        "triggerTime_ms": 1881,
                        "faceAngle": 0.0,
                        "faceCenterX": 0.0,
                        "faceCenterY": 12.935738563537598,
                        "faceScaleX": 1.0,
                        "faceScaleY": 1.0,
                        "leftEye": [
                            9.682978630065918,
                            4.272152423858643,
                            1.0457555055618286,
                            0.7967790365219116,
                            0.0,
                            0.41568124294281006,
                            0.41568124294281006,
                            0.33035069704055786,
                            0.33035069704055786,
                            0.33035069704055786,
                            0.33035069704055786,
                            0.41568124294281006,
                            0.41568124294281006,
                            0.6850919127464294,
                            -6.46706485748291,
                            0.0,
                            0.0,
                            0.0,
                            0.0
                        ],
                        "rightEye": [
                            -10.206374168395996,
                            0.0,
                            1.42357337474823,
                            1.0304944515228271,
                            0.0,
                            0.4785972535610199,
                            0.4785972535610199,
                            0.3894821107387543,
                            0.3894821107387543,
                            0.3894821107387543,
                            0.3894821107387543,
                            0.4785972535610199,
                            0.4785972535610199,
                            0.6398099064826965,
                            -7.824160099029541,
                            0.0,
                            0.0,
                            0.0,
                            0.0
                        ]
                    },
                    {
                        "triggerTime_ms": 1980,
                        "faceAngle": 0.0,
                        "faceCenterX": 0.0,
                        "faceCenterY": 12.935738563537598,
                        "faceScaleX": 1.0,
                        "faceScaleY": 1.0,
                        "leftEye": [
                            9.682978630065918,
                            4.272152423858643,
                            1.0457555055618286,
                            0.7967790365219116,
                            0.0,
                            0.5278093814849854,
                            0.5278093814849854,
                            0.42470741271972656,
                            0.42470741271972656,
                            0.42470741271972656,
                            0.42470741271972656,
                            0.5278093814849854,
                            0.5278093814849854,
                            0.6198432445526123,
                            -8.412135124206543,
                            0.0,
                            0.0,
                            0.0,
                            0.0
                        ],
                        "rightEye": [
                            -10.206374168395996,
                            0.0,
                            1.42357337474823,
                            1.0304944515228271,
                            0.0,
                            0.5854809880256653,
                            0.5854809880256653,
                            0.46325939893722534,
                            0.46325939893722534,
                            0.46325939893722534,
                            0.46325939893722534,
                            0.5854809880256653,
                            0.5854809880256653,
                            0.60025554895401,
                            -8.98401165008545,
                            0.0,
                            0.0,
                            0.0,
                            0.0
                        ]
                    },
                    {
                        "triggerTime_ms": 2046,
                        "faceAngle": 0.0,
                        "faceCenterX": 0.0,
                        "faceCenterY": 12.935738563537598,
                        "faceScaleX": 1.0,
                        "faceScaleY": 1.0,
                        "leftEye": [
                            9.682978630065918,
                            4.272152423858643,
                            1.0457555055618286,
                            0.7967790365219116,
                            0.0,
                            0.5854809880256653,
                            0.5854809880256653,
                            0.46325939893722534,
                            0.46325939893722534,
                            0.46325939893722534,
                            0.46325939893722534,
                            0.5854809880256653,
                            0.5854809880256653,
                            0.6002601385116577,
                            -8.98401165008545,
                            0.0,
                            0.0,
                            0.0,
                            0.0
                        ],
                        "rightEye": [
                            -10.206374168395996,
                            0.0,
                            1.42357337474823,
                            1.0304944515228271,
                            0.0,
                            0.5854809880256653,
                            0.5854809880256653,
                            0.46325939893722534,
                            0.46325939893722534,
                            0.46325939893722534,
                            0.46325939893722534,
                            0.5854809880256653,
                            0.5854809880256653,
                            0.60025554895401,
                            -8.98401165008545,
                            0.0,
                            0.0,
                            0.0,
                            0.0
                        ]
                    }
                ],
                "HeadAngleKeyFrame": [
                    {
                        "triggerTime_ms": 0,
                        "durationTime_ms": 132,
                        "angle_deg": 0,
                        "angleVariability_deg": 0
                    },
                    {
                        "triggerTime_ms": 132,
                        "durationTime_ms": 132,
                        "angle_deg": -11,
                        "angleVariability_deg": 0
                    },
                    {
                        "triggerTime_ms": 264,
                        "durationTime_ms": 264,
                        "angle_deg": 44,
                        "angleVariability_deg": 0
                    },
                    {
                        "triggerTime_ms": 528,
                        "durationTime_ms": 99,
                        "angle_deg": 35,
                        "angleVariability_deg": 0
                    },
                    {
                        "triggerTime_ms": 1221,
                        "durationTime_ms": 231,
                        "angle_deg": 32,
                        "angleVariability_deg": 0
                    },
                    {
                        "triggerTime_ms": 1452,
                        "durationTime_ms": 231,
                        "angle_deg": -20,
                        "angleVariability_deg": 0
                    },
                    {
                        "triggerTime_ms": 1683,
                        "durationTime_ms": 198,
                        "angle_deg": -9,
                        "angleVariability_deg": 0
                    }
                ],
                "RobotAudioKeyFrame": [
                    {
                        "triggerTime_ms": 33,
                        "audioEventId": [
                            1851457029
                        ],
                        "volume": 1.0,
                        "probability": [
                            1.0
                        ],
                        "hasAlts": true
                    },
                    {
                        "triggerTime_ms": 363,
                        "audioEventId": [
                            1468592375
                        ],
                        "volume": 1.0,
                        "probability": [
                            1.0
                        ],
                        "hasAlts": true
                    },
                    {
                        "triggerTime_ms": 528,
                        "audioEventId": [
                            3962217786
                        ],
                        "volume": 1.0,
                        "probability": [
                            1.0
                        ],
                        "hasAlts": true
                    },
                    {
                        "triggerTime_ms": 1419,
                        "audioEventId": [
                            1620542011
                        ],
                        "volume": 1.0,
                        "probability": [
                            1.0
                        ],
                        "hasAlts": true
                    }
                ],
                "BackpackLightsKeyFrame": [
                    {
                        "triggerTime_ms": 0,
                        "durationTime_ms": 139,
                        "Left": [
                            0,
                            0,
                            0,
                            0
                        ],
                        "Front": [
                            0,
                            0,
                            0,
                            0
                        ],
                        "Middle": [
                            0,
                            0,
                            0,
                            0
                        ],
                        "Back": [
                            0,
                            0,
                            0,
                            0
                        ],
                        "Right": [
                            0,
                            0,
                            0,
                            0
                        ]
                    },
                    {
                        "triggerTime_ms": 139,
                        "durationTime_ms": 39,
                        "Left": [
                            0,
                            0,
                            0,
                            0
                        ],
                        "Front": [
                            0,
                            0,
                            0,
                            0
                        ],
                        "Middle": [
                            0,
                            0,
                            0,
                            0
                        ],
                        "Back": [
                            0,
                            0,
                            0,
                            0
                        ],
                        "Right": [
                            0,
                            0,
                            0,
                            0
                        ]
                    },
                    {
                        "triggerTime_ms": 178,
                        "durationTime_ms": 40,
                        "Left": [
                            0,
                            0,
                            0,
                            0
                        ],
                        "Front": [
                            0,
                            0,
                            0,
                            0
                        ],
                        "Middle": [
                            0,
                            0,
                            0,
                            0
                        ],
                        "Back": [
                            0,
                            0,
                            0,
                            0
                        ],
                        "Right": [
                            0,
                            0,
                            0,
                            0
                        ]
                    },
                    {
                        "triggerTime_ms": 217,
                        "durationTime_ms": 39,
                        "Left": [
                            0,
                            0,
                            0,
                            0
                        ],
                        "Front": [
                            0,
                            0,
                            0,
                            0
                        ],
                        "Middle": [
                            0,
                            0,
                            0,
                            0
                        ],
                        "Back": [
                            0,
                            0,
                            0,
                            0
                        ],
                        "Right": [
                            0,
                            0,
                            0,
                            0
                        ]
                    },
                    {
                        "triggerTime_ms": 256,
                        "durationTime_ms": 40,
                        "Left": [
                            0,
                            0,
                            0,
                            0
                        ],
                        "Front": [
                            0,
                            0,
                            0,
                            0
                        ],
                        "Middle": [
                            0,
                            0,
                            0,
                            0
                        ],
                        "Back": [
                            0,
                            0,
                            0,
                            0
                        ],
                        "Right": [
                            0,
                            0,
                            0,
                            0
                        ]
                    },
                    {
                        "triggerTime_ms": 296,
                        "durationTime_ms": 39,
                        "Left": [
                            0,
                            0,
                            0,
                            0
                        ],
                        "Front": [
                            0,
                            0,
                            0,
                            0
                        ],
                        "Middle": [
                            0,
                            0,
                            0,
                            0
                        ],
                        "Back": [
                            0,
                            0,
                            0,
                            0
                        ],
                        "Right": [
                            0,
                            0,
                            0,
                            0
                        ]
                    },
                    {
                        "triggerTime_ms": 335,
                        "durationTime_ms": 40,
                        "Left": [
                            0,
                            0,
                            0,
                            0
                        ],
                        "Front": [
                            0,
                            0,
                            0,
                            0
                        ],
                        "Middle": [
                            0,
                            0,
                            0,
                            0
                        ],
                        "Back": [
                            0,
                            0,
                            0,
                            0
                        ],
                        "Right": [
                            0,
                            0,
                            0,
                            0
                        ]
                    },
                    {
                        "triggerTime_ms": 374,
                        "durationTime_ms": 39,
                        "Left": [
                            0,
                            0,
                            0,
                            0
                        ],
                        "Front": [
                            0,
                            0,
                            0,
                            0
                        ],
                        "Middle": [
                            0,
                            0,
                            0,
                            0
                        ],
                        "Back": [
                            0,
                            0,
                            0,
                            0
                        ],
                        "Right": [
                            0,
                            0,
                            0,
                            0
                        ]
                    },
                    {
                        "triggerTime_ms": 413,
                        "durationTime_ms": 40,
                        "Left": [
                            0,
                            0,
                            0,
                            0
                        ],
                        "Front": [
                            0,
                            0,
                            0,
                            0
                        ],
                        "Middle": [
                            0,
                            0,
                            0,
                            0
                        ],
                        "Back": [
                            0,
                            0,
                            0,
                            0
                        ],
                        "Right": [
                            0,
                            0,
                            0,
                            0
                        ]
                    },
                    {
                        "triggerTime_ms": 453,
                        "durationTime_ms": 39,
                        "Left": [
                            0,
                            0,
                            0,
                            0
                        ],
                        "Front": [
                            0,
                            0,
                            0,
                            0
                        ],
                        "Middle": [
                            0,
                            0,
                            0,
                            0
                        ],
                        "Back": [
                            0,
                            0,
                            0,
                            0
                        ],
                        "Right": [
                            0,
                            0,
                            0,
                            0
                        ]
                    },
                    {
                        "triggerTime_ms": 492,
                        "durationTime_ms": 40,
                        "Left": [
                            0,
                            0,
                            0,
                            0
                        ],
                        "Front": [
                            0,
                            0,
                            0,
                            0
                        ],
                        "Middle": [
                            0,
                            0,
                            0,
                            0
                        ],
                        "Back": [
                            0,
                            0,
                            0,
                            0
                        ],
                        "Right": [
                            0,
                            0,
                            0,
                            0
                        ]
                    },
                    {
                        "triggerTime_ms": 531,
                        "durationTime_ms": 39,
                        "Left": [
                            0,
                            0,
                            0,
                            0
                        ],
                        "Front": [
                            0,
                            0,
                            0,
                            0
                        ],
                        "Middle": [
                            0,
                            0,
                            0,
                            0
                        ],
                        "Back": [
                            0,
                            0,
                            0,
                            0
                        ],
                        "Right": [
                            0,
                            0,
                            0,
                            0
                        ]
                    },
                    {
                        "triggerTime_ms": 570,
                        "durationTime_ms": 40,
                        "Left": [
                            0,
                            0,
                            0,
                            0
                        ],
                        "Front": [
                            0,
                            0,
                            0,
                            0
                        ],
                        "Middle": [
                            0,
                            0,
                            0,
                            0
                        ],
                        "Back": [
                            0,
                            0,
                            0,
                            0
                        ],
                        "Right": [
                            0,
                            0,
                            0,
                            0
                        ]
                    },
                    {
                        "triggerTime_ms": 610,
                        "durationTime_ms": 39,
                        "Left": [
                            0,
                            0,
                            0,
                            0
                        ],
                        "Front": [
                            0,
                            0,
                            0,
                            0
                        ],
                        "Middle": [
                            0,
                            0,
                            0,
                            0
                        ],
                        "Back": [
                            0,
                            0,
                            0,
                            0
                        ],
                        "Right": [
                            0,
                            0,
                            0,
                            0
                        ]
                    },
                    {
                        "triggerTime_ms": 649,
                        "durationTime_ms": 40,
                        "Left": [
                            0,
                            0,
                            0,
                            0
                        ],
                        "Front": [
                            0,
                            0,
                            0,
                            0
                        ],
                        "Middle": [
                            0,
                            0,
                            0,
                            0
                        ],
                        "Back": [
                            0,
                            0,
                            0,
                            0
                        ],
                        "Right": [
                            0,
                            0,
                            0,
                            0
                        ]
                    },
                    {
                        "triggerTime_ms": 688,
                        "durationTime_ms": 39,
                        "Left": [
                            0,
                            0,
                            0,
                            0
                        ],
                        "Front": [
                            0,
                            0,
                            0,
                            0
                        ],
                        "Middle": [
                            0,
                            0,
                            0,
                            0
                        ],
                        "Back": [
                            0,
                            0,
                            0,
                            0
                        ],
                        "Right": [
                            0,
                            0,
                            0,
                            0
                        ]
                    },
                    {
                        "triggerTime_ms": 727,
                        "durationTime_ms": 40,
                        "Left": [
                            0,
                            0,
                            0,
                            0
                        ],
                        "Front": [
                            0,
                            0,
                            0,
                            0
                        ],
                        "Middle": [
                            0,
                            0,
                            0,
                            0
                        ],
                        "Back": [
                            0,
                            0,
                            0,
                            0
                        ],
                        "Right": [
                            0,
                            0,
                            0,
                            0
                        ]
                    },
                    {
                        "triggerTime_ms": 767,
                        "durationTime_ms": 39,
                        "Left": [
                            0,
                            0,
                            0,
                            0
                        ],
                        "Front": [
                            0,
                            0,
                            0,
                            0
                        ],
                        "Middle": [
                            0,
                            0,
                            0,
                            0
                        ],
                        "Back": [
                            0,
                            0,
                            0,
                            0
                        ],
                        "Right": [
                            0,
                            0,
                            0,
                            0
                        ]
                    },
                    {
                        "triggerTime_ms": 806,
                        "durationTime_ms": 40,
                        "Left": [
                            0,
                            0,
                            0,
                            0
                        ],
                        "Front": [
                            0,
                            0,
                            0,
                            0
                        ],
                        "Middle": [
                            0,
                            0,
                            0,
                            0
                        ],
                        "Back": [
                            0,
                            0,
                            0,
                            0
                        ],
                        "Right": [
                            0,
                            0,
                            0,
                            0
                        ]
                    },
                    {
                        "triggerTime_ms": 845,
                        "durationTime_ms": 39,
                        "Left": [
                            0,
                            0,
                            0,
                            0
                        ],
                        "Front": [
                            0,
                            0,
                            0,
                            0
                        ],
                        "Middle": [
                            0,
                            0,
                            0,
                            0
                        ],
                        "Back": [
                            0,
                            0,
                            0,
                            0
                        ],
                        "Right": [
                            0,
                            0,
                            0,
                            0
                        ]
                    },
                    {
                        "triggerTime_ms": 884,
                        "durationTime_ms": 304,
                        "Left": [
                            0,
                            0,
                            0,
                            0
                        ],
                        "Front": [
                            0,
                            0,
                            0,
                            0
                        ],
                        "Middle": [
                            0,
                            0,
                            0,
                            0
                        ],
                        "Back": [
                            0,
                            0,
                            0,
                            0
                        ],
                        "Right": [
                            0,
                            0,
                            0,
                            0
                        ]
                    },
                    {
                        "triggerTime_ms": 1188,
                        "durationTime_ms": 42,
                        "Left": [
                            0,
                            0,
                            0,
                            0
                        ],
                        "Front": [
                            0,
                            0,
                            0,
                            0
                        ],
                        "Middle": [
                            0,
                            1,
                            0,
                            0
                        ],
                        "Back": [
                            0,
                            0,
                            0,
                            0
                        ],
                        "Right": [
                            0,
                            0,
                            0,
                            0
                        ]
                    },
                    {
                        "triggerTime_ms": 1230,
                        "durationTime_ms": 42,
                        "Left": [
                            0,
                            0,
                            0,
                            0
                        ],
                        "Front": [
                            0,
                            0,
                            0,
                            0
                        ],
                        "Middle": [
                            0,
                            0,
                            0,
                            0
                        ],
                        "Back": [
                            0,
                            0,
                            0,
                            0
                        ],
                        "Right": [
                            0,
                            0,
                            0,
                            0
                        ]
                    },
                    {
                        "triggerTime_ms": 1272,
                        "durationTime_ms": 42,
                        "Left": [
                            0,
                            0,
                            0,
                            0
                        ],
                        "Front": [
                            0,
                            0,
                            0,
                            0
                        ],
                        "Middle": [
                            0,
                            0,
                            0,
                            0
                        ],
                        "Back": [
                            0,
                            0,
                            0,
                            0
                        ],
                        "Right": [
                            0,
                            0,
                            0,
                            0
                        ]
                    },
                    {
                        "triggerTime_ms": 1314,
                        "durationTime_ms": 42,
                        "Left": [
                            0,
                            0,
                            0,
                            0
                        ],
                        "Front": [
                            0,
                            0,
                            0,
                            0
                        ],
                        "Middle": [
                            0,
                            0,
                            0,
                            0
                        ],
                        "Back": [
                            0,
                            0,
                            0,
                            0
                        ],
                        "Right": [
                            0,
                            0,
                            0,
                            0
                        ]
                    },
                    {
                        "triggerTime_ms": 1356,
                        "durationTime_ms": 43,
                        "Left": [
                            0,
                            0,
                            0,
                            0
                        ],
                        "Front": [
                            0,
                            0,
                            0,
                            0
                        ],
                        "Middle": [
                            0,
                            0,
                            0,
                            0
                        ],
                        "Back": [
                            0,
                            0,
                            0,
                            0
                        ],
                        "Right": [
                            0,
                            0,
                            0,
                            0
                        ]
                    },
                    {
                        "triggerTime_ms": 1399,
                        "durationTime_ms": 42,
                        "Left": [
                            0,
                            0,
                            0,
                            0
                        ],
                        "Front": [
                            0,
                            0,
                            0,
                            0
                        ],
                        "Middle": [
                            0,
                            0,
                            0,
                            0
                        ],
                        "Back": [
                            0,
                            0,
                            0,
                            0
                        ],
                        "Right": [
                            0,
                            0,
                            0,
                            0
                        ]
                    },
                    {
                        "triggerTime_ms": 1441,
                        "durationTime_ms": 42,
                        "Left": [
                            0,
                            0,
                            0,
                            0
                        ],
                        "Front": [
                            0,
                            0,
                            0,
                            0
                        ],
                        "Middle": [
                            0,
                            0,
                            0,
                            0
                        ],
                        "Back": [
                            0,
                            0,
                            0,
                            0
                        ],
                        "Right": [
                            0,
                            0,
                            0,
                            0
                        ]
                    },
                    {
                        "triggerTime_ms": 1483,
                        "durationTime_ms": 42,
                        "Left": [
                            0,
                            0,
                            0,
                            0
                        ],
                        "Front": [
                            0,
                            0,
                            0,
                            0
                        ],
                        "Middle": [
                            0,
                            0,
                            0,
                            0
                        ],
                        "Back": [
                            0,
                            0,
                            0,
                            0
                        ],
                        "Right": [
                            0,
                            0,
                            0,
                            0
                        ]
                    },
                    {
                        "triggerTime_ms": 1525,
                        "durationTime_ms": 42,
                        "Left": [
                            0,
                            0,
                            0,
                            0
                        ],
                        "Front": [
                            0,
                            0,
                            0,
                            0
                        ],
                        "Middle": [
                            0,
                            0,
                            0,
                            0
                        ],
                        "Back": [
                            0,
                            0,
                            0,
                            0
                        ],
                        "Right": [
                            0,
                            0,
                            0,
                            0
                        ]
                    },
                    {
                        "triggerTime_ms": 1568,
                        "durationTime_ms": 42,
                        "Left": [
                            0,
                            0,
                            0,
                            0
                        ],
                        "Front": [
                            0,
                            0,
                            0,
                            0
                        ],
                        "Middle": [
                            0,
                            0,
                            0,
                            0
                        ],
                        "Back": [
                            0,
                            0,
                            0,
                            0
                        ],
                        "Right": [
                            0,
                            0,
                            0,
                            0
                        ]
                    },
                    {
                        "triggerTime_ms": 1610,
                        "durationTime_ms": 42,
                        "Left": [
                            0,
                            0,
                            0,
                            0
                        ],
                        "Front": [
                            0,
                            0,
                            0,
                            0
                        ],
                        "Middle": [
                            0,
                            0,
                            0,
                            0
                        ],
                        "Back": [
                            0,
                            0,
                            0,
                            0
                        ],
                        "Right": [
                            0,
                            0,
                            0,
                            0
                        ]
                    },
                    {
                        "triggerTime_ms": 1652,
                        "durationTime_ms": 42,
                        "Left": [
                            0,
                            0,
                            0,
                            0
                        ],
                        "Front": [
                            0,
                            0,
                            0,
                            0
                        ],
                        "Middle": [
                            0,
                            0,
                            0,
                            0
                        ],
                        "Back": [
                            0,
                            0,
                            0,
                            0
                        ],
                        "Right": [
                            0,
                            0,
                            0,
                            0
                        ]
                    },
                    {
                        "triggerTime_ms": 1694,
                        "durationTime_ms": 43,
                        "Left": [
                            0,
                            0,
                            0,
                            0
                        ],
                        "Front": [
                            0,
                            0,
                            0,
                            0
                        ],
                        "Middle": [
                            0,
                            0,
                            0,
                            0
                        ],
                        "Back": [
                            0,
                            0,
                            0,
                            0
                        ],
                        "Right": [
                            0,
                            0,
                            0,
                            0
                        ]
                    },
                    {
                        "triggerTime_ms": 1736,
                        "durationTime_ms": 42,
                        "Left": [
                            0,
                            0,
                            0,
                            0
                        ],
                        "Front": [
                            0,
                            0,
                            0,
                            0
                        ],
                        "Middle": [
                            0,
                            0,
                            0,
                            0
                        ],
                        "Back": [
                            0,
                            0,
                            0,
                            0
                        ],
                        "Right": [
                            0,
                            0,
                            0,
                            0
                        ]
                    },
                    {
                        "triggerTime_ms": 1779,
                        "durationTime_ms": 42,
                        "Left": [
                            0,
                            0,
                            0,
                            0
                        ],
                        "Front": [
                            0,
                            0,
                            0,
                            0
                        ],
                        "Middle": [
                            0,
                            0,
                            0,
                            0
                        ],
                        "Back": [
                            0,
                            0,
                            0,
                            0
                        ],
                        "Right": [
                            0,
                            0,
                            0,
                            0
                        ]
                    },
                    {
                        "triggerTime_ms": 1821,
                        "durationTime_ms": 42,
                        "Left": [
                            0,
                            0,
                            0,
                            0
                        ],
                        "Front": [
                            0,
                            0,
                            0,
                            0
                        ],
                        "Middle": [
                            0,
                            0,
                            0,
                            0
                        ],
                        "Back": [
                            0,
                            0,
                            0,
                            0
                        ],
                        "Right": [
                            0,
                            0,
                            0,
                            0
                        ]
                    },
                    {
                        "triggerTime_ms": 1863,
                        "durationTime_ms": 42,
                        "Left": [
                            0,
                            0,
                            0,
                            0
                        ],
                        "Front": [
                            0,
                            0,
                            0,
                            0
                        ],
                        "Middle": [
                            0,
                            0,
                            0,
                            0
                        ],
                        "Back": [
                            0,
                            0,
                            0,
                            0
                        ],
                        "Right": [
                            0,
                            0,
                            0,
                            0
                        ]
                    },
                    {
                        "triggerTime_ms": 1905,
                        "durationTime_ms": 207,
                        "Left": [
                            0,
                            0,
                            0,
                            0
                        ],
                        "Front": [
                            0,
                            0,
                            0,
                            0
                        ],
                        "Middle": [
                            0,
                            0,
                            0,
                            0
                        ],
                        "Back": [
                            0,
                            0,
                            0,
                            0
                        ],
                        "Right": [
                            0,
                            0,
                            0,
                            0
                        ]
                    }
                ],
                "FaceAnimationKeyFrame": [],
                "EventKeyFrame": [],
                "BodyMotionKeyFrame": [
                    {
                        "triggerTime_ms": 0,
                        "durationTime_ms": 165,
                        "radius_mm": "STRAIGHT",
                        "speed": 77
                    },
                    {
                        "triggerTime_ms": 165,
                        "durationTime_ms": 330,
                        "radius_mm": "STRAIGHT",
                        "speed": -45
                    },
                    {
                        "triggerTime_ms": 495,
                        "durationTime_ms": 330,
                        "radius_mm": "STRAIGHT",
                        "speed": -11
                    }
                ],
                "RecordHeadingKeyFrame": [],
                "TurnToRecordedHeadingKeyFrame": []
            }
        }
    ]
}