{
    "clips": [
        {
            "Name": "anim_bored_event_02",
            "keyframes": {
                "LiftHeightKeyFrame": [
                    {
                        "triggerTime_ms": 1188,
                        "durationTime_ms": 99,
                        "height_mm": 40,
                        "heightVariability_mm": 0
                    },
                    {
                        "triggerTime_ms": 1287,
                        "durationTime_ms": 99,
                        "height_mm": 0,
                        "heightVariability_mm": 0
                    },
                    {
                        "triggerTime_ms": 3663,
                        "durationTime_ms": 132,
                        "height_mm": 56,
                        "heightVariability_mm": 0
                    },
                    {
                        "triggerTime_ms": 3795,
                        "durationTime_ms": 99,
                        "height_mm": 6,
                        "heightVariability_mm": 0
                    },
                    {
                        "triggerTime_ms": 3894,
                        "durationTime_ms": 297,
                        "height_mm": 0,
                        "heightVariability_mm": 0
                    }
                ],
                "ProceduralFaceKeyFrame": [],
                "HeadAngleKeyFrame": [
                    {
                        "triggerTime_ms": 0,
                        "durationTime_ms": 99,
                        "angle_deg": 0,
                        "angleVariability_deg": 0
                    },
                    {
                        "triggerTime_ms": 99,
                        "durationTime_ms": 165,
                        "angle_deg": -10,
                        "angleVariability_deg": 0
                    },
                    {
                        "triggerTime_ms": 264,
                        "durationTime_ms": 264,
                        "angle_deg": 36,
                        "angleVariability_deg": 0
                    },
                    {
                        "triggerTime_ms": 528,
                        "durationTime_ms": 198,
                        "angle_deg": 33,
                        "angleVariability_deg": 0
                    },
                    {
                        "triggerTime_ms": 726,
                        "durationTime_ms": 264,
                        "angle_deg": 31,
                        "angleVariability_deg": 0
                    },
                    {
                        "triggerTime_ms": 990,
                        "durationTime_ms": 231,
                        "angle_deg": 34,
                        "angleVariability_deg": 0
                    },
                    {
                        "triggerTime_ms": 1221,
                        "durationTime_ms": 165,
                        "angle_deg": 19,
                        "angleVariability_deg": 0
                    },
                    {
                        "triggerTime_ms": 1386,
                        "durationTime_ms": 33,
                        "angle_deg": 17,
                        "angleVariability_deg": 0
                    },
                    {
                        "triggerTime_ms": 1419,
                        "durationTime_ms": 33,
                        "angle_deg": 16,
                        "angleVariability_deg": 0
                    },
                    {
                        "triggerTime_ms": 1452,
                        "durationTime_ms": 66,
                        "angle_deg": 17,
                        "angleVariability_deg": 0
                    },
                    {
                        "triggerTime_ms": 1518,
                        "durationTime_ms": 33,
                        "angle_deg": 18,
                        "angleVariability_deg": 0
                    },
                    {
                        "triggerTime_ms": 1551,
                        "durationTime_ms": 99,
                        "angle_deg": 24,
                        "angleVariability_deg": 0
                    },
                    {
                        "triggerTime_ms": 1650,
                        "durationTime_ms": 66,
                        "angle_deg": 26,
                        "angleVariability_deg": 0
                    },
                    {
                        "triggerTime_ms": 1716,
                        "durationTime_ms": 66,
                        "angle_deg": 27,
                        "angleVariability_deg": 0
                    },
                    {
                        "triggerTime_ms": 1782,
                        "durationTime_ms": 66,
                        "angle_deg": 28,
                        "angleVariability_deg": 0
                    },
                    {
                        "triggerTime_ms": 1848,
                        "durationTime_ms": 66,
                        "angle_deg": 28,
                        "angleVariability_deg": 0
                    },
                    {
                        "triggerTime_ms": 1914,
                        "durationTime_ms": 165,
                        "angle_deg": 18,
                        "angleVariability_deg": 0
                    },
                    {
                        "triggerTime_ms": 2079,
                        "durationTime_ms": 33,
                        "angle_deg": 16,
                        "angleVariability_deg": 0
                    },
                    {
                        "triggerTime_ms": 2112,
                        "durationTime_ms": 33,
                        "angle_deg": 16,
                        "angleVariability_deg": 0
                    },
                    {
                        "triggerTime_ms": 2145,
                        "durationTime_ms": 33,
                        "angle_deg": 16,
                        "angleVariability_deg": 0
                    },
                    {
                        "triggerTime_ms": 2178,
                        "durationTime_ms": 33,
                        "angle_deg": 17,
                        "angleVariability_deg": 0
                    },
                    {
                        "triggerTime_ms": 2211,
                        "durationTime_ms": 132,
                        "angle_deg": 22,
                        "angleVariability_deg": 0
                    },
                    {
                        "triggerTime_ms": 2343,
                        "durationTime_ms": 66,
                        "angle_deg": 24,
                        "angleVariability_deg": 0
                    },
                    {
                        "triggerTime_ms": 2409,
                        "durationTime_ms": 99,
                        "angle_deg": 25,
                        "angleVariability_deg": 0
                    },
                    {
                        "triggerTime_ms": 2508,
                        "durationTime_ms": 66,
                        "angle_deg": 25,
                        "angleVariability_deg": 0
                    },
                    {
                        "triggerTime_ms": 2574,
                        "durationTime_ms": 99,
                        "angle_deg": 25,
                        "angleVariability_deg": 0
                    },
                    {
                        "triggerTime_ms": 2673,
                        "durationTime_ms": 99,
                        "angle_deg": 26,
                        "angleVariability_deg": 0
                    },
                    {
                        "triggerTime_ms": 2772,
                        "durationTime_ms": 231,
                        "angle_deg": 15,
                        "angleVariability_deg": 0
                    },
                    {
                        "triggerTime_ms": 3003,
                        "durationTime_ms": 66,
                        "angle_deg": 13,
                        "angleVariability_deg": 0
                    },
                    {
                        "triggerTime_ms": 3069,
                        "durationTime_ms": 66,
                        "angle_deg": 13,
                        "angleVariability_deg": 0
                    },
                    {
                        "triggerTime_ms": 3135,
                        "durationTime_ms": 66,
                        "angle_deg": 15,
                        "angleVariability_deg": 0
                    },
                    {
                        "triggerTime_ms": 3201,
                        "durationTime_ms": 33,
                        "angle_deg": 16,
                        "angleVariability_deg": 0
                    },
                    {
                        "triggerTime_ms": 3234,
                        "durationTime_ms": 33,
                        "angle_deg": 19,
                        "angleVariability_deg": 0
                    },
                    {
                        "triggerTime_ms": 3267,
                        "durationTime_ms": 231,
                        "angle_deg": 36,
                        "angleVariability_deg": 0
                    },
                    {
                        "triggerTime_ms": 3498,
                        "durationTime_ms": 66,
                        "angle_deg": 40,
                        "angleVariability_deg": 0
                    },
                    {
                        "triggerTime_ms": 3564,
                        "durationTime_ms": 99,
                        "angle_deg": 43,
                        "angleVariability_deg": 0
                    },
                    {
                        "triggerTime_ms": 3663,
                        "durationTime_ms": 66,
                        "angle_deg": 43,
                        "angleVariability_deg": 0
                    },
                    {
                        "triggerTime_ms": 3729,
                        "durationTime_ms": 66,
                        "angle_deg": 43,
                        "angleVariability_deg": 0
                    },
                    {
                        "triggerTime_ms": 3795,
                        "durationTime_ms": 66,
                        "angle_deg": 39,
                        "angleVariability_deg": 0
                    },
                    {
                        "triggerTime_ms": 3861,
                        "durationTime_ms": 132,
                        "angle_deg": -23,
                        "angleVariability_deg": 0
                    },
                    {
                        "triggerTime_ms": 3993,
                        "durationTime_ms": 198,
                        "angle_deg": -8,
                        "angleVariability_deg": 0
                    },
                    {
                        "triggerTime_ms": 4191,
                        "durationTime_ms": 264,
                        "angle_deg": -14,
                        "angleVariability_deg": 0
                    }
                ],
                "RobotAudioKeyFrame": [
                    {
                        "triggerTime_ms": 264,
                        "audioEventId": [
                            62303530
                        ],
                        "volume": 1.0,
                        "probability": [
                            1.0
                        ],
                        "hasAlts": true
                    },
                    {
                        "triggerTime_ms": 3795,
                        "audioEventId": [
                            1907152766
                        ],
                        "volume": 1.0,
                        "probability": [
                            1.0
                        ],
                        "hasAlts": true
                    }
                ],
                "BackpackLightsKeyFrame": [
                    {
                        "triggerTime_ms": 0,
                        "durationTime_ms": 198,
                        "Left": [
                            0,
                            0,
                            0,
                            0
                        ],
                        "Front": [
                            0,
                            0,
                            0,
                            0
                        ],
                        "Middle": [
                            0,
                            0,
                            0,
                            0
                        ],
                        "Back": [
                            0,
                            0,
                            0,
                            0
                        ],
                        "Right": [
                            0,
                            0,
                            0,
                            0
                        ]
                    },
                    {
                        "triggerTime_ms": 198,
                        "durationTime_ms": 99,
                        "Left": [
                            0,
                            0,
                            0,
                            0
                        ],
                        "Front": [
                            0,
                            0,
                            0,
                            0
                        ],
                        "Middle": [
                            0,
                            0,
                            0,
                            0
                        ],
                        "Back": [
                            0,
                            0,
                            0,
                            0
                        ],
                        "Right": [
                            0,
                            0,
                            0,
                            0
                        ]
                    },
                    {
                        "triggerTime_ms": 297,
                        "durationTime_ms": 33,
                        "Left": [
                            0,
                            0,
                            0,
                            0
                        ],
                        "Front": [
                            0,
                            0,
                            0,
                            0
                        ],
                        "Middle": [
                            1,
                            0,
                            0,
                            0
                        ],
                        "Back": [
                            0,
                            0,
                            0,
                            0
                        ],
                        "Right": [
                            0,
                            0,
                            0,
                            0
                        ]
                    },
                    {
                        "triggerTime_ms": 330,
                        "durationTime_ms": 33,
                        "Left": [
                            0,
                            0,
                            0,
                            0
                        ],
                        "Front": [
                            0,
                            0,
                            0,
                            0
                        ],
                        "Middle": [
                            1,
                            0,
                            0,
                            0
                        ],
                        "Back": [
                            0,
                            0,
                            0,
                            0
                        ],
                        "Right": [
                            0,
                            0,
                            0,
                            0
                        ]
                    },
                    {
                        "triggerTime_ms": 363,
                        "durationTime_ms": 1122,
                        "Left": [
                            0,
                            0,
                            0,
                            0
                        ],
                        "Front": [
                            1,
                            0,
                            0,
                            0
                        ],
                        "Middle": [
                            1,
                            0,
                            0,
                            0
                        ],
                        "Back": [
                            1,
                            0,
                            0,
                            0
                        ],
                        "Right": [
                            0,
                            0,
                            0,
                            0
                        ]
                    },
                    {
                        "triggerTime_ms": 1485,
                        "durationTime_ms": 33,
                        "Left": [
                            0,
                            0,
                            0,
                            0
                        ],
                        "Front": [
                            1,
                            0,
                            0,
                            0
                        ],
                        "Middle": [
                            1,
                            0,
                            0,
                            0
                        ],
                        "Back": [
                            1,
                            0,
                            0,
                            0
                        ],
                        "Right": [
                            0,
                            0,
                            0,
                            0
                        ]
                    },
                    {
                        "triggerTime_ms": 1518,
                        "durationTime_ms": 33,
                        "Left": [
                            0,
                            0,
                            0,
                            0
                        ],
                        "Front": [
                            0,
                            0,
                            0,
                            0
                        ],
                        "Middle": [
                            1,
                            0,
                            0,
                            0
                        ],
                        "Back": [
                            0,
                            0,
                            0,
                            0
                        ],
                        "Right": [
                            0,
                            0,
                            0,
                            0
                        ]
                    },
                    {
                        "triggerTime_ms": 1551,
                        "durationTime_ms": 33,
                        "Left": [
                            0,
                            0,
                            0,
                            0
                        ],
                        "Front": [
                            0,
                            0,
                            0,
                            0
                        ],
                        "Middle": [
                            1,
                            0,
                            0,
                            0
                        ],
                        "Back": [
                            0,
                            0,
                            0,
                            0
                        ],
                        "Right": [
                            0,
                            0,
                            0,
                            0
                        ]
                    },
                    {
                        "triggerTime_ms": 1584,
                        "durationTime_ms": 33,
                        "Left": [
                            0,
                            0,
                            0,
                            0
                        ],
                        "Front": [
                            0,
                            0,
                            0,
                            0
                        ],
                        "Middle": [
                            0,
                            0,
                            0,
                            0
                        ],
                        "Back": [
                            0,
                            0,
                            0,
                            0
                        ],
                        "Right": [
                            0,
                            0,
                            0,
                            0
                        ]
                    },
                    {
                        "triggerTime_ms": 1617,
                        "durationTime_ms": 33,
                        "Left": [
                            0,
                            0,
                            0,
                            0
                        ],
                        "Front": [
                            0,
                            0,
                            0,
                            0
                        ],
                        "Middle": [
                            0,
                            0,
                            0,
                            0
                        ],
                        "Back": [
                            0,
                            0,
                            0,
                            0
                        ],
                        "Right": [
                            0,
                            0,
                            0,
                            0
                        ]
                    },
                    {
                        "triggerTime_ms": 1650,
                        "durationTime_ms": 33,
                        "Left": [
                            0,
                            0,
                            0,
                            0
                        ],
                        "Front": [
                            0,
                            0,
                            0,
                            0
                        ],
                        "Middle": [
                            0,
                            0,
                            0,
                            0
                        ],
                        "Back": [
                            0,
                            0,
                            0,
                            0
                        ],
                        "Right": [
                            0,
                            0,
                            0,
                            0
                        ]
                    },
                    {
                        "triggerTime_ms": 1683,
                        "durationTime_ms": 462,
                        "Left": [
                            0,
                            0,
                            0,
                            0
                        ],
                        "Front": [
                            0,
                            0,
                            0,
                            0
                        ],
                        "Middle": [
                            0,
                            0,
                            0,
                            0
                        ],
                        "Back": [
                            0,
                            0,
                            0,
                            0
                        ],
                        "Right": [
                            0,
                            0,
                            0,
                            0
                        ]
                    },
                    {
                        "triggerTime_ms": 2145,
                        "durationTime_ms": 99,
                        "Left": [
                            0,
                            0,
                            0,
                            0
                        ],
                        "Front": [
                            0,
                            0,
                            0,
                            0
                        ],
                        "Middle": [
                            0,
                            0,
                            0,
                            0
                        ],
                        "Back": [
                            0,
                            0,
                            0,
                            0
                        ],
                        "Right": [
                            0,
                            0,
                            0,
                            0
                        ]
                    },
                    {
                        "triggerTime_ms": 2244,
                        "durationTime_ms": 33,
                        "Left": [
                            0,
                            0,
                            0,
                            0
                        ],
                        "Front": [
                            0,
                            0,
                            0,
                            0
                        ],
                        "Middle": [
                            1,
                            0,
                            0,
                            0
                        ],
                        "Back": [
                            0,
                            0,
                            0,
                            0
                        ],
                        "Right": [
                            0,
                            0,
                            0,
                            0
                        ]
                    },
                    {
                        "triggerTime_ms": 2277,
                        "durationTime_ms": 33,
                        "Left": [
                            0,
                            0,
                            0,
                            0
                        ],
                        "Front": [
                            0,
                            0,
                            0,
                            0
                        ],
                        "Middle": [
                            1,
                            0,
                            0,
                            0
                        ],
                        "Back": [
                            0,
                            0,
                            0,
                            0
                        ],
                        "Right": [
                            0,
                            0,
                            0,
                            0
                        ]
                    },
                    {
                        "triggerTime_ms": 2310,
                        "durationTime_ms": 825,
                        "Left": [
                            0,
                            0,
                            0,
                            0
                        ],
                        "Front": [
                            1,
                            0,
                            0,
                            0
                        ],
                        "Middle": [
                            1,
                            0,
                            0,
                            0
                        ],
                        "Back": [
                            1,
                            0,
                            0,
                            0
                        ],
                        "Right": [
                            0,
                            0,
                            0,
                            0
                        ]
                    },
                    {
                        "triggerTime_ms": 3135,
                        "durationTime_ms": 20,
                        "Left": [
                            0,
                            0,
                            0,
                            0
                        ],
                        "Front": [
                            1,
                            0,
                            0,
                            0
                        ],
                        "Middle": [
                            1,
                            0,
                            0,
                            0
                        ],
                        "Back": [
                            1,
                            0,
                            0,
                            0
                        ],
                        "Right": [
                            0,
                            0,
                            0,
                            0
                        ]
                    },
                    {
                        "triggerTime_ms": 3155,
                        "durationTime_ms": 18,
                        "Left": [
                            0,
                            0,
                            0,
                            0
                        ],
                        "Front": [
                            0,
                            0,
                            0,
                            0
                        ],
                        "Middle": [
                            1,
                            0,
                            0,
                            0
                        ],
                        "Back": [
                            0,
                            0,
                            0,
                            0
                        ],
                        "Right": [
                            0,
                            0,
                            0,
                            0
                        ]
                    },
                    {
                        "triggerTime_ms": 3172,
                        "durationTime_ms": 29,
                        "Left": [
                            0,
                            0,
                            0,
                            0
                        ],
                        "Front": [
                            0,
                            0,
                            0,
                            0
                        ],
                        "Middle": [
                            1,
                            0,
                            0,
                            0
                        ],
                        "Back": [
                            0,
                            0,
                            0,
                            0
                        ],
                        "Right": [
                            0,
                            0,
                            0,
                            0
                        ]
                    },
                    {
                        "triggerTime_ms": 3201,
                        "durationTime_ms": 165,
                        "Left": [
                            0,
                            0,
                            0,
                            0
                        ],
                        "Front": [
                            0,
                            0,
                            0,
                            0
                        ],
                        "Middle": [
                            0,
                            0,
                            0,
                            0
                        ],
                        "Back": [
                            0,
                            0,
                            0,
                            0
                        ],
                        "Right": [
                            0,
                            0,
                            0,
                            0
                        ]
                    },
                    {
                        "triggerTime_ms": 3366,
                        "durationTime_ms": 396,
                        "Left": [
                            0,
                            0,
                            0,
                            0
                        ],
                        "Front": [
                            0,
                            0,
                            0,
                            0
                        ],
                        "Middle": [
                            0,
                            0,
                            0,
                            0
                        ],
                        "Back": [
                            0,
                            0,
                            0,
                            0
                        ],
                        "Right": [
                            0,
                            0,
                            0,
                            0
                        ]
                    },
                    {
                        "triggerTime_ms": 3762,
                        "durationTime_ms": 33,
                        "Left": [
                            0,
                            0,
                            0,
                            0
                        ],
                        "Front": [
                            0,
                            0,
                            0,
                            0
                        ],
                        "Middle": [
                            0,
                            0,
                            0,
                            0
                        ],
                        "Back": [
                            0,
                            0,
                            0,
                            0
                        ],
                        "Right": [
                            0,
                            0,
                            0,
                            0
                        ]
                    },
                    {
                        "triggerTime_ms": 3795,
                        "durationTime_ms": 21,
                        "Left": [
                            0,
                            0,
                            0,
                            0
                        ],
                        "Front": [
                            0,
                            0,
                            0,
                            0
                        ],
                        "Middle": [
                            0,
                            0,
                            0,
                            0
                        ],
                        "Back": [
                            0,
                            0,
                            0,
                            0
                        ],
                        "Right": [
                            0,
                            0,
                            0,
                            0
                        ]
                    },
                    {
                        "triggerTime_ms": 3816,
                        "durationTime_ms": 21,
                        "Left": [
                            0,
                            0,
                            0,
                            0
                        ],
                        "Front": [
                            0,
                            0,
                            0,
                            0
                        ],
                        "Middle": [
                            0,
                            0,
                            0,
                            0
                        ],
                        "Back": [
                            0,
                            0,
                            0,
                            0
                        ],
                        "Right": [
                            0,
                            0,
                            0,
                            0
                        ]
                    },
                    {
                        "triggerTime_ms": 3837,
                        "durationTime_ms": 24,
                        "Left": [
                            0,
                            0,
                            0,
                            0
                        ],
                        "Front": [
                            0,
                            0,
                            0,
                            0
                        ],
                        "Middle": [
                            1,
                            0,
                            0,
                            0
                        ],
                        "Back": [
                            0,
                            0,
                            0,
                            0
                        ],
                        "Right": [
                            0,
                            0,
                            0,
                            0
                        ]
                    },
                    {
                        "triggerTime_ms": 3861,
                        "durationTime_ms": 231,
                        "Left": [
                            0,
                            0,
                            0,
                            0
                        ],
                        "Front": [
                            1,
                            0,
                            0,
                            0
                        ],
                        "Middle": [
                            1,
                            0,
                            0,
                            0
                        ],
                        "Back": [
                            1,
                            0,
                            0,
                            0
                        ],
                        "Right": [
                            0,
                            0,
                            0,
                            0
                        ]
                    },
                    {
                        "triggerTime_ms": 4092,
                        "durationTime_ms": 33,
                        "Left": [
                            0,
                            0,
                            0,
                            0
                        ],
                        "Front": [
                            1,
                            0,
                            0,
                            0
                        ],
                        "Middle": [
                            1,
                            0,
                            0,
                            0
                        ],
                        "Back": [
                            1,
                            0,
                            0,
                            0
                        ],
                        "Right": [
                            0,
                            0,
                            0,
                            0
                        ]
                    },
                    {
                        "triggerTime_ms": 4125,
                        "durationTime_ms": 33,
                        "Left": [
                            0,
                            0,
                            0,
                            0
                        ],
                        "Front": [
                            0,
                            0,
                            0,
                            0
                        ],
                        "Middle": [
                            1,
                            0,
                            0,
                            0
                        ],
                        "Back": [
                            0,
                            0,
                            0,
                            0
                        ],
                        "Right": [
                            0,
                            0,
                            0,
                            0
                        ]
                    },
                    {
                        "triggerTime_ms": 4158,
                        "durationTime_ms": 33,
                        "Left": [
                            0,
                            0,
                            0,
                            0
                        ],
                        "Front": [
                            0,
                            0,
                            0,
                            0
                        ],
                        "Middle": [
                            1,
                            0,
                            0,
                            0
                        ],
                        "Back": [
                            0,
                            0,
                            0,
                            0
                        ],
                        "Right": [
                            0,
                            0,
                            0,
                            0
                        ]
                    },
                    {
                        "triggerTime_ms": 4191,
                        "durationTime_ms": 66,
                        "Left": [
                            0,
                            0,
                            0,
                            0
                        ],
                        "Front": [
                            0,
                            0,
                            0,
                            0
                        ],
                        "Middle": [
                            0,
                            0,
                            0,
                            0
                        ],
                        "Back": [
                            0,
                            0,
                            0,
                            0
                        ],
                        "Right": [
                            0,
                            0,
                            0,
                            0
                        ]
                    },
                    {
                        "triggerTime_ms": 4257,
                        "durationTime_ms": 33,
                        "Left": [
                            0,
                            0,
                            0,
                            0
                        ],
                        "Front": [
                            0,
                            0,
                            0,
                            0
                        ],
                        "Middle": [
                            0,
                            0,
                            0,
                            0
                        ],
                        "Back": [
                            0,
                            0,
                            0,
                            0
                        ],
                        "Right": [
                            0,
                            0,
                            0,
                            0
                        ]
                    },
                    {
                        "triggerTime_ms": 4290,
                        "durationTime_ms": 660,
                        "Left": [
                            0,
                            0,
                            0,
                            0
                        ],
                        "Front": [
                            0,
                            0,
                            0,
                            0
                        ],
                        "Middle": [
                            0,
                            0,
                            0,
                            0
                        ],
                        "Back": [
                            0,
                            0,
                            0,
                            0
                        ],
                        "Right": [
                            0,
                            0,
                            0,
                            0
                        ]
                    }
                ],
                "FaceAnimationKeyFrame": [
                    {
                        "triggerTime_ms": 0,
                        "animName": "face_bored_event_02"
                    }
                ],
                "EventKeyFrame": [],
                "BodyMotionKeyFrame": [
                    {
                        "triggerTime_ms": 627,
                        "durationTime_ms": 330,
                        "radius_mm": "TURN_IN_PLACE",
                        "speed": -27
                    },
                    {
                        "triggerTime_ms": 957,
                        "durationTime_ms": 495,
                        "radius_mm": "TURN_IN_PLACE",
                        "speed": -16
                    },
                    {
                        "triggerTime_ms": 1452,
                        "durationTime_ms": 528,
                        "radius_mm": "TURN_IN_PLACE",
                        "speed": 36
                    },
                    {
                        "triggerTime_ms": 1980,
                        "durationTime_ms": 66,
                        "radius_mm": "TURN_IN_PLACE",
                        "speed": 15
                    },
                    {
                        "triggerTime_ms": 2046,
                        "durationTime_ms": 66,
                        "radius_mm": "TURN_IN_PLACE",
                        "speed": 15
                    },
                    {
                        "triggerTime_ms": 2112,
                        "durationTime_ms": 132,
                        "radius_mm": "TURN_IN_PLACE",
                        "speed": 8
                    },
                    {
                        "triggerTime_ms": 2244,
                        "durationTime_ms": 132,
                        "radius_mm": "TURN_IN_PLACE",
                        "speed": 8
                    },
                    {
                        "triggerTime_ms": 2376,
                        "durationTime_ms": 330,
                        "radius_mm": "TURN_IN_PLACE",
                        "speed": -42
                    },
                    {
                        "triggerTime_ms": 2706,
                        "durationTime_ms": 462,
                        "radius_mm": "TURN_IN_PLACE",
                        "speed": -15
                    },
                    {
                        "triggerTime_ms": 3168,
                        "durationTime_ms": 495,
                        "radius_mm": "TURN_IN_PLACE",
                        "speed": 30
                    },
                    {
                        "triggerTime_ms": 3861,
                        "durationTime_ms": 99,
                        "radius_mm": "STRAIGHT",
                        "speed": -299
                    },
                    {
                        "triggerTime_ms": 3960,
                        "durationTime_ms": 198,
                        "radius_mm": "STRAIGHT",
                        "speed": -34
                    }
                ],
                "RecordHeadingKeyFrame": [],
                "TurnToRecordedHeadingKeyFrame": []
            }
        }
    ]
}