{
    "clips": [
        {
            "Name": "anim_vc_refuse_nosparks_01",
            "keyframes": {
                "LiftHeightKeyFrame": [
                    {
                        "triggerTime_ms": 0,
                        "durationTime_ms": 198,
                        "height_mm": 32,
                        "heightVariability_mm": 0
                    },
                    {
                        "triggerTime_ms": 198,
                        "durationTime_ms": 99,
                        "height_mm": 40,
                        "heightVariability_mm": 0
                    },
                    {
                        "triggerTime_ms": 297,
                        "durationTime_ms": 132,
                        "height_mm": 32,
                        "heightVariability_mm": 0
                    }
                ],
                "ProceduralFaceKeyFrame": [
                    {
                        "triggerTime_ms": 0,
                        "faceAngle": 0.0,
                        "faceCenterX": 0.0,
                        "faceCenterY": 0.0,
                        "faceScaleX": 1.0,
                        "faceScaleY": 1.0,
                        "leftEye": [
                            9.169666290283203,
                            0.0,
                            1.214332938194275,
                            0.9052804112434387,
                            0.0,
                            0.5,
                            0.5,
                            0.5,
                            0.5,
                            0.5,
                            0.5,
                            0.5,
                            0.5,
                            0.0,
                            0.0,
                            0.0,
                            0.0,
                            0.0,
                            0.0
                        ],
                        "rightEye": [
                            -10.206374168395996,
                            0.0,
                            1.2220369577407837,
                            0.9052804112434387,
                            0.0,
                            0.5,
                            0.5,
                            0.5,
                            0.5,
                            0.5,
                            0.5,
                            0.5,
                            0.5,
                            0.0,
                            0.0,
                            0.0,
                            0.0,
                            0.0,
                            0.0
                        ]
                    },
                    {
                        "triggerTime_ms": 66,
                        "faceAngle": 0.0,
                        "faceCenterX": -4.735589981079102,
                        "faceCenterY": 20.357810974121094,
                        "faceScaleX": 0.7524762749671936,
                        "faceScaleY": 1.2591854333877563,
                        "leftEye": [
                            9.270692825317383,
                            -9.114636486629024e-05,
                            1.282296895980835,
                            1.1218936443328857,
                            0.0,
                            0.5004404783248901,
                            0.5004404783248901,
                            0.5004404783248901,
                            0.5004404783248901,
                            0.5004404783248901,
                            0.5004404783248901,
                            0.5004404783248901,
                            0.5004404783248901,
                            0.05945189297199249,
                            -1.0926792621612549,
                            0.0,
                            0.4729323983192444,
                            0.0,
                            0.0
                        ],
                        "rightEye": [
                            -10.11484146118164,
                            -0.0051962160505354404,
                            1.292443871498108,
                            0.9061935544013977,
                            0.0,
                            0.5,
                            0.5,
                            0.5,
                            0.5,
                            0.5,
                            0.5,
                            0.5,
                            0.5,
                            0.05937865376472473,
                            -7.422556400299072,
                            0.0,
                            0.4586658775806427,
                            0.0,
                            0.0
                        ]
                    },
                    {
                        "triggerTime_ms": 99,
                        "faceAngle": 0.0,
                        "faceCenterX": 2.8135337829589844,
                        "faceCenterY": 25.042428970336914,
                        "faceScaleX": 0.8971245884895325,
                        "faceScaleY": 1.0,
                        "leftEye": [
                            9.270692825317383,
                            -9.114636486629024e-05,
                            1.2979363203048706,
                            0.9051936268806458,
                            0.0,
                            0.5004404783248901,
                            0.5004404783248901,
                            0.5004404783248901,
                            0.5004404783248901,
                            0.5004404783248901,
                            0.5004404783248901,
                            0.5004404783248901,
                            0.5004404783248901,
                            0.34909969568252563,
                            -0.4719792306423187,
                            0.0,
                            0.4729323983192444,
                            0.0,
                            0.0
                        ],
                        "rightEye": [
                            -10.11484146118164,
                            -0.0051962160505354404,
                            1.308645486831665,
                            0.9061935544013977,
                            0.0,
                            0.5,
                            0.5,
                            0.5,
                            0.5,
                            0.5,
                            0.5,
                            0.5,
                            0.5,
                            0.3189409077167511,
                            -6.565155982971191,
                            0.0,
                            0.4586658775806427,
                            0.0,
                            0.0
                        ]
                    },
                    {
                        "triggerTime_ms": 132,
                        "faceAngle": 0.0,
                        "faceCenterX": -4.9161458015441895,
                        "faceCenterY": 18.639314651489258,
                        "faceScaleX": 0.9351481199264526,
                        "faceScaleY": 1.010575771331787,
                        "leftEye": [
                            9.2665433883667,
                            -0.08523000031709671,
                            1.29450261592865,
                            1.0300203561782837,
                            0.0,
                            0.5004224181175232,
                            0.5004224181175232,
                            0.5004224181175232,
                            0.5004224181175232,
                            0.5004224181175232,
                            0.5004224181175232,
                            0.5004224181175232,
                            0.5004224181175232,
                            0.20650149881839752,
                            -0.3334629237651825,
                            0.0,
                            0.4535086154937744,
                            0.0,
                            0.0
                        ],
                        "rightEye": [
                            -10.118600845336914,
                            -0.004982802551239729,
                            1.3050882816314697,
                            0.9061561226844788,
                            0.0,
                            0.5,
                            0.5,
                            0.5,
                            0.5,
                            0.5,
                            0.5,
                            0.5,
                            0.5,
                            0.30584168434143066,
                            -5.900781154632568,
                            0.0,
                            0.4398280382156372,
                            0.0,
                            0.0
                        ]
                    },
                    {
                        "triggerTime_ms": 165,
                        "faceAngle": 0.0,
                        "faceCenterX": -8.365257263183594,
                        "faceCenterY": -0.06988973170518875,
                        "faceScaleX": 0.9562196731567383,
                        "faceScaleY": 1.0779260396957397,
                        "leftEye": [
                            9.169666290283203,
                            0.0,
                            1.214332938194275,
                            1.0030826330184937,
                            0.0,
                            0.5,
                            0.5,
                            0.5,
                            0.5,
                            0.5,
                            0.5,
                            0.5,
                            0.5,
                            0.0,
                            0.0,
                            0.0,
                            0.0,
                            0.0,
                            0.0
                        ],
                        "rightEye": [
                            -13.528925895690918,
                            1.8195441961288452,
                            1.2220369577407837,
                            0.8483390212059021,
                            0.0,
                            0.5,
                            0.5,
                            0.5,
                            0.5,
                            0.5,
                            0.5,
                            0.5,
                            0.5,
                            0.0,
                            0.0,
                            0.0,
                            0.0,
                            0.0,
                            0.0
                        ]
                    },
                    {
                        "triggerTime_ms": 264,
                        "faceAngle": 0.0,
                        "faceCenterX": -5.9717206954956055,
                        "faceCenterY": -3.2261786460876465,
                        "faceScaleX": 1.0368919372558594,
                        "faceScaleY": 1.0932797193527222,
                        "leftEye": [
                            9.169666290283203,
                            0.0,
                            1.227055549621582,
                            0.9052804112434387,
                            0.0,
                            0.5,
                            0.5,
                            0.5,
                            0.5,
                            0.5,
                            0.5,
                            0.5,
                            0.5,
                            0.0,
                            0.0,
                            0.0,
                            0.0,
                            0.0,
                            0.0
                        ],
                        "rightEye": [
                            -11.526077270507812,
                            1.8195441961288452,
                            1.2352169752120972,
                            0.8483390212059021,
                            0.0,
                            0.5,
                            0.5,
                            0.5,
                            0.5,
                            0.5401149392127991,
                            0.5401149392127991,
                            0.5,
                            0.5,
                            0.0,
                            0.0,
                            0.0,
                            0.0,
                            0.0,
                            0.0
                        ]
                    },
                    {
                        "triggerTime_ms": 363,
                        "faceAngle": 0.0,
                        "faceCenterX": -4.191442012786865,
                        "faceCenterY": 2.2881786823272705,
                        "faceScaleX": 1.100942850112915,
                        "faceScaleY": 1.062687635421753,
                        "leftEye": [
                            9.169666290283203,
                            0.0,
                            1.2890093326568604,
                            0.9052804112434387,
                            0.0,
                            0.5,
                            0.5,
                            0.5,
                            0.5,
                            0.5,
                            0.5,
                            0.5,
                            0.5,
                            0.0,
                            0.0,
                            0.0,
                            0.0,
                            0.0,
                            0.0
                        ],
                        "rightEye": [
                            -11.526077270507812,
                            1.8195441961288452,
                            1.299397587776184,
                            0.8483390212059021,
                            0.0,
                            0.5,
                            0.5,
                            0.5,
                            0.5,
                            0.7354575395584106,
                            0.7354575395584106,
                            0.5,
                            0.5,
                            0.0,
                            0.0,
                            0.0,
                            0.0,
                            0.0,
                            0.0
                        ]
                    },
                    {
                        "triggerTime_ms": 462,
                        "faceAngle": 0.0,
                        "faceCenterX": -4.188431262969971,
                        "faceCenterY": 0.3592662215232849,
                        "faceScaleX": 1.0037988424301147,
                        "faceScaleY": 1.1991372108459473,
                        "leftEye": [
                            9.169666290283203,
                            0.0,
                            1.3151459693908691,
                            0.9052804112434387,
                            0.0,
                            0.5,
                            0.5,
                            0.5,
                            0.5,
                            0.5,
                            0.5,
                            0.5,
                            0.5,
                            0.0,
                            0.0,
                            0.0,
                            0.0,
                            0.0,
                            0.0
                        ],
                        "rightEye": [
                            -12.354113578796387,
                            1.8195441961288452,
                            1.2493008375167847,
                            0.7842758297920227,
                            0.0,
                            0.5,
                            0.5,
                            0.5,
                            0.5,
                            0.817867636680603,
                            0.817867636680603,
                            0.5,
                            0.5,
                            0.0,
                            0.0,
                            0.0,
                            0.0,
                            0.0,
                            0.0
                        ]
                    },
                    {
                        "triggerTime_ms": 627,
                        "faceAngle": 0.0,
                        "faceCenterX": -4.188431262969971,
                        "faceCenterY": -0.02888992615044117,
                        "faceScaleX": 1.0037988424301147,
                        "faceScaleY": 1.1991372108459473,
                        "leftEye": [
                            9.169666290283203,
                            0.0,
                            1.3151459693908691,
                            0.9052804112434387,
                            0.0,
                            0.5,
                            0.5,
                            0.5,
                            0.5,
                            0.5,
                            0.5,
                            0.5,
                            0.5,
                            0.0,
                            0.0,
                            0.0,
                            0.0,
                            0.0,
                            0.0
                        ],
                        "rightEye": [
                            -12.354113578796387,
                            1.8195441961288452,
                            1.2493008375167847,
                            0.7842758297920227,
                            0.0,
                            0.5,
                            0.5,
                            0.5,
                            0.5,
                            0.817867636680603,
                            0.817867636680603,
                            0.5,
                            0.5,
                            0.0,
                            0.0,
                            0.0,
                            0.0,
                            0.0,
                            0.0
                        ]
                    },
                    {
                        "triggerTime_ms": 660,
                        "faceAngle": 0.0,
                        "faceCenterX": -4.188431262969971,
                        "faceCenterY": 3.403649091720581,
                        "faceScaleX": 1.0764397382736206,
                        "faceScaleY": 0.9600375294685364,
                        "leftEye": [
                            9.169666290283203,
                            0.0,
                            1.3151459693908691,
                            0.9052804112434387,
                            0.0,
                            0.18628579378128052,
                            0.18628579378128052,
                            0.18628579378128052,
                            0.18628579378128052,
                            0.18628579378128052,
                            0.18628579378128052,
                            0.18628579378128052,
                            0.18628579378128052,
                            0.0,
                            0.0,
                            0.0,
                            0.0,
                            0.0,
                            0.0
                        ],
                        "rightEye": [
                            -12.354113578796387,
                            1.8195441961288452,
                            1.2493008375167847,
                            0.7842758297920227,
                            0.0,
                            0.18628579378128052,
                            0.18628579378128052,
                            0.18628579378128052,
                            0.18628579378128052,
                            0.3026791214942932,
                            0.3026791214942932,
                            0.18628579378128052,
                            0.18628579378128052,
                            0.0,
                            0.0,
                            0.0,
                            0.0,
                            0.0,
                            0.0
                        ]
                    },
                    {
                        "triggerTime_ms": 693,
                        "faceAngle": 0.0,
                        "faceCenterX": -7.315438747406006,
                        "faceCenterY": -2.349583387374878,
                        "faceScaleX": 1.0037988424301147,
                        "faceScaleY": 1.1991372108459473,
                        "leftEye": [
                            9.169666290283203,
                            0.0,
                            1.3151459693908691,
                            0.9052804112434387,
                            0.0,
                            0.38380950689315796,
                            0.38380950689315796,
                            0.38380950689315796,
                            0.38380950689315796,
                            0.38380950689315796,
                            0.38380950689315796,
                            0.38380950689315796,
                            0.38380950689315796,
                            0.0,
                            0.0,
                            0.0,
                            0.0,
                            0.0,
                            0.0
                        ],
                        "rightEye": [
                            -12.354113578796387,
                            1.8195441961288452,
                            1.2493008375167847,
                            0.7842758297920227,
                            0.0,
                            0.38380950689315796,
                            0.38380950689315796,
                            0.38380950689315796,
                            0.38380950689315796,
                            0.6270570158958435,
                            0.6270570158958435,
                            0.38380950689315796,
                            0.38380950689315796,
                            0.0,
                            0.0,
                            0.0,
                            0.0,
                            0.0,
                            0.0
                        ]
                    },
                    {
                        "triggerTime_ms": 759,
                        "faceAngle": 0.0,
                        "faceCenterX": -8.136749267578125,
                        "faceCenterY": -3.3126847743988037,
                        "faceScaleX": 1.0037988424301147,
                        "faceScaleY": 1.1991372108459473,
                        "leftEye": [
                            9.169666290283203,
                            0.0,
                            1.3151459693908691,
                            0.9052804112434387,
                            0.0,
                            0.5,
                            0.5,
                            0.5,
                            0.5,
                            0.5,
                            0.5,
                            0.5,
                            0.5,
                            0.0,
                            0.0,
                            0.0,
                            0.0,
                            0.0,
                            0.0
                        ],
                        "rightEye": [
                            -12.354113578796387,
                            1.8195441961288452,
                            1.2493008375167847,
                            0.7842758297920227,
                            0.0,
                            0.5,
                            0.5,
                            0.5,
                            0.5,
                            0.817867636680603,
                            0.817867636680603,
                            0.5,
                            0.5,
                            0.0,
                            0.0,
                            0.0,
                            0.0,
                            0.0,
                            0.0
                        ]
                    },
                    {
                        "triggerTime_ms": 825,
                        "faceAngle": 0.0,
                        "faceCenterX": -9.171506881713867,
                        "faceCenterY": -4.526083469390869,
                        "faceScaleX": 1.0037988424301147,
                        "faceScaleY": 1.1991372108459473,
                        "leftEye": [
                            9.169666290283203,
                            0.0,
                            1.3151459693908691,
                            0.9052804112434387,
                            0.0,
                            0.5,
                            0.5,
                            0.5,
                            0.5,
                            0.5,
                            0.5,
                            0.5,
                            0.5,
                            0.0,
                            0.0,
                            0.0,
                            0.0,
                            0.0,
                            0.0
                        ],
                        "rightEye": [
                            -12.354113578796387,
                            1.8195441961288452,
                            1.2493008375167847,
                            0.7842758297920227,
                            0.0,
                            0.5,
                            0.5,
                            0.5,
                            0.5,
                            0.817867636680603,
                            0.817867636680603,
                            0.5,
                            0.5,
                            0.0,
                            0.0,
                            0.0,
                            0.0,
                            0.0,
                            0.0
                        ]
                    },
                    {
                        "triggerTime_ms": 1023,
                        "faceAngle": 0.0,
                        "faceCenterX": -10.337753295898438,
                        "faceCenterY": -5.016077041625977,
                        "faceScaleX": 1.0037988424301147,
                        "faceScaleY": 1.1991372108459473,
                        "leftEye": [
                            9.169666290283203,
                            0.0,
                            1.3151459693908691,
                            0.9052804112434387,
                            0.0,
                            0.5,
                            0.5,
                            0.5,
                            0.5,
                            0.5,
                            0.5,
                            0.5,
                            0.5,
                            0.0,
                            0.0,
                            0.0,
                            0.0,
                            0.0,
                            0.0
                        ],
                        "rightEye": [
                            -12.354113578796387,
                            1.8195441961288452,
                            1.2493008375167847,
                            0.7842758297920227,
                            0.0,
                            0.5,
                            0.5,
                            0.5,
                            0.5,
                            0.817867636680603,
                            0.817867636680603,
                            0.5,
                            0.5,
                            0.0,
                            0.0,
                            0.0,
                            0.0,
                            0.0,
                            0.0
                        ]
                    },
                    {
                        "triggerTime_ms": 1056,
                        "faceAngle": 0.0,
                        "faceCenterX": -10.337753295898438,
                        "faceCenterY": -5.016077041625977,
                        "faceScaleX": 1.0037988424301147,
                        "faceScaleY": 1.3499151468276978,
                        "leftEye": [
                            9.169666290283203,
                            0.0,
                            1.3151459693908691,
                            0.9052804112434387,
                            0.0,
                            0.5,
                            0.5,
                            0.5,
                            0.5,
                            0.5,
                            0.5,
                            0.5,
                            0.5,
                            0.0,
                            0.0,
                            0.0,
                            0.0,
                            0.0,
                            0.0
                        ],
                        "rightEye": [
                            -12.354113578796387,
                            1.8195441961288452,
                            1.2493008375167847,
                            0.7842758297920227,
                            0.0,
                            0.5,
                            0.5,
                            0.5,
                            0.5,
                            0.817867636680603,
                            0.817867636680603,
                            0.5,
                            0.5,
                            0.0,
                            0.0,
                            0.0,
                            0.0,
                            0.0,
                            0.0
                        ]
                    },
                    {
                        "triggerTime_ms": 1122,
                        "faceAngle": 0.0,
                        "faceCenterX": -13.888890266418457,
                        "faceCenterY": -3.581003189086914,
                        "faceScaleX": 0.8375382423400879,
                        "faceScaleY": 1.296067714691162,
                        "leftEye": [
                            9.169666290283203,
                            0.0,
                            1.2881518602371216,
                            0.9052804112434387,
                            0.0,
                            0.5,
                            0.5,
                            0.5,
                            0.5,
                            0.5,
                            0.5,
                            0.5,
                            0.5,
                            0.09419810026884079,
                            11.37674331665039,
                            0.0,
                            0.0,
                            0.0,
                            0.0
                        ],
                        "rightEye": [
                            -11.779025077819824,
                            1.3323346376419067,
                            1.2420004606246948,
                            0.8166766166687012,
                            0.0,
                            0.5,
                            0.5,
                            0.5,
                            0.5,
                            0.7327539324760437,
                            0.7327539324760437,
                            0.5,
                            0.5,
                            0.07391064614057541,
                            0.0,
                            0.0,
                            0.0,
                            0.0,
                            0.0
                        ]
                    },
                    {
                        "triggerTime_ms": 1221,
                        "faceAngle": 0.0,
                        "faceCenterX": -6.643582344055176,
                        "faceCenterY": 17.65224266052246,
                        "faceScaleX": 0.9204152226448059,
                        "faceScaleY": 0.6096022725105286,
                        "leftEye": [
                            9.169666290283203,
                            0.0,
                            1.3628162145614624,
                            0.9052804112434387,
                            0.0,
                            0.5,
                            0.5,
                            0.5,
                            0.5,
                            0.5,
                            0.5,
                            0.5,
                            0.5,
                            0.0,
                            0.0,
                            0.0,
                            0.0,
                            0.0,
                            0.0
                        ],
                        "rightEye": [
                            -10.206374168395996,
                            3.7054853439331055,
                            1.3758573532104492,
                            0.6965105533599854,
                            0.0,
                            0.5,
                            0.5,
                            0.5,
                            0.5,
                            0.5,
                            0.5,
                            0.5,
                            0.5,
                            0.25545135140419006,
                            6.644565582275391,
                            0.0,
                            0.0,
                            0.0,
                            0.0
                        ]
                    },
                    {
                        "triggerTime_ms": 1287,
                        "faceAngle": 0.0,
                        "faceCenterX": -0.4604209065437317,
                        "faceCenterY": 11.68486499786377,
                        "faceScaleX": 0.8865135908126831,
                        "faceScaleY": 1.1610990762710571,
                        "leftEye": [
                            9.169666290283203,
                            0.0,
                            1.2889012098312378,
                            0.9052804112434387,
                            0.0,
                            0.5,
                            0.5,
                            0.5,
                            0.5,
                            0.5,
                            0.5,
                            0.5,
                            0.5,
                            0.0,
                            0.0,
                            0.0,
                            0.0,
                            0.0,
                            0.0
                        ],
                        "rightEye": [
                            -10.206374168395996,
                            0.0,
                            1.299285650253296,
                            0.9052804112434387,
                            0.0,
                            0.5,
                            0.5,
                            0.5,
                            0.5,
                            0.5,
                            0.5,
                            0.5,
                            0.5,
                            0.25545135140419006,
                            6.644565582275391,
                            0.0,
                            0.0,
                            0.0,
                            0.0
                        ]
                    },
                    {
                        "triggerTime_ms": 1320,
                        "faceAngle": 0.0,
                        "faceCenterX": -0.4604209065437317,
                        "faceCenterY": 11.68486499786377,
                        "faceScaleX": 0.931921124458313,
                        "faceScaleY": 1.0446174144744873,
                        "leftEye": [
                            9.169666290283203,
                            0.0,
                            1.319949984550476,
                            0.9052804112434387,
                            0.0,
                            0.5,
                            0.5,
                            0.5,
                            0.5,
                            0.5,
                            0.5,
                            0.5,
                            0.5,
                            0.0,
                            0.0,
                            0.0,
                            0.0,
                            0.0,
                            0.0
                        ],
                        "rightEye": [
                            -10.206374168395996,
                            0.0,
                            1.331450343132019,
                            0.9052804112434387,
                            0.0,
                            0.5,
                            0.5,
                            0.5,
                            0.5,
                            0.5,
                            0.5,
                            0.5,
                            0.5,
                            0.25545135140419006,
                            6.644565582275391,
                            0.0,
                            0.0,
                            0.0,
                            0.0
                        ]
                    },
                    {
                        "triggerTime_ms": 1353,
                        "faceAngle": 0.0,
                        "faceCenterX": -0.46264582872390747,
                        "faceCenterY": 11.729846954345703,
                        "faceScaleX": 0.9773287177085876,
                        "faceScaleY": 1.0382580757141113,
                        "leftEye": [
                            9.169666290283203,
                            0.0,
                            1.3251694440841675,
                            0.9052804112434387,
                            0.0,
                            0.5,
                            0.5,
                            0.5,
                            0.5,
                            0.5,
                            0.5,
                            0.5,
                            0.5,
                            0.0,
                            0.0,
                            0.0,
                            0.0,
                            0.0,
                            0.0
                        ],
                        "rightEye": [
                            -10.206374168395996,
                            0.0,
                            1.3368574380874634,
                            0.9052804112434387,
                            0.0,
                            0.5,
                            0.5,
                            0.5,
                            0.5,
                            0.5,
                            0.5,
                            0.5,
                            0.5,
                            0.25545135140419006,
                            6.644565582275391,
                            0.0,
                            0.0,
                            0.0,
                            0.0
                        ]
                    },
                    {
                        "triggerTime_ms": 1419,
                        "faceAngle": 0.0,
                        "faceCenterX": -0.46613895893096924,
                        "faceCenterY": 11.800467491149902,
                        "faceScaleX": 0.9794166684150696,
                        "faceScaleY": 1.0282739400863647,
                        "leftEye": [
                            9.169666290283203,
                            0.0,
                            1.342685341835022,
                            0.9052804112434387,
                            0.0,
                            0.5,
                            0.5,
                            0.5,
                            0.5,
                            0.5,
                            0.5,
                            0.5,
                            0.5,
                            0.0,
                            0.0,
                            0.0,
                            0.0,
                            0.0,
                            0.0
                        ],
                        "rightEye": [
                            -10.206374168395996,
                            0.0,
                            1.355002999305725,
                            0.9052804112434387,
                            0.0,
                            0.5,
                            0.5,
                            0.5,
                            0.5,
                            0.5,
                            0.5,
                            0.5,
                            0.5,
                            0.25545135140419006,
                            6.644565582275391,
                            0.0,
                            0.0,
                            0.0,
                            0.0
                        ]
                    },
                    {
                        "triggerTime_ms": 1452,
                        "faceAngle": 0.0,
                        "faceCenterX": -0.4693206250667572,
                        "faceCenterY": 11.864790916442871,
                        "faceScaleX": 0.981318473815918,
                        "faceScaleY": 1.0191800594329834,
                        "leftEye": [
                            9.169666290283203,
                            0.0,
                            1.3553358316421509,
                            0.9052804112434387,
                            0.0,
                            0.5,
                            0.5,
                            0.5,
                            0.5,
                            0.5,
                            0.5,
                            0.5,
                            0.5,
                            0.0,
                            0.0,
                            0.0,
                            0.0,
                            0.0,
                            0.0
                        ],
                        "rightEye": [
                            -10.206374168395996,
                            0.0,
                            1.3681081533432007,
                            0.9052804112434387,
                            0.0,
                            0.5,
                            0.5,
                            0.5,
                            0.5,
                            0.5,
                            0.5,
                            0.5,
                            0.5,
                            0.25545135140419006,
                            4.883255958557129,
                            0.0,
                            0.0,
                            0.0,
                            0.0
                        ]
                    },
                    {
                        "triggerTime_ms": 1485,
                        "faceAngle": 0.0,
                        "faceCenterX": -0.5692151188850403,
                        "faceCenterY": 13.88437271118164,
                        "faceScaleX": 0.9826483726501465,
                        "faceScaleY": 0.8202343583106995,
                        "leftEye": [
                            9.169666290283203,
                            0.0,
                            1.3553358316421509,
                            0.9052804112434387,
                            0.0,
                            0.5,
                            0.5,
                            0.5,
                            0.5,
                            0.5,
                            0.5,
                            0.5,
                            0.5,
                            0.0,
                            0.0,
                            0.0,
                            0.0,
                            0.0,
                            0.0
                        ],
                        "rightEye": [
                            -10.206374168395996,
                            0.0,
                            1.3681081533432007,
                            0.9052804112434387,
                            0.0,
                            0.5,
                            0.5,
                            0.5,
                            0.5,
                            0.5,
                            0.5,
                            0.5,
                            0.5,
                            0.25545135140419006,
                            0.3541734516620636,
                            0.0,
                            0.0,
                            0.0,
                            0.0
                        ]
                    },
                    {
                        "triggerTime_ms": 1518,
                        "faceAngle": 0.0,
                        "faceCenterX": -0.6691096425056458,
                        "faceCenterY": 15.903956413269043,
                        "faceScaleX": 1.0080127716064453,
                        "faceScaleY": 0.6212885975837708,
                        "leftEye": [
                            9.169666290283203,
                            0.0,
                            1.3553358316421509,
                            0.9052804112434387,
                            0.0,
                            0.5,
                            0.5,
                            0.5,
                            0.5,
                            0.5,
                            0.5,
                            0.5,
                            0.5,
                            0.0,
                            0.0,
                            0.0,
                            0.0,
                            0.0,
                            0.0
                        ],
                        "rightEye": [
                            -10.206374168395996,
                            0.0,
                            1.3681081533432007,
                            0.9052804112434387,
                            0.0,
                            0.5,
                            0.5,
                            0.5,
                            0.5,
                            0.5,
                            0.5,
                            0.5,
                            0.5,
                            0.25545135140419006,
                            1.486444115638733,
                            0.0,
                            0.0,
                            0.0,
                            0.0
                        ]
                    },
                    {
                        "triggerTime_ms": 1551,
                        "faceAngle": 0.0,
                        "faceCenterX": -0.5995467305183411,
                        "faceCenterY": 14.49759292602539,
                        "faceScaleX": 1.0333771705627441,
                        "faceScaleY": 0.7623982429504395,
                        "leftEye": [
                            9.169666290283203,
                            0.0,
                            1.3490842580795288,
                            0.9052804112434387,
                            0.0,
                            0.5,
                            0.5,
                            0.5,
                            0.5,
                            0.5,
                            0.5,
                            0.5,
                            0.5,
                            0.0,
                            0.0,
                            0.0,
                            0.0,
                            0.0,
                            0.0
                        ],
                        "rightEye": [
                            -10.206374168395996,
                            0.0,
                            1.3616318702697754,
                            0.9052804112434387,
                            0.0,
                            0.5,
                            0.5,
                            0.5,
                            0.5,
                            0.5,
                            0.5,
                            0.5,
                            0.5,
                            0.25545135140419006,
                            3.5622735023498535,
                            0.0,
                            0.0,
                            0.0,
                            0.0
                        ]
                    },
                    {
                        "triggerTime_ms": 1584,
                        "faceAngle": 0.0,
                        "faceCenterX": -0.5633740425109863,
                        "faceCenterY": 13.76628303527832,
                        "faceScaleX": 1.0236620903015137,
                        "faceScaleY": 0.8357752561569214,
                        "leftEye": [
                            9.169666290283203,
                            0.0,
                            1.3374069929122925,
                            0.9052804112434387,
                            0.0,
                            0.5,
                            0.5,
                            0.5,
                            0.5,
                            0.5,
                            0.5,
                            0.5,
                            0.5,
                            0.0,
                            0.0,
                            0.0,
                            0.0,
                            0.0,
                            0.0
                        ],
                        "rightEye": [
                            -10.206374168395996,
                            0.0,
                            1.3495348691940308,
                            0.9052804112434387,
                            0.0,
                            0.5,
                            0.5,
                            0.5,
                            0.5,
                            0.5,
                            0.5,
                            0.5,
                            0.5,
                            0.25545135140419006,
                            6.644565582275391,
                            0.0,
                            0.0,
                            0.0,
                            0.0
                        ]
                    },
                    {
                        "triggerTime_ms": 1617,
                        "faceAngle": 0.0,
                        "faceCenterX": -0.4604209065437317,
                        "faceCenterY": 11.68486499786377,
                        "faceScaleX": 0.99601149559021,
                        "faceScaleY": 1.0446174144744873,
                        "leftEye": [
                            9.169666290283203,
                            0.0,
                            1.319949984550476,
                            0.9052804112434387,
                            0.0,
                            0.5,
                            0.5,
                            0.5,
                            0.5,
                            0.5,
                            0.5,
                            0.5,
                            0.5,
                            0.0,
                            0.0,
                            0.0,
                            0.0,
                            0.0,
                            0.0
                        ],
                        "rightEye": [
                            -10.206374168395996,
                            0.0,
                            1.331450343132019,
                            0.9052804112434387,
                            0.0,
                            0.5,
                            0.5,
                            0.5,
                            0.5,
                            0.5,
                            0.5,
                            0.5,
                            0.5,
                            0.25545135140419006,
                            5.575199127197266,
                            0.0,
                            0.0,
                            0.0,
                            0.0
                        ]
                    },
                    {
                        "triggerTime_ms": 1650,
                        "faceAngle": 0.0,
                        "faceCenterX": -0.5299838185310364,
                        "faceCenterY": 13.091228485107422,
                        "faceScaleX": 0.9773287177085876,
                        "faceScaleY": 0.9035078287124634,
                        "leftEye": [
                            9.169666290283203,
                            0.0,
                            1.3258476257324219,
                            0.9052804112434387,
                            0.0,
                            0.5,
                            0.5,
                            0.5,
                            0.5,
                            0.5,
                            0.5,
                            0.5,
                            0.5,
                            0.0,
                            0.0,
                            0.0,
                            0.0,
                            0.0,
                            0.0
                        ],
                        "rightEye": [
                            -10.206374168395996,
                            0.0,
                            1.3375600576400757,
                            0.9052804112434387,
                            0.0,
                            0.5,
                            0.5,
                            0.5,
                            0.5,
                            0.5,
                            0.5,
                            0.5,
                            0.5,
                            0.25545135140419006,
                            3.4993696212768555,
                            0.0,
                            0.0,
                            0.0,
                            0.0
                        ]
                    },
                    {
                        "triggerTime_ms": 1683,
                        "faceAngle": 0.0,
                        "faceCenterX": -0.5640696287155151,
                        "faceCenterY": 13.780346870422363,
                        "faceScaleX": 0.9864832758903503,
                        "faceScaleY": 0.834364116191864,
                        "leftEye": [
                            9.169666290283203,
                            0.0,
                            1.3375248908996582,
                            0.9052804112434387,
                            0.0,
                            0.5,
                            0.5,
                            0.5,
                            0.5,
                            0.5,
                            0.5,
                            0.5,
                            0.5,
                            0.0,
                            0.0,
                            0.0,
                            0.0,
                            0.0,
                            0.0
                        ],
                        "rightEye": [
                            -10.206374168395996,
                            0.0,
                            1.3496569395065308,
                            0.9052804112434387,
                            0.0,
                            0.5,
                            0.5,
                            0.5,
                            0.5,
                            0.5,
                            0.5,
                            0.5,
                            0.5,
                            0.25545135140419006,
                            0.3541734516620636,
                            0.0,
                            0.0,
                            0.0,
                            0.0
                        ]
                    },
                    {
                        "triggerTime_ms": 1716,
                        "faceAngle": 0.0,
                        "faceCenterX": -0.6691096425056458,
                        "faceCenterY": 15.903956413269043,
                        "faceScaleX": 1.014694333076477,
                        "faceScaleY": 0.6212885975837708,
                        "leftEye": [
                            9.169666290283203,
                            0.0,
                            1.3553358316421509,
                            0.9052804112434387,
                            0.0,
                            0.5,
                            0.5,
                            0.5,
                            0.5,
                            0.5,
                            0.5,
                            0.5,
                            0.5,
                            0.0,
                            0.0,
                            0.0,
                            0.0,
                            0.0,
                            0.0
                        ],
                        "rightEye": [
                            -10.206374168395996,
                            0.0,
                            1.3681081533432007,
                            0.9052804112434387,
                            0.0,
                            0.5,
                            0.5,
                            0.5,
                            0.5,
                            0.5,
                            0.5,
                            0.5,
                            0.5,
                            0.25545135140419006,
                            0.5117058753967285,
                            0.0,
                            0.0,
                            0.0,
                            0.0
                        ]
                    },
                    {
                        "triggerTime_ms": 1749,
                        "faceAngle": 0.0,
                        "faceCenterX": -0.6234694123268127,
                        "faceCenterY": 14.981240272521973,
                        "faceScaleX": 1.0333771705627441,
                        "faceScaleY": 0.713870644569397,
                        "leftEye": [
                            9.169666290283203,
                            0.0,
                            1.3555772304534912,
                            0.9052804112434387,
                            0.0,
                            0.5,
                            0.5,
                            0.5,
                            0.5,
                            0.5,
                            0.5,
                            0.5,
                            0.5,
                            0.0,
                            0.0,
                            0.0,
                            0.0,
                            0.0,
                            0.0
                        ],
                        "rightEye": [
                            -10.206374168395996,
                            0.0,
                            1.3683582544326782,
                            0.9052804112434387,
                            0.0,
                            0.5,
                            0.5,
                            0.5,
                            0.5,
                            0.5,
                            0.5,
                            0.5,
                            0.5,
                            0.25545135140419006,
                            1.0105584859848022,
                            0.0,
                            0.0,
                            0.0,
                            0.0
                        ]
                    },
                    {
                        "triggerTime_ms": 1815,
                        "faceAngle": 0.0,
                        "faceCenterX": -0.5321889519691467,
                        "faceCenterY": 13.135810852050781,
                        "faceScaleX": 1.0088615417480469,
                        "faceScaleY": 0.8990346193313599,
                        "leftEye": [
                            9.169666290283203,
                            0.0,
                            1.3565950393676758,
                            0.9052804112434387,
                            0.0,
                            0.5,
                            0.5,
                            0.5,
                            0.5,
                            0.5,
                            0.5,
                            0.5,
                            0.5,
                            0.0,
                            0.0,
                            0.0,
                            0.0,
                            0.0,
                            0.0
                        ],
                        "rightEye": [
                            -10.206374168395996,
                            0.0,
                            1.3694125413894653,
                            0.9052804112434387,
                            0.0,
                            0.5,
                            0.5,
                            0.5,
                            0.5,
                            0.5,
                            0.5,
                            0.5,
                            0.5,
                            0.25545135140419006,
                            3.7336621284484863,
                            0.0,
                            0.0,
                            0.0,
                            0.0
                        ]
                    },
                    {
                        "triggerTime_ms": 1848,
                        "faceAngle": 0.0,
                        "faceCenterX": -0.5118920803070068,
                        "faceCenterY": 12.292972564697266,
                        "faceScaleX": 0.996603786945343,
                        "faceScaleY": 0.9859738945960999,
                        "leftEye": [
                            9.169666290283203,
                            0.0,
                            1.3573917150497437,
                            0.9052804112434387,
                            0.0,
                            0.5,
                            0.5,
                            0.5,
                            0.5,
                            0.5,
                            0.5,
                            0.5,
                            0.5,
                            0.0,
                            0.0,
                            0.0,
                            0.0,
                            0.0,
                            0.0
                        ],
                        "rightEye": [
                            -10.206374168395996,
                            0.0,
                            1.370237946510315,
                            0.9052804112434387,
                            0.0,
                            0.5,
                            0.5,
                            0.5,
                            0.5,
                            0.5,
                            0.5,
                            0.5,
                            0.5,
                            0.25545135140419006,
                            6.644565582275391,
                            0.0,
                            0.0,
                            0.0,
                            0.0
                        ]
                    },
                    {
                        "triggerTime_ms": 1914,
                        "faceAngle": 0.0,
                        "faceCenterX": -0.4712982475757599,
                        "faceCenterY": 10.607295036315918,
                        "faceScaleX": 0.9366769194602966,
                        "faceScaleY": 1.159852385520935,
                        "leftEye": [
                            9.169666290283203,
                            0.0,
                            1.3514111042022705,
                            0.9052804112434387,
                            0.0,
                            0.5,
                            0.5,
                            0.5,
                            0.5,
                            0.5,
                            0.5,
                            0.5,
                            0.5,
                            0.0,
                            0.0,
                            0.0,
                            0.0,
                            0.0,
                            0.0
                        ],
                        "rightEye": [
                            -10.206374168395996,
                            0.0,
                            1.3640422821044922,
                            0.9052804112434387,
                            0.0,
                            0.5,
                            0.5,
                            0.5,
                            0.5,
                            0.5,
                            0.5,
                            0.5,
                            0.5,
                            0.25545135140419006,
                            6.644565582275391,
                            0.0,
                            0.0,
                            0.0,
                            0.0
                        ]
                    },
                    {
                        "triggerTime_ms": 2013,
                        "faceAngle": 0.0,
                        "faceCenterX": -0.4604209065437317,
                        "faceCenterY": 11.68486499786377,
                        "faceScaleX": 0.9795939326286316,
                        "faceScaleY": 1.0446174144744873,
                        "leftEye": [
                            9.169666290283203,
                            0.0,
                            1.3363333940505981,
                            0.9052804112434387,
                            0.0,
                            0.5,
                            0.5,
                            0.5,
                            0.5,
                            0.5,
                            0.5,
                            0.5,
                            0.5,
                            0.0,
                            0.0,
                            0.0,
                            0.0,
                            0.0,
                            0.0
                        ],
                        "rightEye": [
                            -10.206374168395996,
                            0.0,
                            1.348422646522522,
                            0.9052804112434387,
                            0.0,
                            0.5,
                            0.5,
                            0.5,
                            0.5,
                            0.5,
                            0.5,
                            0.5,
                            0.5,
                            0.25545135140419006,
                            6.644565582275391,
                            0.0,
                            0.0,
                            0.0,
                            0.0
                        ]
                    },
                    {
                        "triggerTime_ms": 2211,
                        "faceAngle": 0.0,
                        "faceCenterX": -0.4604209065437317,
                        "faceCenterY": 13.1027193069458,
                        "faceScaleX": 0.9795939326286316,
                        "faceScaleY": 1.0446174144744873,
                        "leftEye": [
                            9.169666290283203,
                            0.0,
                            1.3363333940505981,
                            0.9052804112434387,
                            0.0,
                            0.5,
                            0.5,
                            0.5,
                            0.5,
                            0.5,
                            0.5,
                            0.5,
                            0.5,
                            0.0,
                            0.0,
                            0.0,
                            0.0,
                            0.0,
                            0.0
                        ],
                        "rightEye": [
                            -10.206374168395996,
                            0.0,
                            1.348422646522522,
                            0.9052804112434387,
                            0.0,
                            0.5,
                            0.5,
                            0.5,
                            0.5,
                            0.5,
                            0.5,
                            0.5,
                            0.5,
                            0.25545135140419006,
                            6.644565582275391,
                            0.0,
                            0.0,
                            0.0,
                            0.0
                        ]
                    },
                    {
                        "triggerTime_ms": 2475,
                        "faceAngle": 0.0,
                        "faceCenterX": -0.4604209065437317,
                        "faceCenterY": 13.1027193069458,
                        "faceScaleX": 0.9795939326286316,
                        "faceScaleY": 1.0446174144744873,
                        "leftEye": [
                            9.169666290283203,
                            0.0,
                            1.3363333940505981,
                            0.9052804112434387,
                            0.0,
                            0.5,
                            0.5,
                            0.5,
                            0.5,
                            0.5,
                            0.5,
                            0.5,
                            0.5,
                            0.0,
                            0.0,
                            0.0,
                            0.0,
                            0.0,
                            0.0
                        ],
                        "rightEye": [
                            -10.206374168395996,
                            0.0,
                            1.348422646522522,
                            0.9052804112434387,
                            0.0,
                            0.5,
                            0.5,
                            0.5,
                            0.5,
                            0.5,
                            0.5,
                            0.5,
                            0.5,
                            0.25545135140419006,
                            6.644565582275391,
                            0.0,
                            0.0,
                            0.0,
                            0.0
                        ]
                    },
                    {
                        "triggerTime_ms": 2541,
                        "faceAngle": 0.0,
                        "faceCenterX": -0.7105906009674072,
                        "faceCenterY": 16.605077743530273,
                        "faceScaleX": 1.2039072513580322,
                        "faceScaleY": 0.7763125896453857,
                        "leftEye": [
                            9.169666290283203,
                            0.0,
                            1.3593826293945312,
                            0.9052804112434387,
                            0.0,
                            0.5,
                            0.5,
                            0.5,
                            0.5,
                            0.5,
                            0.5,
                            0.5,
                            0.5,
                            0.0,
                            0.0,
                            0.0,
                            0.0,
                            0.0,
                            0.0
                        ],
                        "rightEye": [
                            -10.206374168395996,
                            0.0,
                            1.372300386428833,
                            0.9052804112434387,
                            0.0,
                            0.5,
                            0.5,
                            0.5,
                            0.5,
                            0.5,
                            0.5,
                            0.5,
                            0.5,
                            0.3528212010860443,
                            0.05600261688232422,
                            0.0,
                            0.0,
                            0.0,
                            0.0
                        ]
                    },
                    {
                        "triggerTime_ms": 2673,
                        "faceAngle": 0.0,
                        "faceCenterX": 0.0,
                        "faceCenterY": -2.699981212615967,
                        "faceScaleX": 0.9326069951057434,
                        "faceScaleY": 1.1849491596221924,
                        "leftEye": [
                            9.169666290283203,
                            0.0,
                            1.2899584770202637,
                            0.9052804112434387,
                            0.0,
                            0.5,
                            0.5,
                            0.5,
                            0.5,
                            0.5,
                            0.5,
                            0.5,
                            0.5,
                            0.0,
                            0.0,
                            0.0,
                            0.0,
                            0.0,
                            0.0
                        ],
                        "rightEye": [
                            -10.206374168395996,
                            -0.04679466411471367,
                            1.300380825996399,
                            1.0310304164886475,
                            0.0,
                            0.5,
                            0.5,
                            0.5,
                            0.5,
                            0.5,
                            0.5,
                            0.5,
                            0.5,
                            0.0,
                            0.0,
                            0.0,
                            0.0,
                            0.0,
                            0.0
                        ]
                    },
                    {
                        "triggerTime_ms": 2838,
                        "faceAngle": 0.0,
                        "faceCenterX": 0.0,
                        "faceCenterY": 2.729654312133789,
                        "faceScaleX": 1.0463248491287231,
                        "faceScaleY": 0.9407474398612976,
                        "leftEye": [
                            9.169666290283203,
                            0.0,
                            1.2899584770202637,
                            0.9052804112434387,
                            0.0,
                            0.5,
                            0.5,
                            0.5,
                            0.5,
                            0.5,
                            0.5,
                            0.5,
                            0.5,
                            0.0,
                            0.0,
                            0.0,
                            0.0,
                            0.0,
                            0.0
                        ],
                        "rightEye": [
                            -10.206374168395996,
                            0.0,
                            1.300380825996399,
                            0.9052804112434387,
                            0.0,
                            0.5,
                            0.5,
                            0.5,
                            0.5,
                            0.5,
                            0.5,
                            0.5,
                            0.5,
                            0.0,
                            0.0,
                            0.0,
                            0.0,
                            0.0,
                            0.0
                        ]
                    },
                    {
                        "triggerTime_ms": 3003,
                        "faceAngle": 0.0,
                        "faceCenterX": 0.0,
                        "faceCenterY": 0.0,
                        "faceScaleX": 1.0,
                        "faceScaleY": 1.0,
                        "leftEye": [
                            9.169666290283203,
                            0.0,
                            1.2899584770202637,
                            0.9052804112434387,
                            0.0,
                            0.5,
                            0.5,
                            0.5,
                            0.5,
                            0.5,
                            0.5,
                            0.5,
                            0.5,
                            0.0,
                            0.0,
                            0.0,
                            0.0,
                            0.0,
                            0.0
                        ],
                        "rightEye": [
                            -10.206374168395996,
                            0.0,
                            1.300380825996399,
                            0.9052804112434387,
                            0.0,
                            0.5,
                            0.5,
                            0.5,
                            0.5,
                            0.5,
                            0.5,
                            0.5,
                            0.5,
                            0.0,
                            0.0,
                            0.0,
                            0.0,
                            0.0,
                            0.0
                        ]
                    }
                ],
                "HeadAngleKeyFrame": [
                    {
                        "triggerTime_ms": 0,
                        "durationTime_ms": 99,
                        "angle_deg": -12,
                        "angleVariability_deg": 0
                    },
                    {
                        "triggerTime_ms": 99,
                        "durationTime_ms": 33,
                        "angle_deg": -11,
                        "angleVariability_deg": 0
                    },
                    {
                        "triggerTime_ms": 132,
                        "durationTime_ms": 165,
                        "angle_deg": 32,
                        "angleVariability_deg": 0
                    },
                    {
                        "triggerTime_ms": 297,
                        "durationTime_ms": 132,
                        "angle_deg": 23,
                        "angleVariability_deg": 0
                    },
                    {
                        "triggerTime_ms": 660,
                        "durationTime_ms": 66,
                        "angle_deg": 16,
                        "angleVariability_deg": 0
                    },
                    {
                        "triggerTime_ms": 726,
                        "durationTime_ms": 66,
                        "angle_deg": 26,
                        "angleVariability_deg": 0
                    },
                    {
                        "triggerTime_ms": 990,
                        "durationTime_ms": 297,
                        "angle_deg": -8,
                        "angleVariability_deg": 0
                    },
                    {
                        "triggerTime_ms": 1287,
                        "durationTime_ms": 132,
                        "angle_deg": -6,
                        "angleVariability_deg": 0
                    },
                    {
                        "triggerTime_ms": 2574,
                        "durationTime_ms": 132,
                        "angle_deg": 7,
                        "angleVariability_deg": 0
                    },
                    {
                        "triggerTime_ms": 2706,
                        "durationTime_ms": 132,
                        "angle_deg": -4,
                        "angleVariability_deg": 0
                    },
                    {
                        "triggerTime_ms": 2838,
                        "durationTime_ms": 198,
                        "angle_deg": 0,
                        "angleVariability_deg": 0
                    }
                ],
                "RobotAudioKeyFrame": [
                    {
                        "triggerTime_ms": 99,
                        "audioEventId": [
                            1701725212
                        ],
                        "volume": 1.0,
                        "probability": [
                            1.0
                        ],
                        "hasAlts": true
                    },
                    {
                        "triggerTime_ms": 198,
                        "audioEventId": [
                            1145334899
                        ],
                        "volume": 1.0,
                        "probability": [
                            1.0
                        ],
                        "hasAlts": true
                    },
                    {
                        "triggerTime_ms": 1089,
                        "audioEventId": [
                            2974471057
                        ],
                        "volume": 1.0,
                        "probability": [
                            1.0
                        ],
                        "hasAlts": true
                    },
                    {
                        "triggerTime_ms": 1353,
                        "audioEventId": [
                            141123577
                        ],
                        "volume": 1.0,
                        "probability": [
                            1.0
                        ],
                        "hasAlts": true
                    },
                    {
                        "triggerTime_ms": 2706,
                        "audioEventId": [
                            3560778311
                        ],
                        "volume": 1.0,
                        "probability": [
                            1.0
                        ],
                        "hasAlts": true
                    }
                ],
                "BackpackLightsKeyFrame": [
                    {
                        "triggerTime_ms": 0,
                        "durationTime_ms": 3300,
                        "Left": [
                            0,
                            0,
                            0,
                            0
                        ],
                        "Front": [
                            0,
                            0,
                            0,
                            0
                        ],
                        "Middle": [
                            0,
                            0,
                            0,
                            0
                        ],
                        "Back": [
                            0,
                            0,
                            0,
                            0
                        ],
                        "Right": [
                            0,
                            0,
                            0,
                            0
                        ]
                    }
                ],
                "FaceAnimationKeyFrame": [],
                "EventKeyFrame": [],
                "BodyMotionKeyFrame": [
                    {
                        "triggerTime_ms": 0,
                        "durationTime_ms": 132,
                        "radius_mm": "STRAIGHT",
                        "speed": 45
                    },
                    {
                        "triggerTime_ms": 132,
                        "durationTime_ms": 66,
                        "radius_mm": "STRAIGHT",
                        "speed": -48
                    },
                    {
                        "triggerTime_ms": 198,
                        "durationTime_ms": 231,
                        "radius_mm": "-23.0",
                        "speed": 42
                    },
                    {
                        "triggerTime_ms": 1056,
                        "durationTime_ms": 198,
                        "radius_mm": "-23.0",
                        "speed": -44
                    },
                    {
                        "triggerTime_ms": 1485,
                        "durationTime_ms": 66,
                        "radius_mm": "STRAIGHT",
                        "speed": -28
                    },
                    {
                        "triggerTime_ms": 1551,
                        "durationTime_ms": 66,
                        "radius_mm": "STRAIGHT",
                        "speed": 21
                    },
                    {
                        "triggerTime_ms": 1617,
                        "durationTime_ms": 66,
                        "radius_mm": "STRAIGHT",
                        "speed": -35
                    },
                    {
                        "triggerTime_ms": 1683,
                        "durationTime_ms": 132,
                        "radius_mm": "STRAIGHT",
                        "speed": 6
                    },
                    {
                        "triggerTime_ms": 2607,
                        "durationTime_ms": 132,
                        "radius_mm": "STRAIGHT",
                        "speed": -29
                    },
                    {
                        "triggerTime_ms": 2739,
                        "durationTime_ms": 165,
                        "radius_mm": "82.0",
                        "speed": 15
                    },
                    {
                        "triggerTime_ms": 2904,
                        "durationTime_ms": 165,
                        "radius_mm": "STRAIGHT",
                        "speed": -6
                    }
                ],
                "RecordHeadingKeyFrame": [],
                "TurnToRecordedHeadingKeyFrame": []
            }
        }
    ]
}