{
    "clips": [
        {
            "Name": "anim_codelab_123go",
            "keyframes": {
                "LiftHeightKeyFrame": [
                    {
                        "triggerTime_ms": 0,
                        "durationTime_ms": 693,
                        "height_mm": 32,
                        "heightVariability_mm": 0
                    },
                    {
                        "triggerTime_ms": 693,
                        "durationTime_ms": 99,
                        "height_mm": 39,
                        "heightVariability_mm": 0
                    },
                    {
                        "triggerTime_ms": 792,
                        "durationTime_ms": 165,
                        "height_mm": 32,
                        "heightVariability_mm": 0
                    },
                    {
                        "triggerTime_ms": 1749,
                        "durationTime_ms": 99,
                        "height_mm": 40,
                        "heightVariability_mm": 0
                    },
                    {
                        "triggerTime_ms": 1848,
                        "durationTime_ms": 198,
                        "height_mm": 32,
                        "heightVariability_mm": 0
                    },
                    {
                        "triggerTime_ms": 2409,
                        "durationTime_ms": 66,
                        "height_mm": 45,
                        "heightVariability_mm": 0
                    },
                    {
                        "triggerTime_ms": 2475,
                        "durationTime_ms": 66,
                        "height_mm": 39,
                        "heightVariability_mm": 0
                    },
                    {
                        "triggerTime_ms": 2541,
                        "durationTime_ms": 66,
                        "height_mm": 45,
                        "heightVariability_mm": 0
                    },
                    {
                        "triggerTime_ms": 2607,
                        "durationTime_ms": 66,
                        "height_mm": 39,
                        "heightVariability_mm": 0
                    },
                    {
                        "triggerTime_ms": 2673,
                        "durationTime_ms": 66,
                        "height_mm": 45,
                        "heightVariability_mm": 0
                    },
                    {
                        "triggerTime_ms": 2739,
                        "durationTime_ms": 66,
                        "height_mm": 39,
                        "heightVariability_mm": 0
                    },
                    {
                        "triggerTime_ms": 2805,
                        "durationTime_ms": 66,
                        "height_mm": 45,
                        "heightVariability_mm": 0
                    },
                    {
                        "triggerTime_ms": 2871,
                        "durationTime_ms": 66,
                        "height_mm": 32,
                        "heightVariability_mm": 0
                    }
                ],
                "ProceduralFaceKeyFrame": [
                    {
                        "triggerTime_ms": 0,
                        "faceAngle": 0.0,
                        "faceCenterX": 0.0,
                        "faceCenterY": 0.0,
                        "faceScaleX": 1.0,
                        "faceScaleY": 1.0,
                        "leftEye": [
                            9.169666290283203,
                            0.0,
                            1.214332938194275,
                            0.9052804112434387,
                            0.0,
                            0.5,
                            0.5,
                            0.5,
                            0.5,
                            0.5,
                            0.5,
                            0.5,
                            0.5,
                            0.0,
                            0.0,
                            0.0,
                            0.0,
                            0.0,
                            0.0
                        ],
                        "rightEye": [
                            -10.206374168395996,
                            0.0,
                            1.2220369577407837,
                            0.9052804112434387,
                            0.0,
                            0.5,
                            0.5,
                            0.5,
                            0.5,
                            0.5,
                            0.5,
                            0.5,
                            0.5,
                            0.0,
                            0.0,
                            0.0,
                            0.0,
                            0.0,
                            0.0
                        ]
                    },
                    {
                        "triggerTime_ms": 132,
                        "faceAngle": 0.0,
                        "faceCenterX": 0.0,
                        "faceCenterY": 0.0,
                        "faceScaleX": 1.0,
                        "faceScaleY": 1.0,
                        "leftEye": [
                            9.169666290283203,
                            0.0,
                            1.214332938194275,
                            0.9052804112434387,
                            0.0,
                            0.5,
                            0.5,
                            0.5,
                            0.5,
                            0.5,
                            0.5,
                            0.5,
                            0.5,
                            0.0,
                            0.0,
                            0.0,
                            0.0,
                            0.0,
                            0.0
                        ],
                        "rightEye": [
                            -10.206374168395996,
                            0.0,
                            1.2220369577407837,
                            0.9052804112434387,
                            0.0,
                            0.5,
                            0.5,
                            0.5,
                            0.5,
                            0.5,
                            0.5,
                            0.5,
                            0.5,
                            0.0,
                            0.0,
                            0.0,
                            0.0,
                            0.0,
                            0.0
                        ]
                    },
                    {
                        "triggerTime_ms": 198,
                        "faceAngle": 0.0,
                        "faceCenterX": 0.0,
                        "faceCenterY": 0.0,
                        "faceScaleX": 1.0270681381225586,
                        "faceScaleY": 1.0285065174102783,
                        "leftEye": [
                            9.169666290283203,
                            0.0,
                            1.214332938194275,
                            0.9302465319633484,
                            0.0,
                            0.5,
                            0.5,
                            0.5,
                            0.5,
                            0.5,
                            0.5,
                            0.5,
                            0.5,
                            0.0,
                            0.0,
                            0.0,
                            0.0,
                            0.0,
                            0.0
                        ],
                        "rightEye": [
                            -10.206374168395996,
                            0.0,
                            1.2955396175384521,
                            1.024303913116455,
                            0.0,
                            0.5,
                            0.5,
                            0.5,
                            0.5,
                            0.5,
                            0.5,
                            0.5,
                            0.5,
                            0.0,
                            0.0,
                            0.0,
                            0.0,
                            0.0,
                            0.0
                        ]
                    },
                    {
                        "triggerTime_ms": 231,
                        "faceAngle": 0.0,
                        "faceCenterX": 0.0,
                        "faceCenterY": 7.6943840980529785,
                        "faceScaleX": 1.0515426397323608,
                        "faceScaleY": 0.7281878590583801,
                        "leftEye": [
                            9.169666290283203,
                            0.0,
                            1.214332938194275,
                            0.9302465319633484,
                            0.0,
                            0.3753907084465027,
                            0.3753907084465027,
                            0.3753907084465027,
                            0.3753907084465027,
                            0.3753907084465027,
                            0.3753907084465027,
                            0.3753907084465027,
                            0.3753907084465027,
                            0.0,
                            0.0,
                            0.0,
                            0.0,
                            0.0,
                            0.0
                        ],
                        "rightEye": [
                            -10.206374168395996,
                            0.0,
                            1.2955396175384521,
                            1.024303913116455,
                            0.0,
                            0.3753907084465027,
                            0.3753907084465027,
                            0.3753907084465027,
                            0.3753907084465027,
                            0.3753907084465027,
                            0.3753907084465027,
                            0.3753907084465027,
                            0.3753907084465027,
                            0.0,
                            0.0,
                            0.0,
                            0.0,
                            0.0,
                            0.0
                        ]
                    },
                    {
                        "triggerTime_ms": 330,
                        "faceAngle": 0.0,
                        "faceCenterX": 0.0,
                        "faceCenterY": 3.0777535438537598,
                        "faceScaleX": 0.9215795993804932,
                        "faceScaleY": 0.8912751078605652,
                        "leftEye": [
                            11.086249351501465,
                            0.0,
                            1.214332938194275,
                            0.8829891085624695,
                            0.0,
                            0.4353877902030945,
                            0.4501562714576721,
                            0.4353877902030945,
                            0.4501562714576721,
                            0.4353877902030945,
                            0.4501562714576721,
                            0.4353877902030945,
                            0.4501562714576721,
                            0.0,
                            0.0,
                            0.0,
                            0.0,
                            0.0,
                            0.0
                        ],
                        "rightEye": [
                            -10.903084754943848,
                            0.0,
                            1.2410932779312134,
                            0.9948803782463074,
                            0.0,
                            0.4353877902030945,
                            0.4501562714576721,
                            0.4353877902030945,
                            0.4501562714576721,
                            0.4353877902030945,
                            0.4501562714576721,
                            0.4353877902030945,
                            0.4501562714576721,
                            0.0,
                            0.0,
                            0.0,
                            0.0,
                            0.0,
                            0.0
                        ]
                    },
                    {
                        "triggerTime_ms": 396,
                        "faceAngle": 0.0,
                        "faceCenterX": 0.0,
                        "faceCenterY": 0.0,
                        "faceScaleX": 1.0,
                        "faceScaleY": 1.0,
                        "leftEye": [
                            12.363971710205078,
                            0.0,
                            1.1532905101776123,
                            0.8514841794967651,
                            0.0,
                            0.5,
                            0.5,
                            0.5,
                            0.5,
                            0.5,
                            0.5,
                            0.5,
                            0.5,
                            0.0,
                            0.0,
                            0.0,
                            0.0,
                            0.0,
                            0.0
                        ],
                        "rightEye": [
                            -11.367560386657715,
                            0.0,
                            1.2015817165374756,
                            0.9752646684646606,
                            0.0,
                            0.5,
                            0.5,
                            0.5,
                            0.5,
                            0.5,
                            0.5,
                            0.5,
                            0.5,
                            0.0,
                            0.0,
                            0.0,
                            0.0,
                            0.0,
                            0.0
                        ]
                    },
                    {
                        "triggerTime_ms": 528,
                        "faceAngle": 0.0,
                        "faceCenterX": 0.0,
                        "faceCenterY": 0.0,
                        "faceScaleX": 1.015999436378479,
                        "faceScaleY": 1.0296977758407593,
                        "leftEye": [
                            12.12735652923584,
                            0.09931983053684235,
                            1.1578121185302734,
                            0.8544958233833313,
                            0.0,
                            0.5,
                            0.5,
                            0.5,
                            0.5,
                            0.5,
                            0.5,
                            0.5,
                            0.5,
                            0.0,
                            0.0,
                            0.0,
                            0.0,
                            0.0,
                            0.0
                        ],
                        "rightEye": [
                            -11.281545639038086,
                            0.0,
                            1.2030969858169556,
                            0.9896031022071838,
                            0.0,
                            0.5,
                            0.5,
                            0.5,
                            0.5,
                            0.5,
                            0.5,
                            0.5,
                            0.5,
                            0.0,
                            0.0,
                            0.0,
                            0.0,
                            0.0,
                            0.0
                        ]
                    },
                    {
                        "triggerTime_ms": 594,
                        "faceAngle": 0.0,
                        "faceCenterX": 0.0,
                        "faceCenterY": 12.515013694763184,
                        "faceScaleX": 1.103761911392212,
                        "faceScaleY": 0.5138465762138367,
                        "leftEye": [
                            9.169666290283203,
                            1.340818166732788,
                            1.214332938194275,
                            0.8102588653564453,
                            0.0,
                            0.25078144669532776,
                            0.5,
                            0.25078144669532776,
                            0.5,
                            0.25078144669532776,
                            0.5,
                            0.25078144669532776,
                            0.5,
                            0.0,
                            0.0,
                            0.0,
                            0.0,
                            0.0,
                            0.0
                        ],
                        "rightEye": [
                            -13.132490158081055,
                            0.07602787762880325,
                            1.2220369577407837,
                            0.8452669978141785,
                            0.0,
                            0.25078144669532776,
                            0.5,
                            0.25078144669532776,
                            0.5,
                            0.25078144669532776,
                            0.5,
                            0.25078144669532776,
                            0.5,
                            0.0,
                            0.0,
                            0.0,
                            0.0,
                            0.0,
                            0.0
                        ]
                    },
                    {
                        "triggerTime_ms": 660,
                        "faceAngle": 0.0,
                        "faceCenterX": -3.6483561992645264,
                        "faceCenterY": -5.594405174255371,
                        "faceScaleX": 1.0,
                        "faceScaleY": 1.0,
                        "leftEye": [
                            10.280210494995117,
                            0.0,
                            1.1945874691009521,
                            0.9752646684646606,
                            0.0,
                            0.5,
                            0.5,
                            0.5,
                            0.5,
                            0.5,
                            0.5,
                            0.5,
                            0.5,
                            0.0,
                            0.0,
                            0.0,
                            0.0,
                            0.0,
                            0.0
                        ],
                        "rightEye": [
                            -13.546340942382812,
                            0.0,
                            1.1588003635406494,
                            0.8514841794967651,
                            0.0,
                            0.5,
                            0.5,
                            0.5,
                            0.5,
                            0.5,
                            0.5,
                            0.5,
                            0.5,
                            0.0,
                            0.0,
                            0.0,
                            0.0,
                            0.0,
                            0.0
                        ]
                    },
                    {
                        "triggerTime_ms": 1452,
                        "faceAngle": 0.0,
                        "faceCenterX": -3.6483561992645264,
                        "faceCenterY": -5.594405174255371,
                        "faceScaleX": 1.0007672309875488,
                        "faceScaleY": 1.00552237033844,
                        "leftEye": [
                            10.254344940185547,
                            2.4990292786242208e-06,
                            1.1950472593307495,
                            1.0002342462539673,
                            0.0,
                            0.4999995231628418,
                            0.5,
                            0.4999995231628418,
                            0.5,
                            0.4999995231628418,
                            0.5,
                            0.4999995231628418,
                            0.5,
                            0.0,
                            0.0,
                            0.0,
                            0.0,
                            0.0,
                            0.0
                        ],
                        "rightEye": [
                            -13.468720436096191,
                            0.030761074274778366,
                            1.1602731943130493,
                            0.8656526803970337,
                            0.0,
                            0.4999995231628418,
                            0.5,
                            0.4999995231628418,
                            0.5,
                            0.4999995231628418,
                            0.5,
                            0.4999995231628418,
                            0.5,
                            0.0,
                            0.0,
                            0.0,
                            0.0,
                            0.0,
                            0.0
                        ]
                    },
                    {
                        "triggerTime_ms": 1518,
                        "faceAngle": 0.0,
                        "faceCenterX": -0.5369468331336975,
                        "faceCenterY": 3.8987984657287598,
                        "faceScaleX": 1.103761911392212,
                        "faceScaleY": 0.5138465762138367,
                        "leftEye": [
                            9.169666290283203,
                            1.340818166732788,
                            1.214332938194275,
                            0.8102588653564453,
                            0.0,
                            0.25078144669532776,
                            0.5,
                            0.25078144669532776,
                            0.5,
                            0.25078144669532776,
                            0.5,
                            0.25078144669532776,
                            0.5,
                            0.0,
                            0.0,
                            0.0,
                            0.0,
                            0.0,
                            0.0
                        ],
                        "rightEye": [
                            -13.132490158081055,
                            0.07602787762880325,
                            1.2220369577407837,
                            0.8452669978141785,
                            0.0,
                            0.25078144669532776,
                            0.5,
                            0.25078144669532776,
                            0.5,
                            0.25078144669532776,
                            0.5,
                            0.25078144669532776,
                            0.5,
                            0.0,
                            0.0,
                            0.0,
                            0.0,
                            0.0,
                            0.0
                        ]
                    },
                    {
                        "triggerTime_ms": 1551,
                        "faceAngle": 0.0,
                        "faceCenterX": 0.0,
                        "faceCenterY": 6.54826545715332,
                        "faceScaleX": 1.4090580940246582,
                        "faceScaleY": 0.1435963660478592,
                        "leftEye": [
                            9.169666290283203,
                            0.0,
                            1.604082703590393,
                            0.9052804112434387,
                            0.0,
                            0.08330924808979034,
                            0.08330924808979034,
                            0.08330924808979034,
                            0.08330924808979034,
                            0.08330924808979034,
                            0.08330924808979034,
                            0.08330924808979034,
                            0.08330924808979034,
                            0.0,
                            0.0,
                            0.0,
                            0.0,
                            0.0,
                            0.0
                        ],
                        "rightEye": [
                            -10.206374168395996,
                            0.0,
                            1.6257959604263306,
                            0.9052804112434387,
                            0.0,
                            0.08330924808979034,
                            0.08330924808979034,
                            0.08330924808979034,
                            0.08330924808979034,
                            0.08330924808979034,
                            0.08330924808979034,
                            0.08330924808979034,
                            0.08330924808979034,
                            0.0,
                            0.0,
                            0.0,
                            0.0,
                            0.0,
                            0.0
                        ]
                    },
                    {
                        "triggerTime_ms": 1617,
                        "faceAngle": 0.0,
                        "faceCenterX": 7.393394470214844,
                        "faceCenterY": 2.5611212253570557,
                        "faceScaleX": 1.264143943786621,
                        "faceScaleY": 0.39667001366615295,
                        "leftEye": [
                            9.169666290283203,
                            0.6748784780502319,
                            1.40790855884552,
                            0.857452929019928,
                            0.0,
                            0.16760358214378357,
                            0.2930435836315155,
                            0.16760358214378357,
                            0.2930435836315155,
                            0.16760358214378357,
                            0.2930435836315155,
                            0.16760358214378357,
                            0.2930435836315155,
                            0.0,
                            0.0,
                            0.0,
                            0.0,
                            0.0,
                            0.0
                        ],
                        "rightEye": [
                            -11.67918586730957,
                            0.038267362862825394,
                            1.4225705862045288,
                            0.8750736117362976,
                            0.0,
                            0.16760358214378357,
                            0.2930435836315155,
                            0.16760358214378357,
                            0.2930435836315155,
                            0.16760358214378357,
                            0.2930435836315155,
                            0.16760358214378357,
                            0.2930435836315155,
                            0.0,
                            0.0,
                            0.0,
                            0.0,
                            0.0,
                            0.0
                        ]
                    },
                    {
                        "triggerTime_ms": 1650,
                        "faceAngle": 0.0,
                        "faceCenterX": 7.1526570320129395,
                        "faceCenterY": 2.2828898429870605,
                        "faceScaleX": 1.2452527284622192,
                        "faceScaleY": 0.46435439586639404,
                        "leftEye": [
                            9.169666290283203,
                            1.340818166732788,
                            1.214332938194275,
                            0.8102588653564453,
                            0.0,
                            0.25078144669532776,
                            0.5,
                            0.25078144669532776,
                            0.5,
                            0.25078144669532776,
                            0.5,
                            0.25078144669532776,
                            0.5,
                            0.0,
                            0.0,
                            0.0,
                            0.0,
                            0.0,
                            0.0
                        ],
                        "rightEye": [
                            -13.132490158081055,
                            0.07602787762880325,
                            1.2220369577407837,
                            0.8452669978141785,
                            0.0,
                            0.25078144669532776,
                            0.5,
                            0.25078144669532776,
                            0.5,
                            0.25078144669532776,
                            0.5,
                            0.25078144669532776,
                            0.5,
                            0.0,
                            0.0,
                            0.0,
                            0.0,
                            0.0,
                            0.0
                        ]
                    },
                    {
                        "triggerTime_ms": 1782,
                        "faceAngle": 0.0,
                        "faceCenterX": 4.986026287078857,
                        "faceCenterY": -0.22119303047657013,
                        "faceScaleX": 1.0752309560775757,
                        "faceScaleY": 1.0735138654708862,
                        "leftEye": [
                            10.624064445495605,
                            0.01696051098406315,
                            1.2571135759353638,
                            0.9817078709602356,
                            0.0,
                            0.519048273563385,
                            0.5188689231872559,
                            0.49999773502349854,
                            0.499818354845047,
                            0.6270540356636047,
                            0.6268746852874756,
                            0.519048273563385,
                            0.5188689231872559,
                            0.0,
                            0.0,
                            0.0,
                            0.0,
                            0.0,
                            0.0
                        ],
                        "rightEye": [
                            -10.73496150970459,
                            0.0,
                            1.2858407497406006,
                            1.0438300371170044,
                            0.0,
                            0.519048273563385,
                            0.5188689231872559,
                            0.49999773502349854,
                            0.499818354845047,
                            0.6270540356636047,
                            0.6268746852874756,
                            0.519048273563385,
                            0.5188689231872559,
                            0.0,
                            0.0,
                            0.0,
                            0.0,
                            0.0,
                            0.0
                        ]
                    },
                    {
                        "triggerTime_ms": 2211,
                        "faceAngle": 0.0,
                        "faceCenterX": 4.986026287078857,
                        "faceCenterY": -0.2199774533510208,
                        "faceScaleX": 1.0501325130462646,
                        "faceScaleY": 1.0731247663497925,
                        "leftEye": [
                            10.983583450317383,
                            0.031203126534819603,
                            1.2493754625320435,
                            0.9704009294509888,
                            0.0,
                            0.5189434885978699,
                            0.5187546610832214,
                            0.49999764561653137,
                            0.4996230900287628,
                            0.6252129077911377,
                            0.6248879432678223,
                            0.5189434885978699,
                            0.5187546610832214,
                            0.0,
                            0.0,
                            0.0,
                            0.0,
                            0.0,
                            0.0
                        ],
                        "rightEye": [
                            -10.761096000671387,
                            0.0,
                            1.279164433479309,
                            1.0417829751968384,
                            0.0,
                            0.5189434885978699,
                            0.5187546610832214,
                            0.49999764561653137,
                            0.4996230900287628,
                            0.6252129077911377,
                            0.6248879432678223,
                            0.5189434885978699,
                            0.5187546610832214,
                            0.0,
                            0.0,
                            0.0,
                            0.0,
                            0.0,
                            0.0
                        ]
                    },
                    {
                        "triggerTime_ms": 2277,
                        "faceAngle": 0.0,
                        "faceCenterX": 4.986026287078857,
                        "faceCenterY": 2.1073410511016846,
                        "faceScaleX": 1.2174363136291504,
                        "faceScaleY": 0.42786920070648193,
                        "leftEye": [
                            9.169666290283203,
                            0.0,
                            1.214332938194275,
                            0.9302465319633484,
                            0.0,
                            0.25078144669532776,
                            0.25078144669532776,
                            0.25078144669532776,
                            0.25078144669532776,
                            0.25078144669532776,
                            0.25078144669532776,
                            0.25078144669532776,
                            0.25078144669532776,
                            0.0,
                            0.0,
                            0.0,
                            0.0,
                            0.0,
                            0.0
                        ],
                        "rightEye": [
                            -10.206374168395996,
                            0.0,
                            1.2955396175384521,
                            1.024303913116455,
                            0.0,
                            0.25078144669532776,
                            0.25078144669532776,
                            0.25078144669532776,
                            0.25078144669532776,
                            0.25078144669532776,
                            0.25078144669532776,
                            0.25078144669532776,
                            0.25078144669532776,
                            0.0,
                            0.0,
                            0.0,
                            0.0,
                            0.0,
                            0.0
                        ]
                    },
                    {
                        "triggerTime_ms": 2310,
                        "faceAngle": 0.0,
                        "faceCenterX": 0.0,
                        "faceCenterY": 4.4747314453125,
                        "faceScaleX": 1.494491696357727,
                        "faceScaleY": 0.1266484558582306,
                        "leftEye": [
                            9.169666290283203,
                            0.0,
                            1.6114343404769897,
                            0.9052804112434387,
                            0.0,
                            0.020732494071125984,
                            0.020732494071125984,
                            0.020732494071125984,
                            0.020732494071125984,
                            0.020732494071125984,
                            0.020732494071125984,
                            0.020732494071125984,
                            0.020732494071125984,
                            0.0,
                            0.0,
                            0.0,
                            0.0,
                            0.0,
                            0.0
                        ],
                        "rightEye": [
                            -10.206374168395996,
                            0.0,
                            1.6334118843078613,
                            0.9052804112434387,
                            0.0,
                            0.020732494071125984,
                            0.020732494071125984,
                            0.020732494071125984,
                            0.020732494071125984,
                            0.020732494071125984,
                            0.020732494071125984,
                            0.020732494071125984,
                            0.020732494071125984,
                            0.0,
                            0.0,
                            0.0,
                            0.0,
                            0.0,
                            0.0
                        ]
                    },
                    {
                        "triggerTime_ms": 2343,
                        "faceAngle": 0.0,
                        "faceCenterX": 0.0,
                        "faceCenterY": 6.266269683837891,
                        "faceScaleX": 1.0875239372253418,
                        "faceScaleY": 0.197371706366539,
                        "leftEye": [
                            9.169666290283203,
                            0.0,
                            1.6114343404769897,
                            0.9052804112434387,
                            0.0,
                            0.020732494071125984,
                            0.020732494071125984,
                            0.020732494071125984,
                            0.020732494071125984,
                            0.020732494071125984,
                            0.020732494071125984,
                            0.020732494071125984,
                            0.020732494071125984,
                            0.0,
                            0.0,
                            0.0,
                            0.0,
                            0.0,
                            0.0
                        ],
                        "rightEye": [
                            -10.206374168395996,
                            0.0,
                            1.6334118843078613,
                            0.9052804112434387,
                            0.0,
                            0.020732494071125984,
                            0.020732494071125984,
                            0.020732494071125984,
                            0.020732494071125984,
                            0.020732494071125984,
                            0.020732494071125984,
                            0.020732494071125984,
                            0.020732494071125984,
                            0.0,
                            0.0,
                            0.0,
                            0.0,
                            0.0,
                            0.0
                        ]
                    },
                    {
                        "triggerTime_ms": 2376,
                        "faceAngle": 0.0,
                        "faceCenterX": 0.0,
                        "faceCenterY": 9.526326179504395,
                        "faceScaleX": 0.9138401746749878,
                        "faceScaleY": 0.6575824022293091,
                        "leftEye": [
                            9.169666290283203,
                            2.182985544204712,
                            1.214332938194275,
                            1.0661287307739258,
                            0.0,
                            0.4295216202735901,
                            0.4295216202735901,
                            0.4295216202735901,
                            0.4295216202735901,
                            0.4295216202735901,
                            0.4295216202735901,
                            0.4295216202735901,
                            0.4295216202735901,
                            0.0,
                            0.0,
                            0.0,
                            0.0,
                            0.0,
                            0.0
                        ],
                        "rightEye": [
                            -10.206374168395996,
                            0.0,
                            1.2955396175384521,
                            1.271237850189209,
                            0.0,
                            0.5732046365737915,
                            0.5732046365737915,
                            0.49158236384391785,
                            0.49158236384391785,
                            0.49158236384391785,
                            0.49158236384391785,
                            0.33317944407463074,
                            0.5819297432899475,
                            0.0,
                            0.0,
                            0.0,
                            0.0,
                            0.0,
                            0.0
                        ]
                    },
                    {
                        "triggerTime_ms": 2475,
                        "faceAngle": 0.0,
                        "faceCenterX": 0.0,
                        "faceCenterY": -0.4173453450202942,
                        "faceScaleX": 1.138314127922058,
                        "faceScaleY": 1.138314127922058,
                        "leftEye": [
                            9.169666290283203,
                            0.0,
                            1.3474910259246826,
                            1.0995641946792603,
                            0.0,
                            0.5359443426132202,
                            0.5359443426132202,
                            0.5,
                            0.5,
                            0.7397288680076599,
                            0.7397288680076599,
                            0.5359443426132202,
                            0.5359443426132202,
                            0.0,
                            0.0,
                            0.0,
                            0.0,
                            0.0,
                            0.0
                        ],
                        "rightEye": [
                            -10.206374168395996,
                            0.0,
                            1.3599814176559448,
                            1.0995641946792603,
                            0.0,
                            0.5359443426132202,
                            0.5359443426132202,
                            0.5,
                            0.5,
                            0.7397288680076599,
                            0.7397288680076599,
                            0.5359443426132202,
                            0.5359443426132202,
                            0.0,
                            0.0,
                            0.0,
                            0.0,
                            0.0,
                            0.0
                        ]
                    },
                    {
                        "triggerTime_ms": 2640,
                        "faceAngle": 0.0,
                        "faceCenterX": 0.0,
                        "faceCenterY": -0.4173453450202942,
                        "faceScaleX": 1.205368995666504,
                        "faceScaleY": 1.2072869539260864,
                        "leftEye": [
                            9.169666290283203,
                            0.0,
                            1.3474910259246826,
                            1.0995641946792603,
                            0.0,
                            0.5359443426132202,
                            0.5359443426132202,
                            0.5,
                            0.5,
                            0.7397288680076599,
                            0.7397288680076599,
                            0.5359443426132202,
                            0.5359443426132202,
                            0.0,
                            0.0,
                            0.0,
                            0.0,
                            0.0,
                            0.0
                        ],
                        "rightEye": [
                            -10.206374168395996,
                            0.0,
                            1.3599814176559448,
                            1.0995641946792603,
                            0.0,
                            0.5359443426132202,
                            0.5359443426132202,
                            0.5,
                            0.5,
                            0.7397288680076599,
                            0.7397288680076599,
                            0.5359443426132202,
                            0.5359443426132202,
                            0.0,
                            0.0,
                            0.0,
                            0.0,
                            0.0,
                            0.0
                        ]
                    },
                    {
                        "triggerTime_ms": 2772,
                        "faceAngle": 0.0,
                        "faceCenterX": 0.0,
                        "faceCenterY": -0.4173453450202942,
                        "faceScaleX": 1.205368995666504,
                        "faceScaleY": 1.2072869539260864,
                        "leftEye": [
                            9.169666290283203,
                            0.0,
                            1.3474910259246826,
                            1.0995641946792603,
                            0.0,
                            0.5359443426132202,
                            0.5359443426132202,
                            0.5,
                            0.5,
                            0.7397288680076599,
                            0.7397288680076599,
                            0.5359443426132202,
                            0.5359443426132202,
                            0.0,
                            0.0,
                            0.0,
                            0.0,
                            0.0,
                            0.0
                        ],
                        "rightEye": [
                            -10.206374168395996,
                            0.0,
                            1.3599814176559448,
                            1.0995641946792603,
                            0.0,
                            0.5359443426132202,
                            0.5359443426132202,
                            0.5,
                            0.5,
                            0.7397288680076599,
                            0.7397288680076599,
                            0.5359443426132202,
                            0.5359443426132202,
                            0.0,
                            0.0,
                            0.0,
                            0.0,
                            0.0,
                            0.0
                        ]
                    },
                    {
                        "triggerTime_ms": 2838,
                        "faceAngle": 0.0,
                        "faceCenterX": 0.0,
                        "faceCenterY": 4.068951606750488,
                        "faceScaleX": 0.794644296169281,
                        "faceScaleY": 1.0,
                        "leftEye": [
                            9.169666290283203,
                            0.0,
                            1.214332938194275,
                            1.0467466115951538,
                            0.0,
                            0.5,
                            0.5,
                            0.5,
                            0.5,
                            0.5,
                            0.5,
                            0.5,
                            0.5,
                            0.0,
                            0.0,
                            0.0,
                            0.0,
                            0.0,
                            0.0
                        ],
                        "rightEye": [
                            -12.167169570922852,
                            0.0,
                            1.2220369577407837,
                            1.1529637575149536,
                            0.0,
                            0.5,
                            0.5,
                            0.5,
                            0.5,
                            0.5,
                            0.5,
                            0.5,
                            0.5,
                            0.0,
                            0.0,
                            0.0,
                            0.0,
                            0.0,
                            0.0
                        ]
                    },
                    {
                        "triggerTime_ms": 2904,
                        "faceAngle": 0.0,
                        "faceCenterX": 0.0,
                        "faceCenterY": 13.624373435974121,
                        "faceScaleX": 1.0875239372253418,
                        "faceScaleY": 0.197371706366539,
                        "leftEye": [
                            9.169666290283203,
                            0.0,
                            1.6114343404769897,
                            0.9052804112434387,
                            0.0,
                            0.020732494071125984,
                            0.020732494071125984,
                            0.020732494071125984,
                            0.020732494071125984,
                            0.020732494071125984,
                            0.020732494071125984,
                            0.020732494071125984,
                            0.020732494071125984,
                            0.0,
                            0.0,
                            0.0,
                            0.0,
                            0.0,
                            0.0
                        ],
                        "rightEye": [
                            -10.206374168395996,
                            0.0,
                            1.6334118843078613,
                            0.9052804112434387,
                            0.0,
                            0.020732494071125984,
                            0.020732494071125984,
                            0.020732494071125984,
                            0.020732494071125984,
                            0.020732494071125984,
                            0.020732494071125984,
                            0.020732494071125984,
                            0.020732494071125984,
                            0.0,
                            0.0,
                            0.0,
                            0.0,
                            0.0,
                            0.0
                        ]
                    },
                    {
                        "triggerTime_ms": 2937,
                        "faceAngle": 0.0,
                        "faceCenterX": 0.0,
                        "faceCenterY": 13.624373435974121,
                        "faceScaleX": 1.494491696357727,
                        "faceScaleY": 0.1266484558582306,
                        "leftEye": [
                            9.169666290283203,
                            0.0,
                            1.6114343404769897,
                            0.9052804112434387,
                            0.0,
                            0.020732494071125984,
                            0.020732494071125984,
                            0.020732494071125984,
                            0.020732494071125984,
                            0.020732494071125984,
                            0.020732494071125984,
                            0.020732494071125984,
                            0.020732494071125984,
                            0.0,
                            0.0,
                            0.0,
                            0.0,
                            0.0,
                            0.0
                        ],
                        "rightEye": [
                            -10.206374168395996,
                            0.0,
                            1.6334118843078613,
                            0.9052804112434387,
                            0.0,
                            0.020732494071125984,
                            0.020732494071125984,
                            0.020732494071125984,
                            0.020732494071125984,
                            0.020732494071125984,
                            0.020732494071125984,
                            0.020732494071125984,
                            0.020732494071125984,
                            0.0,
                            0.0,
                            0.0,
                            0.0,
                            0.0,
                            0.0
                        ]
                    },
                    {
                        "triggerTime_ms": 3036,
                        "faceAngle": 0.0,
                        "faceCenterX": 0.0,
                        "faceCenterY": -4.223575592041016,
                        "faceScaleX": 0.9079759120941162,
                        "faceScaleY": 1.2448549270629883,
                        "leftEye": [
                            9.169666290283203,
                            0.0,
                            1.214332938194275,
                            0.9052804112434387,
                            0.0,
                            0.5,
                            0.5,
                            0.5,
                            0.5,
                            0.5,
                            0.5,
                            0.5,
                            0.5,
                            0.0,
                            0.0,
                            0.0,
                            0.0,
                            0.0,
                            0.0
                        ],
                        "rightEye": [
                            -10.206374168395996,
                            0.0,
                            1.2220369577407837,
                            0.9052804112434387,
                            0.0,
                            0.5,
                            0.5,
                            0.5,
                            0.5,
                            0.5,
                            0.5,
                            0.5,
                            0.5,
                            0.0,
                            0.0,
                            0.0,
                            0.0,
                            0.0,
                            0.0
                        ]
                    },
                    {
                        "triggerTime_ms": 3135,
                        "faceAngle": 0.0,
                        "faceCenterX": 0.0,
                        "faceCenterY": -2.071901321411133,
                        "faceScaleX": 1.0,
                        "faceScaleY": 1.0,
                        "leftEye": [
                            9.169666290283203,
                            0.0,
                            1.214332938194275,
                            0.9052804112434387,
                            0.0,
                            0.5,
                            0.5,
                            0.5,
                            0.5,
                            0.5,
                            0.5,
                            0.5,
                            0.5,
                            0.0,
                            0.0,
                            0.0,
                            0.0,
                            0.0,
                            0.0
                        ],
                        "rightEye": [
                            -10.206374168395996,
                            0.0,
                            1.2220369577407837,
                            0.9052804112434387,
                            0.0,
                            0.5,
                            0.5,
                            0.5,
                            0.5,
                            0.5,
                            0.5,
                            0.5,
                            0.5,
                            0.0,
                            0.0,
                            0.0,
                            0.0,
                            0.0,
                            0.0
                        ]
                    },
                    {
                        "triggerTime_ms": 3234,
                        "faceAngle": 0.0,
                        "faceCenterX": 0.0,
                        "faceCenterY": 0.0,
                        "faceScaleX": 1.0,
                        "faceScaleY": 1.0,
                        "leftEye": [
                            9.169666290283203,
                            0.0,
                            1.214332938194275,
                            0.9052804112434387,
                            0.0,
                            0.5,
                            0.5,
                            0.5,
                            0.5,
                            0.5,
                            0.5,
                            0.5,
                            0.5,
                            0.0,
                            0.0,
                            0.0,
                            0.0,
                            0.0,
                            0.0
                        ],
                        "rightEye": [
                            -10.206374168395996,
                            0.0,
                            1.2220369577407837,
                            0.9052804112434387,
                            0.0,
                            0.5,
                            0.5,
                            0.5,
                            0.5,
                            0.5,
                            0.5,
                            0.5,
                            0.5,
                            0.0,
                            0.0,
                            0.0,
                            0.0,
                            0.0,
                            0.0
                        ]
                    }
                ],
                "HeadAngleKeyFrame": [
                    {
                        "triggerTime_ms": 0,
                        "durationTime_ms": 231,
                        "angle_deg": 0,
                        "angleVariability_deg": 0
                    },
                    {
                        "triggerTime_ms": 231,
                        "durationTime_ms": 66,
                        "angle_deg": -3,
                        "angleVariability_deg": 0
                    },
                    {
                        "triggerTime_ms": 297,
                        "durationTime_ms": 99,
                        "angle_deg": 6,
                        "angleVariability_deg": 0
                    },
                    {
                        "triggerTime_ms": 396,
                        "durationTime_ms": 198,
                        "angle_deg": 4,
                        "angleVariability_deg": 0
                    },
                    {
                        "triggerTime_ms": 594,
                        "durationTime_ms": 66,
                        "angle_deg": -2,
                        "angleVariability_deg": 0
                    },
                    {
                        "triggerTime_ms": 660,
                        "durationTime_ms": 132,
                        "angle_deg": 8,
                        "angleVariability_deg": 0
                    },
                    {
                        "triggerTime_ms": 792,
                        "durationTime_ms": 198,
                        "angle_deg": 7,
                        "angleVariability_deg": 0
                    },
                    {
                        "triggerTime_ms": 990,
                        "durationTime_ms": 561,
                        "angle_deg": 8,
                        "angleVariability_deg": 0
                    },
                    {
                        "triggerTime_ms": 1551,
                        "durationTime_ms": 99,
                        "angle_deg": -4,
                        "angleVariability_deg": 0
                    },
                    {
                        "triggerTime_ms": 1650,
                        "durationTime_ms": 231,
                        "angle_deg": 23,
                        "angleVariability_deg": 0
                    },
                    {
                        "triggerTime_ms": 1881,
                        "durationTime_ms": 132,
                        "angle_deg": 21,
                        "angleVariability_deg": 0
                    },
                    {
                        "triggerTime_ms": 2013,
                        "durationTime_ms": 264,
                        "angle_deg": 20,
                        "angleVariability_deg": 0
                    },
                    {
                        "triggerTime_ms": 2277,
                        "durationTime_ms": 99,
                        "angle_deg": -12,
                        "angleVariability_deg": 0
                    },
                    {
                        "triggerTime_ms": 2376,
                        "durationTime_ms": 165,
                        "angle_deg": 26,
                        "angleVariability_deg": 0
                    },
                    {
                        "triggerTime_ms": 2640,
                        "durationTime_ms": 33,
                        "angle_deg": 32,
                        "angleVariability_deg": 0
                    },
                    {
                        "triggerTime_ms": 2673,
                        "durationTime_ms": 33,
                        "angle_deg": 26,
                        "angleVariability_deg": 0
                    },
                    {
                        "triggerTime_ms": 2706,
                        "durationTime_ms": 33,
                        "angle_deg": 32,
                        "angleVariability_deg": 0
                    },
                    {
                        "triggerTime_ms": 2739,
                        "durationTime_ms": 33,
                        "angle_deg": 26,
                        "angleVariability_deg": 0
                    },
                    {
                        "triggerTime_ms": 2772,
                        "durationTime_ms": 33,
                        "angle_deg": 32,
                        "angleVariability_deg": 0
                    },
                    {
                        "triggerTime_ms": 2805,
                        "durationTime_ms": 33,
                        "angle_deg": 26,
                        "angleVariability_deg": 0
                    },
                    {
                        "triggerTime_ms": 2838,
                        "durationTime_ms": 33,
                        "angle_deg": 32,
                        "angleVariability_deg": 0
                    },
                    {
                        "triggerTime_ms": 2871,
                        "durationTime_ms": 99,
                        "angle_deg": -4,
                        "angleVariability_deg": 0
                    },
                    {
                        "triggerTime_ms": 2970,
                        "durationTime_ms": 132,
                        "angle_deg": 10,
                        "angleVariability_deg": 0
                    },
                    {
                        "triggerTime_ms": 3102,
                        "durationTime_ms": 99,
                        "angle_deg": 0,
                        "angleVariability_deg": 0
                    }
                ],
                "RobotAudioKeyFrame": [
                    {
                        "triggerTime_ms": 198,
                        "audioEventId": [
                            2929211683
                        ],
                        "volume": 1.0,
                        "probability": [
                            1.0
                        ],
                        "hasAlts": true
                    },
                    {
                        "triggerTime_ms": 231,
                        "audioEventId": [
                            2569312135
                        ],
                        "volume": 1.0,
                        "probability": [
                            1.0
                        ],
                        "hasAlts": true
                    },
                    {
                        "triggerTime_ms": 957,
                        "audioEventId": [
                            2569312132
                        ],
                        "volume": 1.0,
                        "probability": [
                            1.0
                        ],
                        "hasAlts": true
                    },
                    {
                        "triggerTime_ms": 1683,
                        "audioEventId": [
                            2569312133
                        ],
                        "volume": 1.0,
                        "probability": [
                            1.0
                        ],
                        "hasAlts": true
                    },
                    {
                        "triggerTime_ms": 2343,
                        "audioEventId": [
                            3852140140
                        ],
                        "volume": 1.0,
                        "probability": [
                            1.0
                        ],
                        "hasAlts": true
                    },
                    {
                        "triggerTime_ms": 2937,
                        "audioEventId": [
                            302804072
                        ],
                        "volume": 1.0,
                        "probability": [
                            1.0
                        ],
                        "hasAlts": true
                    }
                ],
                "BackpackLightsKeyFrame": [],
                "FaceAnimationKeyFrame": [],
                "EventKeyFrame": [],
                "BodyMotionKeyFrame": [
                    {
                        "triggerTime_ms": 66,
                        "durationTime_ms": 66,
                        "radius_mm": "STRAIGHT",
                        "speed": -40
                    },
                    {
                        "triggerTime_ms": 132,
                        "durationTime_ms": 132,
                        "radius_mm": "STRAIGHT",
                        "speed": 61
                    },
                    {
                        "triggerTime_ms": 264,
                        "durationTime_ms": 330,
                        "radius_mm": "STRAIGHT",
                        "speed": 1
                    },
                    {
                        "triggerTime_ms": 594,
                        "durationTime_ms": 99,
                        "radius_mm": "STRAIGHT",
                        "speed": -55
                    },
                    {
                        "triggerTime_ms": 693,
                        "durationTime_ms": 165,
                        "radius_mm": "STRAIGHT",
                        "speed": 72
                    },
                    {
                        "triggerTime_ms": 858,
                        "durationTime_ms": 726,
                        "radius_mm": "STRAIGHT",
                        "speed": 1
                    },
                    {
                        "triggerTime_ms": 1584,
                        "durationTime_ms": 99,
                        "radius_mm": "STRAIGHT",
                        "speed": -74
                    },
                    {
                        "triggerTime_ms": 1683,
                        "durationTime_ms": 132,
                        "radius_mm": "STRAIGHT",
                        "speed": 160
                    },
                    {
                        "triggerTime_ms": 2277,
                        "durationTime_ms": 66,
                        "radius_mm": "STRAIGHT",
                        "speed": -220
                    },
                    {
                        "triggerTime_ms": 2343,
                        "durationTime_ms": 99,
                        "radius_mm": "-104.0",
                        "speed": 220
                    },
                    {
                        "triggerTime_ms": 2442,
                        "durationTime_ms": 99,
                        "radius_mm": "16.0",
                        "speed": 123
                    },
                    {
                        "triggerTime_ms": 2541,
                        "durationTime_ms": 99,
                        "radius_mm": "-16.0",
                        "speed": 142
                    },
                    {
                        "triggerTime_ms": 2640,
                        "durationTime_ms": 132,
                        "radius_mm": "31.0",
                        "speed": 129
                    },
                    {
                        "triggerTime_ms": 2772,
                        "durationTime_ms": 99,
                        "radius_mm": "-23.0",
                        "speed": 30
                    },
                    {
                        "triggerTime_ms": 2871,
                        "durationTime_ms": 132,
                        "radius_mm": "38.0",
                        "speed": -93
                    }
                ],
                "RecordHeadingKeyFrame": [],
                "TurnToRecordedHeadingKeyFrame": []
            }
        }
    ]
}