{
    "clips": [
        {
            "Name": "anim_codelab_sheep_01",
            "keyframes": {
                "LiftHeightKeyFrame": [],
                "ProceduralFaceKeyFrame": [
                    {
                        "triggerTime_ms": 0,
                        "faceAngle": 0.0,
                        "faceCenterX": 0.0,
                        "faceCenterY": 0.0,
                        "faceScaleX": 1.0,
                        "faceScaleY": 1.0,
                        "leftEye": [
                            9.169666290283203,
                            0.0,
                            1.214332938194275,
                            0.9052804112434387,
                            0.0,
                            0.5,
                            0.5,
                            0.5,
                            0.5,
                            0.5,
                            0.5,
                            0.5,
                            0.5,
                            0.0,
                            0.0,
                            0.0,
                            0.0,
                            0.0,
                            0.0
                        ],
                        "rightEye": [
                            -10.206374168395996,
                            0.0,
                            1.2220369577407837,
                            0.9052804112434387,
                            0.0,
                            0.5,
                            0.5,
                            0.5,
                            0.5,
                            0.5,
                            0.5,
                            0.5,
                            0.5,
                            0.0,
                            0.0,
                            0.0,
                            0.0,
                            0.0,
                            0.0
                        ]
                    },
                    {
                        "triggerTime_ms": 330,
                        "faceAngle": 0.0,
                        "faceCenterX": 0.0,
                        "faceCenterY": 0.0,
                        "faceScaleX": 1.0,
                        "faceScaleY": 1.0,
                        "leftEye": [
                            9.169666290283203,
                            0.0,
                            1.214332938194275,
                            0.9052804112434387,
                            0.0,
                            0.5,
                            0.5,
                            0.5,
                            0.5,
                            0.5,
                            0.5,
                            0.5,
                            0.5,
                            0.0,
                            0.0,
                            0.0,
                            0.0,
                            0.0,
                            0.0
                        ],
                        "rightEye": [
                            -10.206374168395996,
                            0.0,
                            1.2220369577407837,
                            0.9052804112434387,
                            0.0,
                            0.5,
                            0.5,
                            0.5,
                            0.5,
                            0.5,
                            0.5,
                            0.5,
                            0.5,
                            0.0,
                            0.0,
                            0.0,
                            0.0,
                            0.0,
                            0.0
                        ]
                    },
                    {
                        "triggerTime_ms": 495,
                        "faceAngle": 0.0,
                        "faceCenterX": 0.0,
                        "faceCenterY": -1.4284732341766357,
                        "faceScaleX": 1.099128007888794,
                        "faceScaleY": 1.099128007888794,
                        "leftEye": [
                            9.169666290283203,
                            0.0,
                            1.3474910259246826,
                            1.0995641946792603,
                            0.0,
                            0.5359443426132202,
                            0.5359443426132202,
                            0.5,
                            0.5,
                            0.7397288680076599,
                            0.7397288680076599,
                            0.5359443426132202,
                            0.5359443426132202,
                            0.0,
                            0.0,
                            0.0,
                            0.0,
                            0.0,
                            0.0
                        ],
                        "rightEye": [
                            -10.206374168395996,
                            0.0,
                            1.3599814176559448,
                            1.0995641946792603,
                            0.0,
                            0.5359443426132202,
                            0.5359443426132202,
                            0.5,
                            0.5,
                            0.7397288680076599,
                            0.7397288680076599,
                            0.5359443426132202,
                            0.5359443426132202,
                            0.0,
                            0.0,
                            0.0,
                            0.0,
                            0.0,
                            0.0
                        ]
                    },
                    {
                        "triggerTime_ms": 594,
                        "faceAngle": 0.0,
                        "faceCenterX": 0.0,
                        "faceCenterY": -1.0448369979858398,
                        "faceScaleX": 1.0432366132736206,
                        "faceScaleY": 1.0104414224624634,
                        "leftEye": [
                            9.169666290283203,
                            0.0,
                            1.324134349822998,
                            1.0654854774475098,
                            0.0,
                            0.529639482498169,
                            0.529639482498169,
                            0.5,
                            0.5,
                            0.6976787447929382,
                            0.6976787447929382,
                            0.529639482498169,
                            0.529639482498169,
                            0.0,
                            0.0,
                            0.0,
                            0.0,
                            0.0,
                            0.0
                        ],
                        "rightEye": [
                            -10.206374168395996,
                            0.0,
                            1.335785150527954,
                            1.0654854774475098,
                            0.0,
                            0.529639482498169,
                            0.529639482498169,
                            0.5,
                            0.5,
                            0.6976787447929382,
                            0.6976787447929382,
                            0.529639482498169,
                            0.529639482498169,
                            0.0,
                            0.0,
                            0.0,
                            0.0,
                            0.0,
                            0.0
                        ]
                    },
                    {
                        "triggerTime_ms": 990,
                        "faceAngle": 0.0,
                        "faceCenterX": 0.0,
                        "faceCenterY": -1.0448369979858398,
                        "faceScaleX": 1.0432366132736206,
                        "faceScaleY": 1.0104414224624634,
                        "leftEye": [
                            9.169666290283203,
                            0.0,
                            1.324134349822998,
                            1.0654854774475098,
                            0.0,
                            0.529639482498169,
                            0.529639482498169,
                            0.5,
                            0.5,
                            0.6976787447929382,
                            0.6976787447929382,
                            0.529639482498169,
                            0.529639482498169,
                            0.0,
                            0.0,
                            0.0,
                            0.0,
                            0.0,
                            0.0
                        ],
                        "rightEye": [
                            -10.206374168395996,
                            0.0,
                            1.335785150527954,
                            1.0654854774475098,
                            0.0,
                            0.529639482498169,
                            0.529639482498169,
                            0.5,
                            0.5,
                            0.6976787447929382,
                            0.6976787447929382,
                            0.529639482498169,
                            0.529639482498169,
                            0.0,
                            0.0,
                            0.0,
                            0.0,
                            0.0,
                            0.0
                        ]
                    },
                    {
                        "triggerTime_ms": 1023,
                        "faceAngle": 0.0,
                        "faceCenterX": 0.0,
                        "faceCenterY": -0.39106258749961853,
                        "faceScaleX": 1.0378565788269043,
                        "faceScaleY": 1.0531131029129028,
                        "leftEye": [
                            9.272531509399414,
                            0.13570524752140045,
                            1.3112444877624512,
                            1.044521689414978,
                            0.0,
                            0.5238056182861328,
                            0.5238056182861328,
                            0.5,
                            0.5,
                            0.6985958218574524,
                            0.6985958218574524,
                            0.5238056182861328,
                            0.5238056182861328,
                            0.0,
                            0.0,
                            0.0,
                            0.0,
                            0.0,
                            0.0
                        ],
                        "rightEye": [
                            -10.206374168395996,
                            0.0,
                            1.3133962154388428,
                            1.0339524745941162,
                            0.0,
                            0.5238056182861328,
                            0.5238056182861328,
                            0.5,
                            0.5,
                            0.6985958218574524,
                            0.6985958218574524,
                            0.5238056182861328,
                            0.5238056182861328,
                            0.0,
                            0.0,
                            0.0,
                            0.0,
                            0.0,
                            0.0
                        ]
                    },
                    {
                        "triggerTime_ms": 1056,
                        "faceAngle": 0.0,
                        "faceCenterX": 0.0,
                        "faceCenterY": -0.5734681487083435,
                        "faceScaleX": 1.1170605421066284,
                        "faceScaleY": 1.1791552305221558,
                        "leftEye": [
                            9.463550567626953,
                            0.2713988423347473,
                            1.2908719778060913,
                            1.0113879442214966,
                            0.0,
                            0.5179721713066101,
                            0.5179721713066101,
                            0.5,
                            0.5,
                            0.699512779712677,
                            0.699512779712677,
                            0.5179721713066101,
                            0.5179721713066101,
                            0.0,
                            0.0,
                            0.0,
                            0.0,
                            0.0,
                            0.0
                        ],
                        "rightEye": [
                            -10.206374168395996,
                            0.0,
                            1.2910093069076538,
                            0.9260417819023132,
                            0.0,
                            0.5179721713066101,
                            0.5179721713066101,
                            0.5,
                            0.5,
                            0.699512779712677,
                            0.699512779712677,
                            0.5179721713066101,
                            0.5179721713066101,
                            0.0,
                            0.0,
                            0.0,
                            0.0,
                            0.0,
                            0.0
                        ]
                    },
                    {
                        "triggerTime_ms": 1089,
                        "faceAngle": 0.0,
                        "faceCenterX": 0.0,
                        "faceCenterY": -0.5734681487083435,
                        "faceScaleX": 1.1962645053863525,
                        "faceScaleY": 1.1791552305221558,
                        "leftEye": [
                            9.566405296325684,
                            -0.07988306879997253,
                            1.2792308330535889,
                            0.9924547076225281,
                            0.0,
                            0.5179721713066101,
                            0.5179721713066101,
                            0.5,
                            0.5,
                            0.699512779712677,
                            0.699512779712677,
                            0.5179721713066101,
                            0.5179721713066101,
                            0.0,
                            0.0,
                            0.0,
                            0.0,
                            0.0,
                            0.0
                        ],
                        "rightEye": [
                            -10.206374168395996,
                            0.0,
                            1.2910093069076538,
                            0.9178578853607178,
                            0.0,
                            0.5179721713066101,
                            0.5179721713066101,
                            0.5,
                            0.5,
                            0.699512779712677,
                            0.699512779712677,
                            0.5179721713066101,
                            0.5179721713066101,
                            0.0,
                            0.0,
                            0.0,
                            0.0,
                            0.0,
                            0.0
                        ]
                    },
                    {
                        "triggerTime_ms": 1122,
                        "faceAngle": 0.0,
                        "faceCenterX": 0.0,
                        "faceCenterY": -0.5734681487083435,
                        "faceScaleX": 1.1962645053863525,
                        "faceScaleY": 1.1791552305221558,
                        "leftEye": [
                            9.566405296325684,
                            -0.4311649799346924,
                            1.3435983657836914,
                            1.0357530117034912,
                            0.0,
                            0.5179721713066101,
                            0.5179721713066101,
                            0.5,
                            0.5,
                            0.699512779712677,
                            0.699512779712677,
                            0.5179721713066101,
                            0.5179721713066101,
                            0.0,
                            0.0,
                            0.0,
                            0.0,
                            0.0,
                            0.0
                        ],
                        "rightEye": [
                            -10.206374168395996,
                            0.0,
                            1.2910093069076538,
                            0.9178578853607178,
                            0.0,
                            0.5179721713066101,
                            0.5179721713066101,
                            0.5,
                            0.5,
                            0.699512779712677,
                            0.699512779712677,
                            0.5179721713066101,
                            0.5179721713066101,
                            0.0,
                            0.0,
                            0.0,
                            0.0,
                            0.0,
                            0.0
                        ]
                    },
                    {
                        "triggerTime_ms": 1617,
                        "faceAngle": 0.0,
                        "faceCenterX": 0.0,
                        "faceCenterY": -0.5734681487083435,
                        "faceScaleX": 1.1962645053863525,
                        "faceScaleY": 1.1791552305221558,
                        "leftEye": [
                            9.566405296325684,
                            -0.4311649799346924,
                            1.3435983657836914,
                            1.0357530117034912,
                            0.0,
                            0.5179721713066101,
                            0.5179721713066101,
                            0.5,
                            0.5,
                            0.699512779712677,
                            0.699512779712677,
                            0.5179721713066101,
                            0.5179721713066101,
                            0.0,
                            0.0,
                            0.0,
                            0.0,
                            0.0,
                            0.0
                        ],
                        "rightEye": [
                            -10.206374168395996,
                            0.0,
                            1.2910093069076538,
                            0.9178578853607178,
                            0.0,
                            0.5179721713066101,
                            0.5179721713066101,
                            0.5,
                            0.5,
                            0.699512779712677,
                            0.699512779712677,
                            0.5179721713066101,
                            0.5179721713066101,
                            0.0,
                            0.0,
                            0.0,
                            0.0,
                            0.0,
                            0.0
                        ]
                    },
                    {
                        "triggerTime_ms": 1683,
                        "faceAngle": 0.0,
                        "faceCenterX": 0.0,
                        "faceCenterY": -0.5734681487083435,
                        "faceScaleX": 1.1962645053863525,
                        "faceScaleY": 1.1791552305221558,
                        "leftEye": [
                            9.566405296325684,
                            -0.4311649799346924,
                            1.3435983657836914,
                            1.0357530117034912,
                            0.0,
                            0.5179721713066101,
                            0.5179721713066101,
                            0.5,
                            0.5,
                            0.699512779712677,
                            0.699512779712677,
                            0.5179721713066101,
                            0.5179721713066101,
                            0.0,
                            0.0,
                            0.0,
                            0.0,
                            0.0,
                            0.0
                        ],
                        "rightEye": [
                            -10.206374168395996,
                            0.0,
                            1.2910093069076538,
                            0.9178578853607178,
                            0.0,
                            0.5179721713066101,
                            0.5179721713066101,
                            0.5,
                            0.5,
                            0.699512779712677,
                            0.699512779712677,
                            0.5179721713066101,
                            0.5179721713066101,
                            0.0,
                            0.0,
                            0.0,
                            0.0,
                            0.0,
                            0.0
                        ]
                    },
                    {
                        "triggerTime_ms": 1716,
                        "faceAngle": 0.0,
                        "faceCenterX": 0.0,
                        "faceCenterY": -0.5734681487083435,
                        "faceScaleX": 1.1962645053863525,
                        "faceScaleY": 1.1791552305221558,
                        "leftEye": [
                            9.566405296325684,
                            -0.4311649799346924,
                            1.3435983657836914,
                            1.0357530117034912,
                            0.0,
                            0.5179721713066101,
                            0.5179721713066101,
                            0.5,
                            0.5,
                            0.699512779712677,
                            0.699512779712677,
                            0.5179721713066101,
                            0.5179721713066101,
                            0.0,
                            0.0,
                            0.0,
                            0.0,
                            0.0,
                            0.0
                        ],
                        "rightEye": [
                            -10.206374168395996,
                            0.0,
                            1.2910093069076538,
                            0.9178578853607178,
                            0.0,
                            0.5179721713066101,
                            0.5179721713066101,
                            0.5,
                            0.5,
                            0.699512779712677,
                            0.699512779712677,
                            0.5179721713066101,
                            0.5179721713066101,
                            0.0,
                            0.0,
                            0.0,
                            0.0,
                            0.0,
                            0.0
                        ]
                    },
                    {
                        "triggerTime_ms": 1815,
                        "faceAngle": 0.0,
                        "faceCenterX": 0.0,
                        "faceCenterY": -0.5734681487083435,
                        "faceScaleX": 1.1962645053863525,
                        "faceScaleY": 1.1791552305221558,
                        "leftEye": [
                            9.566405296325684,
                            -0.4311649799346924,
                            1.3435983657836914,
                            1.0357530117034912,
                            0.0,
                            0.5179721713066101,
                            0.5179721713066101,
                            0.5,
                            0.5,
                            0.699512779712677,
                            0.699512779712677,
                            0.5179721713066101,
                            0.5179721713066101,
                            0.0,
                            0.0,
                            0.0,
                            0.0,
                            0.0,
                            0.0
                        ],
                        "rightEye": [
                            -10.206374168395996,
                            0.0,
                            1.2910093069076538,
                            0.9178578853607178,
                            0.0,
                            0.5179721713066101,
                            0.5179721713066101,
                            0.5,
                            0.5,
                            0.699512779712677,
                            0.699512779712677,
                            0.5179721713066101,
                            0.5179721713066101,
                            0.0,
                            0.0,
                            0.0,
                            0.0,
                            0.0,
                            0.0
                        ]
                    },
                    {
                        "triggerTime_ms": 2079,
                        "faceAngle": 0.0,
                        "faceCenterX": 0.0,
                        "faceCenterY": -0.5734681487083435,
                        "faceScaleX": 1.1962645053863525,
                        "faceScaleY": 1.1791552305221558,
                        "leftEye": [
                            9.566405296325684,
                            -0.4311649799346924,
                            1.3466137647628784,
                            1.0506060123443604,
                            0.0,
                            0.5214099884033203,
                            0.5214099884033203,
                            0.5,
                            0.5,
                            0.7072054743766785,
                            0.7072054743766785,
                            0.5214099884033203,
                            0.5214099884033203,
                            0.0,
                            0.0,
                            0.0,
                            0.0,
                            0.0,
                            0.0
                        ],
                        "rightEye": [
                            -10.206374168395996,
                            0.0,
                            1.3029063940048218,
                            0.9419794082641602,
                            0.0,
                            0.5214099884033203,
                            0.5214099884033203,
                            0.5,
                            0.5,
                            0.7072054743766785,
                            0.7072054743766785,
                            0.5214099884033203,
                            0.5214099884033203,
                            0.0,
                            0.0,
                            0.0,
                            0.0,
                            0.0,
                            0.0
                        ]
                    },
                    {
                        "triggerTime_ms": 2145,
                        "faceAngle": 0.0,
                        "faceCenterX": 0.0,
                        "faceCenterY": -0.5734681487083435,
                        "faceScaleX": 1.043235182762146,
                        "faceScaleY": 1.0261257886886597,
                        "leftEye": [
                            9.566405296325684,
                            -0.4311649799346924,
                            1.3473676443099976,
                            1.0543192625045776,
                            0.0,
                            0.5228196978569031,
                            0.5228196978569031,
                            0.5,
                            0.5,
                            0.7103599905967712,
                            0.7103599905967712,
                            0.5228196978569031,
                            0.5228196978569031,
                            0.0,
                            0.0,
                            0.0,
                            0.0,
                            0.0,
                            0.0
                        ],
                        "rightEye": [
                            -10.206374168395996,
                            0.0,
                            1.293016791343689,
                            0.921928346157074,
                            0.0,
                            0.5228196978569031,
                            0.5228196978569031,
                            0.5,
                            0.5,
                            0.7103599905967712,
                            0.7103599905967712,
                            0.5228196978569031,
                            0.5228196978569031,
                            0.0,
                            0.0,
                            0.0,
                            0.0,
                            0.0,
                            0.0
                        ]
                    },
                    {
                        "triggerTime_ms": 2178,
                        "faceAngle": 0.0,
                        "faceCenterX": 0.0,
                        "faceCenterY": -0.5734681487083435,
                        "faceScaleX": 1.043235182762146,
                        "faceScaleY": 1.0261257886886597,
                        "leftEye": [
                            9.566405296325684,
                            -0.4311649799346924,
                            1.3477444648742676,
                            1.0561758279800415,
                            0.0,
                            0.5235205888748169,
                            0.5235205888748169,
                            0.5,
                            0.5,
                            0.7119284868240356,
                            0.7119284868240356,
                            0.5235205888748169,
                            0.5235205888748169,
                            0.0,
                            0.0,
                            0.0,
                            0.0,
                            0.0,
                            0.0
                        ],
                        "rightEye": [
                            -10.206374168395996,
                            0.0,
                            1.3042025566101074,
                            0.9736762642860413,
                            0.0,
                            0.5235205888748169,
                            0.5235205888748169,
                            0.5,
                            0.5,
                            0.7119284868240356,
                            0.7119284868240356,
                            0.5235205888748169,
                            0.5235205888748169,
                            0.0,
                            0.0,
                            0.0,
                            0.0,
                            0.0,
                            0.0
                        ]
                    },
                    {
                        "triggerTime_ms": 2211,
                        "faceAngle": 0.0,
                        "faceCenterX": 0.0,
                        "faceCenterY": -0.5734681487083435,
                        "faceScaleX": 1.1962645053863525,
                        "faceScaleY": 1.1791552305221558,
                        "leftEye": [
                            9.566405296325684,
                            -0.4311649799346924,
                            1.3448535203933716,
                            1.0419355630874634,
                            0.0,
                            0.5194031596183777,
                            0.5194031596183777,
                            0.5,
                            0.5,
                            0.7027148604393005,
                            0.7027148604393005,
                            0.5194031596183777,
                            0.5194031596183777,
                            0.0,
                            0.0,
                            0.0,
                            0.0,
                            0.0,
                            0.0
                        ],
                        "rightEye": [
                            -10.953789710998535,
                            1.0632662773132324,
                            1.2498899698257446,
                            0.967117428779602,
                            0.0,
                            0.5194031596183777,
                            0.5194031596183777,
                            0.5,
                            0.5,
                            0.7027148604393005,
                            0.7027148604393005,
                            0.5194031596183777,
                            0.5194031596183777,
                            0.0,
                            0.0,
                            0.0,
                            0.0,
                            0.0,
                            0.0
                        ]
                    },
                    {
                        "triggerTime_ms": 2442,
                        "faceAngle": 0.0,
                        "faceCenterX": 0.0,
                        "faceCenterY": -0.5734681487083435,
                        "faceScaleX": 1.043235182762146,
                        "faceScaleY": 1.0261257886886597,
                        "leftEye": [
                            9.566405296325684,
                            -0.4311649799346924,
                            1.3507599830627441,
                            1.0710288286209106,
                            0.0,
                            0.5269584655761719,
                            0.5269584655761719,
                            0.5,
                            0.5,
                            0.7196211814880371,
                            0.7196211814880371,
                            0.5269584655761719,
                            0.5269584655761719,
                            0.0,
                            0.0,
                            0.0,
                            0.0,
                            0.0,
                            0.0
                        ],
                        "rightEye": [
                            -10.953789710998535,
                            1.0632662773132324,
                            1.2554644346237183,
                            0.9707514643669128,
                            0.0,
                            0.5269584655761719,
                            0.5269584655761719,
                            0.5,
                            0.5,
                            0.7196211814880371,
                            0.7196211814880371,
                            0.5269584655761719,
                            0.5269584655761719,
                            0.0,
                            0.0,
                            0.0,
                            0.0,
                            0.0,
                            0.0
                        ]
                    },
                    {
                        "triggerTime_ms": 2508,
                        "faceAngle": 0.0,
                        "faceCenterX": 0.9347873330116272,
                        "faceCenterY": -0.9692394137382507,
                        "faceScaleX": 1.0195443630218506,
                        "faceScaleY": 1.0024349689483643,
                        "leftEye": [
                            9.514976501464844,
                            0.2280835509300232,
                            1.3176124095916748,
                            1.0257420539855957,
                            0.0,
                            0.520301878452301,
                            0.520301878452301,
                            0.5,
                            0.5,
                            0.704725980758667,
                            0.704725980758667,
                            0.520301878452301,
                            0.520301878452301,
                            0.0,
                            0.0,
                            0.0,
                            0.0,
                            0.0,
                            0.0
                        ],
                        "rightEye": [
                            -10.953789710998535,
                            1.0632662773132324,
                            1.2999500036239624,
                            1.0150147676467896,
                            0.0,
                            0.520301878452301,
                            0.520301878452301,
                            0.5,
                            0.5,
                            0.704725980758667,
                            0.704725980758667,
                            0.520301878452301,
                            0.520301878452301,
                            0.0,
                            0.0,
                            0.0,
                            0.0,
                            0.0,
                            0.0
                        ]
                    },
                    {
                        "triggerTime_ms": 2607,
                        "faceAngle": 0.0,
                        "faceCenterX": 0.9347873330116272,
                        "faceCenterY": -0.9692394137382507,
                        "faceScaleX": 1.0195443630218506,
                        "faceScaleY": 1.0024349689483643,
                        "leftEye": [
                            9.514976501464844,
                            0.2280835509300232,
                            1.3176124095916748,
                            1.0257420539855957,
                            0.0,
                            0.520301878452301,
                            0.520301878452301,
                            0.5,
                            0.5,
                            0.704725980758667,
                            0.704725980758667,
                            0.520301878452301,
                            0.520301878452301,
                            0.0,
                            0.0,
                            0.0,
                            0.0,
                            0.0,
                            0.0
                        ],
                        "rightEye": [
                            -10.953789710998535,
                            1.0632662773132324,
                            1.2999500036239624,
                            1.0150147676467896,
                            0.0,
                            0.520301878452301,
                            0.520301878452301,
                            0.5,
                            0.5,
                            0.704725980758667,
                            0.704725980758667,
                            0.520301878452301,
                            0.520301878452301,
                            0.0,
                            0.0,
                            0.0,
                            0.0,
                            0.0,
                            0.0
                        ]
                    },
                    {
                        "triggerTime_ms": 2640,
                        "faceAngle": 0.0,
                        "faceCenterX": 0.7330154776573181,
                        "faceCenterY": -0.8753869533538818,
                        "faceScaleX": 1.054866909980774,
                        "faceScaleY": 1.0377576351165771,
                        "leftEye": [
                            9.450800895690918,
                            0.18569479882717133,
                            1.3286291360855103,
                            1.0429784059524536,
                            0.0,
                            0.5232090353965759,
                            0.5232090353965759,
                            0.5,
                            0.5,
                            0.7112311720848083,
                            0.7112311720848083,
                            0.5232090353965759,
                            0.5232090353965759,
                            0.0,
                            0.0,
                            0.0,
                            0.0,
                            0.0,
                            0.0
                        ],
                        "rightEye": [
                            -10.953789710998535,
                            1.0632662773132324,
                            1.2999500036239624,
                            1.0150147676467896,
                            0.0,
                            0.5232090353965759,
                            0.5232090353965759,
                            0.5,
                            0.5,
                            0.7112311720848083,
                            0.7112311720848083,
                            0.5232090353965759,
                            0.5232090353965759,
                            0.0,
                            0.0,
                            0.0,
                            0.0,
                            0.0,
                            0.0
                        ]
                    },
                    {
                        "triggerTime_ms": 2706,
                        "faceAngle": 0.0,
                        "faceCenterX": 0.09020303934812546,
                        "faceCenterY": -0.5267556309700012,
                        "faceScaleX": 1.1731065511703491,
                        "faceScaleY": 1.1559971570968628,
                        "leftEye": [
                            9.23812198638916,
                            0.04521642625331879,
                            1.3357396125793457,
                            1.081178069114685,
                            0.0,
                            0.5328433513641357,
                            0.5328433513641357,
                            0.5,
                            0.5,
                            0.7327897548675537,
                            0.7327897548675537,
                            0.5328433513641357,
                            0.5328433513641357,
                            0.0,
                            0.0,
                            0.0,
                            0.0,
                            0.0,
                            0.0
                        ],
                        "rightEye": [
                            -10.953789710998535,
                            1.0632662773132324,
                            1.3329954147338867,
                            1.0521458387374878,
                            0.0,
                            0.5328433513641357,
                            0.5328433513641357,
                            0.5,
                            0.5,
                            0.7327897548675537,
                            0.7327897548675537,
                            0.5328433513641357,
                            0.5328433513641357,
                            0.0,
                            0.0,
                            0.0,
                            0.0,
                            0.0,
                            0.0
                        ]
                    },
                    {
                        "triggerTime_ms": 2772,
                        "faceAngle": 0.0,
                        "faceCenterX": 0.03857919201254845,
                        "faceCenterY": -0.46413931250572205,
                        "faceScaleX": 1.186583161354065,
                        "faceScaleY": 1.1694737672805786,
                        "leftEye": [
                            9.189949035644531,
                            0.01339726708829403,
                            1.344009280204773,
                            1.094116449356079,
                            0.0,
                            0.5350255966186523,
                            0.5350255966186523,
                            0.5,
                            0.5,
                            0.7376728653907776,
                            0.7376728653907776,
                            0.5350255966186523,
                            0.5350255966186523,
                            0.0,
                            0.0,
                            0.0,
                            0.0,
                            0.0,
                            0.0
                        ],
                        "rightEye": [
                            -10.324445724487305,
                            0.0,
                            1.3719929456710815,
                            1.0976593494415283,
                            0.0,
                            0.5350255966186523,
                            0.5350255966186523,
                            0.5,
                            0.5,
                            0.7376728653907776,
                            0.7376728653907776,
                            0.5350255966186523,
                            0.5350255966186523,
                            0.0,
                            0.0,
                            0.0,
                            0.0,
                            0.0,
                            0.0
                        ]
                    },
                    {
                        "triggerTime_ms": 2904,
                        "faceAngle": 0.0,
                        "faceCenterX": 0.0,
                        "faceCenterY": -0.4173453450202942,
                        "faceScaleX": 1.1933149099349976,
                        "faceScaleY": 1.1762055158615112,
                        "leftEye": [
                            9.169666290283203,
                            0.0,
                            1.3474910259246826,
                            1.0995641946792603,
                            0.0,
                            0.5359443426132202,
                            0.5359443426132202,
                            0.5,
                            0.5,
                            0.7397288680076599,
                            0.7397288680076599,
                            0.5359443426132202,
                            0.5359443426132202,
                            0.0,
                            0.0,
                            0.0,
                            0.0,
                            0.0,
                            0.0
                        ],
                        "rightEye": [
                            -10.324445724487305,
                            0.0,
                            1.383453130722046,
                            1.1138001680374146,
                            0.0,
                            0.5359443426132202,
                            0.5359443426132202,
                            0.5,
                            0.5,
                            0.7397288680076599,
                            0.7397288680076599,
                            0.5359443426132202,
                            0.5359443426132202,
                            0.0,
                            0.0,
                            0.0,
                            0.0,
                            0.0,
                            0.0
                        ]
                    },
                    {
                        "triggerTime_ms": 2970,
                        "faceAngle": 0.0,
                        "faceCenterX": 0.0,
                        "faceCenterY": -0.4173453450202942,
                        "faceScaleX": 1.1933149099349976,
                        "faceScaleY": 1.1762055158615112,
                        "leftEye": [
                            9.169666290283203,
                            0.0,
                            1.3474910259246826,
                            1.0995641946792603,
                            0.0,
                            0.5359443426132202,
                            0.5359443426132202,
                            0.5,
                            0.5,
                            0.7397288680076599,
                            0.7397288680076599,
                            0.5359443426132202,
                            0.5359443426132202,
                            0.0,
                            0.0,
                            0.0,
                            0.0,
                            0.0,
                            0.0
                        ],
                        "rightEye": [
                            -10.324445724487305,
                            0.0,
                            1.3838939666748047,
                            1.1144208908081055,
                            0.0,
                            0.5359443426132202,
                            0.5359443426132202,
                            0.5,
                            0.5,
                            0.7397288680076599,
                            0.7397288680076599,
                            0.5359443426132202,
                            0.5359443426132202,
                            0.0,
                            0.0,
                            0.0,
                            0.0,
                            0.0,
                            0.0
                        ]
                    },
                    {
                        "triggerTime_ms": 3003,
                        "faceAngle": 0.0,
                        "faceCenterX": 0.0,
                        "faceCenterY": -0.4173453450202942,
                        "faceScaleX": 1.1933149099349976,
                        "faceScaleY": 1.1762055158615112,
                        "leftEye": [
                            9.169666290283203,
                            0.0,
                            1.3474910259246826,
                            1.0995641946792603,
                            0.0,
                            0.5359443426132202,
                            0.5359443426132202,
                            0.5,
                            0.5,
                            0.7397288680076599,
                            0.7397288680076599,
                            0.5359443426132202,
                            0.5359443426132202,
                            0.0,
                            0.0,
                            0.0,
                            0.0,
                            0.0,
                            0.0
                        ],
                        "rightEye": [
                            -10.324445724487305,
                            0.0,
                            1.3838939666748047,
                            1.1144208908081055,
                            0.0,
                            0.5359443426132202,
                            0.5359443426132202,
                            0.5,
                            0.5,
                            0.7397288680076599,
                            0.7397288680076599,
                            0.5359443426132202,
                            0.5359443426132202,
                            0.0,
                            0.0,
                            0.0,
                            0.0,
                            0.0,
                            0.0
                        ]
                    },
                    {
                        "triggerTime_ms": 3993,
                        "faceAngle": 0.0,
                        "faceCenterX": 0.0,
                        "faceCenterY": -0.4173453450202942,
                        "faceScaleX": 1.1933149099349976,
                        "faceScaleY": 1.1762055158615112,
                        "leftEye": [
                            9.169666290283203,
                            0.0,
                            1.3474910259246826,
                            1.0995641946792603,
                            0.0,
                            0.5359443426132202,
                            0.5359443426132202,
                            0.5,
                            0.5,
                            0.7397288680076599,
                            0.7397288680076599,
                            0.5359443426132202,
                            0.5359443426132202,
                            0.0,
                            0.0,
                            0.0,
                            0.0,
                            0.0,
                            0.0
                        ],
                        "rightEye": [
                            -10.324445724487305,
                            0.0,
                            1.3838939666748047,
                            1.1144208908081055,
                            0.0,
                            0.5359443426132202,
                            0.5359443426132202,
                            0.5,
                            0.5,
                            0.7397288680076599,
                            0.7397288680076599,
                            0.5359443426132202,
                            0.5359443426132202,
                            0.0,
                            0.0,
                            0.0,
                            0.0,
                            0.0,
                            0.0
                        ]
                    },
                    {
                        "triggerTime_ms": 4059,
                        "faceAngle": 0.0,
                        "faceCenterX": 0.0,
                        "faceCenterY": -3.1661975383758545,
                        "faceScaleX": 1.1881071329116821,
                        "faceScaleY": 1.1698365211486816,
                        "leftEye": [
                            10.509198188781738,
                            0.0,
                            1.248855471611023,
                            0.955650269985199,
                            0.0,
                            0.5093189477920532,
                            0.5093189477920532,
                            0.5903822779655457,
                            0.5903822779655457,
                            0.877403736114502,
                            0.7326273322105408,
                            0.5611792206764221,
                            0.5611792206764221,
                            0.0,
                            0.0,
                            0.0,
                            0.0,
                            0.0,
                            0.0
                        ],
                        "rightEye": [
                            -10.324445724487305,
                            0.0,
                            1.3838939666748047,
                            1.1144208908081055,
                            0.0,
                            0.5093189477920532,
                            0.5093189477920532,
                            0.5903822779655457,
                            0.5903822779655457,
                            0.877403736114502,
                            0.7326273322105408,
                            0.5611792206764221,
                            0.5611792206764221,
                            0.0,
                            0.0,
                            0.0,
                            0.0,
                            0.0,
                            0.0
                        ]
                    },
                    {
                        "triggerTime_ms": 4092,
                        "faceAngle": 0.0,
                        "faceCenterX": 0.0,
                        "faceCenterY": -4.128305435180664,
                        "faceScaleX": 1.17573881149292,
                        "faceScaleY": 1.154710054397583,
                        "leftEye": [
                            10.978034973144531,
                            0.0,
                            1.214332938194275,
                            0.9052804112434387,
                            0.0,
                            0.5,
                            0.5,
                            0.6220160722732544,
                            0.6220160722732544,
                            0.925589919090271,
                            0.715761125087738,
                            0.5700114369392395,
                            0.5700114369392395,
                            0.0,
                            0.0,
                            0.0,
                            0.0,
                            0.0,
                            0.0
                        ],
                        "rightEye": [
                            -12.09720516204834,
                            0.0,
                            1.2220369577407837,
                            0.9052804112434387,
                            0.0,
                            0.5,
                            0.5,
                            0.6220160722732544,
                            0.6220160722732544,
                            0.925589919090271,
                            0.715761125087738,
                            0.5700114369392395,
                            0.5700114369392395,
                            0.0,
                            0.0,
                            0.0,
                            0.0,
                            0.0,
                            0.0
                        ]
                    },
                    {
                        "triggerTime_ms": 4158,
                        "faceAngle": 0.0,
                        "faceCenterX": 0.0,
                        "faceCenterY": -1.0803816318511963,
                        "faceScaleX": 0.9017982482910156,
                        "faceScaleY": 0.9705616235733032,
                        "leftEye": [
                            10.341482162475586,
                            0.0,
                            1.214332938194275,
                            0.9052804112434387,
                            0.0,
                            0.5,
                            0.5,
                            0.5754369497299194,
                            0.5754369497299194,
                            0.7631227374076843,
                            0.6164720058441162,
                            0.5432848930358887,
                            0.5432848930358887,
                            0.0,
                            0.0,
                            0.0,
                            0.0,
                            0.0,
                            0.0
                        ],
                        "rightEye": [
                            -11.460113525390625,
                            0.0,
                            1.2220369577407837,
                            0.9052804112434387,
                            0.0,
                            0.5,
                            0.5,
                            0.5754369497299194,
                            0.5754369497299194,
                            0.7631227374076843,
                            0.6164720058441162,
                            0.5432848930358887,
                            0.5432848930358887,
                            0.0,
                            0.0,
                            0.0,
                            0.0,
                            0.0,
                            0.0
                        ]
                    },
                    {
                        "triggerTime_ms": 4257,
                        "faceAngle": 0.0,
                        "faceCenterX": 0.0,
                        "faceCenterY": 0.0,
                        "faceScaleX": 1.0,
                        "faceScaleY": 1.0,
                        "leftEye": [
                            9.169666290283203,
                            0.0,
                            1.214332938194275,
                            0.9052804112434387,
                            0.0,
                            0.5,
                            0.5,
                            0.5,
                            0.5,
                            0.5,
                            0.5,
                            0.5,
                            0.5,
                            0.0,
                            0.0,
                            0.0,
                            0.0,
                            0.0,
                            0.0
                        ],
                        "rightEye": [
                            -10.206374168395996,
                            0.0,
                            1.2220369577407837,
                            0.9052804112434387,
                            0.0,
                            0.5,
                            0.5,
                            0.5,
                            0.5,
                            0.5,
                            0.5,
                            0.5,
                            0.5,
                            0.0,
                            0.0,
                            0.0,
                            0.0,
                            0.0,
                            0.0
                        ]
                    }
                ],
                "HeadAngleKeyFrame": [
                    {
                        "triggerTime_ms": 0,
                        "durationTime_ms": 66,
                        "angle_deg": 0,
                        "angleVariability_deg": 0
                    },
                    {
                        "triggerTime_ms": 66,
                        "durationTime_ms": 99,
                        "angle_deg": -8,
                        "angleVariability_deg": 0
                    },
                    {
                        "triggerTime_ms": 165,
                        "durationTime_ms": 99,
                        "angle_deg": 20,
                        "angleVariability_deg": 0
                    },
                    {
                        "triggerTime_ms": 264,
                        "durationTime_ms": 66,
                        "angle_deg": 28,
                        "angleVariability_deg": 0
                    },
                    {
                        "triggerTime_ms": 330,
                        "durationTime_ms": 66,
                        "angle_deg": 31,
                        "angleVariability_deg": 0
                    },
                    {
                        "triggerTime_ms": 396,
                        "durationTime_ms": 66,
                        "angle_deg": 32,
                        "angleVariability_deg": 0
                    },
                    {
                        "triggerTime_ms": 1023,
                        "durationTime_ms": 99,
                        "angle_deg": 36,
                        "angleVariability_deg": 0
                    },
                    {
                        "triggerTime_ms": 2079,
                        "durationTime_ms": 66,
                        "angle_deg": 31,
                        "angleVariability_deg": 0
                    },
                    {
                        "triggerTime_ms": 2442,
                        "durationTime_ms": 99,
                        "angle_deg": 29,
                        "angleVariability_deg": 0
                    },
                    {
                        "triggerTime_ms": 2607,
                        "durationTime_ms": 165,
                        "angle_deg": 35,
                        "angleVariability_deg": 0
                    },
                    {
                        "triggerTime_ms": 2772,
                        "durationTime_ms": 264,
                        "angle_deg": 36,
                        "angleVariability_deg": 0
                    },
                    {
                        "triggerTime_ms": 3993,
                        "durationTime_ms": 132,
                        "angle_deg": 39,
                        "angleVariability_deg": 0
                    },
                    {
                        "triggerTime_ms": 4125,
                        "durationTime_ms": 99,
                        "angle_deg": 30,
                        "angleVariability_deg": 0
                    }
                ],
                "RobotAudioKeyFrame": [
                    {
                        "triggerTime_ms": 198,
                        "audioEventId": [
                            1701725212
                        ],
                        "volume": 1.0,
                        "probability": [
                            1.0
                        ],
                        "hasAlts": true
                    },
                    {
                        "triggerTime_ms": 561,
                        "audioEventId": [
                            2383960197
                        ],
                        "volume": 1.0,
                        "probability": [
                            1.0
                        ],
                        "hasAlts": true
                    },
                    {
                        "triggerTime_ms": 2442,
                        "audioEventId": [
                            3678808343
                        ],
                        "volume": 1.0,
                        "probability": [
                            1.0
                        ],
                        "hasAlts": true
                    },
                    {
                        "triggerTime_ms": 2541,
                        "audioEventId": [
                            2383960198
                        ],
                        "volume": 1.0,
                        "probability": [
                            1.0
                        ],
                        "hasAlts": true
                    },
                    {
                        "triggerTime_ms": 4026,
                        "audioEventId": [
                            3560778311
                        ],
                        "volume": 1.0,
                        "probability": [
                            1.0
                        ],
                        "hasAlts": true
                    }
                ],
                "BackpackLightsKeyFrame": [],
                "FaceAnimationKeyFrame": [],
                "EventKeyFrame": [],
                "BodyMotionKeyFrame": [
                    {
                        "triggerTime_ms": 99,
                        "durationTime_ms": 132,
                        "radius_mm": "STRAIGHT",
                        "speed": -49
                    },
                    {
                        "triggerTime_ms": 231,
                        "durationTime_ms": 165,
                        "radius_mm": "STRAIGHT",
                        "speed": 26
                    },
                    {
                        "triggerTime_ms": 396,
                        "durationTime_ms": 99,
                        "radius_mm": "STRAIGHT",
                        "speed": 9
                    },
                    {
                        "triggerTime_ms": 594,
                        "durationTime_ms": 165,
                        "radius_mm": "STRAIGHT",
                        "speed": 12
                    },
                    {
                        "triggerTime_ms": 759,
                        "durationTime_ms": 132,
                        "radius_mm": "STRAIGHT",
                        "speed": 12
                    },
                    {
                        "triggerTime_ms": 891,
                        "durationTime_ms": 132,
                        "radius_mm": "STRAIGHT",
                        "speed": 12
                    },
                    {
                        "triggerTime_ms": 1023,
                        "durationTime_ms": 132,
                        "radius_mm": "STRAIGHT",
                        "speed": 12
                    },
                    {
                        "triggerTime_ms": 1155,
                        "durationTime_ms": 132,
                        "radius_mm": "STRAIGHT",
                        "speed": 12
                    },
                    {
                        "triggerTime_ms": 1287,
                        "durationTime_ms": 132,
                        "radius_mm": "STRAIGHT",
                        "speed": 12
                    },
                    {
                        "triggerTime_ms": 1419,
                        "durationTime_ms": 132,
                        "radius_mm": "STRAIGHT",
                        "speed": 12
                    },
                    {
                        "triggerTime_ms": 1551,
                        "durationTime_ms": 132,
                        "radius_mm": "STRAIGHT",
                        "speed": 12
                    },
                    {
                        "triggerTime_ms": 1683,
                        "durationTime_ms": 132,
                        "radius_mm": "STRAIGHT",
                        "speed": 10
                    },
                    {
                        "triggerTime_ms": 1815,
                        "durationTime_ms": 132,
                        "radius_mm": "STRAIGHT",
                        "speed": 9
                    },
                    {
                        "triggerTime_ms": 1947,
                        "durationTime_ms": 132,
                        "radius_mm": "STRAIGHT",
                        "speed": 9
                    },
                    {
                        "triggerTime_ms": 2079,
                        "durationTime_ms": 132,
                        "radius_mm": "STRAIGHT",
                        "speed": 9
                    },
                    {
                        "triggerTime_ms": 2211,
                        "durationTime_ms": 132,
                        "radius_mm": "STRAIGHT",
                        "speed": 9
                    },
                    {
                        "triggerTime_ms": 2343,
                        "durationTime_ms": 132,
                        "radius_mm": "STRAIGHT",
                        "speed": 9
                    },
                    {
                        "triggerTime_ms": 2475,
                        "durationTime_ms": 132,
                        "radius_mm": "STRAIGHT",
                        "speed": 9
                    },
                    {
                        "triggerTime_ms": 2607,
                        "durationTime_ms": 132,
                        "radius_mm": "STRAIGHT",
                        "speed": 9
                    },
                    {
                        "triggerTime_ms": 2739,
                        "durationTime_ms": 132,
                        "radius_mm": "STRAIGHT",
                        "speed": 9
                    },
                    {
                        "triggerTime_ms": 2871,
                        "durationTime_ms": 132,
                        "radius_mm": "STRAIGHT",
                        "speed": 9
                    },
                    {
                        "triggerTime_ms": 3003,
                        "durationTime_ms": 132,
                        "radius_mm": "STRAIGHT",
                        "speed": 9
                    },
                    {
                        "triggerTime_ms": 3135,
                        "durationTime_ms": 132,
                        "radius_mm": "STRAIGHT",
                        "speed": 9
                    },
                    {
                        "triggerTime_ms": 3267,
                        "durationTime_ms": 132,
                        "radius_mm": "STRAIGHT",
                        "speed": 9
                    },
                    {
                        "triggerTime_ms": 3399,
                        "durationTime_ms": 132,
                        "radius_mm": "STRAIGHT",
                        "speed": 9
                    },
                    {
                        "triggerTime_ms": 3531,
                        "durationTime_ms": 132,
                        "radius_mm": "STRAIGHT",
                        "speed": 9
                    },
                    {
                        "triggerTime_ms": 3663,
                        "durationTime_ms": 132,
                        "radius_mm": "STRAIGHT",
                        "speed": 9
                    },
                    {
                        "triggerTime_ms": 3795,
                        "durationTime_ms": 66,
                        "radius_mm": "STRAIGHT",
                        "speed": 9
                    },
                    {
                        "triggerTime_ms": 3960,
                        "durationTime_ms": 198,
                        "radius_mm": "STRAIGHT",
                        "speed": -21
                    },
                    {
                        "triggerTime_ms": 4158,
                        "durationTime_ms": 132,
                        "radius_mm": "STRAIGHT",
                        "speed": -4
                    }
                ],
                "RecordHeadingKeyFrame": [],
                "TurnToRecordedHeadingKeyFrame": []
            }
        }
    ]
}