{
    "clips": [
        {
            "Name": "anim_peekaboo_getin_01",
            "keyframes": {
                "LiftHeightKeyFrame": [
                    {
                        "triggerTime_ms": 0,
                        "durationTime_ms": 198,
                        "height_mm": 0,
                        "heightVariability_mm": 0
                    },
                    {
                        "triggerTime_ms": 1650,
                        "durationTime_ms": 132,
                        "height_mm": 41,
                        "heightVariability_mm": 0
                    },
                    {
                        "triggerTime_ms": 1782,
                        "durationTime_ms": 99,
                        "height_mm": 0,
                        "heightVariability_mm": 0
                    }
                ],
                "ProceduralFaceKeyFrame": [
                    {
                        "triggerTime_ms": 0,
                        "faceAngle": 0.0,
                        "faceCenterX": 0.0,
                        "faceCenterY": 0.0,
                        "faceScaleX": 1.0,
                        "faceScaleY": 1.0,
                        "leftEye": [
                            9.169666290283203,
                            0.0,
                            1.214332938194275,
                            0.9052804112434387,
                            0.0,
                            0.5,
                            0.5,
                            0.5,
                            0.5,
                            0.5,
                            0.5,
                            0.5,
                            0.5,
                            0.0,
                            0.0,
                            0.0,
                            0.0,
                            0.0,
                            0.0
                        ],
                        "rightEye": [
                            -10.206374168395996,
                            0.0,
                            1.2220369577407837,
                            0.9052804112434387,
                            0.0,
                            0.5,
                            0.5,
                            0.5,
                            0.5,
                            0.5,
                            0.5,
                            0.5,
                            0.5,
                            0.0,
                            0.0,
                            0.0,
                            0.0,
                            0.0,
                            0.0
                        ]
                    },
                    {
                        "triggerTime_ms": 198,
                        "faceAngle": 0.0,
                        "faceCenterX": 0.0,
                        "faceCenterY": 0.0,
                        "faceScaleX": 1.0,
                        "faceScaleY": 1.0,
                        "leftEye": [
                            9.169666290283203,
                            0.0,
                            1.214332938194275,
                            0.9052804112434387,
                            0.0,
                            0.5,
                            0.5,
                            0.5,
                            0.5,
                            0.5,
                            0.5,
                            0.5,
                            0.5,
                            0.0,
                            0.0,
                            0.0,
                            0.0,
                            0.0,
                            0.0
                        ],
                        "rightEye": [
                            -10.206374168395996,
                            0.0,
                            1.2220369577407837,
                            0.9052804112434387,
                            0.0,
                            0.5,
                            0.5,
                            0.5,
                            0.5,
                            0.5,
                            0.5,
                            0.5,
                            0.5,
                            0.0,
                            0.0,
                            0.0,
                            0.0,
                            0.0,
                            0.0
                        ]
                    },
                    {
                        "triggerTime_ms": 264,
                        "faceAngle": 0.0,
                        "faceCenterX": 0.0,
                        "faceCenterY": 0.0,
                        "faceScaleX": 1.080149531364441,
                        "faceScaleY": 0.8849018812179565,
                        "leftEye": [
                            9.586440086364746,
                            0.0,
                            1.214332938194275,
                            0.9052804112434387,
                            0.0,
                            0.34837284684181213,
                            0.34837284684181213,
                            0.49028030037879944,
                            0.49028030037879944,
                            0.49028030037879944,
                            0.49028030037879944,
                            0.34837284684181213,
                            0.34837284684181213,
                            0.0,
                            0.0,
                            0.0,
                            0.0,
                            0.0,
                            0.0
                        ],
                        "rightEye": [
                            -10.6421537399292,
                            0.0,
                            1.2220369577407837,
                            0.9052804112434387,
                            0.0,
                            0.34837284684181213,
                            0.34837284684181213,
                            0.49028030037879944,
                            0.49028030037879944,
                            0.49028030037879944,
                            0.49028030037879944,
                            0.34837284684181213,
                            0.34837284684181213,
                            0.0,
                            0.0,
                            0.0,
                            0.0,
                            0.0,
                            0.0
                        ]
                    },
                    {
                        "triggerTime_ms": 330,
                        "faceAngle": 0.0,
                        "faceCenterX": 0.0,
                        "faceCenterY": 12.598304748535156,
                        "faceScaleX": 1.3122977018356323,
                        "faceScaleY": 0.31456688046455383,
                        "leftEye": [
                            10.90282917022705,
                            -0.0063441419042646885,
                            1.3098118305206299,
                            0.9004774689674377,
                            0.0,
                            0.0717858299612999,
                            0.0717858299612999,
                            0.7581016421318054,
                            0.7581016421318054,
                            0.7581016421318054,
                            0.7581016421318054,
                            0.0717858299612999,
                            0.0717858299612999,
                            0.0,
                            0.0,
                            0.0,
                            0.0,
                            0.0,
                            0.0
                        ],
                        "rightEye": [
                            -9.33108901977539,
                            -0.4735935926437378,
                            1.3209477663040161,
                            0.9269601106643677,
                            0.0,
                            0.07004214078187943,
                            0.07004214078187943,
                            0.7471356987953186,
                            0.7471356987953186,
                            0.7471356987953186,
                            0.7471356987953186,
                            0.07004214078187943,
                            0.07004214078187943,
                            0.0,
                            0.0,
                            0.0,
                            0.0,
                            0.0,
                            0.0
                        ]
                    },
                    {
                        "triggerTime_ms": 363,
                        "faceAngle": 0.0,
                        "faceCenterX": 0.026650549843907356,
                        "faceCenterY": 13.311415672302246,
                        "faceScaleX": 1.1050723791122437,
                        "faceScaleY": 0.5430445671081543,
                        "leftEye": [
                            13.204646110534668,
                            -0.009167284704744816,
                            1.2673237323760986,
                            0.8983402252197266,
                            0.0,
                            0.27181264758110046,
                            0.27181264758110046,
                            0.6527178883552551,
                            0.6527178883552551,
                            0.6527178883552551,
                            0.6527178883552551,
                            0.27181264758110046,
                            0.27181264758110046,
                            0.0,
                            0.0,
                            0.0,
                            0.0,
                            0.0,
                            0.0
                        ],
                        "rightEye": [
                            -7.341233730316162,
                            -0.6843427419662476,
                            1.2769324779510498,
                            0.9610059261322021,
                            0.0,
                            0.22726595401763916,
                            0.22726595401763916,
                            0.6030529141426086,
                            0.6030529141426086,
                            0.6030529141426086,
                            0.6030529141426086,
                            0.22726595401763916,
                            0.22726595401763916,
                            0.0,
                            0.0,
                            0.0,
                            0.0,
                            0.0,
                            0.0
                        ]
                    },
                    {
                        "triggerTime_ms": 396,
                        "faceAngle": 0.0,
                        "faceCenterX": 0.05330109968781471,
                        "faceCenterY": 10.9676513671875,
                        "faceScaleX": 0.8978469371795654,
                        "faceScaleY": 0.7715222835540771,
                        "leftEye": [
                            16.075450897216797,
                            -0.012688283808529377,
                            1.214332938194275,
                            0.8956745862960815,
                            0.0,
                            0.521284282207489,
                            0.521284282207489,
                            0.521284282207489,
                            0.521284282207489,
                            0.521284282207489,
                            0.521284282207489,
                            0.521284282207489,
                            0.521284282207489,
                            0.0,
                            0.0,
                            0.0,
                            0.0,
                            0.0,
                            0.0
                        ],
                        "rightEye": [
                            -4.859504699707031,
                            -0.9471871852874756,
                            1.2220369577407837,
                            1.0034676790237427,
                            0.0,
                            0.4233540892601013,
                            0.4233540892601013,
                            0.4233540892601013,
                            0.4233540892601013,
                            0.4233540892601013,
                            0.4233540892601013,
                            0.4233540892601013,
                            0.4233540892601013,
                            0.0,
                            0.0,
                            0.0,
                            0.0,
                            0.0,
                            0.0
                        ]
                    },
                    {
                        "triggerTime_ms": 429,
                        "faceAngle": 0.0,
                        "faceCenterX": 0.12565019726753235,
                        "faceCenterY": 8.62388801574707,
                        "faceScaleX": 0.913808286190033,
                        "faceScaleY": 1.0,
                        "leftEye": [
                            16.075450897216797,
                            -0.012688283808529377,
                            1.214332938194275,
                            0.8956745862960815,
                            0.0,
                            0.521284282207489,
                            0.521284282207489,
                            0.521284282207489,
                            0.521284282207489,
                            0.521284282207489,
                            0.521284282207489,
                            0.521284282207489,
                            0.521284282207489,
                            0.0,
                            0.0,
                            0.0,
                            0.0,
                            0.0,
                            0.0
                        ],
                        "rightEye": [
                            -4.859504699707031,
                            -0.9471871852874756,
                            1.2220369577407837,
                            1.0034676790237427,
                            0.0,
                            0.4233540892601013,
                            0.4233540892601013,
                            0.4233540892601013,
                            0.4233540892601013,
                            0.4233540892601013,
                            0.4233540892601013,
                            0.4233540892601013,
                            0.4233540892601013,
                            0.0,
                            0.0,
                            0.0,
                            0.0,
                            0.0,
                            0.0
                        ]
                    },
                    {
                        "triggerTime_ms": 462,
                        "faceAngle": 0.0,
                        "faceCenterX": 0.16506218910217285,
                        "faceCenterY": 7.614861011505127,
                        "faceScaleX": 0.9310466647148132,
                        "faceScaleY": 1.0,
                        "leftEye": [
                            16.075450897216797,
                            -0.012688283808529377,
                            1.214332938194275,
                            0.8956745862960815,
                            0.0,
                            0.521284282207489,
                            0.521284282207489,
                            0.521284282207489,
                            0.521284282207489,
                            0.521284282207489,
                            0.521284282207489,
                            0.521284282207489,
                            0.521284282207489,
                            0.0,
                            0.0,
                            0.0,
                            0.0,
                            0.0,
                            0.0
                        ],
                        "rightEye": [
                            -4.859504699707031,
                            -0.9471871852874756,
                            1.2220369577407837,
                            1.0034676790237427,
                            0.0,
                            0.4233540892601013,
                            0.4233540892601013,
                            0.4233540892601013,
                            0.4233540892601013,
                            0.4233540892601013,
                            0.4233540892601013,
                            0.4233540892601013,
                            0.4233540892601013,
                            0.0,
                            0.0,
                            0.0,
                            0.0,
                            0.0,
                            0.0
                        ]
                    },
                    {
                        "triggerTime_ms": 594,
                        "faceAngle": 0.0,
                        "faceCenterX": 0.3227101266384125,
                        "faceCenterY": 7.614861011505127,
                        "faceScaleX": 1.0,
                        "faceScaleY": 1.0,
                        "leftEye": [
                            16.075450897216797,
                            -0.012688283808529377,
                            1.214332938194275,
                            0.8956745862960815,
                            0.0,
                            0.521284282207489,
                            0.521284282207489,
                            0.521284282207489,
                            0.521284282207489,
                            0.521284282207489,
                            0.521284282207489,
                            0.521284282207489,
                            0.521284282207489,
                            0.0,
                            0.0,
                            0.0,
                            0.0,
                            0.0,
                            0.0
                        ],
                        "rightEye": [
                            -4.859504699707031,
                            -0.9471871852874756,
                            1.2220369577407837,
                            1.0034676790237427,
                            0.0,
                            0.4233540892601013,
                            0.4233540892601013,
                            0.4233540892601013,
                            0.4233540892601013,
                            0.4233540892601013,
                            0.4233540892601013,
                            0.4233540892601013,
                            0.4233540892601013,
                            0.0,
                            0.0,
                            0.0,
                            0.0,
                            0.0,
                            0.0
                        ]
                    },
                    {
                        "triggerTime_ms": 693,
                        "faceAngle": 0.0,
                        "faceCenterX": 0.3227101266384125,
                        "faceCenterY": 7.614861011505127,
                        "faceScaleX": 1.0,
                        "faceScaleY": 1.0,
                        "leftEye": [
                            16.075450897216797,
                            -0.012688283808529377,
                            1.214332938194275,
                            0.8956745862960815,
                            0.0,
                            0.521284282207489,
                            0.521284282207489,
                            0.521284282207489,
                            0.521284282207489,
                            0.521284282207489,
                            0.521284282207489,
                            0.521284282207489,
                            0.521284282207489,
                            0.0,
                            0.0,
                            0.0,
                            0.0,
                            0.0,
                            0.0
                        ],
                        "rightEye": [
                            -4.859504699707031,
                            -0.9471871852874756,
                            1.2220369577407837,
                            1.0034676790237427,
                            0.0,
                            0.4233540892601013,
                            0.4233540892601013,
                            0.4233540892601013,
                            0.4233540892601013,
                            0.4233540892601013,
                            0.4233540892601013,
                            0.4233540892601013,
                            0.4233540892601013,
                            0.0,
                            0.0,
                            0.0,
                            0.0,
                            0.0,
                            0.0
                        ]
                    },
                    {
                        "triggerTime_ms": 726,
                        "faceAngle": 0.0,
                        "faceCenterX": 2.03774094581604,
                        "faceCenterY": 8.711543083190918,
                        "faceScaleX": 1.055167317390442,
                        "faceScaleY": 0.9769715070724487,
                        "leftEye": [
                            16.075450897216797,
                            -0.012688283808529377,
                            1.214332938194275,
                            0.8891715407371521,
                            0.0,
                            0.5442966818809509,
                            0.5442966818809509,
                            0.5442966818809509,
                            0.5442966818809509,
                            0.5442966818809509,
                            0.5442966818809509,
                            0.5442966818809509,
                            0.5442966818809509,
                            0.0,
                            0.0,
                            0.0,
                            0.0,
                            0.0,
                            0.0
                        ],
                        "rightEye": [
                            -4.859504699707031,
                            -0.9471871852874756,
                            1.2220369577407837,
                            1.039829134941101,
                            0.0,
                            0.45324599742889404,
                            0.45324599742889404,
                            0.45324599742889404,
                            0.45324599742889404,
                            0.45324599742889404,
                            0.45324599742889404,
                            0.45324599742889404,
                            0.45324599742889404,
                            0.0,
                            0.0,
                            0.0,
                            0.0,
                            0.0,
                            0.0
                        ]
                    },
                    {
                        "triggerTime_ms": 759,
                        "faceAngle": 0.0,
                        "faceCenterX": 2.1416330337524414,
                        "faceCenterY": 8.91002082824707,
                        "faceScaleX": 1.0275837182998657,
                        "faceScaleY": 1.0,
                        "leftEye": [
                            16.075450897216797,
                            -0.012688283808529377,
                            1.214332938194275,
                            0.8891715407371521,
                            0.0,
                            0.5802903771400452,
                            0.5802903771400452,
                            0.5802903771400452,
                            0.5802903771400452,
                            0.5802903771400452,
                            0.5802903771400452,
                            0.5802903771400452,
                            0.5802903771400452,
                            0.0,
                            0.0,
                            0.0,
                            0.0,
                            0.0,
                            0.0
                        ],
                        "rightEye": [
                            -4.859504699707031,
                            -0.9471871852874756,
                            1.2220369577407837,
                            1.039829134941101,
                            0.0,
                            0.5,
                            0.5,
                            0.5,
                            0.5,
                            0.5,
                            0.5,
                            0.5,
                            0.5,
                            0.0,
                            0.0,
                            0.0,
                            0.0,
                            0.0,
                            0.0
                        ]
                    },
                    {
                        "triggerTime_ms": 891,
                        "faceAngle": 0.0,
                        "faceCenterX": 2.1416330337524414,
                        "faceCenterY": 8.91002082824707,
                        "faceScaleX": 1.0,
                        "faceScaleY": 1.0,
                        "leftEye": [
                            16.075450897216797,
                            -0.012688283808529377,
                            1.214332938194275,
                            0.8891715407371521,
                            0.0,
                            0.5802903771400452,
                            0.5802903771400452,
                            0.5802903771400452,
                            0.5802903771400452,
                            0.5802903771400452,
                            0.5802903771400452,
                            0.5802903771400452,
                            0.5802903771400452,
                            0.0,
                            0.0,
                            0.0,
                            0.0,
                            0.0,
                            0.0
                        ],
                        "rightEye": [
                            -4.859504699707031,
                            -0.9471871852874756,
                            1.2220369577407837,
                            1.039829134941101,
                            0.0,
                            0.5,
                            0.5,
                            0.5,
                            0.5,
                            0.5,
                            0.5,
                            0.5,
                            0.5,
                            0.0,
                            0.0,
                            0.0,
                            0.0,
                            0.0,
                            0.0
                        ]
                    },
                    {
                        "triggerTime_ms": 1122,
                        "faceAngle": 0.0,
                        "faceCenterX": 2.1416330337524414,
                        "faceCenterY": 8.91002082824707,
                        "faceScaleX": 1.0,
                        "faceScaleY": 1.0,
                        "leftEye": [
                            16.075450897216797,
                            -0.012688283808529377,
                            1.214332938194275,
                            0.8891715407371521,
                            0.0,
                            0.5802903771400452,
                            0.5802903771400452,
                            0.5802903771400452,
                            0.5802903771400452,
                            0.5802903771400452,
                            0.5802903771400452,
                            0.5802903771400452,
                            0.5802903771400452,
                            0.0,
                            0.0,
                            0.0,
                            0.0,
                            0.0,
                            0.0
                        ],
                        "rightEye": [
                            -4.859504699707031,
                            -0.9471871852874756,
                            1.2220369577407837,
                            1.039829134941101,
                            0.0,
                            0.5,
                            0.5,
                            0.5,
                            0.5,
                            0.5,
                            0.5,
                            0.5,
                            0.5,
                            0.0,
                            0.0,
                            0.0,
                            0.0,
                            0.0,
                            0.0
                        ]
                    },
                    {
                        "triggerTime_ms": 1155,
                        "faceAngle": 0.0,
                        "faceCenterX": 2.1416330337524414,
                        "faceCenterY": 8.91002082824707,
                        "faceScaleX": 0.9808482527732849,
                        "faceScaleY": 1.1086087226867676,
                        "leftEye": [
                            16.075450897216797,
                            -0.012688283808529377,
                            1.214332938194275,
                            0.8891715407371521,
                            0.0,
                            0.5802903771400452,
                            0.5802903771400452,
                            0.5802903771400452,
                            0.5802903771400452,
                            0.5802903771400452,
                            0.5802903771400452,
                            0.5802903771400452,
                            0.5802903771400452,
                            0.0,
                            0.0,
                            0.0,
                            0.0,
                            0.0,
                            0.0
                        ],
                        "rightEye": [
                            -4.859504699707031,
                            -0.9471871852874756,
                            1.2220369577407837,
                            1.039829134941101,
                            0.0,
                            0.5,
                            0.5,
                            0.5,
                            0.5,
                            0.5,
                            0.5,
                            0.5,
                            0.5,
                            0.0,
                            0.0,
                            0.0,
                            0.0,
                            0.0,
                            0.0
                        ]
                    },
                    {
                        "triggerTime_ms": 1188,
                        "faceAngle": 0.0,
                        "faceCenterX": -2.1587390899658203,
                        "faceCenterY": 14.95720100402832,
                        "faceScaleX": 1.1030704975128174,
                        "faceScaleY": 0.6675513982772827,
                        "leftEye": [
                            14.878311157226562,
                            -0.012688283808529377,
                            1.328822135925293,
                            0.8891715407371521,
                            0.0,
                            0.5802903771400452,
                            0.5802903771400452,
                            0.5802903771400452,
                            0.5802903771400452,
                            0.5802903771400452,
                            0.5802903771400452,
                            0.5802903771400452,
                            0.5802903771400452,
                            0.0,
                            0.0,
                            0.0,
                            0.0,
                            0.0,
                            0.0
                        ],
                        "rightEye": [
                            -7.005326747894287,
                            -0.9471871852874756,
                            1.2220369577407837,
                            1.039829134941101,
                            0.0,
                            0.5,
                            0.5,
                            0.5,
                            0.5,
                            0.5,
                            0.5,
                            0.5,
                            0.5,
                            0.0,
                            0.0,
                            0.0,
                            0.0,
                            0.0,
                            0.0
                        ]
                    },
                    {
                        "triggerTime_ms": 1254,
                        "faceAngle": 0.0,
                        "faceCenterX": 0.0,
                        "faceCenterY": 4.838281631469727,
                        "faceScaleX": 0.9671313166618347,
                        "faceScaleY": 1.1841764450073242,
                        "leftEye": [
                            10.56230640411377,
                            0.21952712535858154,
                            1.214332938194275,
                            0.8440892100334167,
                            0.0,
                            0.5,
                            0.5,
                            0.5,
                            0.5,
                            0.5,
                            0.5,
                            0.5,
                            0.5,
                            0.0,
                            0.0,
                            0.0,
                            0.0,
                            0.0,
                            0.0
                        ],
                        "rightEye": [
                            -11.861733436584473,
                            0.0,
                            1.2220369577407837,
                            0.9052804112434387,
                            0.0,
                            0.5,
                            0.5,
                            0.5,
                            0.5,
                            0.5,
                            0.5,
                            0.5,
                            0.5,
                            0.0,
                            0.0,
                            0.0,
                            0.0,
                            0.0,
                            0.0
                        ]
                    },
                    {
                        "triggerTime_ms": 1287,
                        "faceAngle": 0.0,
                        "faceCenterX": 0.0,
                        "faceCenterY": 3.8544976711273193,
                        "faceScaleX": 0.9720034599304199,
                        "faceScaleY": 1.1627960205078125,
                        "leftEye": [
                            10.653018951416016,
                            0.21952712535858154,
                            1.214332938194275,
                            0.8440892100334167,
                            0.0,
                            0.5,
                            0.5,
                            0.5,
                            0.5,
                            0.5,
                            0.5,
                            0.5,
                            0.5,
                            0.0,
                            0.0,
                            0.0,
                            0.0,
                            0.0,
                            0.0
                        ],
                        "rightEye": [
                            -11.740303993225098,
                            0.0,
                            1.2220369577407837,
                            0.9052804112434387,
                            0.0,
                            0.5,
                            0.5,
                            0.5,
                            0.5,
                            0.5,
                            0.5,
                            0.5,
                            0.5,
                            0.0,
                            0.0,
                            0.0,
                            0.0,
                            0.0,
                            0.0
                        ]
                    },
                    {
                        "triggerTime_ms": 1353,
                        "faceAngle": 0.0,
                        "faceCenterX": 0.0,
                        "faceCenterY": 0.0,
                        "faceScaleX": 0.9910925626754761,
                        "faceScaleY": 1.079026460647583,
                        "leftEye": [
                            10.834444046020508,
                            0.21952712535858154,
                            1.214332938194275,
                            0.8440892100334167,
                            0.0,
                            0.5,
                            0.5,
                            0.5,
                            0.5,
                            0.5,
                            0.5,
                            0.5,
                            0.5,
                            0.0,
                            0.0,
                            0.0,
                            0.0,
                            0.0,
                            0.0
                        ],
                        "rightEye": [
                            -11.26453971862793,
                            0.0,
                            1.2220369577407837,
                            0.9052804112434387,
                            0.0,
                            0.5,
                            0.5,
                            0.5,
                            0.5,
                            0.5,
                            0.5,
                            0.5,
                            0.5,
                            0.0,
                            0.0,
                            0.0,
                            0.0,
                            0.0,
                            0.0
                        ]
                    },
                    {
                        "triggerTime_ms": 1551,
                        "faceAngle": 0.0,
                        "faceCenterX": 0.0,
                        "faceCenterY": 0.0,
                        "faceScaleX": 0.9910925626754761,
                        "faceScaleY": 1.079026460647583,
                        "leftEye": [
                            10.834444046020508,
                            0.21952712535858154,
                            1.214332938194275,
                            0.8440892100334167,
                            0.0,
                            0.5,
                            0.5,
                            0.5,
                            0.5,
                            0.5,
                            0.5,
                            0.5,
                            0.5,
                            0.0,
                            0.0,
                            0.0,
                            0.0,
                            0.0,
                            0.0
                        ],
                        "rightEye": [
                            -11.26453971862793,
                            0.0,
                            1.2220369577407837,
                            0.9052804112434387,
                            0.0,
                            0.5,
                            0.5,
                            0.5,
                            0.5,
                            0.5,
                            0.5,
                            0.5,
                            0.5,
                            0.0,
                            0.0,
                            0.0,
                            0.0,
                            0.0,
                            0.0
                        ]
                    },
                    {
                        "triggerTime_ms": 1584,
                        "faceAngle": 0.0,
                        "faceCenterX": 0.0,
                        "faceCenterY": 0.0,
                        "faceScaleX": 0.9087265133857727,
                        "faceScaleY": 1.1466447114944458,
                        "leftEye": [
                            11.759709358215332,
                            0.0,
                            1.214332938194275,
                            0.9052804112434387,
                            0.0,
                            0.5,
                            0.5,
                            0.5,
                            0.5,
                            0.5,
                            0.5,
                            0.5,
                            0.5,
                            0.0,
                            0.0,
                            0.0,
                            0.0,
                            0.0,
                            0.0
                        ],
                        "rightEye": [
                            -11.26453971862793,
                            0.0,
                            1.2220369577407837,
                            0.9052804112434387,
                            0.0,
                            0.5,
                            0.5,
                            0.5,
                            0.5,
                            0.5,
                            0.5,
                            0.5,
                            0.5,
                            0.0,
                            0.0,
                            0.0,
                            0.0,
                            0.0,
                            0.0
                        ]
                    },
                    {
                        "triggerTime_ms": 1617,
                        "faceAngle": 0.0,
                        "faceCenterX": 0.0,
                        "faceCenterY": 0.9910935163497925,
                        "faceScaleX": 1.05900239944458,
                        "faceScaleY": 0.635177493095398,
                        "leftEye": [
                            9.169666290283203,
                            0.0,
                            1.3680773973464966,
                            0.9052804112434387,
                            0.0,
                            0.5,
                            0.5,
                            0.5,
                            0.5,
                            0.5,
                            0.5,
                            0.5,
                            0.5,
                            0.0,
                            0.0,
                            0.0,
                            0.0,
                            0.0,
                            0.0
                        ],
                        "rightEye": [
                            -10.206374168395996,
                            0.0,
                            1.5785222053527832,
                            0.9052804112434387,
                            0.0,
                            0.5,
                            0.5,
                            0.5,
                            0.5,
                            0.5,
                            0.5,
                            0.5,
                            0.5,
                            0.0,
                            0.0,
                            0.0,
                            0.0,
                            0.0,
                            0.0
                        ]
                    },
                    {
                        "triggerTime_ms": 1650,
                        "faceAngle": 0.0,
                        "faceCenterX": 0.0,
                        "faceCenterY": 14.501934051513672,
                        "faceScaleX": 1.2387584447860718,
                        "faceScaleY": 0.07466530054807663,
                        "leftEye": [
                            9.169666290283203,
                            0.0,
                            1.558449149131775,
                            0.9052804112434387,
                            0.0,
                            0.5,
                            0.5,
                            0.5,
                            0.5,
                            0.5,
                            0.5,
                            0.5,
                            0.5,
                            0.0,
                            0.0,
                            0.0,
                            0.0,
                            0.0,
                            0.0
                        ],
                        "rightEye": [
                            -10.206374168395996,
                            0.0,
                            1.3680742979049683,
                            0.9052804112434387,
                            0.0,
                            0.5,
                            0.5,
                            0.5,
                            0.5,
                            0.5,
                            0.5,
                            0.5,
                            0.5,
                            0.0,
                            0.0,
                            0.0,
                            0.0,
                            0.0,
                            0.0
                        ]
                    },
                    {
                        "triggerTime_ms": 1683,
                        "faceAngle": 0.0,
                        "faceCenterX": 0.0,
                        "faceCenterY": 20.07672119140625,
                        "faceScaleX": 1.818399429321289,
                        "faceScaleY": 0.07466530054807663,
                        "leftEye": [
                            9.53098201751709,
                            0.0,
                            1.558449149131775,
                            0.9052804112434387,
                            0.0,
                            0.5,
                            0.5,
                            0.5,
                            0.5,
                            0.5,
                            0.5,
                            0.5,
                            0.5,
                            0.0,
                            0.0,
                            0.0,
                            0.0,
                            0.0,
                            0.0
                        ],
                        "rightEye": [
                            -10.39145278930664,
                            0.0,
                            1.3322950601577759,
                            0.9052804112434387,
                            0.0,
                            0.5,
                            0.5,
                            0.5,
                            0.5,
                            0.5,
                            0.5,
                            0.5,
                            0.5,
                            0.0,
                            0.0,
                            0.0,
                            0.0,
                            0.0,
                            0.0
                        ]
                    },
                    {
                        "triggerTime_ms": 1716,
                        "faceAngle": 0.0,
                        "faceCenterX": 0.0,
                        "faceCenterY": 15.380037307739258,
                        "faceScaleX": 1.176682472229004,
                        "faceScaleY": 0.42043358087539673,
                        "leftEye": [
                            9.892297744750977,
                            0.0,
                            1.355303168296814,
                            0.9052804112434387,
                            0.0,
                            0.5,
                            0.5,
                            0.5,
                            0.5,
                            0.5,
                            0.5,
                            0.5,
                            0.5,
                            0.0,
                            0.0,
                            0.0,
                            0.0,
                            0.0,
                            0.0
                        ],
                        "rightEye": [
                            -10.961795806884766,
                            0.0,
                            1.2220369577407837,
                            0.9052804112434387,
                            0.0,
                            0.5,
                            0.5,
                            0.5,
                            0.5,
                            0.5,
                            0.5,
                            0.5,
                            0.5,
                            0.0,
                            0.0,
                            0.0,
                            0.0,
                            0.0,
                            0.0
                        ]
                    },
                    {
                        "triggerTime_ms": 1848,
                        "faceAngle": 0.0,
                        "faceCenterX": 0.0,
                        "faceCenterY": 5.328335285186768,
                        "faceScaleX": 0.9145689606666565,
                        "faceScaleY": 1.0977808237075806,
                        "leftEye": [
                            10.374053001403809,
                            0.0,
                            1.214332938194275,
                            0.9052804112434387,
                            0.0,
                            0.5,
                            0.5,
                            0.5,
                            0.5,
                            0.5,
                            0.5,
                            0.5,
                            0.5,
                            0.0,
                            0.0,
                            0.0,
                            0.0,
                            0.0,
                            0.0
                        ],
                        "rightEye": [
                            -11.394904136657715,
                            0.0,
                            1.2220369577407837,
                            0.9052804112434387,
                            0.0,
                            0.5,
                            0.5,
                            0.5,
                            0.5,
                            0.5,
                            0.5,
                            0.5,
                            0.5,
                            0.0,
                            0.0,
                            0.0,
                            0.0,
                            0.0,
                            0.0
                        ]
                    },
                    {
                        "triggerTime_ms": 1914,
                        "faceAngle": 0.0,
                        "faceCenterX": 0.0,
                        "faceCenterY": 3.4367763996124268,
                        "faceScaleX": 0.951551079750061,
                        "faceScaleY": 1.054674506187439,
                        "leftEye": [
                            10.614930152893066,
                            0.0,
                            1.214332938194275,
                            0.9052804112434387,
                            0.0,
                            0.5,
                            0.5,
                            0.5,
                            0.5,
                            0.5,
                            0.5,
                            0.5,
                            0.5,
                            0.0,
                            0.0,
                            0.0,
                            0.0,
                            0.0,
                            0.0
                        ],
                        "rightEye": [
                            -11.717217445373535,
                            0.0,
                            1.2220369577407837,
                            0.9052804112434387,
                            0.0,
                            0.5,
                            0.5,
                            0.5,
                            0.5,
                            0.5,
                            0.5,
                            0.5,
                            0.5,
                            0.0,
                            0.0,
                            0.0,
                            0.0,
                            0.0,
                            0.0
                        ]
                    },
                    {
                        "triggerTime_ms": 1980,
                        "faceAngle": 0.0,
                        "faceCenterX": 0.0,
                        "faceCenterY": 0.0,
                        "faceScaleX": 1.0187441110610962,
                        "faceScaleY": 0.9763545989990234,
                        "leftEye": [
                            9.704826354980469,
                            0.0,
                            1.214332938194275,
                            0.9052804112434387,
                            0.0,
                            0.5,
                            0.5,
                            0.5,
                            0.5,
                            0.5,
                            0.5,
                            0.5,
                            0.5,
                            0.0,
                            0.0,
                            0.0,
                            0.0,
                            0.0,
                            0.0
                        ],
                        "rightEye": [
                            -10.580435752868652,
                            0.0,
                            1.2220369577407837,
                            0.9052804112434387,
                            0.0,
                            0.5,
                            0.5,
                            0.5,
                            0.5,
                            0.5,
                            0.5,
                            0.5,
                            0.5,
                            0.0,
                            0.0,
                            0.0,
                            0.0,
                            0.0,
                            0.0
                        ]
                    },
                    {
                        "triggerTime_ms": 2079,
                        "faceAngle": 0.0,
                        "faceCenterX": 0.0,
                        "faceCenterY": 0.0,
                        "faceScaleX": 1.0,
                        "faceScaleY": 1.0,
                        "leftEye": [
                            9.169666290283203,
                            0.0,
                            1.214332938194275,
                            0.9052804112434387,
                            0.0,
                            0.5,
                            0.5,
                            0.5,
                            0.5,
                            0.5,
                            0.5,
                            0.5,
                            0.5,
                            0.0,
                            0.0,
                            0.0,
                            0.0,
                            0.0,
                            0.0
                        ],
                        "rightEye": [
                            -10.206374168395996,
                            0.0,
                            1.2220369577407837,
                            0.9052804112434387,
                            0.0,
                            0.5,
                            0.5,
                            0.5,
                            0.5,
                            0.5,
                            0.5,
                            0.5,
                            0.5,
                            0.0,
                            0.0,
                            0.0,
                            0.0,
                            0.0,
                            0.0
                        ]
                    },
                    {
                        "triggerTime_ms": 2310,
                        "faceAngle": 0.0,
                        "faceCenterX": 0.0,
                        "faceCenterY": 0.0,
                        "faceScaleX": 1.0,
                        "faceScaleY": 1.0,
                        "leftEye": [
                            9.169666290283203,
                            0.0,
                            1.214332938194275,
                            0.9052804112434387,
                            0.0,
                            0.5,
                            0.5,
                            0.5,
                            0.5,
                            0.5,
                            0.5,
                            0.5,
                            0.5,
                            0.0,
                            0.0,
                            0.0,
                            0.0,
                            0.0,
                            0.0
                        ],
                        "rightEye": [
                            -10.206374168395996,
                            0.0,
                            1.2220369577407837,
                            0.9052804112434387,
                            0.0,
                            0.5,
                            0.5,
                            0.5,
                            0.5,
                            0.5,
                            0.5,
                            0.5,
                            0.5,
                            0.0,
                            0.0,
                            0.0,
                            0.0,
                            0.0,
                            0.0
                        ]
                    }
                ],
                "HeadAngleKeyFrame": [
                    {
                        "triggerTime_ms": 0,
                        "durationTime_ms": 198,
                        "angle_deg": 0,
                        "angleVariability_deg": 0
                    },
                    {
                        "triggerTime_ms": 264,
                        "durationTime_ms": 99,
                        "angle_deg": -15,
                        "angleVariability_deg": 0
                    },
                    {
                        "triggerTime_ms": 363,
                        "durationTime_ms": 165,
                        "angle_deg": -10,
                        "angleVariability_deg": 0
                    },
                    {
                        "triggerTime_ms": 1155,
                        "durationTime_ms": 66,
                        "angle_deg": -15,
                        "angleVariability_deg": 0
                    },
                    {
                        "triggerTime_ms": 1221,
                        "durationTime_ms": 132,
                        "angle_deg": 4,
                        "angleVariability_deg": 0
                    },
                    {
                        "triggerTime_ms": 1353,
                        "durationTime_ms": 165,
                        "angle_deg": 6,
                        "angleVariability_deg": 0
                    },
                    {
                        "triggerTime_ms": 1518,
                        "durationTime_ms": 99,
                        "angle_deg": 5,
                        "angleVariability_deg": 0
                    },
                    {
                        "triggerTime_ms": 1617,
                        "durationTime_ms": 33,
                        "angle_deg": 0,
                        "angleVariability_deg": 0
                    },
                    {
                        "triggerTime_ms": 1650,
                        "durationTime_ms": 66,
                        "angle_deg": 0,
                        "angleVariability_deg": 0
                    },
                    {
                        "triggerTime_ms": 1716,
                        "durationTime_ms": 66,
                        "angle_deg": -8,
                        "angleVariability_deg": 0
                    },
                    {
                        "triggerTime_ms": 1782,
                        "durationTime_ms": 66,
                        "angle_deg": -6,
                        "angleVariability_deg": 0
                    },
                    {
                        "triggerTime_ms": 1848,
                        "durationTime_ms": 66,
                        "angle_deg": 4,
                        "angleVariability_deg": 0
                    },
                    {
                        "triggerTime_ms": 1914,
                        "durationTime_ms": 66,
                        "angle_deg": 6,
                        "angleVariability_deg": 0
                    },
                    {
                        "triggerTime_ms": 1980,
                        "durationTime_ms": 99,
                        "angle_deg": 1,
                        "angleVariability_deg": 0
                    },
                    {
                        "triggerTime_ms": 2079,
                        "durationTime_ms": 66,
                        "angle_deg": 0,
                        "angleVariability_deg": 0
                    },
                    {
                        "triggerTime_ms": 2145,
                        "durationTime_ms": 165,
                        "angle_deg": 0,
                        "angleVariability_deg": 0
                    }
                ],
                "RobotAudioKeyFrame": [
                    {
                        "triggerTime_ms": 330,
                        "audioEventId": [
                            1701725212
                        ],
                        "volume": 1.0,
                        "probability": [
                            1.0
                        ],
                        "hasAlts": true
                    },
                    {
                        "triggerTime_ms": 1188,
                        "audioEventId": [
                            1701725212
                        ],
                        "volume": 1.0,
                        "probability": [
                            1.0
                        ],
                        "hasAlts": true
                    },
                    {
                        "triggerTime_ms": 1617,
                        "audioEventId": [
                            2128944011
                        ],
                        "volume": 1.0,
                        "probability": [
                            1.0
                        ],
                        "hasAlts": true
                    },
                    {
                        "triggerTime_ms": 1716,
                        "audioEventId": [
                            4173776344
                        ],
                        "volume": 1.0,
                        "probability": [
                            1.0
                        ],
                        "hasAlts": true
                    }
                ],
                "BackpackLightsKeyFrame": [],
                "FaceAnimationKeyFrame": [],
                "EventKeyFrame": [],
                "BodyMotionKeyFrame": [
                    {
                        "triggerTime_ms": 363,
                        "durationTime_ms": 99,
                        "radius_mm": "TURN_IN_PLACE",
                        "speed": 51
                    },
                    {
                        "triggerTime_ms": 1254,
                        "durationTime_ms": 99,
                        "radius_mm": "TURN_IN_PLACE",
                        "speed": -51
                    },
                    {
                        "triggerTime_ms": 1584,
                        "durationTime_ms": 99,
                        "radius_mm": "STRAIGHT",
                        "speed": -30
                    },
                    {
                        "triggerTime_ms": 1683,
                        "durationTime_ms": 99,
                        "radius_mm": "STRAIGHT",
                        "speed": 117
                    }
                ],
                "RecordHeadingKeyFrame": [],
                "TurnToRecordedHeadingKeyFrame": []
            }
        }
    ]
}