{
    "clips": [
        {
            "Name": "anim_workout_highenergy_getin_01",
            "keyframes": {
                "LiftHeightKeyFrame": [
                    {
                        "triggerTime_ms": 0,
                        "durationTime_ms": 990,
                        "height_mm": 0,
                        "heightVariability_mm": 0
                    },
                    {
                        "triggerTime_ms": 990,
                        "durationTime_ms": 66,
                        "height_mm": 43,
                        "heightVariability_mm": 0
                    },
                    {
                        "triggerTime_ms": 1056,
                        "durationTime_ms": 66,
                        "height_mm": 0,
                        "heightVariability_mm": 0
                    },
                    {
                        "triggerTime_ms": 1122,
                        "durationTime_ms": 66,
                        "height_mm": 43,
                        "heightVariability_mm": 0
                    },
                    {
                        "triggerTime_ms": 1188,
                        "durationTime_ms": 66,
                        "height_mm": 0,
                        "heightVariability_mm": 0
                    }
                ],
                "ProceduralFaceKeyFrame": [
                    {
                        "triggerTime_ms": 0,
                        "faceAngle": 0.0,
                        "faceCenterX": 0.0,
                        "faceCenterY": 0.0,
                        "faceScaleX": 1.0,
                        "faceScaleY": 1.0,
                        "leftEye": [
                            9.169666290283203,
                            0.0,
                            1.214332938194275,
                            0.9052804112434387,
                            0.0,
                            0.5,
                            0.5,
                            0.5,
                            0.5,
                            0.5,
                            0.5,
                            0.5,
                            0.5,
                            0.0,
                            0.0,
                            0.0,
                            0.0,
                            0.0,
                            0.0
                        ],
                        "rightEye": [
                            -10.206374168395996,
                            0.0,
                            1.2220369577407837,
                            0.9052804112434387,
                            0.0,
                            0.5,
                            0.5,
                            0.5,
                            0.5,
                            0.5,
                            0.5,
                            0.5,
                            0.5,
                            0.0,
                            0.0,
                            0.0,
                            0.0,
                            0.0,
                            0.0
                        ]
                    },
                    {
                        "triggerTime_ms": 33,
                        "faceAngle": 0.0,
                        "faceCenterX": 0.0,
                        "faceCenterY": 0.0,
                        "faceScaleX": 1.0,
                        "faceScaleY": 1.0,
                        "leftEye": [
                            9.169666290283203,
                            0.0,
                            1.214332938194275,
                            0.9052804112434387,
                            0.0,
                            0.5,
                            0.5,
                            0.5,
                            0.5,
                            0.5,
                            0.5,
                            0.5,
                            0.5,
                            0.0,
                            0.0,
                            0.0,
                            0.0,
                            0.0,
                            0.0
                        ],
                        "rightEye": [
                            -10.206374168395996,
                            0.0,
                            1.2220369577407837,
                            0.9052804112434387,
                            0.0,
                            0.5,
                            0.5,
                            0.5,
                            0.5,
                            0.5,
                            0.5,
                            0.5,
                            0.5,
                            0.0,
                            0.0,
                            0.0,
                            0.0,
                            0.0,
                            0.0
                        ]
                    },
                    {
                        "triggerTime_ms": 66,
                        "faceAngle": 0.0,
                        "faceCenterX": 0.0,
                        "faceCenterY": 0.0,
                        "faceScaleX": 0.9862685203552246,
                        "faceScaleY": 1.0137314796447754,
                        "leftEye": [
                            9.278773307800293,
                            0.0,
                            1.214332938194275,
                            0.9052804112434387,
                            0.0,
                            0.5,
                            0.5,
                            0.5,
                            0.5,
                            0.5,
                            0.5,
                            0.5,
                            0.5,
                            0.0,
                            0.0,
                            0.0,
                            0.0,
                            0.0,
                            0.0
                        ],
                        "rightEye": [
                            -10.320456504821777,
                            0.0,
                            1.2220369577407837,
                            0.9052804112434387,
                            0.0,
                            0.5,
                            0.5,
                            0.5,
                            0.5,
                            0.5,
                            0.5,
                            0.5,
                            0.5,
                            0.0,
                            0.0,
                            0.0,
                            0.0,
                            0.0,
                            0.0
                        ]
                    },
                    {
                        "triggerTime_ms": 132,
                        "faceAngle": 0.0,
                        "faceCenterX": 0.0,
                        "faceCenterY": 0.5227139592170715,
                        "faceScaleX": 1.0202336311340332,
                        "faceScaleY": 0.9307325482368469,
                        "leftEye": [
                            9.9879732131958,
                            0.0,
                            1.214332938194275,
                            0.9052804112434387,
                            0.0,
                            0.4232850968837738,
                            0.4232850968837738,
                            0.5,
                            0.5,
                            0.5,
                            0.5,
                            0.4232850968837738,
                            0.4232850968837738,
                            0.0,
                            0.0,
                            0.0,
                            0.0,
                            0.0,
                            0.0
                        ],
                        "rightEye": [
                            -11.061996459960938,
                            0.5039994716644287,
                            1.2220369577407837,
                            0.8685649037361145,
                            0.0,
                            0.4232850968837738,
                            0.4232850968837738,
                            0.5,
                            0.5,
                            0.5,
                            0.5,
                            0.4232850968837738,
                            0.4232850968837738,
                            0.0,
                            0.0,
                            0.0,
                            0.0,
                            0.0,
                            0.0
                        ]
                    },
                    {
                        "triggerTime_ms": 198,
                        "faceAngle": 0.0,
                        "faceCenterX": 0.0,
                        "faceCenterY": 0.39203551411628723,
                        "faceScaleX": 1.015363097190857,
                        "faceScaleY": 0.9367981553077698,
                        "leftEye": [
                            9.9879732131958,
                            0.0,
                            1.214332938194275,
                            0.9052804112434387,
                            0.0,
                            0.4232850968837738,
                            0.4232850968837738,
                            0.5,
                            0.5,
                            0.5,
                            0.5,
                            0.4232850968837738,
                            0.4232850968837738,
                            0.0,
                            0.0,
                            0.0,
                            0.0,
                            0.0,
                            0.0
                        ],
                        "rightEye": [
                            -11.061996459960938,
                            0.3779996335506439,
                            1.2220369577407837,
                            0.8777437210083008,
                            0.0,
                            0.4232850968837738,
                            0.4232850968837738,
                            0.5,
                            0.5,
                            0.5,
                            0.5,
                            0.4232850968837738,
                            0.4232850968837738,
                            0.0,
                            0.0,
                            0.0,
                            0.0,
                            0.0,
                            0.0
                        ]
                    },
                    {
                        "triggerTime_ms": 297,
                        "faceAngle": 0.0,
                        "faceCenterX": 0.0,
                        "faceCenterY": 0.39203551411628723,
                        "faceScaleX": 1.015363097190857,
                        "faceScaleY": 0.9367981553077698,
                        "leftEye": [
                            9.9879732131958,
                            0.0,
                            1.214332938194275,
                            0.9052804112434387,
                            0.0,
                            0.4232850968837738,
                            0.4232850968837738,
                            0.5,
                            0.5,
                            0.5,
                            0.5,
                            0.4232850968837738,
                            0.4232850968837738,
                            0.0,
                            0.0,
                            0.0,
                            0.0,
                            0.0,
                            0.0
                        ],
                        "rightEye": [
                            -11.061996459960938,
                            0.3779996335506439,
                            1.2220369577407837,
                            0.8777437210083008,
                            0.0,
                            0.4232850968837738,
                            0.4232850968837738,
                            0.5,
                            0.5,
                            0.5,
                            0.5,
                            0.4232850968837738,
                            0.4232850968837738,
                            0.0,
                            0.0,
                            0.0,
                            0.0,
                            0.0,
                            0.0
                        ]
                    },
                    {
                        "triggerTime_ms": 330,
                        "faceAngle": 0.0,
                        "faceCenterX": 0.0,
                        "faceCenterY": 7.209068298339844,
                        "faceScaleX": 1.0418323278427124,
                        "faceScaleY": 0.9108114242553711,
                        "leftEye": [
                            10.59521770477295,
                            0.0,
                            1.214332938194275,
                            0.9052804112434387,
                            0.0,
                            0.3010653257369995,
                            0.3010653257369995,
                            0.5,
                            0.5,
                            0.5,
                            0.5,
                            0.3010653257369995,
                            0.3010653257369995,
                            0.0,
                            0.0,
                            0.0,
                            0.0,
                            0.0,
                            0.0
                        ],
                        "rightEye": [
                            -11.696930885314941,
                            0.1579640805721283,
                            1.2220369577407837,
                            0.8915120363235474,
                            0.0,
                            0.3010653257369995,
                            0.3010653257369995,
                            0.5,
                            0.5,
                            0.5,
                            0.5,
                            0.3010653257369995,
                            0.3010653257369995,
                            0.0,
                            0.0,
                            0.0,
                            0.0,
                            0.0,
                            0.0
                        ]
                    },
                    {
                        "triggerTime_ms": 363,
                        "faceAngle": 0.0,
                        "faceCenterX": 0.0,
                        "faceCenterY": 13.094378471374512,
                        "faceScaleX": 1.2116831541061401,
                        "faceScaleY": 0.6378661394119263,
                        "leftEye": [
                            11.202461242675781,
                            0.0,
                            1.214332938194275,
                            0.9052804112434387,
                            0.0,
                            0.11821595579385757,
                            0.11821595579385757,
                            0.5,
                            0.5,
                            0.5,
                            0.5,
                            0.11821595579385757,
                            0.11821595579385757,
                            0.0,
                            0.0,
                            0.0,
                            0.0,
                            0.0,
                            0.0
                        ],
                        "rightEye": [
                            -12.331866264343262,
                            0.0,
                            1.2220369577407837,
                            0.9052804112434387,
                            0.0,
                            0.11821595579385757,
                            0.11821595579385757,
                            0.5,
                            0.5,
                            0.5,
                            0.5,
                            0.11821595579385757,
                            0.11821595579385757,
                            0.0,
                            0.0,
                            0.0,
                            0.0,
                            0.0,
                            0.0
                        ]
                    },
                    {
                        "triggerTime_ms": 396,
                        "faceAngle": 0.0,
                        "faceCenterX": 0.0,
                        "faceCenterY": 14.283645629882812,
                        "faceScaleX": 1.2710832357406616,
                        "faceScaleY": 0.5664481520652771,
                        "leftEye": [
                            11.202461242675781,
                            0.0,
                            1.214332938194275,
                            0.9052804112434387,
                            0.0,
                            0.05950767919421196,
                            0.05950767919421196,
                            0.5,
                            0.5,
                            0.5,
                            0.5,
                            0.05950767919421196,
                            0.05950767919421196,
                            0.0,
                            0.0,
                            0.0,
                            0.0,
                            0.0,
                            0.0
                        ],
                        "rightEye": [
                            -12.331866264343262,
                            0.0,
                            1.2220369577407837,
                            0.9052804112434387,
                            0.0,
                            0.05950767919421196,
                            0.05950767919421196,
                            0.5,
                            0.5,
                            0.5,
                            0.5,
                            0.05950767919421196,
                            0.05950767919421196,
                            0.0,
                            0.0,
                            0.0,
                            0.0,
                            0.0,
                            0.0
                        ]
                    },
                    {
                        "triggerTime_ms": 429,
                        "faceAngle": 0.0,
                        "faceCenterX": -0.042174745351076126,
                        "faceCenterY": 13.09339714050293,
                        "faceScaleX": 0.8513742685317993,
                        "faceScaleY": 0.9626412987709045,
                        "leftEye": [
                            10.586591720581055,
                            0.41177618503570557,
                            1.1815614700317383,
                            0.9161506295204163,
                            0.0,
                            0.4635809361934662,
                            0.4635809361934662,
                            0.4653763473033905,
                            0.4659702479839325,
                            0.7079730033874512,
                            0.4645868241786957,
                            0.4635809361934662,
                            0.4635809361934662,
                            0.0001203269130201079,
                            0.0,
                            0.0,
                            0.2693726420402527,
                            0.0,
                            0.0
                        ],
                        "rightEye": [
                            -11.687911987304688,
                            0.0,
                            1.2443097829818726,
                            0.9335353374481201,
                            0.0,
                            0.4635809361934662,
                            0.4635809361934662,
                            0.4651894271373749,
                            0.4659702479839325,
                            0.7079730033874512,
                            0.45795559883117676,
                            0.4635809361934662,
                            0.4635809361934662,
                            0.00013002690684515983,
                            0.0,
                            0.0,
                            0.24416106939315796,
                            0.0,
                            0.0
                        ]
                    },
                    {
                        "triggerTime_ms": 495,
                        "faceAngle": 0.0,
                        "faceCenterX": 0.0,
                        "faceCenterY": 9.579923629760742,
                        "faceScaleX": 0.9281013011932373,
                        "faceScaleY": 1.113234519958496,
                        "leftEye": [
                            10.13209342956543,
                            1.233536958694458,
                            1.2271809577941895,
                            1.0061079263687134,
                            0.0,
                            0.5,
                            0.5,
                            1.228339672088623,
                            0.5365138053894043,
                            1.228339672088623,
                            0.5365138053894043,
                            0.5,
                            0.5,
                            0.0,
                            0.0,
                            0.0,
                            0.6748761534690857,
                            0.0,
                            0.0
                        ],
                        "rightEye": [
                            -9.076988220214844,
                            0.27259451150894165,
                            1.2220369577407837,
                            0.9969098567962646,
                            0.0,
                            0.5,
                            0.5,
                            1.228339672088623,
                            0.5365138053894043,
                            1.228339672088623,
                            0.5365138053894043,
                            0.5,
                            0.5,
                            0.0,
                            0.0,
                            0.0,
                            0.6540148258209229,
                            0.0,
                            0.0
                        ]
                    },
                    {
                        "triggerTime_ms": 528,
                        "faceAngle": 0.0,
                        "faceCenterX": 0.0,
                        "faceCenterY": 8.764167785644531,
                        "faceScaleX": 1.0806772708892822,
                        "faceScaleY": 1.1252225637435913,
                        "leftEye": [
                            10.13209342956543,
                            1.233536958694458,
                            1.2271809577941895,
                            1.0061079263687134,
                            0.0,
                            0.5,
                            0.5,
                            1.228339672088623,
                            0.5365138053894043,
                            1.228339672088623,
                            0.5365138053894043,
                            0.5,
                            0.5,
                            0.0,
                            0.0,
                            0.0,
                            0.690009355545044,
                            0.0,
                            0.0
                        ],
                        "rightEye": [
                            -9.076988220214844,
                            0.27259451150894165,
                            1.2220369577407837,
                            0.9969098567962646,
                            0.0,
                            0.5,
                            0.5,
                            1.228339672088623,
                            0.5365138053894043,
                            1.228339672088623,
                            0.5365138053894043,
                            0.5,
                            0.5,
                            0.0,
                            0.0,
                            0.0,
                            0.6700147986412048,
                            0.0,
                            0.0
                        ]
                    },
                    {
                        "triggerTime_ms": 759,
                        "faceAngle": 0.0,
                        "faceCenterX": 0.0,
                        "faceCenterY": 8.764167785644531,
                        "faceScaleX": 1.0806772708892822,
                        "faceScaleY": 1.1252225637435913,
                        "leftEye": [
                            10.13209342956543,
                            1.233536958694458,
                            1.2271809577941895,
                            1.0061079263687134,
                            0.0,
                            0.5,
                            0.5,
                            1.228339672088623,
                            0.5365138053894043,
                            1.228339672088623,
                            0.5365138053894043,
                            0.5,
                            0.5,
                            0.0,
                            0.0,
                            0.0,
                            0.690009355545044,
                            0.0,
                            0.0
                        ],
                        "rightEye": [
                            -9.076988220214844,
                            0.27259451150894165,
                            1.2220369577407837,
                            0.9969098567962646,
                            0.0,
                            0.5,
                            0.5,
                            1.228339672088623,
                            0.5365138053894043,
                            1.228339672088623,
                            0.5365138053894043,
                            0.5,
                            0.5,
                            0.0,
                            0.0,
                            0.0,
                            0.6700147986412048,
                            0.0,
                            0.0
                        ]
                    },
                    {
                        "triggerTime_ms": 792,
                        "faceAngle": 0.0,
                        "faceCenterX": 0.0,
                        "faceCenterY": 7.123647689819336,
                        "faceScaleX": 1.0279853343963623,
                        "faceScaleY": 1.2510430812835693,
                        "leftEye": [
                            9.657718658447266,
                            0.2935810387134552,
                            1.2291967868804932,
                            0.8716793060302734,
                            0.0,
                            0.470651775598526,
                            0.470651775598526,
                            0.470651775598526,
                            0.470651775598526,
                            0.6654524803161621,
                            0.46966078877449036,
                            0.470651775598526,
                            0.470651775598526,
                            0.0,
                            0.0,
                            0.0,
                            0.42268839478492737,
                            0.0,
                            0.0
                        ],
                        "rightEye": [
                            -10.716682434082031,
                            0.0,
                            1.2783666849136353,
                            0.8858605027198792,
                            0.0,
                            0.470651775598526,
                            0.470651775598526,
                            0.470651775598526,
                            0.470651775598526,
                            0.6636176109313965,
                            0.46966078877449036,
                            0.470651775598526,
                            0.470651775598526,
                            0.0,
                            0.0,
                            0.0,
                            0.4001249372959137,
                            0.0,
                            0.0
                        ]
                    },
                    {
                        "triggerTime_ms": 825,
                        "faceAngle": 0.0,
                        "faceCenterX": 0.0,
                        "faceCenterY": 8.781115531921387,
                        "faceScaleX": 0.8572665452957153,
                        "faceScaleY": 1.1884524822235107,
                        "leftEye": [
                            10.429155349731445,
                            0.10675689578056335,
                            1.2197378873825073,
                            0.8930617570877075,
                            0.0,
                            0.48932790756225586,
                            0.48932790756225586,
                            0.48932790756225586,
                            0.48932790756225586,
                            0.5878300070762634,
                            0.48896753787994385,
                            0.48932790756225586,
                            0.48932790756225586,
                            0.0,
                            0.0,
                            0.0,
                            0.15370510518550873,
                            0.0,
                            0.0
                        ],
                        "rightEye": [
                            -11.523296356201172,
                            0.0,
                            1.2425205707550049,
                            0.89821857213974,
                            0.0,
                            0.48932790756225586,
                            0.48932790756225586,
                            0.48932790756225586,
                            0.48932790756225586,
                            0.5841602087020874,
                            0.48896753787994385,
                            0.48932790756225586,
                            0.48932790756225586,
                            0.0,
                            0.0,
                            0.0,
                            0.14550019800662994,
                            0.0,
                            0.0
                        ]
                    },
                    {
                        "triggerTime_ms": 924,
                        "faceAngle": 0.0,
                        "faceCenterX": 0.5290546417236328,
                        "faceCenterY": 21.38896369934082,
                        "faceScaleX": 1.0033044815063477,
                        "faceScaleY": 0.2830411195755005,
                        "leftEye": [
                            10.429155349731445,
                            0.7793821692466736,
                            1.3104684352874756,
                            0.9052804112434387,
                            0.0,
                            0.03477383777499199,
                            0.03477383777499199,
                            0.356829434633255,
                            0.33620721101760864,
                            0.3279515206813812,
                            0.33620721101760864,
                            0.03477383777499199,
                            0.03477383777499199,
                            0.0,
                            0.0,
                            0.0,
                            0.0,
                            0.0,
                            0.0
                        ],
                        "rightEye": [
                            -11.523296356201172,
                            0.5603548288345337,
                            1.3216279745101929,
                            0.9052804112434387,
                            0.0,
                            0.03477383777499199,
                            0.03477383777499199,
                            0.3633189797401428,
                            0.33620721101760864,
                            0.36923617124557495,
                            0.48064786195755005,
                            0.03477383777499199,
                            0.03477383777499199,
                            0.0,
                            0.0,
                            0.0,
                            0.0,
                            0.0,
                            0.0
                        ]
                    },
                    {
                        "triggerTime_ms": 957,
                        "faceAngle": 0.0,
                        "faceCenterX": 0.8087096810340881,
                        "faceCenterY": 22.74631118774414,
                        "faceScaleX": 1.3550701141357422,
                        "faceScaleY": 0.07466530054807663,
                        "leftEye": [
                            10.429155349731445,
                            0.0,
                            1.3752565383911133,
                            0.9052804112434387,
                            0.0,
                            0.009999999776482582,
                            0.009999999776482582,
                            0.009999999776482582,
                            0.009999999776482582,
                            0.009999999776482582,
                            0.009999999776482582,
                            0.009999999776482582,
                            0.009999999776482582,
                            0.0,
                            0.0,
                            0.0,
                            0.0,
                            0.0,
                            0.0
                        ],
                        "rightEye": [
                            -11.523296356201172,
                            0.0,
                            1.3803662061691284,
                            0.9052804112434387,
                            0.0,
                            0.009999999776482582,
                            0.009999999776482582,
                            0.009999999776482582,
                            0.009999999776482582,
                            0.009999999776482582,
                            0.009999999776482582,
                            0.009999999776482582,
                            0.009999999776482582,
                            0.0,
                            0.0,
                            0.0,
                            0.0,
                            0.0,
                            0.0
                        ]
                    },
                    {
                        "triggerTime_ms": 990,
                        "faceAngle": 0.0,
                        "faceCenterX": 0.8087096810340881,
                        "faceCenterY": 24.259815216064453,
                        "faceScaleX": 1.4072543382644653,
                        "faceScaleY": 0.07466530054807663,
                        "leftEye": [
                            10.429155349731445,
                            0.0,
                            1.3752565383911133,
                            0.9052804112434387,
                            0.0,
                            0.009999999776482582,
                            0.009999999776482582,
                            0.009999999776482582,
                            0.009999999776482582,
                            0.009999999776482582,
                            0.009999999776482582,
                            0.009999999776482582,
                            0.009999999776482582,
                            0.0,
                            0.0,
                            0.0,
                            0.0,
                            0.0,
                            0.0
                        ],
                        "rightEye": [
                            -11.523296356201172,
                            0.0,
                            1.3803662061691284,
                            0.9052804112434387,
                            0.0,
                            0.009999999776482582,
                            0.009999999776482582,
                            0.009999999776482582,
                            0.009999999776482582,
                            0.009999999776482582,
                            0.009999999776482582,
                            0.009999999776482582,
                            0.009999999776482582,
                            0.0,
                            0.0,
                            0.0,
                            0.0,
                            0.0,
                            0.0
                        ]
                    },
                    {
                        "triggerTime_ms": 1023,
                        "faceAngle": 0.0,
                        "faceCenterX": 0.5990444421768188,
                        "faceCenterY": 20.529762268066406,
                        "faceScaleX": 1.21712064743042,
                        "faceScaleY": 0.2005731761455536,
                        "leftEye": [
                            11.629544258117676,
                            0.0,
                            1.214332938194275,
                            0.9052804112434387,
                            0.0,
                            0.09397945553064346,
                            0.09397945553064346,
                            0.25036096572875977,
                            0.24122050404548645,
                            0.23756131529808044,
                            0.24122050404548645,
                            0.09397945553064346,
                            0.09397945553064346,
                            0.0,
                            0.0,
                            0.0,
                            0.0,
                            0.0,
                            0.0
                        ],
                        "rightEye": [
                            -12.77869701385498,
                            0.0,
                            1.2220369577407837,
                            0.9052804112434387,
                            0.0,
                            0.09397945553064346,
                            0.09397945553064346,
                            0.25323736667633057,
                            0.24122050404548645,
                            0.2558600902557373,
                            0.30524149537086487,
                            0.09397945553064346,
                            0.09397945553064346,
                            0.0,
                            0.0,
                            0.0,
                            0.0,
                            0.0,
                            0.0
                        ]
                    },
                    {
                        "triggerTime_ms": 1056,
                        "faceAngle": 0.0,
                        "faceCenterX": 0.5990444421768188,
                        "faceCenterY": 19.962474822998047,
                        "faceScaleX": 1.0092905759811401,
                        "faceScaleY": 0.21948367357254028,
                        "leftEye": [
                            11.629544258117676,
                            0.0,
                            1.214332938194275,
                            0.9052804112434387,
                            0.0,
                            0.09397945553064346,
                            0.09397945553064346,
                            0.25036096572875977,
                            0.24122050404548645,
                            0.23756131529808044,
                            0.24122050404548645,
                            0.09397945553064346,
                            0.09397945553064346,
                            0.0,
                            0.0,
                            0.0,
                            0.0,
                            0.0,
                            0.0
                        ],
                        "rightEye": [
                            -12.77869701385498,
                            0.0,
                            1.2220369577407837,
                            0.9052804112434387,
                            0.0,
                            0.09397945553064346,
                            0.09397945553064346,
                            0.25323736667633057,
                            0.24122050404548645,
                            0.2558600902557373,
                            0.30524149537086487,
                            0.09397945553064346,
                            0.09397945553064346,
                            0.0,
                            0.0,
                            0.0,
                            0.0,
                            0.0,
                            0.0
                        ]
                    },
                    {
                        "triggerTime_ms": 1287,
                        "faceAngle": 0.0,
                        "faceCenterX": 0.5990444421768188,
                        "faceCenterY": 18.57743263244629,
                        "faceScaleX": 0.9267126321792603,
                        "faceScaleY": 0.26461300253868103,
                        "leftEye": [
                            11.629544258117676,
                            0.0,
                            1.214332938194275,
                            0.9052804112434387,
                            0.0,
                            0.09397945553064346,
                            0.09397945553064346,
                            0.25036096572875977,
                            0.24122050404548645,
                            0.23756131529808044,
                            0.24122050404548645,
                            0.09397945553064346,
                            0.09397945553064346,
                            0.0,
                            0.0,
                            0.0,
                            0.0,
                            0.0,
                            0.0
                        ],
                        "rightEye": [
                            -12.77869701385498,
                            0.0,
                            1.2220369577407837,
                            0.9052804112434387,
                            0.0,
                            0.09397945553064346,
                            0.09397945553064346,
                            0.25323736667633057,
                            0.24122050404548645,
                            0.2558600902557373,
                            0.30524149537086487,
                            0.09397945553064346,
                            0.09397945553064346,
                            0.0,
                            0.0,
                            0.0,
                            0.0,
                            0.0,
                            0.0
                        ]
                    },
                    {
                        "triggerTime_ms": 1386,
                        "faceAngle": 0.0,
                        "faceCenterX": 0.0,
                        "faceCenterY": 5.328335285186768,
                        "faceScaleX": 0.9407802820205688,
                        "faceScaleY": 0.7230238318443298,
                        "leftEye": [
                            11.046370506286621,
                            0.0,
                            1.214332938194275,
                            0.9052804112434387,
                            0.0,
                            0.41107645630836487,
                            0.41107645630836487,
                            0.4439789354801178,
                            0.4359096884727478,
                            0.43267932534217834,
                            0.4359096884727478,
                            0.41107645630836487,
                            0.41107645630836487,
                            0.0,
                            0.0,
                            0.0,
                            0.0,
                            0.0,
                            0.0
                        ],
                        "rightEye": [
                            -12.168801307678223,
                            0.0,
                            1.2220369577407837,
                            0.9052804112434387,
                            0.0,
                            0.41107645630836487,
                            0.41107645630836487,
                            0.4465182423591614,
                            0.4359096884727478,
                            0.44883355498313904,
                            0.4924277365207672,
                            0.41107645630836487,
                            0.41107645630836487,
                            0.0,
                            0.0,
                            0.0,
                            0.0,
                            0.0,
                            0.0
                        ]
                    },
                    {
                        "triggerTime_ms": 1419,
                        "faceAngle": 0.0,
                        "faceCenterX": 0.0,
                        "faceCenterY": 3.053906202316284,
                        "faceScaleX": 0.9472684264183044,
                        "faceScaleY": 0.8339943885803223,
                        "leftEye": [
                            10.268603324890137,
                            0.0,
                            1.214332938194275,
                            0.9052804112434387,
                            0.0,
                            0.44108131527900696,
                            0.44108131527900696,
                            0.46288177371025085,
                            0.4575352668762207,
                            0.4553948938846588,
                            0.4575352668762207,
                            0.44108131527900696,
                            0.44108131527900696,
                            0.0,
                            0.0,
                            0.0,
                            0.0,
                            0.0,
                            0.0
                        ],
                        "rightEye": [
                            -11.355371475219727,
                            0.0,
                            1.2220369577407837,
                            0.9052804112434387,
                            0.0,
                            0.44108131527900696,
                            0.44108131527900696,
                            0.4645642340183258,
                            0.4575352668762207,
                            0.4660983383655548,
                            0.4949827790260315,
                            0.44108131527900696,
                            0.44108131527900696,
                            0.0,
                            0.0,
                            0.0,
                            0.0,
                            0.0,
                            0.0
                        ]
                    },
                    {
                        "triggerTime_ms": 1551,
                        "faceAngle": 0.0,
                        "faceCenterX": 0.0,
                        "faceCenterY": 0.0,
                        "faceScaleX": 0.9976625442504883,
                        "faceScaleY": 1.0405739545822144,
                        "leftEye": [
                            9.169666290283203,
                            0.0,
                            1.214332938194275,
                            0.9052804112434387,
                            0.0,
                            0.5,
                            0.5,
                            0.5,
                            0.5,
                            0.5,
                            0.5,
                            0.5,
                            0.5,
                            0.0,
                            0.0,
                            0.0,
                            0.0,
                            0.0,
                            0.0
                        ],
                        "rightEye": [
                            -10.206374168395996,
                            0.0,
                            1.2220369577407837,
                            0.9052804112434387,
                            0.0,
                            0.5,
                            0.5,
                            0.5,
                            0.5,
                            0.5,
                            0.5,
                            0.5,
                            0.5,
                            0.0,
                            0.0,
                            0.0,
                            0.0,
                            0.0,
                            0.0
                        ]
                    },
                    {
                        "triggerTime_ms": 1617,
                        "faceAngle": 0.0,
                        "faceCenterX": 0.0,
                        "faceCenterY": 0.0,
                        "faceScaleX": 1.0175713300704956,
                        "faceScaleY": 1.03545343875885,
                        "leftEye": [
                            9.169666290283203,
                            0.0,
                            1.214332938194275,
                            0.9052804112434387,
                            0.0,
                            0.5,
                            0.5,
                            0.5,
                            0.5,
                            0.5,
                            0.5,
                            0.5,
                            0.5,
                            0.0,
                            0.0,
                            0.0,
                            0.0,
                            0.0,
                            0.0
                        ],
                        "rightEye": [
                            -10.206374168395996,
                            0.0,
                            1.2220369577407837,
                            0.9052804112434387,
                            0.0,
                            0.5,
                            0.5,
                            0.5,
                            0.5,
                            0.5,
                            0.5,
                            0.5,
                            0.5,
                            0.0,
                            0.0,
                            0.0,
                            0.0,
                            0.0,
                            0.0
                        ]
                    },
                    {
                        "triggerTime_ms": 1749,
                        "faceAngle": 0.0,
                        "faceCenterX": 0.0,
                        "faceCenterY": 0.0,
                        "faceScaleX": 1.0,
                        "faceScaleY": 1.0,
                        "leftEye": [
                            9.169666290283203,
                            0.0,
                            1.214332938194275,
                            0.9052804112434387,
                            0.0,
                            0.5,
                            0.5,
                            0.5,
                            0.5,
                            0.5,
                            0.5,
                            0.5,
                            0.5,
                            0.0,
                            0.0,
                            0.0,
                            0.0,
                            0.0,
                            0.0
                        ],
                        "rightEye": [
                            -10.206374168395996,
                            0.0,
                            1.2220369577407837,
                            0.9052804112434387,
                            0.0,
                            0.5,
                            0.5,
                            0.5,
                            0.5,
                            0.5,
                            0.5,
                            0.5,
                            0.5,
                            0.0,
                            0.0,
                            0.0,
                            0.0,
                            0.0,
                            0.0
                        ]
                    }
                ],
                "HeadAngleKeyFrame": [
                    {
                        "triggerTime_ms": 0,
                        "durationTime_ms": 132,
                        "angle_deg": 0,
                        "angleVariability_deg": 0
                    },
                    {
                        "triggerTime_ms": 132,
                        "durationTime_ms": 132,
                        "angle_deg": -12,
                        "angleVariability_deg": 0
                    },
                    {
                        "triggerTime_ms": 264,
                        "durationTime_ms": 99,
                        "angle_deg": -13,
                        "angleVariability_deg": 0
                    },
                    {
                        "triggerTime_ms": 363,
                        "durationTime_ms": 165,
                        "angle_deg": -3,
                        "angleVariability_deg": 0
                    },
                    {
                        "triggerTime_ms": 528,
                        "durationTime_ms": 330,
                        "angle_deg": 2,
                        "angleVariability_deg": 0
                    },
                    {
                        "triggerTime_ms": 858,
                        "durationTime_ms": 99,
                        "angle_deg": -14,
                        "angleVariability_deg": 0
                    },
                    {
                        "triggerTime_ms": 957,
                        "durationTime_ms": 66,
                        "angle_deg": -20,
                        "angleVariability_deg": 0
                    },
                    {
                        "triggerTime_ms": 1320,
                        "durationTime_ms": 132,
                        "angle_deg": 3,
                        "angleVariability_deg": 0
                    },
                    {
                        "triggerTime_ms": 1452,
                        "durationTime_ms": 198,
                        "angle_deg": 0,
                        "angleVariability_deg": 0
                    }
                ],
                "RobotAudioKeyFrame": [
                    {
                        "triggerTime_ms": 264,
                        "audioEventId": [
                            302804072
                        ],
                        "volume": 1.0,
                        "probability": [
                            1.0
                        ],
                        "hasAlts": true
                    },
                    {
                        "triggerTime_ms": 396,
                        "audioEventId": [
                            1066816362
                        ],
                        "volume": 1.0,
                        "probability": [
                            1.0
                        ],
                        "hasAlts": true
                    },
                    {
                        "triggerTime_ms": 957,
                        "audioEventId": [
                            4054065165
                        ],
                        "volume": 1.0,
                        "probability": [
                            1.0
                        ],
                        "hasAlts": true
                    },
                    {
                        "triggerTime_ms": 990,
                        "audioEventId": [
                            4268262662
                        ],
                        "volume": 1.0,
                        "probability": [
                            1.0
                        ],
                        "hasAlts": true
                    }
                ],
                "BackpackLightsKeyFrame": [],
                "FaceAnimationKeyFrame": [],
                "EventKeyFrame": [],
                "BodyMotionKeyFrame": [
                    {
                        "triggerTime_ms": 165,
                        "durationTime_ms": 132,
                        "radius_mm": "STRAIGHT",
                        "speed": -92
                    },
                    {
                        "triggerTime_ms": 297,
                        "durationTime_ms": 165,
                        "radius_mm": "STRAIGHT",
                        "speed": 61
                    },
                    {
                        "triggerTime_ms": 462,
                        "durationTime_ms": 264,
                        "radius_mm": "STRAIGHT",
                        "speed": 41
                    },
                    {
                        "triggerTime_ms": 990,
                        "durationTime_ms": 33,
                        "radius_mm": "STRAIGHT",
                        "speed": -53
                    },
                    {
                        "triggerTime_ms": 1023,
                        "durationTime_ms": 66,
                        "radius_mm": "STRAIGHT",
                        "speed": 65
                    },
                    {
                        "triggerTime_ms": 1089,
                        "durationTime_ms": 33,
                        "radius_mm": "STRAIGHT",
                        "speed": -65
                    },
                    {
                        "triggerTime_ms": 1122,
                        "durationTime_ms": 66,
                        "radius_mm": "STRAIGHT",
                        "speed": 53
                    },
                    {
                        "triggerTime_ms": 1188,
                        "durationTime_ms": 132,
                        "radius_mm": "STRAIGHT",
                        "speed": 33
                    }
                ],
                "RecordHeadingKeyFrame": [],
                "TurnToRecordedHeadingKeyFrame": []
            }
        }
    ]
}