{
    "clips": [
        {
            "Name": "anim_energy_liftoncube_01",
            "keyframes": {
                "LiftHeightKeyFrame": [
                    {
                        "triggerTime_ms": 0,
                        "durationTime_ms": 66,
                        "height_mm": 32,
                        "heightVariability_mm": 0
                    },
                    {
                        "triggerTime_ms": 66,
                        "durationTime_ms": 132,
                        "height_mm": 39,
                        "heightVariability_mm": 0
                    },
                    {
                        "triggerTime_ms": 198,
                        "durationTime_ms": 297,
                        "height_mm": 92,
                        "heightVariability_mm": 0
                    },
                    {
                        "triggerTime_ms": 495,
                        "durationTime_ms": 264,
                        "height_mm": 75,
                        "heightVariability_mm": 0
                    }
                ],
                "ProceduralFaceKeyFrame": [
                    {
                        "triggerTime_ms": 198,
                        "faceAngle": 0.0,
                        "faceCenterX": 0.0,
                        "faceCenterY": 0.0,
                        "faceScaleX": 1.0,
                        "faceScaleY": 1.0,
                        "leftEye": [
                            9.169666290283203,
                            0.0,
                            1.214332938194275,
                            0.9052804112434387,
                            0.0,
                            0.5,
                            0.5,
                            0.5,
                            0.5,
                            0.5,
                            0.5,
                            0.5,
                            0.5,
                            0.0,
                            0.0,
                            0.0,
                            0.0,
                            0.0,
                            0.0
                        ],
                        "rightEye": [
                            -10.206374168395996,
                            0.0,
                            1.2220369577407837,
                            0.9052804112434387,
                            0.0,
                            0.5,
                            0.5,
                            0.5,
                            0.5,
                            0.5,
                            0.5,
                            0.5,
                            0.5,
                            0.0,
                            0.0,
                            0.0,
                            0.0,
                            0.0,
                            0.0
                        ]
                    },
                    {
                        "triggerTime_ms": 264,
                        "faceAngle": 0.0,
                        "faceCenterX": 0.0,
                        "faceCenterY": 15.380037307739258,
                        "faceScaleX": 1.176682472229004,
                        "faceScaleY": 0.42043358087539673,
                        "leftEye": [
                            10.93139934539795,
                            1.6377174461013055e-06,
                            1.355303168296814,
                            0.9052804112434387,
                            0.0,
                            0.5,
                            0.5,
                            0.5,
                            0.5,
                            0.5,
                            0.5,
                            0.5,
                            0.5,
                            0.0,
                            0.0,
                            0.0,
                            0.0,
                            0.0,
                            0.0
                        ],
                        "rightEye": [
                            -12.048280715942383,
                            -1.61002083132189e-06,
                            1.2220369577407837,
                            0.9052804112434387,
                            0.0,
                            0.5506115555763245,
                            0.5506115555763245,
                            0.5506115555763245,
                            0.5506115555763245,
                            0.5506115555763245,
                            0.5506115555763245,
                            0.5506115555763245,
                            0.5506115555763245,
                            0.06497356295585632,
                            1.1097462177276611,
                            0.0,
                            0.0,
                            0.0,
                            0.0
                        ]
                    },
                    {
                        "triggerTime_ms": 363,
                        "faceAngle": 0.0,
                        "faceCenterX": 0.0,
                        "faceCenterY": 0.0,
                        "faceScaleX": 1.0161142349243164,
                        "faceScaleY": 1.0233173370361328,
                        "leftEye": [
                            9.169666290283203,
                            0.0,
                            1.214332938194275,
                            0.9052804112434387,
                            0.0,
                            0.5,
                            0.5,
                            0.5,
                            0.5,
                            0.5,
                            0.5,
                            0.5,
                            0.5,
                            0.0,
                            0.0,
                            0.0,
                            0.0,
                            0.0,
                            0.0
                        ],
                        "rightEye": [
                            -10.206374168395996,
                            0.0,
                            1.2220369577407837,
                            0.9052804112434387,
                            0.0,
                            0.5,
                            0.5,
                            0.5,
                            0.5,
                            0.5,
                            0.5,
                            0.5,
                            0.5,
                            0.0,
                            0.0,
                            0.0,
                            0.0,
                            0.0,
                            0.0
                        ]
                    },
                    {
                        "triggerTime_ms": 396,
                        "faceAngle": 0.0,
                        "faceCenterX": 0.0,
                        "faceCenterY": 0.0,
                        "faceScaleX": 1.0047746896743774,
                        "faceScaleY": 1.0728826522827148,
                        "leftEye": [
                            9.169666290283203,
                            0.0,
                            1.214332938194275,
                            0.9052804112434387,
                            0.0,
                            0.5,
                            0.5,
                            0.5,
                            0.5,
                            0.5,
                            0.5,
                            0.5,
                            0.5,
                            0.0,
                            0.0,
                            0.0,
                            0.0,
                            0.0,
                            0.0
                        ],
                        "rightEye": [
                            -10.206374168395996,
                            0.0,
                            1.2220369577407837,
                            0.9052804112434387,
                            0.0,
                            0.5,
                            0.5,
                            0.5,
                            0.5,
                            0.5,
                            0.5,
                            0.5,
                            0.5,
                            0.0,
                            0.0,
                            0.0,
                            0.0,
                            0.0,
                            0.0
                        ]
                    },
                    {
                        "triggerTime_ms": 462,
                        "faceAngle": 0.0,
                        "faceCenterX": 0.0,
                        "faceCenterY": 0.0,
                        "faceScaleX": 1.000775933265686,
                        "faceScaleY": 1.0531764030456543,
                        "leftEye": [
                            9.169666290283203,
                            0.0,
                            1.214332938194275,
                            0.9052804112434387,
                            0.0,
                            0.5,
                            0.5,
                            0.5,
                            0.5,
                            0.5,
                            0.5,
                            0.5,
                            0.5,
                            0.0,
                            0.0,
                            0.0,
                            0.0,
                            0.0,
                            0.0
                        ],
                        "rightEye": [
                            -10.206374168395996,
                            0.0,
                            1.2220369577407837,
                            0.9052804112434387,
                            0.0,
                            0.5,
                            0.5,
                            0.5,
                            0.5,
                            0.5,
                            0.5,
                            0.5,
                            0.5,
                            0.0,
                            0.0,
                            0.0,
                            0.0,
                            0.0,
                            0.0
                        ]
                    },
                    {
                        "triggerTime_ms": 528,
                        "faceAngle": 0.0,
                        "faceCenterX": 0.0,
                        "faceCenterY": 0.0,
                        "faceScaleX": 1.0,
                        "faceScaleY": 1.018894910812378,
                        "leftEye": [
                            9.169666290283203,
                            0.0,
                            1.214332938194275,
                            0.9052804112434387,
                            0.0,
                            0.5,
                            0.5,
                            0.5,
                            0.5,
                            0.5,
                            0.5,
                            0.5,
                            0.5,
                            0.0,
                            0.0,
                            0.0,
                            0.0,
                            0.0,
                            0.0
                        ],
                        "rightEye": [
                            -10.206374168395996,
                            0.0,
                            1.2220369577407837,
                            0.9052804112434387,
                            0.0,
                            0.5,
                            0.5,
                            0.5,
                            0.5,
                            0.5,
                            0.5,
                            0.5,
                            0.5,
                            0.0,
                            0.0,
                            0.0,
                            0.0,
                            0.0,
                            0.0
                        ]
                    },
                    {
                        "triggerTime_ms": 561,
                        "faceAngle": 0.0,
                        "faceCenterX": 0.0,
                        "faceCenterY": 0.0,
                        "faceScaleX": 1.0,
                        "faceScaleY": 1.0,
                        "leftEye": [
                            9.169666290283203,
                            0.0,
                            1.214332938194275,
                            0.9052804112434387,
                            0.0,
                            0.5,
                            0.5,
                            0.5,
                            0.5,
                            0.5,
                            0.5,
                            0.5,
                            0.5,
                            0.0,
                            0.0,
                            0.0,
                            0.0,
                            0.0,
                            0.0
                        ],
                        "rightEye": [
                            -10.206374168395996,
                            0.0,
                            1.2220369577407837,
                            0.9052804112434387,
                            0.0,
                            0.5,
                            0.5,
                            0.5,
                            0.5,
                            0.5,
                            0.5,
                            0.5,
                            0.5,
                            0.0,
                            0.0,
                            0.0,
                            0.0,
                            0.0,
                            0.0
                        ]
                    }
                ],
                "HeadAngleKeyFrame": [
                    {
                        "triggerTime_ms": 0,
                        "durationTime_ms": 198,
                        "angle_deg": 0,
                        "angleVariability_deg": 0
                    },
                    {
                        "triggerTime_ms": 198,
                        "durationTime_ms": 165,
                        "angle_deg": -17,
                        "angleVariability_deg": 0
                    },
                    {
                        "triggerTime_ms": 363,
                        "durationTime_ms": 132,
                        "angle_deg": 4,
                        "angleVariability_deg": 0
                    },
                    {
                        "triggerTime_ms": 495,
                        "durationTime_ms": 99,
                        "angle_deg": 7,
                        "angleVariability_deg": 0
                    },
                    {
                        "triggerTime_ms": 594,
                        "durationTime_ms": 231,
                        "angle_deg": 0,
                        "angleVariability_deg": 0
                    }
                ],
                "RobotAudioKeyFrame": [
                    {
                        "triggerTime_ms": 99,
                        "audioEventId": [
                            1279900047
                        ],
                        "volume": 1.0,
                        "probability": [
                            1.0
                        ],
                        "hasAlts": true
                    },
                    {
                        "triggerTime_ms": 198,
                        "audioEventId": [
                            3824979789
                        ],
                        "volume": 1.0,
                        "probability": [
                            1.0
                        ],
                        "hasAlts": true
                    }
                ],
                "BackpackLightsKeyFrame": [],
                "FaceAnimationKeyFrame": [],
                "EventKeyFrame": [],
                "BodyMotionKeyFrame": [
                    {
                        "triggerTime_ms": 0,
                        "durationTime_ms": 132,
                        "radius_mm": "STRAIGHT",
                        "speed": -30
                    },
                    {
                        "triggerTime_ms": 132,
                        "durationTime_ms": 561,
                        "radius_mm": "STRAIGHT",
                        "speed": 70
                    }
                ],
                "RecordHeadingKeyFrame": [],
                "TurnToRecordedHeadingKeyFrame": []
            }
        },
        {
            "Name": "anim_energy_liftoncube_02",
            "keyframes": {
                "LiftHeightKeyFrame": [
                    {
                        "triggerTime_ms": 0,
                        "durationTime_ms": 66,
                        "height_mm": 32,
                        "heightVariability_mm": 0
                    },
                    {
                        "triggerTime_ms": 66,
                        "durationTime_ms": 162,
                        "height_mm": 39,
                        "heightVariability_mm": 0
                    },
                    {
                        "triggerTime_ms": 228,
                        "durationTime_ms": 333,
                        "height_mm": 84,
                        "heightVariability_mm": 0
                    },
                    {
                        "triggerTime_ms": 561,
                        "durationTime_ms": 264,
                        "height_mm": 92,
                        "heightVariability_mm": 0
                    },
                    {
                        "triggerTime_ms": 825,
                        "durationTime_ms": 165,
                        "height_mm": 75,
                        "heightVariability_mm": 0
                    }
                ],
                "ProceduralFaceKeyFrame": [
                    {
                        "triggerTime_ms": 0,
                        "faceAngle": 0.0,
                        "faceCenterX": 0.0,
                        "faceCenterY": 12.935738563537598,
                        "faceScaleX": 1.0,
                        "faceScaleY": 1.0,
                        "leftEye": [
                            9.682978630065918,
                            4.272152423858643,
                            1.0457555055618286,
                            0.7967790365219116,
                            0.0,
                            0.5854809880256653,
                            0.5854809880256653,
                            0.46325939893722534,
                            0.46325939893722534,
                            0.46325939893722534,
                            0.46325939893722534,
                            0.5854809880256653,
                            0.5854809880256653,
                            0.6002601385116577,
                            -8.98401165008545,
                            0.0,
                            0.0,
                            0.0,
                            0.0
                        ],
                        "rightEye": [
                            -10.206374168395996,
                            0.0,
                            1.42357337474823,
                            1.0304944515228271,
                            0.0,
                            0.5854809880256653,
                            0.5854809880256653,
                            0.46325939893722534,
                            0.46325939893722534,
                            0.46325939893722534,
                            0.46325939893722534,
                            0.5854809880256653,
                            0.5854809880256653,
                            0.60025554895401,
                            -8.98401165008545,
                            0.0,
                            0.0,
                            0.0,
                            0.0
                        ]
                    },
                    {
                        "triggerTime_ms": 165,
                        "faceAngle": 0.0,
                        "faceCenterX": 0.0,
                        "faceCenterY": 12.935737609863281,
                        "faceScaleX": 1.0,
                        "faceScaleY": 1.0,
                        "leftEye": [
                            9.682978630065918,
                            4.272152423858643,
                            1.0457555055618286,
                            0.7967790365219116,
                            0.0,
                            0.5854809880256653,
                            0.5854809880256653,
                            0.46325939893722534,
                            0.46325939893722534,
                            0.46325939893722534,
                            0.46325939893722534,
                            0.5854809880256653,
                            0.5854809880256653,
                            0.6002601385116577,
                            -8.98401165008545,
                            0.0,
                            0.0,
                            0.0,
                            0.0
                        ],
                        "rightEye": [
                            -10.206374168395996,
                            0.0,
                            1.42357337474823,
                            1.0304944515228271,
                            0.0,
                            0.5854809880256653,
                            0.5854809880256653,
                            0.46325939893722534,
                            0.46325939893722534,
                            0.46325939893722534,
                            0.46325939893722534,
                            0.5854809880256653,
                            0.5854809880256653,
                            0.60025554895401,
                            -8.98401165008545,
                            0.0,
                            0.0,
                            0.0,
                            0.0
                        ]
                    },
                    {
                        "triggerTime_ms": 231,
                        "faceAngle": 0.0,
                        "faceCenterX": 0.0,
                        "faceCenterY": 15.714824676513672,
                        "faceScaleX": 1.05900239944458,
                        "faceScaleY": 0.635177493095398,
                        "leftEye": [
                            9.682978630065918,
                            4.272152423858643,
                            1.0457555055618286,
                            0.7967790365219116,
                            0.0,
                            0.5854809880256653,
                            0.5854809880256653,
                            0.46325939893722534,
                            0.46325939893722534,
                            0.46325939893722534,
                            0.46325939893722534,
                            0.5854809880256653,
                            0.5854809880256653,
                            0.6002601385116577,
                            -8.98401165008545,
                            0.0,
                            0.0,
                            0.0,
                            0.0
                        ],
                        "rightEye": [
                            -10.206374168395996,
                            0.0,
                            1.42357337474823,
                            1.0304944515228271,
                            0.0,
                            0.5854809880256653,
                            0.5854809880256653,
                            0.46325939893722534,
                            0.46325939893722534,
                            0.46325939893722534,
                            0.46325939893722534,
                            0.5854809880256653,
                            0.5854809880256653,
                            0.60025554895401,
                            -8.98401165008545,
                            0.0,
                            0.0,
                            0.0,
                            0.0
                        ]
                    },
                    {
                        "triggerTime_ms": 264,
                        "faceAngle": 0.0,
                        "faceCenterX": 0.0,
                        "faceCenterY": 24.156070709228516,
                        "faceScaleX": 1.2387584447860718,
                        "faceScaleY": 0.07466530054807663,
                        "leftEye": [
                            9.682978630065918,
                            4.272152423858643,
                            1.0457555055618286,
                            0.7967790365219116,
                            0.0,
                            0.5854809880256653,
                            0.5854809880256653,
                            0.46325939893722534,
                            0.46325939893722534,
                            0.46325939893722534,
                            0.46325939893722534,
                            0.5854809880256653,
                            0.5854809880256653,
                            0.6002601385116577,
                            -8.98401165008545,
                            0.0,
                            0.0,
                            0.0,
                            0.0
                        ],
                        "rightEye": [
                            -10.206374168395996,
                            0.0,
                            1.42357337474823,
                            1.0304944515228271,
                            0.0,
                            0.5854809880256653,
                            0.5854809880256653,
                            0.46325939893722534,
                            0.46325939893722534,
                            0.46325939893722534,
                            0.46325939893722534,
                            0.5854809880256653,
                            0.5854809880256653,
                            0.60025554895401,
                            -8.98401165008545,
                            0.0,
                            0.0,
                            0.0,
                            0.0
                        ]
                    },
                    {
                        "triggerTime_ms": 297,
                        "faceAngle": 0.0,
                        "faceCenterX": 0.0,
                        "faceCenterY": 28.7857608795166,
                        "faceScaleX": 1.818399429321289,
                        "faceScaleY": 0.07466530054807663,
                        "leftEye": [
                            9.682978630065918,
                            4.272152423858643,
                            1.0457555055618286,
                            0.7967790365219116,
                            0.0,
                            0.5854809880256653,
                            0.5854809880256653,
                            0.46325939893722534,
                            0.46325939893722534,
                            0.46325939893722534,
                            0.46325939893722534,
                            0.5854809880256653,
                            0.5854809880256653,
                            0.6002601385116577,
                            -8.98401165008545,
                            0.0,
                            0.0,
                            0.0,
                            0.0
                        ],
                        "rightEye": [
                            -10.206374168395996,
                            0.0,
                            1.42357337474823,
                            1.0304944515228271,
                            0.0,
                            0.5854809880256653,
                            0.5854809880256653,
                            0.46325939893722534,
                            0.46325939893722534,
                            0.46325939893722534,
                            0.46325939893722534,
                            0.5854809880256653,
                            0.5854809880256653,
                            0.60025554895401,
                            -8.98401165008545,
                            0.0,
                            0.0,
                            0.0,
                            0.0
                        ]
                    },
                    {
                        "triggerTime_ms": 330,
                        "faceAngle": 0.0,
                        "faceCenterX": 0.0,
                        "faceCenterY": 24.88530921936035,
                        "faceScaleX": 1.176682472229004,
                        "faceScaleY": 0.42043358087539673,
                        "leftEye": [
                            9.682978630065918,
                            4.272152423858643,
                            1.0457555055618286,
                            0.7967790365219116,
                            0.0,
                            0.5854809880256653,
                            0.5854809880256653,
                            0.46325939893722534,
                            0.46325939893722534,
                            0.46325939893722534,
                            0.46325939893722534,
                            0.5854809880256653,
                            0.5854809880256653,
                            0.6002601385116577,
                            -8.98401165008545,
                            0.0,
                            0.0,
                            0.0,
                            0.0
                        ],
                        "rightEye": [
                            -10.206374168395996,
                            0.0,
                            1.42357337474823,
                            1.0304944515228271,
                            0.0,
                            0.5854809880256653,
                            0.5854809880256653,
                            0.46325939893722534,
                            0.46325939893722534,
                            0.46325939893722534,
                            0.46325939893722534,
                            0.5854809880256653,
                            0.5854809880256653,
                            0.60025554895401,
                            -8.98401165008545,
                            0.0,
                            0.0,
                            0.0,
                            0.0
                        ]
                    },
                    {
                        "triggerTime_ms": 396,
                        "faceAngle": 0.0,
                        "faceCenterX": 0.0,
                        "faceCenterY": 8.083076477050781,
                        "faceScaleX": 0.9145689606666565,
                        "faceScaleY": 1.0977808237075806,
                        "leftEye": [
                            9.682978630065918,
                            4.272152423858643,
                            1.0457555055618286,
                            0.7967790365219116,
                            0.0,
                            0.5854809880256653,
                            0.5854809880256653,
                            0.46325939893722534,
                            0.46325939893722534,
                            0.46325939893722534,
                            0.46325939893722534,
                            0.5854809880256653,
                            0.5854809880256653,
                            0.6002601385116577,
                            -8.98401165008545,
                            0.0,
                            0.0,
                            0.0,
                            0.0
                        ],
                        "rightEye": [
                            -10.206374168395996,
                            0.0,
                            1.42357337474823,
                            1.0304944515228271,
                            0.0,
                            0.5854809880256653,
                            0.5854809880256653,
                            0.46325939893722534,
                            0.46325939893722534,
                            0.46325939893722534,
                            0.46325939893722534,
                            0.5854809880256653,
                            0.5854809880256653,
                            0.60025554895401,
                            -8.98401165008545,
                            0.0,
                            0.0,
                            0.0,
                            0.0
                        ]
                    },
                    {
                        "triggerTime_ms": 528,
                        "faceAngle": 0.0,
                        "faceCenterX": 0.0,
                        "faceCenterY": 12.41154956817627,
                        "faceScaleX": 1.0187441110610962,
                        "faceScaleY": 1.0261385440826416,
                        "leftEye": [
                            9.682978630065918,
                            4.272152423858643,
                            1.0457555055618286,
                            0.7967790365219116,
                            0.0,
                            0.5854809880256653,
                            0.5854809880256653,
                            0.46325939893722534,
                            0.46325939893722534,
                            0.46325939893722534,
                            0.46325939893722534,
                            0.5854809880256653,
                            0.5854809880256653,
                            0.6002601385116577,
                            -8.98401165008545,
                            0.0,
                            0.0,
                            0.0,
                            0.0
                        ],
                        "rightEye": [
                            -10.206374168395996,
                            0.0,
                            1.42357337474823,
                            1.0304944515228271,
                            0.0,
                            0.5854809880256653,
                            0.5854809880256653,
                            0.46325939893722534,
                            0.46325939893722534,
                            0.46325939893722534,
                            0.46325939893722534,
                            0.5854809880256653,
                            0.5854809880256653,
                            0.60025554895401,
                            -8.98401165008545,
                            0.0,
                            0.0,
                            0.0,
                            0.0
                        ]
                    },
                    {
                        "triggerTime_ms": 660,
                        "faceAngle": 0.0,
                        "faceCenterX": 0.0,
                        "faceCenterY": 12.761009216308594,
                        "faceScaleX": 1.0090880393981934,
                        "faceScaleY": 1.0026768445968628,
                        "leftEye": [
                            9.682978630065918,
                            4.272152423858643,
                            1.0457555055618286,
                            0.7967790365219116,
                            0.0,
                            0.5854809880256653,
                            0.5854809880256653,
                            0.46325939893722534,
                            0.46325939893722534,
                            0.46325939893722534,
                            0.46325939893722534,
                            0.5854809880256653,
                            0.5854809880256653,
                            0.6002601385116577,
                            -8.98401165008545,
                            0.0,
                            0.0,
                            0.0,
                            0.0
                        ],
                        "rightEye": [
                            -10.206374168395996,
                            0.0,
                            1.42357337474823,
                            1.0304944515228271,
                            0.0,
                            0.5854809880256653,
                            0.5854809880256653,
                            0.46325939893722534,
                            0.46325939893722534,
                            0.46325939893722534,
                            0.46325939893722534,
                            0.5854809880256653,
                            0.5854809880256653,
                            0.60025554895401,
                            -8.98401165008545,
                            0.0,
                            0.0,
                            0.0,
                            0.0
                        ]
                    },
                    {
                        "triggerTime_ms": 726,
                        "faceAngle": 0.0,
                        "faceCenterX": 0.0,
                        "faceCenterY": 12.935738563537598,
                        "faceScaleX": 1.0042600631713867,
                        "faceScaleY": 1.0017845630645752,
                        "leftEye": [
                            9.682978630065918,
                            4.272152423858643,
                            1.0457555055618286,
                            0.7967790365219116,
                            0.0,
                            0.5854809880256653,
                            0.5854809880256653,
                            0.46325939893722534,
                            0.46325939893722534,
                            0.46325939893722534,
                            0.46325939893722534,
                            0.5854809880256653,
                            0.5854809880256653,
                            0.6002601385116577,
                            -8.98401165008545,
                            0.0,
                            0.0,
                            0.0,
                            0.0
                        ],
                        "rightEye": [
                            -10.206374168395996,
                            0.0,
                            1.42357337474823,
                            1.0304944515228271,
                            0.0,
                            0.5854809880256653,
                            0.5854809880256653,
                            0.46325939893722534,
                            0.46325939893722534,
                            0.46325939893722534,
                            0.46325939893722534,
                            0.5854809880256653,
                            0.5854809880256653,
                            0.60025554895401,
                            -8.98401165008545,
                            0.0,
                            0.0,
                            0.0,
                            0.0
                        ]
                    },
                    {
                        "triggerTime_ms": 858,
                        "faceAngle": 0.0,
                        "faceCenterX": 0.0,
                        "faceCenterY": 12.935738563537598,
                        "faceScaleX": 1.0,
                        "faceScaleY": 1.0,
                        "leftEye": [
                            9.682978630065918,
                            4.272152423858643,
                            1.0457555055618286,
                            0.7967790365219116,
                            0.0,
                            0.5854809880256653,
                            0.5854809880256653,
                            0.46325939893722534,
                            0.46325939893722534,
                            0.46325939893722534,
                            0.46325939893722534,
                            0.5854809880256653,
                            0.5854809880256653,
                            0.6002601385116577,
                            -8.98401165008545,
                            0.0,
                            0.0,
                            0.0,
                            0.0
                        ],
                        "rightEye": [
                            -10.206374168395996,
                            0.0,
                            1.42357337474823,
                            1.0304944515228271,
                            0.0,
                            0.5854809880256653,
                            0.5854809880256653,
                            0.46325939893722534,
                            0.46325939893722534,
                            0.46325939893722534,
                            0.46325939893722534,
                            0.5854809880256653,
                            0.5854809880256653,
                            0.60025554895401,
                            -8.98401165008545,
                            0.0,
                            0.0,
                            0.0,
                            0.0
                        ]
                    }
                ],
                "HeadAngleKeyFrame": [
                    {
                        "triggerTime_ms": 0,
                        "durationTime_ms": 198,
                        "angle_deg": -9,
                        "angleVariability_deg": 0
                    },
                    {
                        "triggerTime_ms": 198,
                        "durationTime_ms": 165,
                        "angle_deg": -21,
                        "angleVariability_deg": 0
                    },
                    {
                        "triggerTime_ms": 363,
                        "durationTime_ms": 330,
                        "angle_deg": 8,
                        "angleVariability_deg": 0
                    },
                    {
                        "triggerTime_ms": 693,
                        "durationTime_ms": 99,
                        "angle_deg": 12,
                        "angleVariability_deg": 0
                    },
                    {
                        "triggerTime_ms": 792,
                        "durationTime_ms": 132,
                        "angle_deg": -9,
                        "angleVariability_deg": 0
                    }
                ],
                "RobotAudioKeyFrame": [
                    {
                        "triggerTime_ms": 66,
                        "audioEventId": [
                            3613386685
                        ],
                        "volume": 1.0,
                        "probability": [
                            1.0
                        ],
                        "hasAlts": true
                    },
                    {
                        "triggerTime_ms": 297,
                        "audioEventId": [
                            1571365350
                        ],
                        "volume": 1.0,
                        "probability": [
                            1.0
                        ],
                        "hasAlts": true
                    }
                ],
                "BackpackLightsKeyFrame": [],
                "FaceAnimationKeyFrame": [],
                "EventKeyFrame": [],
                "BodyMotionKeyFrame": [
                    {
                        "triggerTime_ms": 0,
                        "durationTime_ms": 147,
                        "radius_mm": "STRAIGHT",
                        "speed": -27
                    },
                    {
                        "triggerTime_ms": 147,
                        "durationTime_ms": 689,
                        "radius_mm": "STRAIGHT",
                        "speed": 57
                    }
                ],
                "RecordHeadingKeyFrame": [],
                "TurnToRecordedHeadingKeyFrame": []
            }
        }
    ]
}