{
    "clips": [
        {
            "Name": "anim_launch_eyeson_01",
            "keyframes": {
                "LiftHeightKeyFrame": [],
                "ProceduralFaceKeyFrame": [
                    {
                        "triggerTime_ms": 0,
                        "faceAngle": 0.0,
                        "faceCenterX": 0.0,
                        "faceCenterY": 13.243277549743652,
                        "faceScaleX": 1.0,
                        "faceScaleY": 1.0,
                        "leftEye": [
                            31.16681671142578,
                            53.59272003173828,
                            -0.052026599645614624,
                            0.09021411091089249,
                            0.0,
                            0.9025423526763916,
                            0.9025423526763916,
                            0.9025423526763916,
                            0.9025423526763916,
                            0.9025423526763916,
                            0.9025423526763916,
                            0.9025423526763916,
                            0.9025423526763916,
                            0.0,
                            0.0,
                            0.0,
                            0.0,
                            0.0,
                            0.0
                        ],
                        "rightEye": [
                            -31.652286529541016,
                            52.686431884765625,
                            -0.08984103053808212,
                            0.09021411091089249,
                            0.0,
                            0.9025423526763916,
                            0.9025423526763916,
                            0.9025423526763916,
                            0.9025423526763916,
                            0.9025423526763916,
                            0.9025423526763916,
                            0.9025423526763916,
                            0.9025423526763916,
                            0.0,
                            0.0,
                            0.0,
                            0.0,
                            0.0,
                            0.0
                        ]
                    },
                    {
                        "triggerTime_ms": 33,
                        "faceAngle": 0.0,
                        "faceCenterX": 0.0,
                        "faceCenterY": 13.243277549743652,
                        "faceScaleX": 1.0,
                        "faceScaleY": 1.0,
                        "leftEye": [
                            31.16681671142578,
                            0.0,
                            -0.052026599645614624,
                            0.9052804112434387,
                            0.0,
                            0.9025423526763916,
                            0.9025423526763916,
                            0.9025423526763916,
                            0.9025423526763916,
                            0.9025423526763916,
                            0.9025423526763916,
                            0.9025423526763916,
                            0.9025423526763916,
                            0.8763988018035889,
                            0.0,
                            0.0,
                            0.0,
                            0.0,
                            0.0
                        ],
                        "rightEye": [
                            -31.652286529541016,
                            0.0,
                            -0.08984103053808212,
                            0.9052804112434387,
                            0.0,
                            0.9025423526763916,
                            0.9025423526763916,
                            0.9025423526763916,
                            0.9025423526763916,
                            0.9025423526763916,
                            0.9025423526763916,
                            0.9025423526763916,
                            0.9025423526763916,
                            0.8777452707290649,
                            0.0,
                            0.0,
                            0.0,
                            0.0,
                            0.0
                        ]
                    },
                    {
                        "triggerTime_ms": 66,
                        "faceAngle": 0.0,
                        "faceCenterX": 0.0,
                        "faceCenterY": 13.243277549743652,
                        "faceScaleX": 1.0,
                        "faceScaleY": 1.0,
                        "leftEye": [
                            31.16681671142578,
                            0.0,
                            0.033835843205451965,
                            0.9052804112434387,
                            0.0,
                            0.2677919566631317,
                            0.2677919566631317,
                            0.2677919566631317,
                            0.2677919566631317,
                            0.2677919566631317,
                            0.2677919566631317,
                            0.2677919566631317,
                            0.2677919566631317,
                            0.8763988018035889,
                            0.0,
                            0.0,
                            0.0,
                            0.0,
                            0.0
                        ],
                        "rightEye": [
                            -31.652286529541016,
                            0.0,
                            -0.0008923166897147894,
                            0.9052804112434387,
                            0.0,
                            0.2677919566631317,
                            0.2677919566631317,
                            0.2677919566631317,
                            0.2677919566631317,
                            0.2677919566631317,
                            0.2677919566631317,
                            0.2677919566631317,
                            0.2677919566631317,
                            0.8777452707290649,
                            0.0,
                            0.0,
                            0.0,
                            0.0,
                            0.0
                        ]
                    },
                    {
                        "triggerTime_ms": 99,
                        "faceAngle": 0.0,
                        "faceCenterX": 0.0,
                        "faceCenterY": 13.243277549743652,
                        "faceScaleX": 1.0,
                        "faceScaleY": 1.0,
                        "leftEye": [
                            29.564346313476562,
                            0.0,
                            0.16592592000961304,
                            0.9052804112434387,
                            0.0,
                            0.06451763212680817,
                            0.06451763212680817,
                            0.06451763212680817,
                            0.06451763212680817,
                            0.06451763212680817,
                            0.06451763212680817,
                            0.06451763212680817,
                            0.06451763212680817,
                            0.8763988018035889,
                            0.0,
                            0.0,
                            0.0,
                            0.0,
                            0.0
                        ],
                        "rightEye": [
                            -30.138683319091797,
                            0.0,
                            0.1359456479549408,
                            0.9052804112434387,
                            0.0,
                            0.06451763212680817,
                            0.06451763212680817,
                            0.06451763212680817,
                            0.06451763212680817,
                            0.06451763212680817,
                            0.06451763212680817,
                            0.06451763212680817,
                            0.06451763212680817,
                            0.8777452707290649,
                            0.0,
                            0.0,
                            0.0,
                            0.0,
                            0.0
                        ]
                    },
                    {
                        "triggerTime_ms": 132,
                        "faceAngle": 0.0,
                        "faceCenterX": 0.0,
                        "faceCenterY": 13.243277549743652,
                        "faceScaleX": 1.0,
                        "faceScaleY": 1.0,
                        "leftEye": [
                            19.761640548706055,
                            0.0,
                            0.8344213366508484,
                            0.9052804112434387,
                            0.0,
                            0.009999999776482582,
                            0.009999999776482582,
                            0.009999999776482582,
                            0.009999999776482582,
                            0.009999999776482582,
                            0.009999999776482582,
                            0.009999999776482582,
                            0.009999999776482582,
                            0.8763988018035889,
                            0.0,
                            0.0,
                            0.0,
                            0.0,
                            0.0
                        ],
                        "rightEye": [
                            -20.828102111816406,
                            0.0,
                            0.8284696936607361,
                            0.9052804112434387,
                            0.0,
                            0.009999999776482582,
                            0.009999999776482582,
                            0.009999999776482582,
                            0.009999999776482582,
                            0.009999999776482582,
                            0.009999999776482582,
                            0.009999999776482582,
                            0.009999999776482582,
                            0.8777452707290649,
                            0.0,
                            0.0,
                            0.0,
                            0.0,
                            0.0
                        ]
                    },
                    {
                        "triggerTime_ms": 165,
                        "faceAngle": 0.0,
                        "faceCenterX": 0.0,
                        "faceCenterY": 13.243277549743652,
                        "faceScaleX": 1.0,
                        "faceScaleY": 1.0,
                        "leftEye": [
                            9.834524154663086,
                            0.0,
                            0.9928925037384033,
                            0.9052804112434387,
                            0.0,
                            0.009999999776482582,
                            0.009999999776482582,
                            0.24435868859291077,
                            0.24435868859291077,
                            0.24435868859291077,
                            0.24435868859291077,
                            0.009999999776482582,
                            0.009999999776482582,
                            0.8763988018035889,
                            0.0,
                            0.0,
                            0.0,
                            0.0,
                            0.0
                        ],
                        "rightEye": [
                            -10.890475273132324,
                            0.0,
                            0.9926369786262512,
                            0.9052804112434387,
                            0.0,
                            0.009999999776482582,
                            0.009999999776482582,
                            0.24435868859291077,
                            0.24435868859291077,
                            0.24435868859291077,
                            0.24435868859291077,
                            0.009999999776482582,
                            0.009999999776482582,
                            0.8777452707290649,
                            0.0,
                            0.0,
                            0.0,
                            0.0,
                            0.0
                        ]
                    },
                    {
                        "triggerTime_ms": 198,
                        "faceAngle": 0.0,
                        "faceCenterX": 0.0,
                        "faceCenterY": 13.243277549743652,
                        "faceScaleX": 1.0,
                        "faceScaleY": 1.0,
                        "leftEye": [
                            9.169666290283203,
                            0.0,
                            0.9243309497833252,
                            0.9052804112434387,
                            0.0,
                            0.43068063259124756,
                            0.43068063259124756,
                            0.5,
                            0.5,
                            0.5,
                            0.5,
                            0.43068063259124756,
                            0.43068063259124756,
                            0.8763988018035889,
                            0.0,
                            0.0,
                            0.0,
                            0.0,
                            0.0
                        ],
                        "rightEye": [
                            -10.206374168395996,
                            0.0,
                            0.9216110706329346,
                            0.9052804112434387,
                            0.0,
                            0.43068063259124756,
                            0.43068063259124756,
                            0.5,
                            0.5,
                            0.5,
                            0.5,
                            0.43068063259124756,
                            0.43068063259124756,
                            0.8777452707290649,
                            0.0,
                            0.0,
                            0.0,
                            0.0,
                            0.0
                        ]
                    },
                    {
                        "triggerTime_ms": 462,
                        "faceAngle": 0.0,
                        "faceCenterX": 0.0,
                        "faceCenterY": 13.243277549743652,
                        "faceScaleX": 1.0,
                        "faceScaleY": 1.0,
                        "leftEye": [
                            9.169666290283203,
                            0.0,
                            0.8145643472671509,
                            0.9052804112434387,
                            0.0,
                            0.5,
                            0.5,
                            0.5,
                            0.5,
                            0.5,
                            0.5,
                            0.5,
                            0.5,
                            0.8763988018035889,
                            0.0,
                            0.0,
                            0.0,
                            0.0,
                            0.0
                        ],
                        "rightEye": [
                            -10.206374168395996,
                            0.0,
                            0.807898998260498,
                            0.9052804112434387,
                            0.0,
                            0.5,
                            0.5,
                            0.5,
                            0.5,
                            0.5,
                            0.5,
                            0.5,
                            0.5,
                            0.8777452707290649,
                            0.0,
                            0.0,
                            0.0,
                            0.0,
                            0.0
                        ]
                    }
                ],
                "HeadAngleKeyFrame": [
                    {
                        "triggerTime_ms": 99,
                        "durationTime_ms": 231,
                        "angle_deg": -20,
                        "angleVariability_deg": 0
                    },
                    {
                        "triggerTime_ms": 330,
                        "durationTime_ms": 165,
                        "angle_deg": -16,
                        "angleVariability_deg": 0
                    }
                ],
                "RobotAudioKeyFrame": [
                    {
                        "triggerTime_ms": 66,
                        "audioEventId": [
                            1701725212
                        ],
                        "volume": 1.0,
                        "probability": [
                            1.0
                        ],
                        "hasAlts": true
                    }
                ],
                "BackpackLightsKeyFrame": [
                    {
                        "triggerTime_ms": 0,
                        "durationTime_ms": 66,
                        "Left": [
                            0,
                            0,
                            0,
                            0
                        ],
                        "Front": [
                            0,
                            0,
                            0,
                            0
                        ],
                        "Middle": [
                            0,
                            0,
                            0,
                            0
                        ],
                        "Back": [
                            0,
                            0,
                            0,
                            0
                        ],
                        "Right": [
                            0,
                            0,
                            0,
                            0
                        ]
                    },
                    {
                        "triggerTime_ms": 66,
                        "durationTime_ms": 429,
                        "Left": [
                            0,
                            0,
                            0,
                            0
                        ],
                        "Front": [
                            0,
                            0,
                            0,
                            0
                        ],
                        "Middle": [
                            0,
                            0,
                            0,
                            0
                        ],
                        "Back": [
                            0,
                            0,
                            0,
                            0
                        ],
                        "Right": [
                            0,
                            0,
                            0,
                            0
                        ]
                    }
                ],
                "FaceAnimationKeyFrame": [],
                "EventKeyFrame": [],
                "BodyMotionKeyFrame": [],
                "RecordHeadingKeyFrame": [],
                "TurnToRecordedHeadingKeyFrame": []
            }
        }
    ]
}