{
    "clips": [
        {
            "Name": "anim_workout_lowenergy_getin_01",
            "keyframes": {
                "LiftHeightKeyFrame": [
                    {
                        "triggerTime_ms": 0,
                        "durationTime_ms": 132,
                        "height_mm": 0,
                        "heightVariability_mm": 0
                    },
                    {
                        "triggerTime_ms": 759,
                        "durationTime_ms": 165,
                        "height_mm": 40,
                        "heightVariability_mm": 0
                    },
                    {
                        "triggerTime_ms": 924,
                        "durationTime_ms": 33,
                        "height_mm": 0,
                        "heightVariability_mm": 0
                    }
                ],
                "ProceduralFaceKeyFrame": [
                    {
                        "triggerTime_ms": 0,
                        "faceAngle": 0.0,
                        "faceCenterX": 0.0,
                        "faceCenterY": 0.0,
                        "faceScaleX": 1.0,
                        "faceScaleY": 1.0,
                        "leftEye": [
                            9.169666290283203,
                            0.0,
                            1.214332938194275,
                            0.9052804112434387,
                            0.0,
                            0.5,
                            0.5,
                            0.5,
                            0.5,
                            0.5,
                            0.5,
                            0.5,
                            0.5,
                            0.0,
                            0.0,
                            0.0,
                            0.0,
                            0.0,
                            0.0
                        ],
                        "rightEye": [
                            -10.206374168395996,
                            0.0,
                            1.2220369577407837,
                            0.9052804112434387,
                            0.0,
                            0.5,
                            0.5,
                            0.5,
                            0.5,
                            0.5,
                            0.5,
                            0.5,
                            0.5,
                            0.0,
                            0.0,
                            0.0,
                            0.0,
                            0.0,
                            0.0
                        ]
                    },
                    {
                        "triggerTime_ms": 99,
                        "faceAngle": 0.0,
                        "faceCenterX": 0.6930657029151917,
                        "faceCenterY": -0.18749822676181793,
                        "faceScaleX": 0.9375702738761902,
                        "faceScaleY": 1.0,
                        "leftEye": [
                            9.169666290283203,
                            0.0,
                            1.214332938194275,
                            0.9052804112434387,
                            0.0,
                            0.5,
                            0.5,
                            0.5,
                            0.5,
                            0.5,
                            0.5,
                            0.5,
                            0.5,
                            0.0,
                            0.0,
                            0.0,
                            0.0,
                            0.0,
                            0.0
                        ],
                        "rightEye": [
                            -10.206374168395996,
                            0.0,
                            1.2220369577407837,
                            0.9052804112434387,
                            0.0,
                            0.5,
                            0.5,
                            0.5,
                            0.5,
                            0.5,
                            0.5,
                            0.5,
                            0.5,
                            0.0,
                            0.0,
                            0.0,
                            0.0,
                            0.0,
                            0.0
                        ]
                    },
                    {
                        "triggerTime_ms": 132,
                        "faceAngle": 0.0,
                        "faceCenterX": 0.10415603965520859,
                        "faceCenterY": 0.32039129734039307,
                        "faceScaleX": 0.9449926018714905,
                        "faceScaleY": 1.0302854776382446,
                        "leftEye": [
                            11.172155380249023,
                            0.0,
                            1.214332938194275,
                            0.9052804112434387,
                            0.0,
                            0.5,
                            0.5,
                            0.5,
                            0.5,
                            0.5,
                            0.5,
                            0.5,
                            0.5,
                            0.0,
                            0.0,
                            0.0,
                            0.0,
                            0.0,
                            0.0
                        ],
                        "rightEye": [
                            -10.686574935913086,
                            0.0,
                            1.2220369577407837,
                            0.9052804112434387,
                            0.0,
                            0.5,
                            0.5,
                            0.5,
                            0.5,
                            0.5,
                            0.5,
                            0.5,
                            0.5,
                            0.0,
                            0.0,
                            0.0,
                            0.0,
                            0.0,
                            0.0
                        ]
                    },
                    {
                        "triggerTime_ms": 165,
                        "faceAngle": 0.0,
                        "faceCenterX": 1.029356837272644,
                        "faceCenterY": 1.475042700767517,
                        "faceScaleX": 1.0203571319580078,
                        "faceScaleY": 1.0195081233978271,
                        "leftEye": [
                            11.500019073486328,
                            0.0,
                            1.214332938194275,
                            0.8340328931808472,
                            0.0,
                            0.5,
                            0.5,
                            0.5,
                            0.5,
                            0.5,
                            0.5,
                            0.5,
                            0.5,
                            0.0,
                            0.0,
                            0.0,
                            0.0,
                            0.0,
                            0.0
                        ],
                        "rightEye": [
                            -10.206374168395996,
                            0.0,
                            1.2220369577407837,
                            0.9052804112434387,
                            0.0,
                            0.5,
                            0.5,
                            0.5,
                            0.5,
                            0.5,
                            0.5,
                            0.5,
                            0.5,
                            0.0,
                            0.0,
                            0.0,
                            0.0,
                            0.0,
                            0.0
                        ]
                    },
                    {
                        "triggerTime_ms": 198,
                        "faceAngle": 0.0,
                        "faceCenterX": 1.4342414140701294,
                        "faceCenterY": 1.9559359550476074,
                        "faceScaleX": 0.9835641980171204,
                        "faceScaleY": 0.985938549041748,
                        "leftEye": [
                            11.500019073486328,
                            0.0,
                            1.214332938194275,
                            0.8340328931808472,
                            0.0,
                            0.5,
                            0.5,
                            0.5,
                            0.5,
                            0.5,
                            0.5,
                            0.5,
                            0.5,
                            0.0,
                            0.0,
                            0.0,
                            0.0,
                            0.0,
                            0.0
                        ],
                        "rightEye": [
                            -10.206374168395996,
                            0.0,
                            1.2220369577407837,
                            0.9052804112434387,
                            0.0,
                            0.5,
                            0.5,
                            0.5,
                            0.5,
                            0.5,
                            0.5,
                            0.5,
                            0.5,
                            0.0,
                            0.0,
                            0.0,
                            0.0,
                            0.0,
                            0.0
                        ]
                    },
                    {
                        "triggerTime_ms": 231,
                        "faceAngle": 0.0,
                        "faceCenterX": 1.5686228275299072,
                        "faceCenterY": 1.2226581573486328,
                        "faceScaleX": 0.9292122721672058,
                        "faceScaleY": 0.9559153318405151,
                        "leftEye": [
                            11.500019073486328,
                            0.0,
                            1.214332938194275,
                            0.8340328931808472,
                            0.0,
                            0.5,
                            0.5,
                            0.5,
                            0.5,
                            0.5,
                            0.5,
                            0.5,
                            0.5,
                            0.0,
                            0.0,
                            0.0,
                            0.0,
                            0.0,
                            0.0
                        ],
                        "rightEye": [
                            -10.206374168395996,
                            0.0,
                            1.2220369577407837,
                            0.9052804112434387,
                            0.0,
                            0.5,
                            0.5,
                            0.5,
                            0.5,
                            0.5,
                            0.5,
                            0.5,
                            0.5,
                            0.0,
                            0.0,
                            0.0,
                            0.0,
                            0.0,
                            0.0
                        ]
                    },
                    {
                        "triggerTime_ms": 264,
                        "faceAngle": 0.0,
                        "faceCenterX": 1.5686228275299072,
                        "faceCenterY": 1.2226581573486328,
                        "faceScaleX": 0.9150031208992004,
                        "faceScaleY": 0.9487907290458679,
                        "leftEye": [
                            11.500019073486328,
                            0.0,
                            1.214332938194275,
                            0.8340328931808472,
                            0.0,
                            0.5,
                            0.5,
                            0.5,
                            0.5,
                            0.5,
                            0.5,
                            0.5,
                            0.5,
                            0.0,
                            0.0,
                            0.0,
                            0.0,
                            0.0,
                            0.0
                        ],
                        "rightEye": [
                            -10.206374168395996,
                            0.0,
                            1.2220369577407837,
                            0.9052804112434387,
                            0.0,
                            0.5,
                            0.5,
                            0.5,
                            0.5,
                            0.5,
                            0.5,
                            0.5,
                            0.5,
                            0.0,
                            0.0,
                            0.0,
                            0.0,
                            0.0,
                            0.0
                        ]
                    },
                    {
                        "triggerTime_ms": 594,
                        "faceAngle": 0.0,
                        "faceCenterX": 1.5686228275299072,
                        "faceCenterY": 1.2226581573486328,
                        "faceScaleX": 0.9150031208992004,
                        "faceScaleY": 0.9487907290458679,
                        "leftEye": [
                            11.500019073486328,
                            0.0,
                            1.214332938194275,
                            0.8340328931808472,
                            0.0,
                            0.5,
                            0.5,
                            0.5,
                            0.5,
                            0.5,
                            0.5,
                            0.5,
                            0.5,
                            0.0,
                            0.0,
                            0.0,
                            0.0,
                            0.0,
                            0.0
                        ],
                        "rightEye": [
                            -10.206374168395996,
                            0.0,
                            1.2220369577407837,
                            0.9052804112434387,
                            0.0,
                            0.5,
                            0.5,
                            0.5,
                            0.5,
                            0.5,
                            0.5,
                            0.5,
                            0.5,
                            0.0,
                            0.0,
                            0.0,
                            0.0,
                            0.0,
                            0.0
                        ]
                    },
                    {
                        "triggerTime_ms": 627,
                        "faceAngle": 0.0,
                        "faceCenterX": 1.5686228275299072,
                        "faceCenterY": 1.4121811389923096,
                        "faceScaleX": 0.8931471705436707,
                        "faceScaleY": 0.9970589876174927,
                        "leftEye": [
                            11.500019073486328,
                            -0.002791422652080655,
                            1.214332938194275,
                            0.9002841114997864,
                            0.0,
                            0.5,
                            0.5,
                            0.5,
                            0.5,
                            0.5,
                            0.5,
                            0.5,
                            0.5,
                            0.0,
                            0.0,
                            0.0,
                            0.0,
                            0.0,
                            0.0
                        ],
                        "rightEye": [
                            -10.206374168395996,
                            -0.20838117599487305,
                            1.2220369577407837,
                            0.9574624300003052,
                            0.0,
                            0.5,
                            0.5,
                            0.5,
                            0.5,
                            0.5,
                            0.5,
                            0.5,
                            0.5,
                            0.0,
                            0.0,
                            0.0,
                            0.0,
                            0.0,
                            0.0
                        ]
                    },
                    {
                        "triggerTime_ms": 660,
                        "faceAngle": 0.0,
                        "faceCenterX": 1.519063949584961,
                        "faceCenterY": -2.694765090942383,
                        "faceScaleX": 0.8035994172096252,
                        "faceScaleY": 0.9998714923858643,
                        "leftEye": [
                            11.32943058013916,
                            -0.5297221541404724,
                            1.214332938194275,
                            0.9031964540481567,
                            0.0,
                            0.5,
                            0.5,
                            0.5,
                            0.5,
                            0.5,
                            0.5,
                            0.5,
                            0.5,
                            0.08835761249065399,
                            0.0,
                            0.0,
                            0.0,
                            0.0,
                            0.0
                        ],
                        "rightEye": [
                            -10.206374168395996,
                            -1.0854884386062622,
                            1.2220369577407837,
                            0.9536426067352295,
                            0.0,
                            0.5,
                            0.5,
                            0.5,
                            0.5,
                            0.5,
                            0.5,
                            0.5,
                            0.5,
                            0.091934435069561,
                            0.0,
                            0.0,
                            0.0,
                            0.0,
                            0.0
                        ]
                    },
                    {
                        "triggerTime_ms": 693,
                        "faceAngle": 0.0,
                        "faceCenterX": 1.3724780082702637,
                        "faceCenterY": -15.979195594787598,
                        "faceScaleX": 0.7427591681480408,
                        "faceScaleY": 1.0,
                        "leftEye": [
                            11.021159172058105,
                            -1.4751642942428589,
                            1.214332938194275,
                            0.9040237069129944,
                            0.0,
                            0.5,
                            0.5,
                            0.5,
                            0.5,
                            0.5,
                            0.5,
                            0.5,
                            0.5,
                            0.26645708084106445,
                            0.0,
                            0.0,
                            0.0,
                            0.0,
                            0.0
                        ],
                        "rightEye": [
                            -10.206374168395996,
                            -2.1650257110595703,
                            1.2220369577407837,
                            0.9467397332191467,
                            0.0,
                            0.5,
                            0.5,
                            0.5,
                            0.5,
                            0.5,
                            0.5,
                            0.5,
                            0.5,
                            0.2784135639667511,
                            0.0,
                            0.0,
                            0.0,
                            0.0,
                            0.0
                        ]
                    },
                    {
                        "triggerTime_ms": 726,
                        "faceAngle": 0.0,
                        "faceCenterX": 0.9864596724510193,
                        "faceCenterY": -20.811826705932617,
                        "faceScaleX": 0.7694799900054932,
                        "faceScaleY": 1.0,
                        "leftEye": [
                            10.673927307128906,
                            -2.5389935970306396,
                            1.214332938194275,
                            0.9046021699905396,
                            0.0,
                            0.5,
                            0.5,
                            0.5,
                            0.5,
                            0.5,
                            0.5,
                            0.5,
                            0.5,
                            0.4453893005847931,
                            0.0,
                            0.0,
                            0.0,
                            0.0,
                            0.0
                        ],
                        "rightEye": [
                            -10.206374168395996,
                            -3.2984049320220947,
                            1.2220369577407837,
                            0.938964307308197,
                            0.0,
                            0.5,
                            0.5,
                            0.5,
                            0.5,
                            0.5,
                            0.5,
                            0.5,
                            0.5,
                            0.45807263255119324,
                            0.0,
                            0.0,
                            0.0,
                            0.0,
                            0.0
                        ]
                    },
                    {
                        "triggerTime_ms": 759,
                        "faceAngle": 0.0,
                        "faceCenterX": 0.5555204153060913,
                        "faceCenterY": -22.365922927856445,
                        "faceScaleX": 0.8389504551887512,
                        "faceScaleY": 1.0,
                        "leftEye": [
                            10.30247688293457,
                            -3.6761913299560547,
                            1.214332938194275,
                            0.9049161076545715,
                            0.0,
                            0.49873095750808716,
                            0.49873095750808716,
                            0.521201491355896,
                            0.521201491355896,
                            0.521201491355896,
                            0.521201491355896,
                            0.49873095750808716,
                            0.49873095750808716,
                            0.5810282230377197,
                            0.0,
                            0.0,
                            0.0,
                            0.0,
                            0.0
                        ],
                        "rightEye": [
                            -10.206374168395996,
                            -4.4490203857421875,
                            1.2220369577407837,
                            0.9306466579437256,
                            0.0,
                            0.49873095750808716,
                            0.49873095750808716,
                            0.521201491355896,
                            0.521201491355896,
                            0.521201491355896,
                            0.521201491355896,
                            0.49873095750808716,
                            0.49873095750808716,
                            0.5927858352661133,
                            0.0,
                            0.0,
                            0.0,
                            0.0,
                            0.0
                        ]
                    },
                    {
                        "triggerTime_ms": 825,
                        "faceAngle": 0.0,
                        "faceCenterX": 0.0,
                        "faceCenterY": -12.329790115356445,
                        "faceScaleX": 0.9939110279083252,
                        "faceScaleY": 1.0,
                        "leftEye": [
                            9.533783912658691,
                            -6.027326583862305,
                            1.214332938194275,
                            0.905202329158783,
                            0.0,
                            0.4450485408306122,
                            0.4450485408306122,
                            0.607566773891449,
                            0.607566773891449,
                            0.607566773891449,
                            0.607566773891449,
                            0.4450485408306122,
                            0.4450485408306122,
                            0.7692212462425232,
                            0.0,
                            0.0,
                            0.0,
                            0.0,
                            0.0
                        ],
                        "rightEye": [
                            -10.206374168395996,
                            -6.664178371429443,
                            1.2220369577407837,
                            0.913433849811554,
                            0.0,
                            0.4450485408306122,
                            0.4450485408306122,
                            0.607566773891449,
                            0.607566773891449,
                            0.607566773891449,
                            0.607566773891449,
                            0.4450485408306122,
                            0.4450485408306122,
                            0.7554729580879211,
                            0.0,
                            0.0,
                            0.0,
                            0.0,
                            0.0
                        ]
                    },
                    {
                        "triggerTime_ms": 858,
                        "faceAngle": 0.0,
                        "faceCenterX": 0.0,
                        "faceCenterY": -11.05440616607666,
                        "faceScaleX": 1.0877141952514648,
                        "faceScaleY": 1.0,
                        "leftEye": [
                            9.169666290283203,
                            -7.1392598152160645,
                            1.214332938194275,
                            0.9052804112434387,
                            0.0,
                            0.2801941931247711,
                            0.2801941931247711,
                            0.607566773891449,
                            0.607566773891449,
                            0.607566773891449,
                            0.607566773891449,
                            0.2801941931247711,
                            0.2801941931247711,
                            0.7801939845085144,
                            0.0,
                            0.0,
                            0.0,
                            0.0,
                            0.0
                        ],
                        "rightEye": [
                            -10.206374168395996,
                            -7.581854343414307,
                            1.2220369577407837,
                            0.9052804112434387,
                            0.0,
                            0.2801941931247711,
                            0.2801941931247711,
                            0.607566773891449,
                            0.607566773891449,
                            0.607566773891449,
                            0.607566773891449,
                            0.2801941931247711,
                            0.2801941931247711,
                            0.8025310039520264,
                            0.0,
                            0.0,
                            0.0,
                            0.0,
                            0.0
                        ]
                    },
                    {
                        "triggerTime_ms": 891,
                        "faceAngle": 0.0,
                        "faceCenterX": 0.0,
                        "faceCenterY": -11.374919891357422,
                        "faceScaleX": 1.1434543132781982,
                        "faceScaleY": 1.0,
                        "leftEye": [
                            9.169666290283203,
                            -7.1392598152160645,
                            1.214332938194275,
                            0.9052804112434387,
                            0.0,
                            0.20180125534534454,
                            0.20180125534534454,
                            0.607566773891449,
                            0.607566773891449,
                            0.607566773891449,
                            0.607566773891449,
                            0.20180125534534454,
                            0.20180125534534454,
                            0.7817614674568176,
                            0.0,
                            0.0,
                            0.0,
                            0.0,
                            0.0
                        ],
                        "rightEye": [
                            -10.206374168395996,
                            -7.581854343414307,
                            1.2220369577407837,
                            0.9052804112434387,
                            0.0,
                            0.20180125534534454,
                            0.20180125534534454,
                            0.607566773891449,
                            0.607566773891449,
                            0.607566773891449,
                            0.607566773891449,
                            0.20180125534534454,
                            0.20180125534534454,
                            0.8196125626564026,
                            0.0,
                            0.0,
                            0.0,
                            0.0,
                            0.0
                        ]
                    },
                    {
                        "triggerTime_ms": 1023,
                        "faceAngle": 0.0,
                        "faceCenterX": 0.0,
                        "faceCenterY": -15.202447891235352,
                        "faceScaleX": 1.0436105728149414,
                        "faceScaleY": 1.0,
                        "leftEye": [
                            9.169666290283203,
                            -7.1392598152160645,
                            1.214332938194275,
                            0.9052804112434387,
                            0.0,
                            0.5,
                            0.5,
                            0.607566773891449,
                            0.607566773891449,
                            0.607566773891449,
                            0.607566773891449,
                            0.5,
                            0.5,
                            0.7493976354598999,
                            0.0,
                            0.0,
                            0.0,
                            0.0,
                            0.0
                        ],
                        "rightEye": [
                            -10.206374168395996,
                            -7.581854343414307,
                            1.2220369577407837,
                            0.9052804112434387,
                            0.0,
                            0.5,
                            0.5,
                            0.607566773891449,
                            0.607566773891449,
                            0.607566773891449,
                            0.607566773891449,
                            0.5,
                            0.5,
                            0.8196125626564026,
                            0.0,
                            0.0,
                            0.0,
                            0.0,
                            0.0
                        ]
                    },
                    {
                        "triggerTime_ms": 1155,
                        "faceAngle": 0.0,
                        "faceCenterX": 0.0,
                        "faceCenterY": -15.202447891235352,
                        "faceScaleX": 1.0,
                        "faceScaleY": 1.0,
                        "leftEye": [
                            9.169666290283203,
                            -7.1392598152160645,
                            1.214332938194275,
                            0.9052804112434387,
                            0.0,
                            0.5,
                            0.5,
                            0.607566773891449,
                            0.607566773891449,
                            0.607566773891449,
                            0.607566773891449,
                            0.5,
                            0.5,
                            0.7493976354598999,
                            0.0,
                            0.0,
                            0.0,
                            0.0,
                            0.0
                        ],
                        "rightEye": [
                            -10.206374168395996,
                            -7.581854343414307,
                            1.2220369577407837,
                            0.9052804112434387,
                            0.0,
                            0.5,
                            0.5,
                            0.607566773891449,
                            0.607566773891449,
                            0.607566773891449,
                            0.607566773891449,
                            0.5,
                            0.5,
                            0.8196125626564026,
                            0.0,
                            0.0,
                            0.0,
                            0.0,
                            0.0
                        ]
                    },
                    {
                        "triggerTime_ms": 1551,
                        "faceAngle": 0.0,
                        "faceCenterX": 0.0,
                        "faceCenterY": -15.202447891235352,
                        "faceScaleX": 1.0,
                        "faceScaleY": 1.0,
                        "leftEye": [
                            9.169666290283203,
                            -7.1392598152160645,
                            1.214332938194275,
                            0.9052804112434387,
                            0.0,
                            0.5,
                            0.5,
                            0.607566773891449,
                            0.607566773891449,
                            0.607566773891449,
                            0.607566773891449,
                            0.5,
                            0.5,
                            0.7493976354598999,
                            0.0,
                            0.0,
                            0.0,
                            0.0,
                            0.0
                        ],
                        "rightEye": [
                            -10.206374168395996,
                            -7.581854343414307,
                            1.2220369577407837,
                            0.9052804112434387,
                            0.0,
                            0.5,
                            0.5,
                            0.607566773891449,
                            0.607566773891449,
                            0.607566773891449,
                            0.607566773891449,
                            0.5,
                            0.5,
                            0.8196125626564026,
                            0.0,
                            0.0,
                            0.0,
                            0.0,
                            0.0
                        ]
                    },
                    {
                        "triggerTime_ms": 1584,
                        "faceAngle": 0.0,
                        "faceCenterX": 0.0,
                        "faceCenterY": -12.79330825805664,
                        "faceScaleX": 1.0,
                        "faceScaleY": 1.0,
                        "leftEye": [
                            9.169666290283203,
                            -8.554778099060059,
                            1.3393012285232544,
                            0.9052804112434387,
                            0.0,
                            0.009999999776482582,
                            0.5,
                            0.009999999776482582,
                            0.607566773891449,
                            0.009999999776482582,
                            0.607566773891449,
                            0.009999999776482582,
                            0.5,
                            0.9174311757087708,
                            0.0,
                            0.0,
                            0.0,
                            0.0,
                            0.0
                        ],
                        "rightEye": [
                            -10.206374168395996,
                            -8.97343635559082,
                            1.3514971733093262,
                            0.9052804112434387,
                            0.0,
                            0.009999999776482582,
                            0.5,
                            0.009999999776482582,
                            0.607566773891449,
                            0.009999999776482582,
                            0.607566773891449,
                            0.009999999776482582,
                            0.5,
                            0.9174242615699768,
                            0.0,
                            0.0,
                            0.0,
                            0.0,
                            0.0
                        ]
                    },
                    {
                        "triggerTime_ms": 1617,
                        "faceAngle": 0.0,
                        "faceCenterX": 0.0,
                        "faceCenterY": -12.159324645996094,
                        "faceScaleX": 1.0,
                        "faceScaleY": 1.0,
                        "leftEye": [
                            9.169666290283203,
                            -6.70810079574585,
                            1.6465409994125366,
                            0.9052804112434387,
                            0.0,
                            0.009999999776482582,
                            0.5,
                            0.009999999776482582,
                            0.607566773891449,
                            0.009999999776482582,
                            0.607566773891449,
                            0.009999999776482582,
                            0.5,
                            0.9174311757087708,
                            0.0,
                            0.0,
                            0.0,
                            0.0,
                            0.0
                        ],
                        "rightEye": [
                            -10.206374168395996,
                            -7.157986640930176,
                            1.6697804927825928,
                            0.9052804112434387,
                            0.0,
                            0.009999999776482582,
                            0.5,
                            0.009999999776482582,
                            0.607566773891449,
                            0.009999999776482582,
                            0.607566773891449,
                            0.009999999776482582,
                            0.5,
                            0.9174242615699768,
                            0.0,
                            0.0,
                            0.0,
                            0.0,
                            0.0
                        ]
                    },
                    {
                        "triggerTime_ms": 1650,
                        "faceAngle": 0.0,
                        "faceCenterX": 0.0,
                        "faceCenterY": -15.202447891235352,
                        "faceScaleX": 1.0,
                        "faceScaleY": 1.0,
                        "leftEye": [
                            9.169666290283203,
                            -6.819882869720459,
                            1.8481465578079224,
                            0.9052804112434387,
                            0.0,
                            0.13703756034374237,
                            0.5,
                            0.16492535173892975,
                            0.607566773891449,
                            0.16492535173892975,
                            0.607566773891449,
                            0.13703756034374237,
                            0.5,
                            0.862977921962738,
                            0.0,
                            0.0,
                            0.0,
                            0.0,
                            0.0
                        ],
                        "rightEye": [
                            -10.206374168395996,
                            -7.267879486083984,
                            1.8786325454711914,
                            0.9052804112434387,
                            0.0,
                            0.13703756034374237,
                            0.5,
                            0.16492535173892975,
                            0.607566773891449,
                            0.16492535173892975,
                            0.607566773891449,
                            0.13703756034374237,
                            0.5,
                            0.881176769733429,
                            0.0,
                            0.0,
                            0.0,
                            0.0,
                            0.0
                        ]
                    },
                    {
                        "triggerTime_ms": 1716,
                        "faceAngle": 0.0,
                        "faceCenterX": 0.0,
                        "faceCenterY": -15.202447891235352,
                        "faceScaleX": 1.0,
                        "faceScaleY": 1.0,
                        "leftEye": [
                            9.169666290283203,
                            -7.1392598152160645,
                            1.3693655729293823,
                            0.9052804112434387,
                            0.0,
                            0.5,
                            0.5,
                            0.607566773891449,
                            0.607566773891449,
                            0.607566773891449,
                            0.607566773891449,
                            0.5,
                            0.5,
                            0.7073980569839478,
                            0.0,
                            0.0,
                            0.0,
                            0.0,
                            0.0
                        ],
                        "rightEye": [
                            -10.206374168395996,
                            -7.581854343414307,
                            1.382642149925232,
                            0.9052804112434387,
                            0.0,
                            0.5,
                            0.5,
                            0.607566773891449,
                            0.607566773891449,
                            0.607566773891449,
                            0.607566773891449,
                            0.5,
                            0.5,
                            0.7776132822036743,
                            0.0,
                            0.0,
                            0.0,
                            0.0,
                            0.0
                        ]
                    },
                    {
                        "triggerTime_ms": 1848,
                        "faceAngle": 0.0,
                        "faceCenterX": 0.0,
                        "faceCenterY": -15.202447891235352,
                        "faceScaleX": 1.0,
                        "faceScaleY": 1.0,
                        "leftEye": [
                            9.169666290283203,
                            -7.1392598152160645,
                            1.2265366315841675,
                            0.9052804112434387,
                            0.0,
                            0.5,
                            0.5,
                            0.607566773891449,
                            0.607566773891449,
                            0.607566773891449,
                            0.607566773891449,
                            0.5,
                            0.5,
                            0.7493976354598999,
                            0.0,
                            0.0,
                            0.0,
                            0.0,
                            0.0
                        ],
                        "rightEye": [
                            -10.206374168395996,
                            -7.581854343414307,
                            1.2346793413162231,
                            0.9052804112434387,
                            0.0,
                            0.5,
                            0.5,
                            0.607566773891449,
                            0.607566773891449,
                            0.607566773891449,
                            0.607566773891449,
                            0.5,
                            0.5,
                            0.8196125626564026,
                            0.0,
                            0.0,
                            0.0,
                            0.0,
                            0.0
                        ]
                    },
                    {
                        "triggerTime_ms": 1947,
                        "faceAngle": 0.0,
                        "faceCenterX": 0.0,
                        "faceCenterY": -15.202447891235352,
                        "faceScaleX": 1.0,
                        "faceScaleY": 1.0,
                        "leftEye": [
                            9.169666290283203,
                            -7.1392598152160645,
                            1.214332938194275,
                            0.9052804112434387,
                            0.0,
                            0.5,
                            0.5,
                            0.607566773891449,
                            0.607566773891449,
                            0.607566773891449,
                            0.607566773891449,
                            0.5,
                            0.5,
                            0.7493976354598999,
                            0.0,
                            0.0,
                            0.0,
                            0.0,
                            0.0
                        ],
                        "rightEye": [
                            -10.206374168395996,
                            -7.581854343414307,
                            1.2220369577407837,
                            0.9052804112434387,
                            0.0,
                            0.5,
                            0.5,
                            0.607566773891449,
                            0.607566773891449,
                            0.607566773891449,
                            0.607566773891449,
                            0.5,
                            0.5,
                            0.8196125626564026,
                            0.0,
                            0.0,
                            0.0,
                            0.0,
                            0.0
                        ]
                    },
                    {
                        "triggerTime_ms": 2013,
                        "faceAngle": 0.0,
                        "faceCenterX": 0.0,
                        "faceCenterY": -15.202447891235352,
                        "faceScaleX": 1.0,
                        "faceScaleY": 1.0,
                        "leftEye": [
                            9.169666290283203,
                            -7.1392598152160645,
                            1.214332938194275,
                            0.9052804112434387,
                            0.0,
                            0.5,
                            0.5,
                            0.607566773891449,
                            0.607566773891449,
                            0.607566773891449,
                            0.607566773891449,
                            0.5,
                            0.5,
                            0.7493976354598999,
                            0.0,
                            0.0,
                            0.0,
                            0.0,
                            0.0
                        ],
                        "rightEye": [
                            -10.206374168395996,
                            -7.581854343414307,
                            1.2220369577407837,
                            0.9052804112434387,
                            0.0,
                            0.5,
                            0.5,
                            0.607566773891449,
                            0.607566773891449,
                            0.607566773891449,
                            0.607566773891449,
                            0.5,
                            0.5,
                            0.8196125626564026,
                            0.0,
                            0.0,
                            0.0,
                            0.0,
                            0.0
                        ]
                    }
                ],
                "HeadAngleKeyFrame": [
                    {
                        "triggerTime_ms": 0,
                        "durationTime_ms": 132,
                        "angle_deg": 0,
                        "angleVariability_deg": 0
                    },
                    {
                        "triggerTime_ms": 132,
                        "durationTime_ms": 66,
                        "angle_deg": -3,
                        "angleVariability_deg": 0
                    },
                    {
                        "triggerTime_ms": 198,
                        "durationTime_ms": 264,
                        "angle_deg": 15,
                        "angleVariability_deg": 0
                    },
                    {
                        "triggerTime_ms": 462,
                        "durationTime_ms": 198,
                        "angle_deg": 18,
                        "angleVariability_deg": 0
                    },
                    {
                        "triggerTime_ms": 660,
                        "durationTime_ms": 363,
                        "angle_deg": -9,
                        "angleVariability_deg": 0
                    },
                    {
                        "triggerTime_ms": 1023,
                        "durationTime_ms": 264,
                        "angle_deg": -13,
                        "angleVariability_deg": 0
                    },
                    {
                        "triggerTime_ms": 1584,
                        "durationTime_ms": 66,
                        "angle_deg": -19,
                        "angleVariability_deg": 0
                    },
                    {
                        "triggerTime_ms": 1650,
                        "durationTime_ms": 363,
                        "angle_deg": 0,
                        "angleVariability_deg": 0
                    }
                ],
                "RobotAudioKeyFrame": [
                    {
                        "triggerTime_ms": 231,
                        "audioEventId": [
                            1701725212
                        ],
                        "volume": 1.0,
                        "probability": [
                            1.0
                        ],
                        "hasAlts": true
                    },
                    {
                        "triggerTime_ms": 594,
                        "audioEventId": [
                            2741090610
                        ],
                        "volume": 1.0,
                        "probability": [
                            1.0
                        ],
                        "hasAlts": true
                    },
                    {
                        "triggerTime_ms": 792,
                        "audioEventId": [
                            3765708529
                        ],
                        "volume": 1.0,
                        "probability": [
                            1.0
                        ],
                        "hasAlts": true
                    },
                    {
                        "triggerTime_ms": 1584,
                        "audioEventId": [
                            2666670780
                        ],
                        "volume": 1.0,
                        "probability": [
                            1.0
                        ],
                        "hasAlts": true
                    }
                ],
                "BackpackLightsKeyFrame": [],
                "FaceAnimationKeyFrame": [],
                "EventKeyFrame": [],
                "BodyMotionKeyFrame": [
                    {
                        "triggerTime_ms": 132,
                        "durationTime_ms": 264,
                        "radius_mm": "STRAIGHT",
                        "speed": 35
                    },
                    {
                        "triggerTime_ms": 396,
                        "durationTime_ms": 231,
                        "radius_mm": "STRAIGHT",
                        "speed": 13
                    },
                    {
                        "triggerTime_ms": 627,
                        "durationTime_ms": 99,
                        "radius_mm": "STRAIGHT",
                        "speed": -91
                    },
                    {
                        "triggerTime_ms": 726,
                        "durationTime_ms": 231,
                        "radius_mm": "STRAIGHT",
                        "speed": -29
                    },
                    {
                        "triggerTime_ms": 957,
                        "durationTime_ms": 132,
                        "radius_mm": "STRAIGHT",
                        "speed": -6
                    },
                    {
                        "triggerTime_ms": 1584,
                        "durationTime_ms": 198,
                        "radius_mm": "STRAIGHT",
                        "speed": 49
                    },
                    {
                        "triggerTime_ms": 1782,
                        "durationTime_ms": 132,
                        "radius_mm": "STRAIGHT",
                        "speed": 9
                    }
                ],
                "RecordHeadingKeyFrame": [],
                "TurnToRecordedHeadingKeyFrame": []
            }
        }
    ]
}