(venv) D:\git\gcu_research\src\huggingFace>python train_hugging_face_model.py
../../data/cozmo/huggingFaceDataSets/natural_language.p
performing data augmentation on train set
2
                                        comment_text
list
0   Look down a little bit. Look down a little bi...  [0, 0, 0, 0, 0, 0, 1, 0,
0, 0, 0, 0, 0, 0, 0, 0]
1   Look down a little bit. Look down a little bi...  [0, 0, 0, 0, 0, 0, 0, 0,
0, 0, 0, 1, 0, 0, 0, 0]
2   lower arms fully. Look all the way up. arms t...  [0, 0, 0, 0, 0, 0, 1, 0,
0, 0, 0, 0, 0, 0, 0, 0]
3   raise arms fully. Look all the way down. Look...  [0, 0, 0, 0, 0, 0, 0, 0,
0, 0, 1, 0, 0, 0, 0, 0]
4   lower arms a bit. Look all the way up. walk b...  [0, 0, 0, 0, 0, 0, 0, 1,
0, 0, 0, 0, 0, 0, 0, 0]
FULL Dataset: (862, 2)
TRAIN Dataset: (776, 2)
TEST Dataset: (86, 2)
Epoch: 0, Loss:  2.6436119079589844
Epoch: 0, Loss:  2.66754412651062
Epoch: 0, Loss:  2.654069185256958
Epoch: 0, Loss:  2.6971635818481445
Epoch: 0, Loss:  2.6743972301483154
Epoch: 0, Loss:  2.6130752563476562
Epoch: 0, Loss:  2.6437697410583496
Accuracy Score = 0.09375
Accuracy Score = 0.09302325581395349
plotting cm
[[0 0 0 0 0 0 0 1 1 0 0 0 0 1 0 0]
 [0 0 0 0 0 0 0 0 0 0 0 0 0 3 0 0]
 [0 0 0 0 3 0 0 1 0 0 0 0 0 4 0 0]
 [0 0 0 0 1 0 0 1 0 0 0 0 0 4 0 0]
 [0 0 0 0 0 0 0 1 0 0 0 0 0 1 2 0]
 [0 0 0 0 0 0 0 1 0 0 0 0 0 2 2 0]
 [0 0 0 0 2 0 0 2 0 0 0 0 0 2 1 0]
 [0 0 0 0 1 0 0 1 0 0 0 0 0 2 1 0]
 [0 0 0 0 0 0 0 0 0 0 0 0 0 2 2 0]
 [0 0 0 0 1 0 0 0 0 0 0 0 0 3 2 0]
 [0 0 0 0 0 0 0 0 1 0 0 0 0 2 3 0]
 [0 0 0 0 0 0 0 1 0 0 0 0 0 2 2 0]
 [0 0 0 0 0 0 0 0 0 0 0 0 0 2 0 0]
 [0 0 0 0 0 0 0 1 0 0 0 0 0 5 1 0]
 [0 0 0 0 0 0 0 0 0 0 0 0 0 8 2 0]
 [0 0 0 0 2 0 0 0 0 0 0 0 0 3 0 0]]
Accuracy Score = 0.09302325581395349
Epoch: 1, Loss:  2.6309010982513428
Epoch: 1, Loss:  2.604525566101074
Epoch: 1, Loss:  2.573308229446411
Epoch: 1, Loss:  2.6085541248321533
Epoch: 1, Loss:  2.6444082260131836
Epoch: 1, Loss:  2.6013388633728027
Epoch: 1, Loss:  2.5501370429992676
Accuracy Score = 0.125
Accuracy Score = 0.12790697674418605
plotting cm
[[ 0  0  0  0  1  0  0  0  0  0  0  0  0  1  1  0]
 [ 0  0  0  0  0  0  0  0  0  0  0  0  0  0  3  0]
 [ 0  0  0  0  3  0  0  0  0  0  0  0  0  0  5  0]
 [ 0  0  0  0  2  0  0  0  0  0  0  0  0  0  4  0]
 [ 0  0  0  0  1  0  0  0  0  0  0  0  0  0  3  0]
 [ 0  0  0  0  0  0  0  0  0  0  0  0  0  1  4  0]
 [ 0  0  0  0  3  0  0  0  0  0  0  0  0  0  4  0]
 [ 0  0  0  0  2  0  0  0  0  0  0  0  0  0  3  0]
 [ 0  0  0  0  0  0  0  0  0  0  0  0  0  0  4  0]
 [ 0  0  0  0  1  0  0  0  0  0  0  0  0  0  5  0]
 [ 0  0  0  0  0  0  0  0  0  0  0  0  0  0  6  0]
 [ 0  0  0  0  1  0  0  0  0  0  0  0  0  0  4  0]
 [ 0  0  0  0  0  0  0  0  0  0  0  0  0  0  2  0]
 [ 0  0  0  0  0  0  0  0  0  0  0  0  0  0  7  0]
 [ 0  0  0  0  0  0  0  0  0  0  0  0  0  0 10  0]
 [ 0  0  0  0  2  0  0  0  0  0  0  0  0  0  3  0]]
Accuracy Score = 0.12790697674418605
Epoch: 2, Loss:  2.6076385974884033
Epoch: 2, Loss:  2.6187028884887695
Epoch: 2, Loss:  2.57293438911438
Epoch: 2, Loss:  2.5792312622070312
Epoch: 2, Loss:  2.5478274822235107
Epoch: 2, Loss:  2.564387321472168
Epoch: 2, Loss:  2.723360061645508
Accuracy Score = 0.109375
Accuracy Score = 0.11627906976744186
plotting cm
[[0 0 0 1 0 0 0 0 0 0 0 0 0 1 1 0]
 [0 0 0 0 0 0 0 0 0 0 0 1 0 0 2 0]
 [0 0 0 1 0 0 1 0 0 0 2 0 0 0 4 0]
 [0 0 0 0 0 0 0 0 0 0 1 0 0 1 4 0]
 [0 0 0 0 0 0 0 0 0 0 0 0 0 1 3 0]
 [0 0 0 0 0 0 0 0 0 0 0 0 0 1 4 0]
 [0 0 0 0 0 0 0 0 0 0 1 0 0 2 4 0]
 [0 0 0 0 0 0 0 0 0 0 1 0 0 0 4 0]
 [0 0 0 0 0 0 0 0 0 0 0 0 0 0 4 0]
 [0 0 0 0 0 0 0 0 0 0 1 0 0 0 5 0]
 [0 0 0 0 0 0 0 0 0 0 0 0 0 1 5 0]
 [0 0 0 0 0 0 0 0 0 0 0 1 0 1 3 0]
 [0 0 0 0 0 0 0 0 0 0 0 0 0 0 2 0]
 [0 0 0 0 0 0 1 0 0 0 0 0 0 1 5 0]
 [0 0 0 2 0 0 0 0 0 0 0 0 0 0 8 0]
 [0 0 0 1 0 0 0 0 0 0 2 0 0 0 2 0]]
Accuracy Score = 0.11627906976744186
Epoch: 3, Loss:  2.608335494995117
Epoch: 3, Loss:  2.5694360733032227
Epoch: 3, Loss:  2.5701372623443604
Epoch: 3, Loss:  2.5889546871185303
Epoch: 3, Loss:  2.626356601715088
Epoch: 3, Loss:  2.596250295639038
Epoch: 3, Loss:  2.8451361656188965
Accuracy Score = 0.109375
Accuracy Score = 0.09302325581395349
plotting cm
[[0 0 0 0 0 0 1 0 0 0 0 0 0 1 1 0]
 [0 0 0 0 0 0 2 0 0 0 0 1 0 0 0 0]
 [0 2 0 0 0 0 2 0 0 0 0 1 0 3 0 0]
 [0 1 0 1 0 0 3 0 0 0 0 0 0 1 0 0]
 [0 0 0 0 0 0 3 0 0 0 0 0 0 1 0 0]
 [0 0 0 0 0 0 3 0 0 0 0 1 0 1 0 0]
 [0 1 0 0 0 0 3 0 0 0 0 0 0 3 0 0]
 [0 1 0 0 0 0 2 0 0 0 0 0 0 1 1 0]
 [0 0 0 0 0 0 4 0 0 0 0 0 0 0 0 0]
 [0 1 0 0 0 0 4 0 0 0 0 1 0 0 0 0]
 [0 0 0 1 0 0 3 0 0 0 0 0 0 2 0 0]
 [0 0 0 0 0 0 3 0 0 0 0 1 0 1 0 0]
 [0 0 0 0 0 0 2 0 0 0 0 0 0 0 0 0]
 [0 0 0 1 0 0 1 0 0 0 0 2 0 3 0 0]
 [0 0 0 0 0 0 6 0 0 0 0 2 0 2 0 0]
 [0 2 0 0 0 0 1 0 0 0 0 1 0 1 0 0]]
Accuracy Score = 0.09302325581395349
Epoch: 4, Loss:  2.601024627685547
Epoch: 4, Loss:  2.554445266723633
Epoch: 4, Loss:  2.5993103981018066
Epoch: 4, Loss:  2.5468640327453613
Epoch: 4, Loss:  2.538594961166382
Epoch: 4, Loss:  2.5468814373016357
Epoch: 4, Loss:  2.4186997413635254
Accuracy Score = 0.140625
Accuracy Score = 0.12790697674418605
plotting cm
[[0 0 0 0 0 0 0 0 0 0 0 0 0 1 2 0]
 [0 0 0 0 0 0 0 0 0 0 0 0 0 1 2 0]
 [0 2 0 0 0 0 1 0 0 0 0 0 0 0 5 0]
 [0 1 0 1 0 0 0 0 0 0 0 0 0 0 4 0]
 [0 0 0 1 0 0 0 0 0 0 0 0 0 0 3 0]
 [0 0 0 1 0 0 2 0 0 0 0 0 0 1 1 0]
 [0 1 0 1 0 0 0 0 0 0 0 0 0 2 3 0]
 [0 1 0 0 0 0 0 0 0 0 0 0 0 0 4 0]
 [0 0 0 0 0 0 0 0 0 0 0 0 0 0 4 0]
 [0 1 0 0 0 0 0 0 0 0 0 0 0 0 5 0]
 [0 0 0 0 0 0 0 0 0 0 0 0 0 0 6 0]
 [0 0 0 0 0 0 0 0 0 0 0 0 0 0 5 0]
 [0 0 0 0 0 0 0 0 0 0 0 0 0 0 2 0]
 [0 0 0 0 0 0 0 0 0 0 0 0 0 2 5 0]
 [0 0 0 0 0 0 0 0 0 0 0 0 0 2 8 0]
 [0 2 0 0 0 0 1 0 0 0 0 0 0 0 2 0]]
Accuracy Score = 0.12790697674418605
Epoch: 5, Loss:  2.5588855743408203
Epoch: 5, Loss:  2.54361629486084
Epoch: 5, Loss:  2.5866963863372803
Epoch: 5, Loss:  2.5281028747558594
Epoch: 5, Loss:  2.551013469696045
Epoch: 5, Loss:  2.5821402072906494
Epoch: 5, Loss:  2.6399588584899902
Accuracy Score = 0.09375
Accuracy Score = 0.12790697674418605
plotting cm
[[ 0  0  0  0  1  0  0  0  0  0  0  0  0  0  2  0]
 [ 0  0  0  0  0  0  0  0  0  0  0  0  0  0  3  0]
 [ 0  0  0  0  0  0  0  0  0  0  0  0  0  0  8  0]
 [ 0  0  0  0  1  0  0  0  0  0  0  0  0  0  5  0]
 [ 0  0  0  0  1  0  0  0  0  0  0  0  0  0  3  0]
 [ 0  0  0  0  0  0  0  0  0  0  0  0  0  0  5  0]
 [ 0  0  0  0  1  0  0  0  0  0  0  0  0  0  6  0]
 [ 0  0  0  0  0  0  0  0  0  0  0  0  0  0  5  0]
 [ 0  0  0  0  0  0  0  0  0  0  0  0  0  0  4  0]
 [ 0  0  0  0  0  0  0  0  0  0  0  0  0  0  6  0]
 [ 0  0  0  0  0  0  0  0  0  0  0  0  0  0  6  0]
 [ 0  0  0  0  0  0  0  0  0  0  0  0  0  0  5  0]
 [ 0  0  0  0  0  0  0  0  0  0  0  0  0  0  2  0]
 [ 0  0  0  0  0  0  0  0  0  0  0  0  0  0  7  0]
 [ 0  0  0  0  0  0  0  0  0  0  0  0  0  0 10  0]
 [ 0  0  0  0  0  0  0  0  0  0  0  0  0  0  5  0]]
Accuracy Score = 0.12790697674418605
Epoch: 6, Loss:  2.518523693084717
Epoch: 6, Loss:  2.588982105255127
Epoch: 6, Loss:  2.5219337940216064
Epoch: 6, Loss:  2.5900869369506836
Epoch: 6, Loss:  2.6162569522857666
Epoch: 6, Loss:  2.53751802444458
Epoch: 6, Loss:  2.6449403762817383
Accuracy Score = 0.140625
Accuracy Score = 0.1511627906976744
plotting cm
[[0 0 0 0 1 0 0 0 0 0 0 0 0 0 2 0]
 [0 0 0 0 0 0 0 0 0 0 0 0 0 1 2 0]
 [0 0 3 0 1 0 0 0 0 0 0 0 0 0 4 0]
 [0 0 1 0 1 0 0 0 0 0 0 0 0 0 4 0]
 [0 0 0 0 1 0 0 0 0 0 0 0 0 0 3 0]
 [0 0 0 0 1 0 0 0 0 0 0 0 0 1 3 0]
 [0 0 1 0 2 0 0 0 0 0 0 0 0 1 3 0]
 [0 0 1 0 0 0 0 0 0 0 0 0 0 0 4 0]
 [0 0 0 0 0 0 0 0 0 0 0 0 0 0 4 0]
 [0 0 1 0 0 0 0 0 0 0 0 0 0 0 5 0]
 [0 0 0 0 0 0 0 0 0 0 0 0 0 0 6 0]
 [0 0 0 0 0 0 0 0 0 0 0 0 0 1 4 0]
 [0 0 0 0 0 0 0 0 0 0 0 0 0 0 2 0]
 [0 0 0 0 0 0 0 0 0 0 0 0 0 1 6 0]
 [0 0 0 0 0 0 0 0 0 0 0 0 0 2 8 0]
 [0 0 2 0 0 0 0 0 0 0 0 0 0 1 2 0]]
Accuracy Score = 0.1511627906976744
Epoch: 7, Loss:  2.554807186126709
Epoch: 7, Loss:  2.551276683807373
Epoch: 7, Loss:  2.5752906799316406
Epoch: 7, Loss:  2.5525436401367188
Epoch: 7, Loss:  2.527088165283203
Epoch: 7, Loss:  2.512582540512085
Epoch: 7, Loss:  2.660865306854248
Accuracy Score = 0.125
Accuracy Score = 0.1744186046511628
plotting cm
[[0 0 0 0 1 0 0 0 0 0 0 0 0 0 2 0]
 [0 0 0 0 0 0 0 0 0 0 0 0 0 2 1 0]
 [0 0 3 0 1 0 0 0 0 0 0 0 0 1 3 0]
 [0 0 1 0 1 0 0 0 0 0 0 0 0 1 3 0]
 [0 0 0 0 1 0 0 0 0 0 0 0 0 0 3 0]
 [0 0 0 0 1 0 0 0 0 0 0 0 0 3 1 0]
 [0 0 1 0 2 0 0 0 0 0 0 0 0 2 2 0]
 [0 0 1 0 0 0 0 0 0 0 0 0 0 0 4 0]
 [0 0 0 0 0 0 0 0 0 0 0 0 0 1 3 0]
 [0 0 1 0 0 0 0 0 0 0 0 0 0 2 3 0]
 [0 0 0 0 0 0 0 0 0 0 0 0 0 0 6 0]
 [0 0 0 0 0 0 0 0 0 0 0 0 0 1 4 0]
 [0 0 0 0 0 0 0 0 0 0 0 0 0 2 0 0]
 [0 0 1 0 1 0 0 0 0 0 0 0 0 3 2 0]
 [0 0 0 0 0 0 0 0 0 0 0 0 0 2 8 0]
 [0 0 2 0 0 0 0 0 0 0 0 0 0 1 2 0]]
Accuracy Score = 0.1744186046511628
Epoch: 8, Loss:  2.5345640182495117
Epoch: 8, Loss:  2.5708494186401367
Epoch: 8, Loss:  2.5847787857055664
Epoch: 8, Loss:  2.5441782474517822
Epoch: 8, Loss:  2.5405831336975098
Epoch: 8, Loss:  2.55595326423645
Epoch: 8, Loss:  2.5611724853515625
Accuracy Score = 0.125
Accuracy Score = 0.12790697674418605
plotting cm
[[0 0 1 0 1 0 0 0 0 0 0 0 0 0 1 0]
 [0 0 0 0 0 0 0 0 0 0 0 1 0 0 2 0]
 [0 0 1 0 2 0 0 0 0 0 0 0 0 0 5 0]
 [0 0 0 1 2 0 0 0 0 0 0 0 0 0 3 0]
 [0 0 0 1 1 0 0 0 0 0 0 0 0 0 2 0]
 [0 0 0 0 1 0 0 0 0 0 0 0 0 1 3 0]
 [0 0 0 0 3 0 0 0 0 0 0 0 0 1 3 0]
 [0 0 0 0 1 0 0 0 0 0 0 0 0 0 4 0]
 [0 0 0 2 0 0 0 0 0 0 0 0 0 0 2 0]
 [0 0 1 0 1 0 0 0 0 0 0 0 0 0 4 0]
 [0 0 1 2 0 0 0 0 0 0 0 0 0 0 3 0]
 [0 0 0 0 0 0 0 0 0 0 0 1 0 0 4 0]
 [0 0 0 0 0 0 0 0 0 0 0 0 0 0 2 0]
 [0 0 1 0 0 0 0 0 0 0 0 0 0 0 6 0]
 [0 0 0 3 0 0 0 0 0 0 0 0 0 0 7 0]
 [0 0 0 1 2 0 0 0 0 0 0 1 0 0 1 0]]
Accuracy Score = 0.12790697674418605
Epoch: 9, Loss:  2.5410866737365723
Epoch: 9, Loss:  2.563727855682373
Epoch: 9, Loss:  2.590365409851074
Epoch: 9, Loss:  2.5554890632629395
Epoch: 9, Loss:  2.5360469818115234
Epoch: 9, Loss:  2.565433979034424
Epoch: 9, Loss:  2.555624485015869
Accuracy Score = 0.140625
Accuracy Score = 0.12790697674418605
plotting cm
[[ 0  0  0  0  1  0  0  0  0  0  0  0  0  0  2  0]
 [ 0  0  0  0  0  0  0  0  0  0  0  0  0  0  3  0]
 [ 0  0  0  0  3  0  0  0  0  0  0  0  0  0  5  0]
 [ 0  0  0  0  2  0  0  0  0  0  0  0  0  0  4  0]
 [ 0  0  0  0  1  0  0  0  0  0  0  0  0  0  3  0]
 [ 0  0  0  1  1  0  0  0  0  0  0  0  0  0  3  0]
 [ 0  0  0  0  3  0  0  0  0  0  0  0  0  0  4  0]
 [ 0  0  0  0  1  0  0  0  0  0  0  0  0  0  4  0]
 [ 0  0  0  0  0  0  0  0  0  0  0  0  0  0  4  0]
 [ 0  0  0  0  1  0  0  0  0  0  0  0  0  0  5  0]
 [ 0  0  0  0  0  0  0  0  0  0  0  0  0  0  6  0]
 [ 0  0  0  1  0  0  0  0  0  0  0  0  0  0  4  0]
 [ 0  0  0  0  0  0  0  0  0  0  0  0  0  0  2  0]
 [ 0  0  0  1  1  0  0  0  0  0  0  1  0  0  4  0]
 [ 0  0  0  0  0  0  0  0  0  0  0  0  0  0 10  0]
 [ 0  0  0  1  2  0  0  0  0  0  0  0  0  0  2  0]]
Accuracy Score = 0.12790697674418605
Epoch: 10, Loss:  2.522864818572998
Epoch: 10, Loss:  2.510197162628174
Epoch: 10, Loss:  2.6000778675079346
Epoch: 10, Loss:  2.5518875122070312
Epoch: 10, Loss:  2.5490331649780273
Epoch: 10, Loss:  2.519622564315796
Epoch: 10, Loss:  2.388024091720581
Accuracy Score = 0.1875
Accuracy Score = 0.18604651162790697
plotting cm
[[ 0  0  0  0  0  0  0  0  0  0  0  0  0  1  2  0]
 [ 0  0  0  0  0  0  0  0  0  0  0  0  0  0  3  0]
 [ 0  0  0  0  2  0  0  0  0  0  0  0  0  2  4  0]
 [ 0  0  0  0  2  0  0  0  0  0  0  0  0  0  4  0]
 [ 0  0  0  0  1  0  0  0  0  0  0  0  0  0  3  0]
 [ 0  0  0  0  0  0  0  0  0  0  0  0  0  1  4  0]
 [ 0  0  0  0  3  0  0  0  0  0  0  1  0  1  2  0]
 [ 0  0  0  0  1  0  0  0  0  0  0  0  0  0  4  0]
 [ 0  0  0  0  0  0  0  0  0  0  0  0  0  0  4  0]
 [ 0  0  0  0  1  0  0  0  0  0  0  0  0  0  5  0]
 [ 0  0  0  0  0  0  0  0  0  0  0  0  0  0  6  0]
 [ 0  0  0  0  0  0  0  0  0  0  0  2  0  0  3  0]
 [ 0  0  0  0  0  0  0  0  0  0  0  0  0  0  2  0]
 [ 0  0  0  0  0  0  0  0  0  0  0  1  0  3  3  0]
 [ 0  0  0  0  0  0  0  0  0  0  0  0  0  0 10  0]
 [ 0  0  0  0  2  0  0  0  0  0  0  0  0  0  3  0]]
Accuracy Score = 0.18604651162790697
Epoch: 11, Loss:  2.5576906204223633
Epoch: 11, Loss:  2.490882396697998
Epoch: 11, Loss:  2.5452070236206055
Epoch: 11, Loss:  2.5560965538024902
Epoch: 11, Loss:  2.5064620971679688
Epoch: 11, Loss:  2.529393196105957
Epoch: 11, Loss:  2.5878021717071533
Accuracy Score = 0.125
Accuracy Score = 0.16279069767441862
plotting cm
[[0 0 0 0 0 0 0 0 0 0 0 0 0 1 2 0]
 [0 0 0 0 0 0 0 0 0 0 0 2 0 0 1 0]
 [0 0 2 0 0 0 0 0 0 0 0 0 0 3 3 0]
 [0 0 1 0 0 0 0 0 0 0 0 1 0 1 3 0]
 [0 0 0 0 0 0 0 0 0 0 0 1 0 1 2 0]
 [0 0 0 0 0 0 0 0 0 0 0 0 0 1 4 0]
 [0 0 1 0 0 0 0 0 0 0 0 2 0 3 1 0]
 [0 0 1 0 0 0 0 0 0 0 0 0 0 0 4 0]
 [0 0 0 0 0 0 0 0 0 0 0 1 0 0 3 0]
 [0 0 1 0 0 0 0 0 0 0 0 3 0 0 2 0]
 [0 0 0 0 0 0 0 0 0 0 0 1 0 0 5 0]
 [0 0 0 0 0 0 0 0 0 0 0 3 0 0 2 0]
 [0 0 0 0 0 0 0 0 0 0 0 1 0 0 1 0]
 [0 0 0 0 0 0 0 0 0 0 0 1 0 3 3 0]
 [0 0 0 0 0 0 0 0 0 0 0 4 0 0 6 0]
 [0 0 2 0 0 0 0 0 0 0 0 0 0 0 3 0]]
Accuracy Score = 0.16279069767441862
Epoch: 12, Loss:  2.5111899375915527
Epoch: 12, Loss:  2.4829928874969482
Epoch: 12, Loss:  2.5327141284942627
Epoch: 12, Loss:  2.5807604789733887
Epoch: 12, Loss:  2.5234451293945312
Epoch: 12, Loss:  2.523036479949951
Epoch: 12, Loss:  2.4367947578430176
Accuracy Score = 0.109375
Accuracy Score = 0.10465116279069768
plotting cm
[[0 0 0 1 0 0 0 0 0 0 0 0 0 1 1 0]
 [0 0 0 0 0 0 0 0 0 0 0 3 0 0 0 0]
 [0 0 2 1 0 0 0 0 0 0 0 0 0 1 4 0]
 [0 0 1 0 0 0 0 0 0 0 0 2 0 1 2 0]
 [0 0 0 0 0 0 0 0 0 0 0 1 0 1 2 0]
 [0 0 0 0 0 0 0 0 0 0 0 0 0 1 4 0]
 [0 0 1 0 0 0 0 0 0 0 0 2 0 3 1 0]
 [0 0 1 0 0 0 0 0 0 0 0 0 0 0 4 0]
 [0 0 0 0 0 0 0 0 0 0 0 2 0 0 2 0]
 [0 0 1 0 0 0 0 0 0 0 0 3 0 0 2 0]
 [0 0 0 1 0 0 0 0 0 0 0 1 0 0 4 0]
 [0 0 0 0 0 0 0 0 0 0 0 3 0 0 2 0]
 [0 0 0 0 0 0 0 0 0 0 0 1 0 0 1 0]
 [0 0 0 1 0 0 0 0 0 0 0 1 0 2 3 0]
 [0 0 0 1 0 0 0 0 0 0 0 7 0 0 2 0]
 [0 0 2 1 0 0 0 0 0 0 0 0 0 0 2 0]]
Accuracy Score = 0.10465116279069768
Epoch: 13, Loss:  2.584895372390747
Epoch: 13, Loss:  2.493244171142578
Epoch: 13, Loss:  2.485795736312866
Epoch: 13, Loss:  2.5114502906799316
Epoch: 13, Loss:  2.4749746322631836
Epoch: 13, Loss:  2.5343379974365234
Epoch: 13, Loss:  2.3912148475646973
Accuracy Score = 0.21875
Accuracy Score = 0.1744186046511628
plotting cm
[[ 0  0  0  0  0  0  0  0  0  0  0  0  0  1  2  0]
 [ 0  0  0  0  0  0  0  0  0  0  0  0  0  0  3  0]
 [ 0  0  2  0  0  0  0  0  0  0  0  0  0  2  4  0]
 [ 0  0  1  0  0  0  0  0  0  0  0  0  0  1  4  0]
 [ 0  0  0  0  0  0  0  0  0  0  0  0  0  1  3  0]
 [ 0  0  0  0  0  0  0  0  0  0  0  0  0  1  4  0]
 [ 0  0  1  0  0  0  0  0  0  0  0  0  0  3  3  0]
 [ 0  0  1  0  0  0  0  0  0  0  0  0  0  0  4  0]
 [ 0  0  0  0  0  0  0  0  0  0  0  0  0  1  3  0]
 [ 0  0  1  0  0  0  0  0  0  0  0  0  0  0  5  0]
 [ 0  0  0  0  0  0  0  0  0  0  0  0  0  0  6  0]
 [ 0  0  0  0  0  0  0  0  0  0  0  0  0  0  5  0]
 [ 0  0  0  0  0  0  0  0  0  0  0  0  0  0  2  0]
 [ 0  0  0  0  0  0  0  0  0  0  0  0  0  3  4  0]
 [ 0  0  0  0  0  0  0  0  0  0  0  0  0  0 10  0]
 [ 0  0  2  0  0  0  0  0  0  0  0  0  0  0  3  0]]
Accuracy Score = 0.1744186046511628
Epoch: 14, Loss:  2.515146017074585
Epoch: 14, Loss:  2.527130603790283
Epoch: 14, Loss:  2.5143580436706543
Epoch: 14, Loss:  2.521681070327759
Epoch: 14, Loss:  2.513935089111328
Epoch: 14, Loss:  2.478433132171631
Epoch: 14, Loss:  2.263096809387207
Accuracy Score = 0.171875
Accuracy Score = 0.1744186046511628
plotting cm
[[ 0  0  0  0  0  0  0  0  0  0  0  0  0  2  1  0]
 [ 0  0  0  0  0  0  0  0  0  0  0  0  0  0  3  0]
 [ 0  0  2  0  0  0  0  0  0  0  0  0  0  2  4  0]
 [ 0  0  1  0  0  0  0  0  0  0  0  0  0  1  4  0]
 [ 0  0  0  0  0  0  0  0  0  0  0  0  0  1  3  0]
 [ 0  0  0  0  0  0  0  0  0  0  0  0  0  2  3  0]
 [ 0  0  1  0  0  0  0  0  0  0  0  1  0  3  2  0]
 [ 0  0  1  0  0  0  0  0  0  0  0  0  0  0  4  0]
 [ 0  0  0  0  0  0  0  0  0  0  0  0  0  1  3  0]
 [ 0  0  1  0  0  0  0  0  0  0  0  0  0  0  5  0]
 [ 0  0  0  0  0  0  0  0  0  0  0  0  0  1  5  0]
 [ 0  0  0  0  0  0  0  0  0  0  0  0  0  0  5  0]
 [ 0  0  0  0  0  0  0  0  0  0  0  0  0  0  2  0]
 [ 0  0  0  0  0  0  0  0  0  0  0  0  0  3  4  0]
 [ 0  0  0  0  0  0  0  0  0  0  0  0  0  0 10  0]
 [ 0  0  2  0  0  0  0  0  0  0  0  0  0  1  2  0]]
Accuracy Score = 0.1744186046511628
Epoch: 15, Loss:  2.464622735977173
Epoch: 15, Loss:  2.5108871459960938
Epoch: 15, Loss:  2.5582284927368164
Epoch: 15, Loss:  2.5198822021484375
Epoch: 15, Loss:  2.491010904312134
Epoch: 15, Loss:  2.462007761001587
Epoch: 15, Loss:  2.5408143997192383
Accuracy Score = 0.109375
Accuracy Score = 0.10465116279069768
plotting cm
[[0 0 0 1 0 0 0 0 0 0 0 0 0 1 1 0]
 [0 0 0 0 0 0 0 0 0 0 0 3 0 0 0 0]
 [0 0 2 2 0 0 0 0 0 0 0 0 0 3 1 0]
 [0 0 1 1 0 0 0 0 0 0 0 2 0 1 1 0]
 [0 0 0 1 0 0 0 0 0 0 0 1 0 1 1 0]
 [0 0 0 0 0 0 0 0 0 0 0 2 0 2 1 0]
 [0 0 1 0 0 0 0 0 0 0 0 2 0 4 0 0]
 [0 0 1 0 0 0 0 0 0 0 0 1 0 0 3 0]
 [0 0 0 0 0 0 0 0 0 0 0 2 0 1 1 0]
 [0 0 1 1 0 0 0 0 0 0 0 3 0 0 1 0]
 [0 0 0 2 0 0 0 0 0 0 0 1 0 2 1 0]
 [0 0 0 0 0 0 0 0 0 0 0 3 0 0 2 0]
 [0 0 0 0 0 0 0 0 0 0 0 1 0 0 1 0]
 [0 0 0 2 0 0 0 0 0 0 0 2 0 3 0 0]
 [0 0 0 2 0 0 0 0 0 0 0 8 0 0 0 0]
 [0 0 2 1 0 0 0 0 0 0 0 1 0 1 0 0]]
Accuracy Score = 0.10465116279069768
Epoch: 16, Loss:  2.4595088958740234
Epoch: 16, Loss:  2.484048843383789
Epoch: 16, Loss:  2.489732503890991
Epoch: 16, Loss:  2.4850945472717285
Epoch: 16, Loss:  2.543437957763672
Epoch: 16, Loss:  2.4950666427612305
Epoch: 16, Loss:  2.438986301422119
Accuracy Score = 0.078125
Accuracy Score = 0.09302325581395349
plotting cm
[[0 0 0 0 0 0 0 0 0 0 0 0 0 2 1 0]
 [0 0 0 0 0 0 0 0 0 0 0 3 0 0 0 0]
 [0 0 2 2 0 0 0 0 0 0 0 0 0 3 1 0]
 [0 0 1 0 0 0 0 0 0 0 0 4 0 1 0 0]
 [0 0 0 0 0 0 0 0 0 0 0 3 0 1 0 0]
 [0 0 0 0 0 0 0 0 0 0 0 1 0 4 0 0]
 [0 0 1 0 0 0 0 0 0 0 0 2 0 4 0 0]
 [0 0 1 0 0 0 0 0 0 0 0 3 0 0 1 0]
 [0 0 0 0 0 0 0 0 0 0 0 2 0 1 1 0]
 [0 0 1 1 0 0 0 0 0 0 0 4 0 0 0 0]
 [0 0 0 2 0 0 0 0 0 0 0 2 0 2 0 0]
 [0 0 0 1 0 0 0 0 0 0 0 3 0 0 1 0]
 [0 0 0 0 0 0 0 0 0 0 0 2 0 0 0 0]
 [0 0 0 2 0 0 0 0 0 0 0 1 0 3 1 0]
 [0 0 0 2 0 0 0 0 0 0 0 8 0 0 0 0]
 [0 0 2 1 0 0 0 0 0 0 0 0 0 1 1 0]]
Accuracy Score = 0.09302325581395349
Epoch: 17, Loss:  2.486743927001953
Epoch: 17, Loss:  2.5232629776000977
Epoch: 17, Loss:  2.5168895721435547
Epoch: 17, Loss:  2.500795602798462
Epoch: 17, Loss:  2.4767448902130127
Epoch: 17, Loss:  2.491774082183838
Epoch: 17, Loss:  2.2556955814361572
Accuracy Score = 0.125
Accuracy Score = 0.11627906976744186
plotting cm
[[0 0 0 0 0 0 0 0 0 0 0 0 0 2 1 0]
 [0 0 0 0 0 0 0 0 0 0 0 3 0 0 0 0]
 [0 0 2 1 0 0 0 0 0 0 0 1 0 3 1 0]
 [0 0 1 0 0 0 0 0 0 0 0 4 0 1 0 0]
 [0 0 0 0 0 0 0 0 0 0 0 2 0 1 1 0]
 [0 0 0 0 0 0 0 0 0 0 0 3 0 2 0 0]
 [0 0 1 0 0 0 0 0 0 0 0 3 0 3 0 0]
 [0 0 1 0 0 0 0 0 0 0 0 2 0 0 2 0]
 [0 0 0 0 0 0 0 0 0 0 0 2 0 1 1 0]
 [0 0 1 1 0 0 0 0 0 0 0 4 0 0 0 0]
 [0 0 0 1 0 0 0 0 0 0 0 2 0 1 2 0]
 [0 0 0 0 0 0 0 0 0 0 0 3 0 0 2 0]
 [0 0 0 0 0 0 0 0 0 0 0 2 0 0 0 0]
 [0 0 0 2 0 0 0 0 0 0 0 2 0 3 0 0]
 [0 0 0 0 0 0 0 0 0 0 0 8 0 0 2 0]
 [0 0 2 0 0 0 0 0 0 0 0 1 0 1 1 0]]
Accuracy Score = 0.11627906976744186
Epoch: 18, Loss:  2.513911247253418
Epoch: 18, Loss:  2.4929416179656982
Epoch: 18, Loss:  2.52229642868042
Epoch: 18, Loss:  2.4449496269226074
Epoch: 18, Loss:  2.4709548950195312
Epoch: 18, Loss:  2.55131196975708
Epoch: 18, Loss:  2.670720100402832
Accuracy Score = 0.09375
Accuracy Score = 0.13953488372093023
plotting cm
[[0 0 0 1 0 0 0 0 0 0 0 0 0 1 1 0]
 [0 0 0 0 0 0 0 0 0 0 0 1 0 0 2 0]
 [0 0 2 0 0 0 1 0 0 0 0 0 0 2 3 0]
 [0 0 1 0 0 0 0 0 0 0 0 0 0 1 4 0]
 [0 0 0 0 0 0 0 0 0 0 0 0 0 1 3 0]
 [0 0 0 0 0 0 1 0 0 0 0 1 0 1 2 0]
 [0 0 1 0 0 0 0 0 0 0 0 0 0 3 3 0]
 [0 0 1 0 0 0 0 0 0 0 0 0 0 0 4 0]
 [0 0 0 0 0 0 0 0 0 0 0 0 0 0 4 0]
 [0 0 1 1 0 0 0 0 0 0 0 1 0 0 3 0]
 [0 0 0 2 0 0 0 0 0 0 0 0 0 0 4 0]
 [0 0 0 0 0 0 0 0 0 0 0 0 0 0 5 0]
 [0 0 0 0 0 0 0 0 0 0 0 1 0 0 1 0]
 [0 0 0 1 0 0 0 0 0 0 0 0 0 2 4 0]
 [0 0 0 1 0 0 0 0 0 0 0 1 0 0 8 0]
 [0 0 2 0 0 0 0 0 0 0 0 0 0 0 3 0]]
Accuracy Score = 0.13953488372093023
Epoch: 19, Loss:  2.470367431640625
Epoch: 19, Loss:  2.5238471031188965
Epoch: 19, Loss:  2.54371976852417
Epoch: 19, Loss:  2.539130210876465
Epoch: 19, Loss:  2.559990882873535
Epoch: 19, Loss:  2.482847213745117
Epoch: 19, Loss:  2.5689659118652344
Accuracy Score = 0.125
Accuracy Score = 0.13953488372093023
plotting cm
[[0 0 1 0 0 0 0 0 0 0 0 0 0 1 1 0]
 [0 0 0 0 0 0 0 0 0 0 0 1 0 0 2 0]
 [0 0 2 2 0 0 1 0 0 0 0 0 0 1 2 0]
 [0 0 1 0 0 0 1 0 0 0 0 0 0 1 3 0]
 [0 0 0 0 2 0 1 0 0 0 0 0 0 1 0 0]
 [0 0 0 0 0 0 2 0 0 0 0 0 0 1 2 0]
 [0 0 2 0 1 0 0 0 0 0 0 1 0 2 1 0]
 [0 0 1 0 1 0 1 0 0 0 0 0 0 0 2 0]
 [0 0 0 0 0 0 0 0 0 0 0 0 0 1 3 0]
 [0 0 1 1 1 0 2 0 0 0 0 0 0 0 1 0]
 [0 0 0 3 1 0 0 0 0 0 0 0 0 0 2 0]
 [0 0 0 0 0 0 0 0 0 0 0 0 0 0 5 0]
 [0 0 0 0 1 0 0 0 0 0 0 0 0 0 1 0]
 [0 0 0 2 0 0 1 0 0 0 0 0 0 2 2 0]
 [0 0 0 2 0 0 2 0 0 0 0 0 0 0 6 0]
 [0 0 2 1 0 0 0 0 0 0 0 0 0 0 2 0]]
Accuracy Score = 0.13953488372093023
Epoch: 20, Loss:  2.4997262954711914
Epoch: 20, Loss:  2.4674038887023926
Epoch: 20, Loss:  2.5141022205352783
Epoch: 20, Loss:  2.501990795135498
Epoch: 20, Loss:  2.4595861434936523
Epoch: 20, Loss:  2.482250452041626
Epoch: 20, Loss:  2.395418643951416
Accuracy Score = 0.078125
Accuracy Score = 0.09302325581395349
plotting cm
[[0 0 0 1 0 0 0 0 0 0 0 0 0 1 1 0]
 [0 0 0 0 0 0 0 0 0 0 0 3 0 0 0 0]
 [0 0 2 4 0 0 1 0 0 0 0 0 0 1 0 0]
 [0 0 1 1 0 0 2 0 0 0 0 1 0 1 0 0]
 [0 0 0 0 0 0 1 0 0 0 0 1 0 1 1 0]
 [0 0 1 0 0 0 2 0 0 0 0 1 0 0 1 0]
 [0 0 2 0 0 0 1 0 0 0 0 2 0 2 0 0]
 [0 0 1 0 0 0 2 0 0 0 0 1 0 0 1 0]
 [0 0 0 0 0 0 0 0 0 0 1 2 0 1 0 0]
 [0 0 1 1 0 0 2 0 0 0 0 2 0 0 0 0]
 [0 0 0 3 0 0 0 0 0 0 0 2 0 1 0 0]
 [0 0 0 2 0 0 0 0 0 0 0 2 0 0 1 0]
 [0 0 0 0 0 0 0 0 0 0 0 2 0 0 0 0]
 [0 0 0 3 0 0 1 0 0 0 0 1 0 2 0 0]
 [0 0 0 3 0 0 3 0 0 0 0 4 0 0 0 0]
 [0 0 2 2 0 0 1 0 0 0 0 0 0 0 0 0]]
Accuracy Score = 0.09302325581395349
Epoch: 21, Loss:  2.52004337310791
Epoch: 21, Loss:  2.483335494995117
Epoch: 21, Loss:  2.4527673721313477
Epoch: 21, Loss:  2.4720611572265625
Epoch: 21, Loss:  2.4598164558410645
Epoch: 21, Loss:  2.4463143348693848
Epoch: 21, Loss:  2.4190244674682617
Accuracy Score = 0.09375
Accuracy Score = 0.09302325581395349
plotting cm
[[0 0 0 1 0 0 0 0 0 0 0 0 0 1 1 0]
 [0 0 0 1 0 0 0 0 0 0 0 2 0 0 0 0]
 [0 0 2 4 0 0 1 0 0 0 0 0 0 1 0 0]
 [0 0 1 1 0 0 2 0 0 0 0 1 0 1 0 0]
 [0 0 0 0 0 0 0 0 0 0 0 1 0 3 0 0]
 [0 0 1 0 0 0 1 0 0 0 1 1 0 0 1 0]
 [0 0 2 1 0 0 0 0 0 0 0 1 0 3 0 0]
 [0 0 1 1 0 0 1 0 0 0 0 0 0 1 1 0]
 [0 0 0 1 0 0 0 0 0 0 0 2 0 1 0 0]
 [0 0 1 1 0 0 0 0 0 0 0 2 0 2 0 0]
 [0 0 0 4 0 0 1 0 0 0 0 0 0 1 0 0]
 [0 0 0 2 0 0 0 0 0 0 0 2 0 0 1 0]
 [0 0 0 0 0 0 0 0 0 0 0 2 0 0 0 0]
 [0 0 0 4 0 0 1 0 0 0 0 0 0 2 0 0]
 [0 0 0 4 0 0 1 0 0 0 0 4 0 0 1 0]
 [0 0 2 3 0 0 0 0 0 0 0 0 0 0 0 0]]
Accuracy Score = 0.09302325581395349
Epoch: 22, Loss:  2.452787399291992
Epoch: 22, Loss:  2.4157681465148926
Epoch: 22, Loss:  2.4547200202941895
Epoch: 22, Loss:  2.486536979675293
Epoch: 22, Loss:  2.4996089935302734
Epoch: 22, Loss:  2.4580798149108887
Epoch: 22, Loss:  2.4898900985717773
Accuracy Score = 0.078125
Accuracy Score = 0.10465116279069768
plotting cm
[[0 0 0 1 0 0 0 0 0 0 0 0 0 1 1 0]
 [0 0 0 0 0 0 0 0 0 0 0 3 0 0 0 0]
 [0 0 3 3 0 0 0 0 0 0 0 1 0 1 0 0]
 [0 0 1 1 0 0 0 0 0 0 0 3 0 1 0 0]
 [0 0 0 0 0 0 0 0 0 0 0 1 0 2 1 0]
 [0 0 1 0 0 0 1 0 0 0 1 1 0 0 1 0]
 [0 0 1 1 0 0 0 0 0 0 0 2 0 3 0 0]
 [0 0 1 0 0 0 0 0 0 0 0 1 0 0 3 0]
 [0 0 0 0 0 0 0 0 0 0 0 1 0 1 2 0]
 [0 0 1 1 0 0 0 0 0 0 0 3 0 0 1 0]
 [0 0 0 3 0 0 0 0 0 0 0 2 0 1 0 0]
 [0 0 0 1 0 0 0 0 0 0 0 2 0 0 2 0]
 [0 0 0 0 0 0 0 0 0 0 0 2 0 0 0 0]
 [0 0 0 4 0 0 0 0 0 0 0 1 0 2 0 0]
 [0 0 0 3 0 0 0 0 0 0 0 6 0 0 1 0]
 [0 0 3 1 0 0 0 0 0 0 0 0 0 0 1 0]]
Accuracy Score = 0.10465116279069768
Epoch: 23, Loss:  2.4545040130615234
Epoch: 23, Loss:  2.4083786010742188
Epoch: 23, Loss:  2.417738437652588
Epoch: 23, Loss:  2.4114694595336914
Epoch: 23, Loss:  2.4305667877197266
Epoch: 23, Loss:  2.4766221046447754
Epoch: 23, Loss:  2.3843894004821777
Accuracy Score = 0.09375
Accuracy Score = 0.09302325581395349
plotting cm
[[0 0 0 1 0 0 0 0 0 0 0 0 0 1 1 0]
 [0 0 0 0 0 0 0 0 0 0 0 3 0 0 0 0]
 [0 0 2 4 0 0 0 0 0 0 0 1 0 1 0 0]
 [0 0 2 1 0 0 0 0 0 0 0 3 0 0 0 0]
 [0 0 1 0 0 0 0 0 0 0 0 2 0 0 1 0]
 [0 0 1 0 0 0 0 0 0 0 0 3 0 0 1 0]
 [0 0 2 2 0 0 0 0 0 0 0 1 0 2 0 0]
 [0 0 1 0 0 0 0 0 0 0 0 3 0 0 1 0]
 [0 0 0 0 0 0 0 0 0 0 0 3 0 0 1 0]
 [0 0 1 2 0 0 0 0 0 0 0 3 0 0 0 0]
 [0 0 0 3 0 0 0 0 0 0 0 2 0 1 0 0]
 [0 0 0 2 0 0 0 0 0 0 0 2 0 0 1 0]
 [0 0 0 0 0 0 0 0 0 0 0 2 0 0 0 0]
 [0 0 0 4 0 0 0 0 0 0 0 1 0 2 0 0]
 [0 0 0 3 0 0 0 0 0 0 0 6 0 0 1 0]
 [0 0 2 3 0 0 0 0 0 0 0 0 0 0 0 0]]
Accuracy Score = 0.09302325581395349
Epoch: 24, Loss:  2.4286811351776123
Epoch: 24, Loss:  2.42210054397583
Epoch: 24, Loss:  2.4188597202301025
Epoch: 24, Loss:  2.4873459339141846
Epoch: 24, Loss:  2.432394027709961
Epoch: 24, Loss:  2.4656496047973633
Epoch: 24, Loss:  2.5721278190612793
Accuracy Score = 0.109375
Accuracy Score = 0.12790697674418605
plotting cm
[[0 0 0 1 0 0 0 0 0 0 0 0 0 1 1 0]
 [0 0 0 0 0 0 0 0 0 0 0 3 0 0 0 0]
 [0 0 2 4 0 0 1 0 0 0 0 0 0 1 0 0]
 [0 0 2 1 0 0 0 0 0 0 0 3 0 0 0 0]
 [0 0 1 0 0 0 0 0 0 0 0 1 0 1 1 0]
 [0 0 1 0 0 0 1 0 0 0 1 1 0 0 1 0]
 [0 0 2 1 0 0 0 0 0 0 0 1 0 3 0 0]
 [0 0 1 0 0 0 0 0 0 0 0 2 0 0 2 0]
 [0 0 0 0 0 0 0 0 0 0 0 1 0 0 2 1]
 [0 0 1 1 1 0 1 0 0 0 0 2 0 0 0 0]
 [0 0 0 4 0 0 0 0 0 0 0 0 0 1 1 0]
 [0 0 0 2 0 0 0 0 0 0 0 2 0 0 1 0]
 [0 0 0 0 0 0 0 0 0 0 0 2 0 0 0 0]
 [0 0 0 4 0 0 1 0 0 0 0 0 0 2 0 0]
 [0 0 0 2 0 0 0 0 0 0 0 4 0 0 4 0]
 [0 0 2 1 0 0 0 0 0 0 0 0 0 0 2 0]]
Accuracy Score = 0.12790697674418605
Epoch: 25, Loss:  2.403223991394043
Epoch: 25, Loss:  2.4032669067382812
Epoch: 25, Loss:  2.442788600921631
Epoch: 25, Loss:  2.4241507053375244
Epoch: 25, Loss:  2.4552314281463623
Epoch: 25, Loss:  2.4149250984191895
Epoch: 25, Loss:  2.266925811767578
Accuracy Score = 0.15625
Accuracy Score = 0.13953488372093023
plotting cm
[[0 0 0 1 0 0 0 0 0 0 0 0 0 1 1 0]
 [0 0 0 0 0 0 0 0 0 0 0 3 0 0 0 0]
 [0 0 3 3 0 0 1 0 0 0 0 0 0 1 0 0]
 [0 0 1 1 0 0 0 0 0 0 0 3 0 1 0 0]
 [0 0 0 0 0 0 1 0 0 0 0 1 0 2 0 0]
 [0 0 1 0 0 0 2 0 0 0 0 1 0 0 1 0]
 [0 0 1 1 0 0 0 0 0 0 0 2 0 3 0 0]
 [0 0 1 0 0 0 1 0 0 0 0 2 0 0 1 0]
 [0 0 0 0 0 0 0 0 0 0 0 2 0 1 1 0]
 [0 0 1 1 0 0 2 0 0 0 0 2 0 0 0 0]
 [0 0 0 3 0 0 0 0 0 0 0 1 0 1 1 0]
 [0 0 0 0 0 0 0 0 0 0 0 3 0 0 2 0]
 [0 0 0 0 0 0 0 0 0 0 0 2 0 0 0 0]
 [0 0 0 2 0 0 1 0 0 0 0 1 0 2 1 0]
 [0 0 0 2 0 0 0 0 0 0 0 5 0 0 3 0]
 [0 0 2 1 0 0 0 0 0 0 0 0 0 0 2 0]]
Accuracy Score = 0.13953488372093023
Epoch: 26, Loss:  2.4195356369018555
Epoch: 26, Loss:  2.3697710037231445
Epoch: 26, Loss:  2.3908908367156982
Epoch: 26, Loss:  2.436359167098999
Epoch: 26, Loss:  2.3803868293762207
Epoch: 26, Loss:  2.414775848388672
Epoch: 26, Loss:  2.6082983016967773
Accuracy Score = 0.078125
Accuracy Score = 0.09302325581395349
plotting cm
[[0 0 0 1 0 0 0 0 0 0 0 0 0 1 1 0]
 [0 0 0 0 0 0 0 0 0 0 0 3 0 0 0 0]
 [0 0 3 3 0 0 1 0 0 0 0 0 0 1 0 0]
 [0 0 1 0 0 0 0 0 0 0 0 4 0 1 0 0]
 [0 0 0 0 0 0 0 0 0 0 0 3 0 1 0 0]
 [0 0 0 0 0 0 1 0 0 0 0 3 0 1 0 0]
 [0 0 1 1 0 0 0 0 0 0 0 2 0 3 0 0]
 [0 0 1 0 0 0 0 0 0 0 0 3 0 0 1 0]
 [0 0 0 0 0 0 0 0 0 0 0 4 0 0 0 0]
 [0 0 1 1 0 0 1 0 0 0 0 3 0 0 0 0]
 [0 0 0 3 0 0 0 0 0 0 0 2 0 1 0 0]
 [0 0 0 2 0 0 0 0 0 0 0 3 0 0 0 0]
 [0 0 0 0 0 0 0 0 0 0 0 2 0 0 0 0]
 [0 0 0 3 0 0 0 0 0 0 0 2 0 2 0 0]
 [0 0 0 3 0 0 0 0 0 0 0 7 0 0 0 0]
 [0 0 3 1 0 0 0 0 0 0 0 1 0 0 0 0]]
Accuracy Score = 0.09302325581395349
Epoch: 27, Loss:  2.3456339836120605
Epoch: 27, Loss:  2.4235787391662598
Epoch: 27, Loss:  2.415311574935913
Epoch: 27, Loss:  2.4498848915100098
Epoch: 27, Loss:  2.506275177001953
Epoch: 27, Loss:  2.3718247413635254
Epoch: 27, Loss:  2.062187671661377
Accuracy Score = 0.125
Accuracy Score = 0.13953488372093023
plotting cm
[[0 0 1 0 0 0 0 0 0 0 0 0 0 1 1 0]
 [0 1 0 0 0 0 0 0 0 0 0 2 0 0 0 0]
 [0 0 4 2 0 0 1 0 0 0 0 0 0 1 0 0]
 [0 0 2 1 0 0 2 0 0 0 0 1 0 0 0 0]
 [0 0 1 0 1 0 0 0 0 0 0 1 0 1 0 0]
 [0 0 1 0 0 0 2 0 0 0 0 1 0 0 1 0]
 [0 0 1 2 0 0 0 0 0 0 0 1 0 3 0 0]
 [0 1 1 0 1 0 1 0 0 0 0 0 0 0 1 0]
 [0 1 0 0 0 0 0 0 0 0 0 1 0 1 1 0]
 [0 0 1 1 1 0 1 0 0 0 0 2 0 0 0 0]
 [0 0 1 2 0 0 0 0 0 0 0 2 0 1 0 0]
 [0 1 0 2 0 0 0 0 0 0 0 2 0 0 0 0]
 [0 0 0 0 0 0 1 0 0 0 0 1 0 0 0 0]
 [0 0 1 3 0 0 1 0 0 0 0 0 0 2 0 0]
 [0 1 0 3 0 0 0 0 0 0 0 5 0 0 1 0]
 [0 0 3 1 0 0 0 0 0 0 0 0 0 0 1 0]]
Accuracy Score = 0.13953488372093023
Epoch: 28, Loss:  2.39902400970459
Epoch: 28, Loss:  2.404881477355957
Epoch: 28, Loss:  2.4378795623779297
Epoch: 28, Loss:  2.360100746154785
Epoch: 28, Loss:  2.4420976638793945
Epoch: 28, Loss:  2.3533706665039062
Epoch: 28, Loss:  2.386460781097412
Accuracy Score = 0.125
Accuracy Score = 0.13953488372093023
plotting cm
[[0 0 1 0 0 0 0 0 0 0 0 0 0 1 1 0]
 [0 1 0 0 0 0 0 0 0 0 0 2 0 0 0 0]
 [0 0 4 2 0 0 1 0 0 0 0 0 0 1 0 0]
 [0 0 2 1 0 0 2 0 0 0 0 1 0 0 0 0]
 [0 0 1 0 1 0 0 0 0 0 0 1 0 1 0 0]
 [0 0 1 0 0 0 2 0 0 0 0 1 0 0 1 0]
 [0 0 2 1 0 0 0 0 0 0 0 1 0 3 0 0]
 [0 0 1 0 1 0 1 0 0 0 0 1 0 0 1 0]
 [0 0 0 0 0 1 0 0 0 0 0 1 0 1 1 0]
 [0 0 2 1 1 0 0 0 0 0 0 2 0 0 0 0]
 [0 0 1 2 0 0 0 0 0 0 0 2 0 1 0 0]
 [0 0 0 0 0 0 0 0 0 0 0 2 0 0 3 0]
 [0 0 0 0 0 0 1 0 0 0 0 1 0 0 0 0]
 [0 1 1 1 0 0 1 0 0 0 0 0 0 2 1 0]
 [0 0 1 2 1 0 0 0 0 0 0 5 0 0 1 0]
 [0 0 3 1 1 0 0 0 0 0 0 0 0 0 0 0]]
Accuracy Score = 0.13953488372093023
Epoch: 29, Loss:  2.2778379917144775
Epoch: 29, Loss:  2.3621139526367188
Epoch: 29, Loss:  2.323554039001465
Epoch: 29, Loss:  2.438688278198242
Epoch: 29, Loss:  2.3080904483795166
Epoch: 29, Loss:  2.4012842178344727
Epoch: 29, Loss:  2.270906448364258
Accuracy Score = 0.125
Accuracy Score = 0.10465116279069768
plotting cm
[[0 0 1 0 0 0 0 0 0 0 0 0 0 1 1 0]
 [0 0 0 0 0 0 0 0 0 0 0 3 0 0 0 0]
 [0 0 3 2 0 0 1 0 0 0 0 0 0 1 1 0]
 [0 0 2 0 0 0 0 0 0 0 0 2 0 0 1 1]
 [0 0 1 0 0 0 0 0 0 0 0 1 0 2 0 0]
 [0 0 1 0 0 0 1 0 0 0 1 2 0 0 0 0]
 [0 0 3 0 0 0 0 0 0 0 0 2 0 2 0 0]
 [0 0 1 0 0 0 1 0 0 0 0 1 0 1 1 0]
 [0 0 0 0 0 1 0 0 0 0 0 2 0 1 0 0]
 [0 0 2 1 0 0 1 0 0 0 0 2 0 0 0 0]
 [0 0 1 1 0 0 0 0 0 0 0 2 0 1 1 0]
 [0 0 0 0 0 0 0 0 0 0 0 2 0 1 2 0]
 [0 0 0 0 0 0 0 0 0 0 0 2 0 0 0 0]
 [0 0 1 3 0 0 1 0 0 0 0 0 0 2 0 0]
 [0 0 1 1 0 0 0 0 0 0 0 6 0 0 2 0]
 [0 0 3 1 0 0 0 0 0 0 0 0 0 0 1 0]]
Accuracy Score = 0.10465116279069768
Epoch: 30, Loss:  2.3348419666290283
Epoch: 30, Loss:  2.391477108001709
Epoch: 30, Loss:  2.3027806282043457
Epoch: 30, Loss:  2.3695249557495117
Epoch: 30, Loss:  2.294135570526123
Epoch: 30, Loss:  2.4439327716827393
Epoch: 30, Loss:  2.1155383586883545
Accuracy Score = 0.171875
Accuracy Score = 0.1511627906976744
plotting cm
[[0 0 1 0 0 0 0 0 0 0 0 0 0 1 1 0]
 [0 0 0 0 0 0 0 0 0 0 0 1 0 1 1 0]
 [0 0 4 2 1 0 0 0 0 0 0 0 0 1 0 0]
 [0 0 2 0 0 0 1 0 0 0 0 0 0 2 1 0]
 [0 0 1 0 0 0 0 0 0 0 0 0 0 3 0 0]
 [0 0 1 0 0 0 1 1 0 0 0 0 0 0 2 0]
 [0 0 3 1 0 0 0 0 0 0 0 1 0 2 0 0]
 [0 0 1 0 0 0 1 0 0 0 0 0 0 1 2 0]
 [0 0 0 0 0 0 0 0 0 0 0 0 0 1 3 0]
 [0 0 2 1 0 0 1 0 0 0 0 1 0 1 0 0]
 [0 0 2 0 0 0 0 0 0 0 0 0 0 1 3 0]
 [0 0 0 1 0 0 0 0 0 0 0 1 0 1 2 0]
 [0 0 0 0 0 0 1 0 0 0 0 1 0 0 0 0]
 [0 0 1 3 0 0 0 0 0 0 0 0 0 3 0 0]
 [0 0 1 1 0 0 0 1 0 0 0 0 0 2 5 0]
 [0 0 3 1 1 0 0 0 0 0 0 0 0 0 0 0]]
Accuracy Score = 0.1511627906976744
Epoch: 31, Loss:  2.400707244873047
Epoch: 31, Loss:  2.3358240127563477
Epoch: 31, Loss:  2.3558907508850098
Epoch: 31, Loss:  2.243701696395874
Epoch: 31, Loss:  2.3827414512634277
Epoch: 31, Loss:  2.35772705078125
Epoch: 31, Loss:  2.23323917388916
Accuracy Score = 0.109375
Accuracy Score = 0.12790697674418605
plotting cm
[[0 0 0 1 0 0 0 0 0 0 0 0 0 1 1 0]
 [0 0 0 0 0 0 0 0 0 0 0 3 0 0 0 0]
 [0 0 3 3 0 0 1 0 0 0 0 0 0 1 0 0]
 [0 0 2 1 0 0 0 0 0 0 0 2 0 0 1 0]
 [0 0 1 0 0 0 0 0 0 0 0 2 0 1 0 0]
 [0 0 1 0 0 0 1 0 0 0 0 1 0 0 2 0]
 [0 0 3 0 0 0 0 0 0 0 0 2 0 2 0 0]
 [0 0 1 0 0 0 1 0 0 0 0 2 0 0 1 0]
 [0 0 0 0 0 0 0 0 0 0 0 2 0 1 1 0]
 [0 0 2 2 0 0 0 0 0 0 0 2 0 0 0 0]
 [0 0 0 3 0 0 0 0 0 0 0 2 0 1 0 0]
 [0 0 0 1 0 0 0 0 0 0 0 2 0 0 2 0]
 [0 0 0 0 0 0 0 0 0 0 0 2 0 0 0 0]
 [0 0 0 4 0 0 1 0 0 0 0 0 0 2 0 0]
 [0 0 0 2 0 0 0 0 0 0 0 5 0 0 3 0]
 [0 0 2 1 0 0 0 0 0 0 0 0 0 0 2 0]]
Accuracy Score = 0.12790697674418605
Epoch: 32, Loss:  2.3314833641052246
Epoch: 32, Loss:  2.3926122188568115
Epoch: 32, Loss:  2.3199548721313477
Epoch: 32, Loss:  2.2606818675994873
Epoch: 32, Loss:  2.3349249362945557
Epoch: 32, Loss:  2.317483901977539
Epoch: 32, Loss:  2.570741653442383
Accuracy Score = 0.15625
Accuracy Score = 0.16279069767441862
plotting cm
[[0 0 1 0 0 0 0 0 0 0 0 0 0 1 1 0]
 [0 0 0 0 0 0 0 0 0 0 0 3 0 0 0 0]
 [0 0 4 2 0 0 1 0 0 0 0 0 0 1 0 0]
 [0 0 2 2 0 0 1 0 0 0 0 1 0 0 0 0]
 [0 0 1 0 0 0 1 0 0 0 0 0 0 2 0 0]
 [0 0 1 0 1 0 1 0 0 0 1 0 0 0 1 0]
 [0 0 3 1 0 0 0 0 0 0 0 1 0 2 0 0]
 [0 0 1 0 0 0 1 0 0 0 0 1 0 1 1 0]
 [0 0 0 0 0 1 0 0 0 0 0 2 0 1 0 0]
 [0 0 2 2 0 0 1 0 0 0 0 1 0 0 0 0]
 [0 0 1 3 1 0 0 0 0 0 0 0 0 1 0 0]
 [0 0 0 2 0 0 0 0 0 0 0 3 0 0 0 0]
 [0 0 0 0 1 0 0 0 0 0 0 1 0 0 0 0]
 [0 0 1 3 0 0 1 0 0 0 0 0 0 2 0 0]
 [0 0 1 2 0 0 3 0 0 0 0 1 0 0 3 0]
 [0 0 3 1 1 0 0 0 0 0 0 0 0 0 0 0]]
Accuracy Score = 0.16279069767441862
Epoch: 33, Loss:  2.310086965560913
Epoch: 33, Loss:  2.3444972038269043
Epoch: 33, Loss:  2.290076971054077
Epoch: 33, Loss:  2.4004197120666504
Epoch: 33, Loss:  2.309061050415039
Epoch: 33, Loss:  2.272749423980713
Epoch: 33, Loss:  2.343306303024292
Accuracy Score = 0.140625
Accuracy Score = 0.12790697674418605
plotting cm
[[0 0 0 1 0 0 0 0 0 0 0 0 0 1 1 0]
 [0 0 0 1 0 0 0 0 0 0 0 2 0 0 0 0]
 [0 0 3 2 0 1 1 0 0 0 0 0 0 1 0 0]
 [0 0 2 0 0 0 1 0 0 0 0 1 0 2 0 0]
 [0 0 1 0 0 0 1 0 0 0 0 0 0 2 0 0]
 [0 0 1 0 0 0 2 0 0 0 0 1 0 0 1 0]
 [0 0 2 1 0 0 0 0 0 0 0 1 0 3 0 0]
 [0 0 1 0 0 0 1 0 0 0 0 1 0 1 1 0]
 [0 0 0 0 0 1 0 0 0 0 0 2 0 1 0 0]
 [0 0 2 2 0 0 1 0 0 0 0 1 0 0 0 0]
 [0 0 0 3 0 0 1 0 0 0 0 1 0 1 0 0]
 [0 0 0 0 1 0 0 0 0 0 0 2 0 1 1 0]
 [0 0 0 0 0 0 1 0 0 0 0 1 0 0 0 0]
 [0 0 1 2 0 1 1 0 0 0 0 0 0 2 0 0]
 [0 0 0 3 0 0 1 0 0 0 0 2 0 0 4 0]
 [0 0 3 1 1 0 0 0 0 0 0 0 0 0 0 0]]
Accuracy Score = 0.12790697674418605
Epoch: 34, Loss:  2.3436055183410645
Epoch: 34, Loss:  2.2838783264160156
Epoch: 34, Loss:  2.3310816287994385
Epoch: 34, Loss:  2.308485984802246
Epoch: 34, Loss:  2.2558178901672363
Epoch: 34, Loss:  2.2080211639404297
Epoch: 34, Loss:  2.1307668685913086
Accuracy Score = 0.171875
Accuracy Score = 0.16279069767441862
plotting cm
[[0 0 0 1 0 0 0 0 0 0 0 0 0 1 1 0]
 [0 0 0 0 0 0 0 0 0 0 0 3 0 0 0 0]
 [0 0 3 2 0 1 1 0 0 0 0 0 0 1 0 0]
 [0 0 2 2 0 0 1 0 0 0 0 1 0 0 0 0]
 [0 0 1 0 0 0 2 0 0 0 0 0 0 1 0 0]
 [0 0 1 0 0 0 1 0 0 0 1 1 0 0 1 0]
 [0 0 1 1 1 0 0 0 0 0 0 1 0 2 0 1]
 [0 0 1 0 0 0 2 0 0 0 0 1 0 0 1 0]
 [0 0 0 0 0 1 0 0 0 0 0 2 0 0 1 0]
 [0 0 1 1 0 0 2 0 0 0 0 1 0 0 1 0]
 [0 0 0 2 0 0 0 0 0 0 0 2 0 1 0 1]
 [0 0 0 0 0 0 0 0 0 0 0 2 0 1 2 0]
 [0 0 0 0 0 0 0 0 0 0 0 2 0 0 0 0]
 [0 0 0 3 0 0 1 0 0 0 0 0 0 2 1 0]
 [0 0 0 1 0 0 2 0 0 0 0 2 0 0 5 0]
 [0 0 2 1 0 0 0 0 0 0 0 0 0 0 2 0]]
Accuracy Score = 0.16279069767441862
Epoch: 35, Loss:  2.315413475036621
Epoch: 35, Loss:  2.357029438018799
Epoch: 35, Loss:  2.308612108230591
Epoch: 35, Loss:  2.2816362380981445
Epoch: 35, Loss:  2.3160998821258545
Epoch: 35, Loss:  2.286212682723999
Epoch: 35, Loss:  2.3520572185516357
Accuracy Score = 0.109375
Accuracy Score = 0.11627906976744186
plotting cm
[[0 0 1 0 0 0 0 0 0 0 0 0 0 1 1 0]
 [0 0 0 2 0 0 0 0 0 0 0 1 0 0 0 0]
 [0 0 2 2 0 0 1 0 0 0 2 0 0 0 0 1]
 [0 0 1 2 0 0 2 0 0 0 1 0 0 0 0 0]
 [0 0 0 1 0 0 1 0 0 0 0 0 0 2 0 0]
 [0 0 1 0 0 0 3 0 0 0 0 0 0 0 1 0]
 [0 0 1 3 0 0 1 0 0 0 1 0 0 0 0 1]
 [0 0 0 0 0 0 1 0 0 0 1 0 0 1 2 0]
 [0 0 0 0 0 1 0 0 0 0 0 1 0 0 1 1]
 [0 0 0 2 0 0 2 0 0 0 1 1 0 0 0 0]
 [0 0 1 3 0 0 1 0 0 0 0 0 0 0 1 0]
 [0 0 0 1 0 0 1 0 0 0 0 1 0 0 2 0]
 [0 0 0 0 0 0 0 0 0 0 0 2 0 0 0 0]
 [0 0 1 4 0 0 1 0 0 0 0 0 0 0 0 1]
 [0 0 0 2 0 0 2 0 0 0 0 1 0 0 4 1]
 [0 0 1 1 0 0 0 0 0 0 2 0 0 0 1 0]]
Accuracy Score = 0.11627906976744186
Epoch: 36, Loss:  2.329782247543335
Epoch: 36, Loss:  2.294398784637451
Epoch: 36, Loss:  2.246519088745117
Epoch: 36, Loss:  2.2689125537872314
Epoch: 36, Loss:  2.204697847366333
Epoch: 36, Loss:  2.2308542728424072
Epoch: 36, Loss:  2.5596394538879395
Accuracy Score = 0.125
Accuracy Score = 0.12790697674418605
plotting cm
[[0 0 0 1 0 0 0 0 0 0 0 0 0 1 1 0]
 [0 1 0 0 0 0 0 0 0 0 0 2 0 0 0 0]
 [0 0 1 3 0 0 1 0 0 0 2 0 0 1 0 0]
 [0 0 1 0 0 0 0 0 0 0 1 3 0 0 1 0]
 [0 0 0 0 0 0 1 0 0 0 0 0 0 3 0 0]
 [0 0 1 0 0 0 1 0 0 0 1 1 0 0 1 0]
 [0 0 1 1 0 0 0 0 0 0 1 2 0 2 0 0]
 [0 0 0 0 0 0 1 0 0 0 1 0 0 1 2 0]
 [0 0 0 0 0 1 0 0 0 0 0 1 0 1 1 0]
 [0 0 1 0 0 0 1 0 0 0 1 2 0 0 1 0]
 [0 0 1 0 0 0 0 0 0 0 0 0 0 1 4 0]
 [0 0 0 0 0 0 0 0 0 0 0 2 0 1 2 0]
 [0 0 0 0 0 0 0 0 0 0 0 2 0 0 0 0]
 [0 0 1 2 0 0 1 0 0 0 0 0 0 2 1 0]
 [0 0 0 2 0 0 1 0 0 0 0 2 0 0 5 0]
 [0 0 1 1 0 0 0 0 0 0 2 0 0 0 1 0]]
Accuracy Score = 0.12790697674418605
Epoch: 37, Loss:  2.1837215423583984
Epoch: 37, Loss:  2.1753196716308594
Epoch: 37, Loss:  2.180149793624878
Epoch: 37, Loss:  2.2488579750061035
Epoch: 37, Loss:  2.256317615509033
Epoch: 37, Loss:  2.3320813179016113
Epoch: 37, Loss:  2.817963123321533
Accuracy Score = 0.1875
Accuracy Score = 0.16279069767441862
plotting cm
[[0 0 0 1 0 0 0 0 0 0 0 0 0 1 1 0]
 [0 1 0 0 0 0 0 0 0 0 0 2 0 0 0 0]
 [0 0 1 3 0 0 1 0 0 0 2 0 0 1 0 0]
 [0 0 1 2 0 0 1 0 0 0 1 1 0 0 0 0]
 [0 0 2 0 0 0 1 0 0 0 0 0 0 1 0 0]
 [0 0 1 0 0 0 1 0 1 0 1 0 0 0 1 0]
 [0 0 1 2 0 0 1 0 0 0 1 0 0 2 0 0]
 [0 0 1 0 0 0 1 0 0 0 1 0 0 0 2 0]
 [0 0 0 1 0 1 0 0 0 0 0 0 0 0 2 0]
 [0 0 0 2 0 0 2 0 0 0 1 1 0 0 0 0]
 [0 0 1 4 0 0 0 0 0 0 0 0 0 0 1 0]
 [0 0 0 0 0 0 0 0 0 0 0 2 0 1 2 0]
 [0 0 0 0 0 0 0 0 0 0 0 2 0 0 0 0]
 [0 0 1 3 0 0 1 0 0 0 0 0 0 2 0 0]
 [0 0 0 3 0 0 1 0 1 0 0 0 0 0 5 0]
 [0 0 1 1 0 0 0 0 0 0 2 0 0 0 1 0]]
Accuracy Score = 0.16279069767441862
Epoch: 38, Loss:  2.319626808166504
Epoch: 38, Loss:  2.2616989612579346
Epoch: 38, Loss:  2.2320244312286377
Epoch: 38, Loss:  2.247690439224243
Epoch: 38, Loss:  2.2404251098632812
Epoch: 38, Loss:  2.1824488639831543
Epoch: 38, Loss:  2.3752834796905518
Accuracy Score = 0.125
Accuracy Score = 0.12790697674418605
plotting cm
[[0 0 0 1 0 0 0 0 0 0 0 0 0 1 1 0]
 [0 0 0 0 0 0 0 0 0 0 0 3 0 0 0 0]
 [0 0 1 2 0 0 1 0 0 0 2 1 0 1 0 0]
 [0 0 1 0 0 0 1 0 0 0 1 3 0 0 0 0]
 [0 0 0 0 1 0 1 0 0 0 0 0 0 2 0 0]
 [0 0 1 0 0 0 1 0 0 0 1 1 0 0 1 0]
 [0 0 1 0 0 0 0 0 0 0 1 2 0 3 0 0]
 [0 0 0 0 1 0 1 0 0 0 1 1 0 0 1 0]
 [0 0 0 0 0 1 0 0 0 0 0 2 0 1 0 0]
 [0 1 0 0 0 0 2 0 0 0 1 1 0 0 0 1]
 [0 0 0 0 0 0 0 0 0 0 0 2 0 1 2 1]
 [0 0 0 0 0 0 0 0 0 0 0 2 0 1 2 0]
 [0 0 0 0 0 0 0 0 0 0 0 2 0 0 0 0]
 [0 0 1 0 0 0 1 0 0 0 0 1 0 2 1 1]
 [0 0 0 1 0 0 1 0 0 0 0 3 0 0 5 0]
 [0 0 1 1 0 0 0 0 0 0 2 0 0 0 1 0]]
Accuracy Score = 0.12790697674418605
Epoch: 39, Loss:  2.228640556335449
Epoch: 39, Loss:  2.3808376789093018
Epoch: 39, Loss:  2.158994197845459
Epoch: 39, Loss:  2.2051281929016113
Epoch: 39, Loss:  2.1905908584594727
Epoch: 39, Loss:  2.2598795890808105
Epoch: 39, Loss:  2.1206002235412598
Accuracy Score = 0.15625
Accuracy Score = 0.12790697674418605
plotting cm
[[0 0 1 0 0 0 0 0 0 0 0 0 0 1 1 0]
 [0 1 0 0 0 0 1 0 0 0 0 1 0 0 0 0]
 [0 0 1 3 0 0 1 0 0 0 2 0 0 1 0 0]
 [0 0 1 1 0 0 2 0 0 0 1 0 0 1 0 0]
 [0 0 1 0 0 0 1 0 0 0 0 0 0 2 0 0]
 [0 0 1 0 0 0 2 0 0 0 1 0 0 0 1 0]
 [0 0 1 1 0 0 1 0 0 0 1 0 0 3 0 0]
 [0 0 0 0 0 0 1 0 0 0 1 0 0 1 2 0]
 [0 0 0 0 0 1 0 0 0 0 0 1 0 1 1 0]
 [1 0 0 1 0 0 2 0 0 0 1 1 0 0 0 0]
 [0 0 2 0 0 0 1 0 0 0 0 1 0 1 1 0]
 [1 0 0 0 0 0 1 0 0 0 0 0 0 1 2 0]
 [0 0 0 0 0 0 1 0 0 0 0 1 0 0 0 0]
 [0 1 1 1 0 1 1 0 0 0 0 0 0 2 0 0]
 [0 0 1 1 0 0 2 0 0 0 0 1 0 0 5 0]
 [0 0 1 1 1 0 0 0 0 0 2 0 0 0 0 0]]
Accuracy Score = 0.12790697674418605
Epoch: 40, Loss:  2.244762420654297
Epoch: 40, Loss:  2.249000072479248
Epoch: 40, Loss:  2.217634677886963
Epoch: 40, Loss:  2.1556034088134766
Epoch: 40, Loss:  2.1976819038391113
Epoch: 40, Loss:  2.207484722137451
Epoch: 40, Loss:  2.1695876121520996
Accuracy Score = 0.109375
Accuracy Score = 0.11627906976744186
plotting cm
[[0 0 1 0 0 0 0 0 0 0 0 0 0 1 1 0]
 [0 0 0 0 0 0 0 0 0 0 0 3 0 0 0 0]
 [0 0 0 2 0 0 1 0 0 0 2 1 0 1 1 0]
 [0 0 1 0 0 0 0 0 0 0 1 2 0 1 0 1]
 [0 0 1 0 2 0 0 0 0 0 0 0 0 1 0 0]
 [0 0 1 0 0 0 1 0 0 0 1 1 0 0 1 0]
 [0 0 1 0 0 0 0 0 0 0 1 2 0 3 0 0]
 [0 0 0 0 1 0 1 0 0 0 1 1 0 0 1 0]
 [0 0 0 0 0 1 0 0 0 0 0 2 0 0 1 0]
 [0 0 0 1 1 0 2 0 0 0 1 1 0 0 0 0]
 [0 0 0 1 0 0 0 0 0 0 0 2 0 1 0 2]
 [0 0 0 0 0 0 0 0 0 0 0 3 0 0 2 0]
 [0 0 0 0 0 0 0 0 0 0 0 2 0 0 0 0]
 [0 0 1 2 0 0 1 0 0 0 0 1 0 1 0 1]
 [0 0 0 1 0 0 1 0 0 0 0 3 0 0 4 1]
 [0 0 0 2 0 0 0 0 0 0 2 0 0 0 1 0]]
Accuracy Score = 0.11627906976744186
Epoch: 41, Loss:  2.2674317359924316
Epoch: 41, Loss:  2.2193093299865723
Epoch: 41, Loss:  2.156181812286377
Epoch: 41, Loss:  2.1705005168914795
Epoch: 41, Loss:  2.134408473968506
Epoch: 41, Loss:  2.1943135261535645
Epoch: 41, Loss:  2.0250778198242188
Accuracy Score = 0.140625
Accuracy Score = 0.1511627906976744
plotting cm
[[0 0 1 0 0 0 0 0 0 0 0 0 0 1 1 0]
 [0 0 0 1 0 0 0 0 1 0 0 1 0 0 0 0]
 [0 0 3 3 0 0 1 0 0 0 0 0 0 1 0 0]
 [0 0 2 2 0 0 1 0 0 0 1 0 0 0 0 0]
 [0 0 2 0 1 0 0 0 0 0 0 0 0 1 0 0]
 [0 0 0 0 0 0 2 0 0 0 1 0 0 1 1 0]
 [0 0 2 3 0 0 1 0 0 0 0 0 0 1 0 0]
 [0 0 2 0 0 0 1 0 0 0 0 0 0 0 2 0]
 [0 0 0 0 0 1 0 0 0 0 0 0 0 1 2 0]
 [0 0 1 1 2 0 1 0 0 0 0 1 0 0 0 0]
 [0 0 1 2 0 0 0 0 0 0 0 0 0 1 2 0]
 [0 0 0 1 0 0 1 0 0 0 0 0 0 1 2 0]
 [0 0 0 0 1 0 0 0 0 0 0 1 0 0 0 0]
 [0 0 1 4 0 0 1 0 0 0 0 0 0 1 0 0]
 [0 0 0 3 0 0 2 0 0 0 0 0 0 0 5 0]
 [0 0 2 1 1 1 0 0 0 0 0 0 0 0 0 0]]
Accuracy Score = 0.1511627906976744
Epoch: 42, Loss:  2.1621689796447754
Epoch: 42, Loss:  2.123969078063965
Epoch: 42, Loss:  2.245474100112915
Epoch: 42, Loss:  2.179502010345459
Epoch: 42, Loss:  2.141333818435669
Epoch: 42, Loss:  2.156568765640259
Epoch: 42, Loss:  2.1207733154296875
Accuracy Score = 0.171875
Accuracy Score = 0.16279069767441862
plotting cm
[[0 0 1 0 0 0 0 0 0 0 0 0 0 1 1 0]
 [0 1 0 0 0 0 0 0 0 0 0 2 0 0 0 0]
 [0 0 3 2 0 0 1 0 0 0 1 0 0 1 0 0]
 [0 0 2 2 0 0 0 0 0 0 0 1 0 0 1 0]
 [0 0 1 0 1 0 0 0 0 0 0 0 0 2 0 0]
 [0 0 0 0 0 0 1 0 0 0 1 1 0 1 1 0]
 [0 0 2 1 0 0 0 0 0 0 0 1 0 3 0 0]
 [0 0 1 0 0 0 1 0 0 0 0 0 0 1 2 0]
 [0 0 0 0 0 0 0 0 0 0 0 1 0 1 2 0]
 [0 0 2 1 1 0 1 0 0 0 0 1 0 0 0 0]
 [0 0 1 1 0 0 0 0 0 0 1 1 0 1 1 0]
 [0 0 0 1 0 0 1 0 0 0 0 0 0 0 3 0]
 [0 0 0 0 1 0 0 0 0 0 0 1 0 0 0 0]
 [0 0 1 3 0 0 1 0 0 0 0 0 0 2 0 0]
 [0 0 0 2 0 0 0 0 0 0 0 3 0 0 4 1]
 [0 0 3 1 0 0 0 0 0 0 0 0 0 0 1 0]]
Accuracy Score = 0.16279069767441862
Epoch: 43, Loss:  2.0185999870300293
Epoch: 43, Loss:  2.189753293991089
Epoch: 43, Loss:  2.1820340156555176
Epoch: 43, Loss:  2.160351276397705
Epoch: 43, Loss:  2.148231267929077
Epoch: 43, Loss:  2.1412291526794434
Epoch: 43, Loss:  1.9810640811920166
Accuracy Score = 0.1875
Accuracy Score = 0.18604651162790697
plotting cm
[[0 0 1 0 0 0 0 0 0 0 0 0 0 1 1 0]
 [0 0 0 0 0 0 0 0 0 0 0 3 0 0 0 0]
 [0 0 4 0 0 0 1 0 0 0 2 0 0 1 0 0]
 [0 0 2 1 0 0 0 0 0 0 0 2 0 0 0 1]
 [0 0 1 0 1 0 0 0 0 0 0 0 0 2 0 0]
 [0 0 0 0 0 0 1 0 0 0 1 1 0 1 1 0]
 [0 0 2 1 1 0 0 0 0 0 0 1 0 2 0 0]
 [0 0 1 0 0 0 1 0 0 0 0 1 0 1 1 0]
 [0 0 0 0 0 0 0 0 0 0 0 2 0 1 1 0]
 [0 0 2 1 1 0 1 0 0 0 0 1 0 0 0 0]
 [0 0 0 0 0 0 0 0 0 0 2 1 0 2 1 0]
 [0 0 0 1 0 0 0 0 0 0 0 3 0 0 1 0]
 [0 0 0 0 0 0 0 0 0 0 0 2 0 0 0 0]
 [0 0 1 2 0 0 1 0 0 0 0 1 0 2 0 0]
 [0 0 0 1 0 0 1 0 0 0 0 5 0 0 3 0]
 [0 0 2 1 0 0 0 0 0 0 0 1 0 0 1 0]]
Accuracy Score = 0.18604651162790697
Epoch: 44, Loss:  2.120272636413574
Epoch: 44, Loss:  2.2171287536621094
Epoch: 44, Loss:  2.2407615184783936
Epoch: 44, Loss:  2.0970089435577393
Epoch: 44, Loss:  2.1466455459594727
Epoch: 44, Loss:  1.9927823543548584
Epoch: 44, Loss:  1.7624489068984985
Accuracy Score = 0.125
Accuracy Score = 0.16279069767441862
plotting cm
[[0 0 1 0 0 0 0 0 0 0 0 0 0 1 1 0]
 [0 1 0 0 0 0 0 0 0 0 0 2 0 0 0 0]
 [0 0 4 2 0 0 1 0 0 0 0 0 0 1 0 0]
 [0 0 3 1 0 0 1 0 0 0 1 0 0 0 0 0]
 [0 0 2 0 1 0 0 0 0 0 0 0 0 1 0 0]
 [0 0 1 0 0 0 1 0 0 0 1 1 0 0 1 0]
 [0 0 2 2 1 0 1 0 0 0 0 0 0 1 0 0]
 [0 0 2 0 0 0 1 0 0 0 0 0 0 0 2 0]
 [0 0 1 0 0 0 0 0 0 0 0 1 0 0 1 1]
 [0 0 1 1 1 0 1 0 0 0 0 1 0 0 1 0]
 [0 0 2 2 0 0 0 0 0 0 1 1 0 0 0 0]
 [0 0 0 1 1 0 1 0 0 0 0 0 0 0 2 0]
 [0 0 0 0 0 0 0 0 0 0 0 2 0 0 0 0]
 [0 0 1 5 0 0 0 0 0 0 0 0 0 1 0 0]
 [0 0 0 3 0 0 0 0 0 0 1 2 0 0 4 0]
 [0 0 3 1 0 0 0 0 0 0 0 0 0 0 1 0]]
Accuracy Score = 0.16279069767441862
Epoch: 45, Loss:  2.065492630004883
Epoch: 45, Loss:  2.1970181465148926
Epoch: 45, Loss:  2.1305952072143555
Epoch: 45, Loss:  2.1361117362976074
Epoch: 45, Loss:  2.2258195877075195
Epoch: 45, Loss:  2.127936363220215
Epoch: 45, Loss:  2.4737324714660645
Accuracy Score = 0.171875
Accuracy Score = 0.1511627906976744
plotting cm
[[0 0 1 0 0 0 0 0 0 0 0 0 0 1 1 0]
 [0 1 0 1 0 0 0 0 0 0 0 1 0 0 0 0]
 [0 0 3 3 0 0 1 0 0 0 0 0 0 1 0 0]
 [0 0 2 2 0 0 2 0 0 0 0 0 0 0 0 0]
 [0 0 2 0 1 0 0 0 0 0 0 0 0 1 0 0]
 [0 0 0 0 0 0 2 0 0 0 1 0 0 1 1 0]
 [0 0 2 2 1 0 0 0 0 0 0 0 0 2 0 0]
 [0 0 2 0 0 0 1 0 0 0 0 0 0 0 2 0]
 [0 0 1 0 0 0 0 0 0 0 0 0 0 1 2 0]
 [0 0 1 1 2 0 1 0 0 0 0 1 0 0 0 0]
 [0 0 1 2 0 0 0 0 0 0 0 0 0 1 2 0]
 [0 0 0 0 0 0 2 0 0 0 0 0 0 1 2 0]
 [0 0 0 0 0 0 0 0 0 0 0 2 0 0 0 0]
 [0 0 1 4 0 0 0 0 0 0 0 0 0 2 0 0]
 [0 0 0 2 0 0 2 1 0 0 1 0 0 0 4 0]
 [0 0 2 1 0 0 0 0 0 0 0 0 0 1 1 0]]
Accuracy Score = 0.1511627906976744
Epoch: 46, Loss:  2.0820631980895996
Epoch: 46, Loss:  2.084780216217041
Epoch: 46, Loss:  2.0802090167999268
Epoch: 46, Loss:  2.1320292949676514
Epoch: 46, Loss:  2.2006964683532715
Epoch: 46, Loss:  2.0327014923095703
Epoch: 46, Loss:  2.664426326751709
Accuracy Score = 0.1875
Accuracy Score = 0.18604651162790697
plotting cm
[[0 0 1 0 0 0 0 0 0 0 0 0 0 1 1 0]
 [0 0 0 0 0 0 0 0 0 0 0 3 0 0 0 0]
 [0 0 3 1 0 1 1 0 0 0 0 1 0 1 0 0]
 [0 0 2 2 0 0 0 0 0 0 0 2 0 0 0 0]
 [1 0 1 0 0 0 1 0 0 0 0 0 0 1 0 0]
 [0 0 1 0 0 0 1 0 0 0 1 1 0 0 1 0]
 [0 0 2 3 0 0 0 0 0 0 0 2 0 0 0 0]
 [0 0 2 0 0 0 1 0 0 0 0 1 0 0 1 0]
 [0 0 0 0 0 1 0 0 0 0 0 3 0 0 0 0]
 [0 0 1 1 2 0 1 0 0 0 0 1 0 0 0 0]
 [0 0 1 0 0 0 0 0 0 0 2 1 0 0 2 0]
 [0 0 0 0 0 0 0 0 0 0 0 3 0 0 2 0]
 [0 0 0 0 0 0 0 0 0 0 0 2 0 0 0 0]
 [0 0 1 1 0 1 1 0 0 0 0 2 0 1 0 0]
 [0 0 0 1 0 0 1 0 0 0 1 2 0 0 5 0]
 [0 0 2 1 0 0 0 0 0 0 0 0 0 0 2 0]]
Accuracy Score = 0.18604651162790697
Epoch: 47, Loss:  2.1032280921936035
Epoch: 47, Loss:  2.1186366081237793
Epoch: 47, Loss:  2.019768476486206
Epoch: 47, Loss:  2.0757904052734375
Epoch: 47, Loss:  2.049842357635498
Epoch: 47, Loss:  1.9628708362579346
Epoch: 47, Loss:  1.8513764142990112
Accuracy Score = 0.109375
Accuracy Score = 0.12790697674418605
plotting cm
[[0 0 1 0 0 0 0 0 0 0 0 0 0 1 1 0]
 [0 1 0 0 0 0 0 0 0 0 0 2 0 0 0 0]
 [0 0 3 1 0 1 1 0 0 0 0 0 0 1 1 0]
 [0 0 2 0 0 0 0 0 0 0 1 2 0 1 0 0]
 [0 0 2 0 0 0 1 0 0 0 0 0 0 1 0 0]
 [0 0 1 0 0 0 1 0 0 0 1 1 0 0 1 0]
 [0 0 2 2 1 0 0 0 0 0 0 0 0 2 0 0]
 [0 0 2 0 0 0 1 0 0 0 0 0 0 0 2 0]
 [0 1 0 0 0 1 0 0 0 0 0 0 0 1 1 0]
 [0 0 1 0 3 0 1 0 0 0 0 1 0 0 0 0]
 [0 0 2 1 1 0 0 0 0 0 0 1 0 1 0 0]
 [0 0 0 0 0 0 1 0 0 0 1 0 0 0 3 0]
 [0 0 0 0 0 0 0 0 0 0 0 2 0 0 0 0]
 [0 0 1 0 1 1 0 0 0 0 0 1 0 2 0 1]
 [0 0 0 2 0 0 1 0 0 0 0 1 0 1 5 0]
 [0 0 3 1 1 0 0 0 0 0 0 0 0 0 0 0]]
Accuracy Score = 0.12790697674418605
Epoch: 48, Loss:  2.0602803230285645
Epoch: 48, Loss:  2.1047964096069336
Epoch: 48, Loss:  1.9433865547180176
Epoch: 48, Loss:  2.1282453536987305
Epoch: 48, Loss:  1.957882285118103
Epoch: 48, Loss:  2.001624584197998
Epoch: 48, Loss:  1.9244437217712402
Accuracy Score = 0.09375
Accuracy Score = 0.11627906976744186
plotting cm
[[0 0 1 0 0 0 0 0 0 0 0 0 0 1 1 0]
 [0 0 0 0 0 0 0 0 0 0 0 3 0 0 0 0]
 [0 0 3 0 0 1 1 0 0 0 1 0 0 1 1 0]
 [0 0 2 1 0 0 0 0 0 0 0 3 0 0 0 0]
 [0 0 2 0 0 0 1 0 0 0 0 0 0 1 0 0]
 [0 0 0 0 0 0 2 0 0 0 1 0 0 1 1 0]
 [0 0 2 3 0 0 0 0 0 0 0 1 0 1 0 0]
 [0 0 2 0 0 0 1 0 0 0 0 0 0 0 2 0]
 [1 1 0 0 0 0 0 0 0 0 0 1 0 0 0 1]
 [0 0 2 1 1 0 1 0 0 0 0 1 0 0 0 0]
 [0 0 2 1 1 0 0 0 0 0 0 1 0 1 0 0]
 [0 1 0 0 0 0 1 0 0 0 1 0 0 0 2 0]
 [0 0 0 0 0 0 0 0 0 0 0 2 0 0 0 0]
 [0 0 1 1 0 1 1 0 0 0 0 1 0 1 0 1]
 [0 0 0 2 0 0 2 0 0 0 0 1 0 0 5 0]
 [0 0 2 1 0 0 0 0 0 0 0 0 0 1 1 0]]
Accuracy Score = 0.11627906976744186
Epoch: 49, Loss:  2.1006102561950684
Epoch: 49, Loss:  1.9511224031448364
Epoch: 49, Loss:  2.1334919929504395
Epoch: 49, Loss:  1.8859953880310059
Epoch: 49, Loss:  1.9591469764709473
Epoch: 49, Loss:  1.9101502895355225
Epoch: 49, Loss:  1.6196527481079102
Accuracy Score = 0.109375
Accuracy Score = 0.13953488372093023
plotting cm
[[0 0 1 0 0 0 0 0 0 0 0 0 0 1 1 0]
 [0 1 0 0 0 0 0 0 0 0 0 2 0 0 0 0]
 [0 0 3 1 0 0 1 0 0 0 1 0 0 1 1 0]
 [0 0 2 1 0 0 0 0 0 0 0 2 0 1 0 0]
 [0 0 0 0 0 0 1 0 0 0 0 0 0 3 0 0]
 [0 0 0 0 0 0 1 0 0 0 1 1 0 1 1 0]
 [0 0 1 3 0 0 0 0 0 0 0 0 0 3 0 0]
 [0 0 1 0 0 0 1 0 0 0 0 0 0 1 2 0]
 [0 1 0 0 0 1 0 0 0 0 0 1 0 1 0 0]
 [0 0 2 1 1 0 1 0 0 0 0 1 0 0 0 0]
 [0 0 1 2 0 0 0 0 0 0 0 1 0 1 1 0]
 [0 0 0 0 0 0 1 0 0 0 2 0 0 0 2 0]
 [0 0 0 0 0 0 0 0 0 0 0 2 0 0 0 0]
 [0 0 1 1 0 2 1 0 0 0 0 0 0 2 0 0]
 [0 0 0 3 0 0 1 0 0 0 0 1 0 0 5 0]
 [0 0 2 1 0 0 0 0 0 0 0 0 0 1 1 0]]
Accuracy Score = 0.13953488372093023
Epoch: 50, Loss:  1.9915244579315186
Epoch: 50, Loss:  1.9629902839660645
Epoch: 50, Loss:  1.9687004089355469
Epoch: 50, Loss:  2.0254509449005127
Epoch: 50, Loss:  1.8519723415374756
Epoch: 50, Loss:  1.8859748840332031
Epoch: 50, Loss:  1.9777237176895142
Accuracy Score = 0.125
Accuracy Score = 0.13953488372093023
plotting cm
[[0 0 1 0 0 0 0 0 0 0 0 0 0 1 1 0]
 [0 1 0 0 0 0 0 0 0 0 0 2 0 0 0 0]
 [0 0 1 1 2 0 1 0 0 0 1 0 0 1 1 0]
 [0 0 1 1 1 0 0 0 0 0 0 2 0 1 0 0]
 [0 0 1 0 0 0 1 0 0 0 0 0 0 2 0 0]
 [0 0 0 0 0 0 1 0 0 0 1 1 0 1 1 0]
 [0 0 1 2 1 0 0 0 0 0 0 0 0 3 0 0]
 [0 0 0 0 1 0 1 0 0 0 0 0 0 1 2 0]
 [0 1 0 0 0 0 0 0 0 0 0 1 0 1 1 0]
 [0 0 1 0 2 0 1 0 0 0 0 1 0 1 0 0]
 [0 0 1 1 0 0 0 0 0 0 1 1 0 1 1 0]
 [0 0 0 0 0 0 1 0 0 0 1 1 0 0 2 0]
 [0 0 0 0 0 0 0 0 0 0 0 1 0 1 0 0]
 [0 0 1 0 0 1 1 0 0 0 0 1 0 3 0 0]
 [0 0 0 1 0 0 1 0 0 0 0 1 0 2 4 1]
 [0 0 0 1 3 0 0 0 0 0 0 0 0 0 1 0]]
Accuracy Score = 0.13953488372093023
Epoch: 51, Loss:  1.8367090225219727
Epoch: 51, Loss:  1.9569573402404785
Epoch: 51, Loss:  1.9476704597473145
Epoch: 51, Loss:  1.936869502067566
Epoch: 51, Loss:  1.974277377128601
Epoch: 51, Loss:  2.0003082752227783
Epoch: 51, Loss:  1.875192403793335
Accuracy Score = 0.109375
Accuracy Score = 0.12790697674418605
plotting cm
[[0 0 1 0 0 0 0 0 0 0 0 0 0 1 1 0]
 [0 1 0 0 0 0 0 0 0 0 0 2 0 0 0 0]
 [0 0 1 0 2 1 1 0 0 0 0 0 0 1 2 0]
 [0 0 1 1 1 0 0 0 0 0 0 2 0 1 0 0]
 [0 0 2 1 0 0 1 0 0 0 0 0 0 0 0 0]
 [0 0 1 0 0 0 1 0 0 0 1 1 0 0 1 0]
 [0 0 2 3 1 0 0 0 0 0 0 0 0 1 0 0]
 [0 0 1 0 1 0 1 0 0 0 0 0 0 0 2 0]
 [0 1 0 0 0 0 0 0 0 0 0 0 0 1 2 0]
 [1 0 0 0 3 0 1 0 0 0 0 1 0 0 0 0]
 [0 0 2 0 0 0 0 0 0 0 0 1 0 1 1 1]
 [0 0 0 0 0 0 1 0 0 0 1 1 0 0 2 0]
 [0 0 0 0 1 0 0 0 0 0 0 0 0 1 0 0]
 [0 1 1 0 1 1 1 0 0 0 0 0 0 1 0 1]
 [0 0 0 2 0 0 1 0 0 0 0 1 0 0 6 0]
 [0 0 0 1 2 0 0 0 0 0 0 0 0 0 2 0]]
Accuracy Score = 0.12790697674418605
Epoch: 52, Loss:  1.8993055820465088
Epoch: 52, Loss:  1.9153376817703247
Epoch: 52, Loss:  1.9731371402740479
Epoch: 52, Loss:  1.9791169166564941
Epoch: 52, Loss:  1.8574590682983398
Epoch: 52, Loss:  1.957627296447754
Epoch: 52, Loss:  1.8131877183914185
Accuracy Score = 0.171875
Accuracy Score = 0.1511627906976744
plotting cm
[[0 0 1 0 0 0 0 0 0 0 0 0 0 1 1 0]
 [0 1 0 0 0 0 0 0 0 0 0 1 0 0 0 1]
 [0 0 3 2 0 1 1 0 0 0 0 0 0 1 0 0]
 [0 0 2 0 0 0 0 0 0 0 0 2 0 2 0 0]
 [0 0 1 0 0 0 1 0 0 0 0 0 0 2 0 0]
 [0 0 1 0 0 0 1 0 0 0 1 1 0 0 1 0]
 [0 0 2 1 0 0 0 0 0 0 0 0 0 4 0 0]
 [0 0 1 0 0 0 1 0 0 0 0 0 0 1 2 0]
 [0 1 0 0 0 1 0 0 0 0 0 1 0 1 0 0]
 [0 0 2 0 2 0 0 0 0 0 0 1 0 1 0 0]
 [0 0 1 0 1 0 0 0 0 0 0 1 0 1 1 1]
 [0 0 0 0 0 0 1 0 0 0 1 1 0 0 2 0]
 [0 0 0 0 0 0 0 0 0 0 0 1 0 1 0 0]
 [0 0 1 1 1 1 0 0 0 0 0 0 0 2 1 0]
 [0 0 0 1 0 0 0 0 0 0 0 2 0 1 6 0]
 [0 0 2 1 1 0 0 0 0 0 0 0 0 1 0 0]]
Accuracy Score = 0.1511627906976744
Epoch: 53, Loss:  1.8259191513061523
Epoch: 53, Loss:  1.929980993270874
Epoch: 53, Loss:  2.06449294090271
Epoch: 53, Loss:  1.905442714691162
Epoch: 53, Loss:  1.9437788724899292
Epoch: 53, Loss:  1.8691108226776123
Epoch: 53, Loss:  1.9923994541168213
Accuracy Score = 0.109375
Accuracy Score = 0.13953488372093023
plotting cm
[[0 0 1 0 0 0 0 0 0 0 0 0 0 1 1 0]
 [0 1 0 0 0 0 0 0 0 0 0 2 0 0 0 0]
 [0 0 3 1 0 1 1 0 0 0 1 0 0 1 0 0]
 [0 0 2 1 0 0 0 0 0 0 0 2 0 1 0 0]
 [0 0 2 1 0 0 1 0 0 0 0 0 0 0 0 0]
 [0 0 1 0 0 0 1 0 0 0 1 1 0 0 1 0]
 [0 0 2 2 0 0 0 0 0 0 0 1 0 2 0 0]
 [0 0 2 0 0 0 1 0 0 0 0 0 0 0 2 0]
 [0 1 1 0 0 0 0 0 0 0 0 1 0 0 0 1]
 [0 0 2 0 2 0 1 0 0 0 0 1 0 0 0 0]
 [0 0 2 0 1 0 0 0 0 0 0 1 0 1 1 0]
 [0 1 0 0 0 0 1 0 0 0 1 0 0 0 2 0]
 [0 0 0 0 0 0 0 0 0 0 0 1 0 1 0 0]
 [0 0 1 1 1 1 1 0 0 0 0 0 0 1 1 0]
 [0 0 0 1 0 0 2 0 0 0 0 1 0 0 6 0]
 [0 0 3 1 0 0 0 0 0 0 0 0 0 0 1 0]]
Accuracy Score = 0.13953488372093023
Epoch: 54, Loss:  1.8640961647033691
Epoch: 54, Loss:  1.815548062324524
Epoch: 54, Loss:  1.9430224895477295
Epoch: 54, Loss:  1.9122045040130615
Epoch: 54, Loss:  1.8375229835510254
Epoch: 54, Loss:  1.878623366355896
Epoch: 54, Loss:  1.744793176651001
Accuracy Score = 0.140625
Accuracy Score = 0.13953488372093023
plotting cm
[[0 0 1 0 0 0 0 0 0 0 0 0 0 1 1 0]
 [0 1 0 0 0 0 0 0 0 0 0 2 0 0 0 0]
 [0 0 3 0 0 1 1 0 0 0 1 0 0 1 1 0]
 [0 0 2 1 0 0 0 0 0 0 0 2 0 1 0 0]
 [0 0 1 1 0 0 1 0 0 0 0 0 0 1 0 0]
 [0 0 1 0 0 0 1 0 0 0 1 1 0 0 1 0]
 [0 0 3 2 0 0 0 0 0 0 0 1 0 1 0 0]
 [0 0 1 0 0 0 1 0 0 0 0 0 0 1 2 0]
 [0 1 0 0 0 1 0 0 0 0 0 1 0 0 0 1]
 [1 0 2 0 0 0 1 0 0 0 0 2 0 0 0 0]
 [0 0 2 0 0 0 0 0 0 0 0 1 0 1 2 0]
 [0 0 0 0 0 0 1 0 0 0 1 1 0 0 2 0]
 [0 0 0 0 0 0 0 0 0 0 0 1 0 1 0 0]
 [0 0 2 0 0 1 1 0 0 0 0 1 0 1 1 0]
 [0 0 0 1 0 0 1 0 0 0 0 3 0 0 5 0]
 [0 0 3 1 0 0 0 0 0 0 0 0 0 0 1 0]]
Accuracy Score = 0.13953488372093023
Epoch: 55, Loss:  1.7945196628570557
Epoch: 55, Loss:  1.928980827331543
Epoch: 55, Loss:  1.750271201133728
Epoch: 55, Loss:  1.9254958629608154
Epoch: 55, Loss:  1.7955081462860107
Epoch: 55, Loss:  1.98909592628479
Epoch: 55, Loss:  2.1083762645721436
Accuracy Score = 0.15625
Accuracy Score = 0.16279069767441862
plotting cm
[[0 0 1 0 0 0 0 0 0 0 0 0 0 1 1 0]
 [0 1 0 0 0 0 0 0 0 0 0 2 0 0 0 0]
 [0 0 3 1 0 1 1 0 0 0 1 0 0 1 0 0]
 [0 0 1 2 0 0 0 0 0 0 0 1 0 2 0 0]
 [0 0 0 1 0 0 1 0 0 0 0 0 0 2 0 0]
 [0 0 0 0 1 0 1 0 0 0 1 1 0 1 0 0]
 [0 0 2 2 0 0 1 0 0 0 0 0 0 2 0 0]
 [0 0 1 0 0 0 1 0 0 0 0 0 0 1 2 0]
 [0 1 0 0 0 1 0 0 0 0 0 0 0 0 1 1]
 [0 0 1 0 3 0 1 0 0 0 0 1 0 0 0 0]
 [0 0 2 1 1 0 0 0 0 0 0 1 0 1 0 0]
 [0 0 0 1 1 0 1 0 0 0 2 0 0 0 0 0]
 [0 0 0 0 0 0 0 0 0 0 0 1 0 1 0 0]
 [0 0 1 1 1 1 1 0 0 0 0 0 0 2 0 0]
 [0 0 0 2 0 0 2 0 0 0 0 1 0 0 5 0]
 [0 0 3 1 1 0 0 0 0 0 0 0 0 0 0 0]]
Accuracy Score = 0.16279069767441862
Epoch: 56, Loss:  1.8114275932312012
Epoch: 56, Loss:  1.8234128952026367
Epoch: 56, Loss:  1.8875072002410889
Epoch: 56, Loss:  1.8649523258209229
Epoch: 56, Loss:  1.6484498977661133
Epoch: 56, Loss:  1.8894832134246826
Epoch: 56, Loss:  1.6573693752288818
Accuracy Score = 0.125
Accuracy Score = 0.11627906976744186
plotting cm
[[0 0 1 0 0 0 0 0 0 0 0 0 0 1 1 0]
 [0 1 0 0 0 0 0 0 0 0 0 2 0 0 0 0]
 [0 0 1 1 0 0 1 0 0 0 4 0 0 1 0 0]
 [0 1 1 1 0 0 0 0 0 0 1 1 0 1 0 0]
 [0 0 0 1 0 0 1 0 0 0 0 0 0 2 0 0]
 [0 0 0 0 1 0 1 0 0 0 1 1 0 1 0 0]
 [0 0 1 2 0 0 0 0 0 0 1 0 0 3 0 0]
 [0 0 0 0 0 0 1 0 0 0 1 0 0 1 2 0]
 [0 1 0 0 0 0 0 0 0 0 0 1 0 0 1 1]
 [0 0 0 1 2 0 1 0 0 0 1 1 0 0 0 0]
 [0 0 2 1 1 0 0 0 0 0 0 1 0 1 0 0]
 [0 0 0 0 0 0 1 0 1 0 1 0 0 0 2 0]
 [0 0 0 0 0 0 0 0 0 0 0 1 0 1 0 0]
 [0 0 1 1 0 1 1 0 0 0 0 2 0 1 0 0]
 [0 0 0 1 0 0 2 0 0 0 0 1 0 0 6 0]
 [0 0 1 1 1 0 0 0 0 0 2 0 0 0 0 0]]
Accuracy Score = 0.11627906976744186
Epoch: 57, Loss:  1.7700401544570923
Epoch: 57, Loss:  1.7535526752471924
Epoch: 57, Loss:  1.8084592819213867
Epoch: 57, Loss:  1.7301568984985352
Epoch: 57, Loss:  1.8379318714141846
Epoch: 57, Loss:  1.8430839776992798
Epoch: 57, Loss:  1.6109585762023926
Accuracy Score = 0.078125
Accuracy Score = 0.10465116279069768
plotting cm
[[0 0 1 0 0 0 0 0 0 0 0 0 0 1 1 0]
 [0 1 0 0 0 0 0 0 0 0 0 2 0 0 0 0]
 [0 0 1 0 0 1 1 0 0 0 4 0 0 1 0 0]
 [0 0 1 0 0 0 0 0 0 0 1 2 0 2 0 0]
 [0 0 1 0 1 0 0 0 0 0 0 0 0 2 0 0]
 [0 0 1 0 0 0 1 0 0 0 1 1 0 0 1 0]
 [0 0 0 2 0 0 0 0 0 0 2 0 0 3 0 0]
 [0 0 0 0 0 0 1 0 0 0 1 0 0 1 2 0]
 [0 1 0 0 0 0 0 0 0 0 0 1 0 1 1 0]
 [0 0 0 1 2 0 1 0 0 0 1 1 0 0 0 0]
 [0 0 1 2 1 0 0 0 0 0 0 1 0 1 0 0]
 [0 0 0 0 0 0 1 0 0 0 0 1 1 0 2 0]
 [0 0 0 0 0 0 0 0 0 0 0 1 0 1 0 0]
 [0 0 1 2 0 0 1 0 0 0 0 2 0 1 0 0]
 [0 0 0 1 1 0 0 0 0 0 1 1 0 2 4 0]
 [0 0 1 1 1 0 0 0 0 0 2 0 0 0 0 0]]
Accuracy Score = 0.10465116279069768
Epoch: 58, Loss:  1.806114912033081
Epoch: 58, Loss:  1.8046092987060547
Epoch: 58, Loss:  1.7045756578445435
Epoch: 58, Loss:  1.7134984731674194
Epoch: 58, Loss:  1.7724789381027222
Epoch: 58, Loss:  1.7999815940856934
Epoch: 58, Loss:  1.8553407192230225
Accuracy Score = 0.15625
Accuracy Score = 0.1511627906976744
plotting cm
[[0 0 1 0 0 0 0 0 0 0 0 0 0 1 1 0]
 [0 1 0 0 0 0 0 0 0 0 0 2 0 0 0 0]
 [0 0 1 1 0 1 1 0 0 0 3 0 0 1 0 0]
 [0 0 1 2 0 0 0 0 0 0 1 1 0 1 0 0]
 [0 0 1 0 1 0 0 0 0 0 0 0 0 2 0 0]
 [0 0 1 0 0 0 2 0 0 0 1 0 0 0 1 0]
 [0 0 1 2 0 0 0 0 0 0 2 0 0 2 0 0]
 [0 0 0 0 0 0 1 0 0 0 1 0 0 1 2 0]
 [0 1 0 0 0 0 0 1 0 0 0 0 0 1 1 0]
 [1 0 0 1 1 0 1 0 0 0 2 0 0 0 0 0]
 [0 0 1 1 1 0 0 0 0 0 1 1 0 1 0 0]
 [0 0 0 0 0 0 1 0 0 0 0 0 1 0 3 0]
 [0 0 0 0 0 0 0 0 0 0 0 1 0 1 0 0]
 [0 0 1 2 0 1 0 0 0 0 0 1 0 1 0 1]
 [0 0 0 1 0 0 1 0 0 0 0 1 0 1 6 0]
 [0 0 1 1 1 0 0 0 0 0 2 0 0 0 0 0]]
Accuracy Score = 0.1511627906976744
Epoch: 59, Loss:  1.7116280794143677
Epoch: 59, Loss:  1.7271137237548828
Epoch: 59, Loss:  1.7184807062149048
Epoch: 59, Loss:  1.7875683307647705
Epoch: 59, Loss:  1.7485215663909912
Epoch: 59, Loss:  1.7987079620361328
Epoch: 59, Loss:  1.5205495357513428
Accuracy Score = 0.171875
Accuracy Score = 0.18604651162790697
plotting cm
[[0 0 1 0 0 0 0 0 0 0 0 0 0 1 1 0]
 [0 1 0 0 0 0 0 0 0 0 0 2 0 0 0 0]
 [0 0 3 1 0 1 1 0 0 0 1 0 0 1 0 0]
 [0 0 2 2 0 0 0 0 0 0 0 1 0 1 0 0]
 [0 0 1 1 1 0 0 0 0 0 0 0 0 1 0 0]
 [0 0 1 0 0 0 2 0 0 0 1 0 0 0 1 0]
 [0 0 2 1 0 0 0 0 0 0 1 0 0 2 0 1]
 [0 0 1 0 0 0 1 0 0 0 0 0 0 1 2 0]
 [0 1 0 0 0 1 0 0 0 0 0 1 0 1 0 0]
 [0 0 1 2 1 0 1 0 0 0 0 1 0 0 0 0]
 [0 0 1 1 1 0 0 0 0 0 1 1 0 1 0 0]
 [0 0 0 0 0 0 1 0 0 0 1 1 0 0 2 0]
 [0 0 0 0 0 0 0 0 0 0 0 1 0 1 0 0]
 [0 1 1 1 0 1 0 0 0 0 0 0 0 2 0 1]
 [0 0 0 1 0 0 1 0 0 0 0 2 0 1 5 0]
 [0 0 2 2 0 0 0 0 0 0 0 0 0 0 1 0]]
Accuracy Score = 0.18604651162790697
Epoch: 60, Loss:  1.6507303714752197
Epoch: 60, Loss:  1.7597038745880127
Epoch: 60, Loss:  1.705819010734558
Epoch: 60, Loss:  1.7278088331222534
Epoch: 60, Loss:  1.6915522813796997
Epoch: 60, Loss:  1.6582577228546143
Epoch: 60, Loss:  1.8128657341003418
Accuracy Score = 0.140625
Accuracy Score = 0.1744186046511628
plotting cm
[[0 0 1 0 0 0 0 0 0 0 0 0 0 1 1 0]
 [0 1 0 0 0 0 0 0 0 0 0 2 0 0 0 0]
 [0 0 3 0 0 1 1 0 0 0 2 0 0 1 0 0]
 [0 0 2 2 0 0 1 0 0 0 0 0 0 1 0 0]
 [0 0 1 0 0 0 1 0 0 0 0 0 0 2 0 0]
 [0 0 0 0 0 0 2 0 0 0 1 0 0 1 1 0]
 [0 0 3 1 0 0 0 0 0 0 0 0 0 2 0 1]
 [0 0 1 0 0 0 1 0 0 0 0 0 0 1 2 0]
 [0 1 0 0 0 0 0 1 0 0 0 0 0 1 1 0]
 [0 0 2 0 2 0 1 0 0 0 1 0 0 0 0 0]
 [0 0 2 0 1 0 0 0 0 0 0 1 0 1 0 1]
 [0 0 0 0 2 0 0 0 0 0 1 0 0 0 2 0]
 [0 0 0 0 0 0 0 0 0 0 0 1 0 1 0 0]
 [0 0 1 1 1 1 0 0 0 0 0 0 0 3 0 0]
 [0 0 0 1 0 0 1 0 0 0 0 1 0 1 6 0]
 [0 0 2 1 1 0 0 0 0 0 0 0 0 0 1 0]]
Accuracy Score = 0.1744186046511628
Epoch: 61, Loss:  1.7305822372436523
Epoch: 61, Loss:  1.6780166625976562
Epoch: 61, Loss:  1.681734561920166
Epoch: 61, Loss:  1.7557775974273682
Epoch: 61, Loss:  1.6737525463104248
Epoch: 61, Loss:  1.5147367715835571
Epoch: 61, Loss:  1.3425114154815674
Accuracy Score = 0.140625
Accuracy Score = 0.1511627906976744
plotting cm
[[0 0 1 0 0 0 0 0 0 0 0 0 0 1 1 0]
 [0 1 0 0 0 0 0 0 0 0 0 2 0 0 0 0]
 [0 0 3 0 0 1 1 0 0 0 2 0 0 1 0 0]
 [0 0 2 2 0 0 0 0 0 0 0 1 0 1 0 0]
 [1 0 0 1 0 0 1 0 0 0 0 0 0 1 0 0]
 [0 0 1 0 0 0 1 0 0 0 1 2 0 0 0 0]
 [0 0 2 3 0 0 0 0 0 0 1 0 0 1 0 0]
 [0 0 1 0 0 0 1 0 0 0 0 0 0 1 2 0]
 [0 2 0 0 0 0 0 0 0 0 0 1 0 0 0 1]
 [0 0 1 2 1 0 1 0 0 0 0 1 0 0 0 0]
 [0 0 1 0 0 0 1 0 0 0 1 1 0 1 0 1]
 [0 2 0 0 0 0 1 0 0 0 1 0 0 0 1 0]
 [0 0 0 0 0 0 0 0 0 0 0 1 0 1 0 0]
 [0 0 1 2 0 1 0 0 0 0 0 2 0 1 0 0]
 [0 0 0 2 0 0 0 0 0 0 0 3 0 0 5 0]
 [0 0 2 1 0 0 0 0 0 0 0 0 0 0 2 0]]
Accuracy Score = 0.1511627906976744
Epoch: 62, Loss:  1.6302523612976074
Epoch: 62, Loss:  1.6753203868865967
Epoch: 62, Loss:  1.742002248764038
Epoch: 62, Loss:  1.6655128002166748
Epoch: 62, Loss:  1.706944465637207
Epoch: 62, Loss:  1.7017687559127808
Epoch: 62, Loss:  1.9028198719024658
Accuracy Score = 0.125
Accuracy Score = 0.1744186046511628
plotting cm
[[0 0 1 0 0 0 0 0 0 0 0 0 0 1 1 0]
 [0 1 0 0 0 0 0 0 0 0 0 2 0 0 0 0]
 [0 0 3 1 0 1 1 0 0 0 1 0 0 1 0 0]
 [0 0 2 2 0 0 0 0 0 0 0 1 0 1 0 0]
 [0 0 0 1 1 0 0 0 0 0 0 0 0 2 0 0]
 [0 0 0 0 0 0 1 1 0 0 1 1 0 1 0 0]
 [0 0 1 2 0 0 0 0 0 0 1 0 0 3 0 0]
 [0 0 1 0 0 0 1 0 0 0 0 0 0 1 2 0]
 [0 2 0 0 0 0 0 0 0 0 0 0 0 1 1 0]
 [0 0 2 1 1 0 1 0 0 0 0 1 0 0 0 0]
 [0 0 1 1 1 0 0 0 0 0 1 1 0 1 0 0]
 [0 2 0 0 0 0 2 0 0 0 0 0 0 0 1 0]
 [0 0 0 0 0 0 0 0 0 0 0 1 0 1 0 0]
 [0 0 1 3 0 0 0 0 0 0 0 0 0 2 0 1]
 [0 0 0 1 0 0 1 0 0 0 0 1 0 1 5 1]
 [0 0 2 1 1 0 0 0 0 0 0 0 0 1 0 0]]
Accuracy Score = 0.1744186046511628
Epoch: 63, Loss:  1.6036970615386963
Epoch: 63, Loss:  1.7068465948104858
Epoch: 63, Loss:  1.6077463626861572
Epoch: 63, Loss:  1.679051160812378
Epoch: 63, Loss:  1.7109875679016113
Epoch: 63, Loss:  1.4976985454559326
Epoch: 63, Loss:  2.082789182662964
Accuracy Score = 0.15625
Accuracy Score = 0.16279069767441862
plotting cm
[[0 0 0 1 0 0 0 0 0 0 0 0 0 1 1 0]
 [0 1 0 0 0 0 0 0 0 0 0 2 0 0 0 0]
 [0 0 3 0 0 1 1 0 0 0 2 0 0 1 0 0]
 [0 1 2 2 0 0 0 0 0 0 0 1 0 0 0 0]
 [0 0 0 1 1 0 0 0 0 0 0 0 0 2 0 0]
 [0 0 0 0 0 0 1 0 0 0 1 2 0 1 0 0]
 [0 0 2 3 0 0 1 0 0 0 1 0 0 0 0 0]
 [0 0 1 0 0 0 1 0 0 0 0 0 0 1 2 0]
 [0 1 0 0 0 1 0 0 0 0 0 0 0 0 1 1]
 [0 0 1 1 2 0 1 0 0 0 1 0 0 0 0 0]
 [0 0 0 2 1 0 0 0 0 0 1 1 0 0 1 0]
 [0 1 0 0 0 0 1 0 1 0 1 0 0 0 1 0]
 [0 0 0 0 0 0 0 0 0 0 0 1 0 1 0 0]
 [0 0 1 1 0 1 1 0 0 0 0 1 0 1 0 1]
 [0 0 0 1 0 0 1 0 1 0 1 2 0 0 4 0]
 [0 0 2 1 1 1 0 0 0 0 0 0 0 0 0 0]]
Accuracy Score = 0.16279069767441862
Epoch: 64, Loss:  1.5299594402313232
Epoch: 64, Loss:  1.6794224977493286
Epoch: 64, Loss:  1.601854920387268
Epoch: 64, Loss:  1.7045795917510986
Epoch: 64, Loss:  1.5604703426361084
Epoch: 64, Loss:  1.568000078201294
Epoch: 64, Loss:  0.9631491303443909
Accuracy Score = 0.109375
Accuracy Score = 0.11627906976744186
plotting cm
[[0 0 1 0 0 0 0 0 0 0 0 0 0 1 1 0]
 [0 1 0 0 0 0 0 0 0 0 0 2 0 0 0 0]
 [0 0 3 2 0 0 1 0 0 0 1 0 0 1 0 0]
 [0 1 2 2 0 0 0 0 0 0 0 1 0 0 0 0]
 [0 0 0 0 0 0 1 0 0 0 0 0 0 3 0 0]
 [0 0 0 0 0 0 1 0 0 0 1 2 0 1 0 0]
 [0 0 2 2 0 0 0 0 0 0 1 0 0 2 0 0]
 [0 0 1 0 0 0 1 0 0 0 0 0 0 1 2 0]
 [0 1 1 0 0 0 0 0 0 0 0 0 0 1 1 0]
 [0 0 1 0 3 0 1 0 0 0 1 0 0 0 0 0]
 [0 0 1 2 1 0 0 0 0 0 0 1 0 1 0 0]
 [0 0 0 0 0 0 1 0 1 0 2 0 0 0 1 0]
 [0 0 0 0 0 0 0 0 0 0 0 1 0 1 0 0]
 [0 0 1 0 1 1 0 0 0 0 0 1 0 2 0 1]
 [0 0 0 3 0 0 0 1 0 0 1 1 0 2 2 0]
 [0 0 2 1 1 0 0 0 0 0 0 0 0 1 0 0]]
Accuracy Score = 0.11627906976744186
Epoch: 65, Loss:  1.5826945304870605
Epoch: 65, Loss:  1.5690315961837769
Epoch: 65, Loss:  1.657069444656372
Epoch: 65, Loss:  1.569077968597412
Epoch: 65, Loss:  1.5788013935089111
Epoch: 65, Loss:  1.5250163078308105
Epoch: 65, Loss:  1.5286751985549927
Accuracy Score = 0.109375
Accuracy Score = 0.1511627906976744
plotting cm
[[0 0 1 0 0 0 0 0 0 0 0 0 0 1 1 0]
 [0 1 0 0 0 0 0 0 0 0 0 2 0 0 0 0]
 [0 0 3 0 0 1 1 0 0 0 2 0 0 1 0 0]
 [0 0 2 2 0 0 0 0 0 0 0 2 0 0 0 0]
 [1 0 0 0 0 0 1 0 0 0 0 1 0 1 0 0]
 [0 0 1 0 0 0 1 0 0 0 1 2 0 0 0 0]
 [0 0 2 0 1 0 0 0 0 0 1 0 0 2 0 1]
 [0 0 1 0 0 0 1 0 0 0 0 0 0 1 2 0]
 [0 1 0 0 0 1 0 0 0 0 0 0 0 1 1 0]
 [0 0 1 2 1 0 1 0 0 0 0 1 0 0 0 0]
 [0 0 1 0 0 0 1 0 0 0 1 1 0 1 1 0]
 [0 0 0 0 0 0 1 0 1 0 1 0 0 0 2 0]
 [0 0 0 0 0 0 0 0 0 0 0 1 0 1 0 0]
 [0 0 1 1 0 1 0 0 0 0 0 2 0 1 0 1]
 [0 0 0 1 0 0 1 0 1 0 0 2 0 0 5 0]
 [0 0 2 1 0 0 0 0 0 0 0 0 0 1 1 0]]
Accuracy Score = 0.1511627906976744
Epoch: 66, Loss:  1.5859030485153198
Epoch: 66, Loss:  1.5234627723693848
Epoch: 66, Loss:  1.5280638933181763
Epoch: 66, Loss:  1.435312271118164
Epoch: 66, Loss:  1.5265777111053467
Epoch: 66, Loss:  1.5702803134918213
Epoch: 66, Loss:  1.455215334892273
Accuracy Score = 0.203125
Accuracy Score = 0.18604651162790697
plotting cm
[[0 0 0 1 0 0 0 0 0 0 0 0 0 1 1 0]
 [0 1 0 0 0 0 0 0 0 0 0 2 0 0 0 0]
 [0 0 3 0 0 1 1 0 0 0 2 0 0 1 0 0]
 [0 0 2 2 0 0 0 0 0 0 1 0 0 1 0 0]
 [1 0 0 0 1 0 1 0 0 0 0 0 0 1 0 0]
 [0 0 0 0 1 0 1 0 0 0 1 1 0 1 0 0]
 [0 0 2 2 0 0 0 0 0 0 0 0 0 3 0 0]
 [0 0 1 0 1 0 1 0 0 0 0 0 0 0 2 0]
 [0 1 0 0 0 0 0 0 1 0 0 0 0 1 1 0]
 [0 0 1 2 1 0 1 0 0 0 1 0 0 0 0 0]
 [0 0 1 0 1 0 0 0 0 0 2 1 0 1 0 0]
 [0 1 0 0 1 0 1 0 0 0 1 0 0 0 1 0]
 [0 0 0 0 0 0 0 0 0 0 0 1 0 1 0 0]
 [0 0 1 1 0 1 0 0 0 0 0 1 0 2 0 1]
 [0 1 0 2 0 0 0 0 0 0 0 1 0 2 4 0]
 [0 0 2 1 1 0 0 0 0 0 0 0 0 1 0 0]]
Accuracy Score = 0.18604651162790697
Epoch: 67, Loss:  1.4587401151657104
Epoch: 67, Loss:  1.4546637535095215
Epoch: 67, Loss:  1.3799781799316406
Epoch: 67, Loss:  1.4730629920959473
Epoch: 67, Loss:  1.455509901046753
Epoch: 67, Loss:  1.6485470533370972
Epoch: 67, Loss:  1.6082260608673096
Accuracy Score = 0.171875
Accuracy Score = 0.12790697674418605
plotting cm
[[0 0 0 1 0 0 0 0 0 0 0 0 0 1 1 0]
 [0 1 0 0 0 0 0 0 0 0 0 2 0 0 0 0]
 [1 0 2 0 0 1 1 0 0 0 2 0 0 1 0 0]
 [0 0 2 2 0 0 0 0 0 0 0 1 0 1 0 0]
 [1 1 0 0 1 0 1 0 0 0 0 0 0 0 0 0]
 [0 0 0 0 0 0 2 0 0 0 1 1 0 1 0 0]
 [0 0 2 1 0 0 0 0 0 0 0 1 0 2 0 1]
 [0 0 1 0 1 0 1 0 0 0 0 0 0 0 2 0]
 [0 1 0 0 0 1 0 0 0 0 0 1 0 0 0 1]
 [0 0 1 2 1 0 1 0 0 0 1 0 0 0 0 0]
 [0 0 1 0 0 0 1 1 0 0 2 1 0 0 0 0]
 [0 1 0 0 0 0 1 0 1 0 1 0 0 0 1 0]
 [0 0 0 0 0 0 0 0 0 0 0 1 0 1 0 0]
 [0 0 1 2 0 1 0 0 0 0 0 2 0 0 1 0]
 [0 1 0 1 1 0 0 0 1 0 1 2 0 0 3 0]
 [0 0 2 1 0 0 0 0 0 0 0 0 0 1 1 0]]
Accuracy Score = 0.12790697674418605
Epoch: 68, Loss:  1.4475682973861694
Epoch: 68, Loss:  1.5068470239639282
Epoch: 68, Loss:  1.5997378826141357
Epoch: 68, Loss:  1.5010415315628052
Epoch: 68, Loss:  1.4010586738586426
Epoch: 68, Loss:  1.5224881172180176
Epoch: 68, Loss:  1.0691683292388916
Accuracy Score = 0.125
Accuracy Score = 0.13953488372093023
plotting cm
[[0 0 1 0 0 0 0 0 0 0 0 0 0 1 1 0]
 [0 1 0 0 0 0 0 0 0 0 0 2 0 0 0 0]
 [0 0 1 0 1 1 1 0 0 0 3 0 0 1 0 0]
 [0 0 1 2 0 0 0 0 0 0 1 1 0 1 0 0]
 [0 0 1 0 1 0 0 0 0 0 0 0 0 2 0 0]
 [0 0 0 0 1 0 1 0 0 0 1 1 0 1 0 0]
 [0 0 2 1 0 0 0 0 0 0 1 0 0 2 0 1]
 [0 0 0 0 0 0 1 0 0 0 1 0 0 1 2 0]
 [0 1 0 0 0 1 0 0 0 0 0 0 0 0 1 1]
 [0 0 0 1 2 0 1 0 0 0 2 0 0 0 0 0]
 [0 0 2 1 1 0 0 0 0 0 0 1 0 1 0 0]
 [0 0 0 0 0 0 1 0 1 0 0 0 1 0 2 0]
 [0 0 0 0 0 0 0 0 0 0 0 1 0 1 0 0]
 [0 0 1 1 1 1 0 0 0 0 0 0 0 2 0 1]
 [0 0 0 1 1 0 0 0 0 0 0 1 0 1 5 1]
 [0 0 0 1 1 0 0 0 0 0 2 0 0 1 0 0]]
Accuracy Score = 0.13953488372093023
Epoch: 69, Loss:  1.4509828090667725
Epoch: 69, Loss:  1.5672659873962402
Epoch: 69, Loss:  1.452286720275879
Epoch: 69, Loss:  1.433184027671814
Epoch: 69, Loss:  1.422978401184082
Epoch: 69, Loss:  1.4200525283813477
Epoch: 69, Loss:  1.451635479927063
Accuracy Score = 0.171875
Accuracy Score = 0.1511627906976744
plotting cm
[[0 0 1 0 0 0 0 0 0 0 0 0 0 1 1 0]
 [0 1 0 0 0 0 0 0 0 0 0 2 0 0 0 0]
 [0 0 1 0 0 1 1 0 0 0 4 0 0 1 0 0]
 [0 0 1 2 0 0 0 0 0 0 1 1 0 1 0 0]
 [0 0 1 1 1 0 0 0 0 0 0 0 0 1 0 0]
 [0 0 0 0 0 0 1 0 0 0 1 2 0 1 0 0]
 [0 0 1 2 0 0 0 0 0 0 2 0 0 1 0 1]
 [0 0 0 0 0 0 1 0 0 0 1 0 0 1 2 0]
 [0 1 0 0 0 1 0 0 0 0 0 1 0 0 0 1]
 [0 0 0 2 1 0 1 0 0 0 2 0 0 0 0 0]
 [0 0 1 0 0 0 1 0 0 0 2 1 0 1 0 0]
 [0 1 0 0 0 1 1 0 1 0 1 0 0 0 0 0]
 [0 0 0 0 0 0 0 0 0 0 0 1 0 1 0 0]
 [0 0 1 2 0 1 0 0 0 0 0 1 0 1 0 1]
 [0 0 0 2 0 0 0 0 0 0 0 2 0 1 5 0]
 [0 0 0 1 0 0 0 0 0 0 2 0 0 1 1 0]]
Accuracy Score = 0.1511627906976744
Epoch: 70, Loss:  1.5103857517242432
Epoch: 70, Loss:  1.4132041931152344
Epoch: 70, Loss:  1.417189121246338
Epoch: 70, Loss:  1.3183627128601074
Epoch: 70, Loss:  1.3743362426757812
Epoch: 70, Loss:  1.3698519468307495
Epoch: 70, Loss:  1.6749966144561768
Accuracy Score = 0.171875
Accuracy Score = 0.13953488372093023
plotting cm
[[0 0 1 0 0 0 0 0 0 0 0 0 0 1 1 0]
 [0 1 0 0 0 0 0 0 1 0 0 1 0 0 0 0]
 [0 0 3 0 0 1 1 0 0 0 2 0 0 1 0 0]
 [0 0 2 2 0 0 0 0 0 0 0 1 0 1 0 0]
 [1 0 0 0 0 0 1 0 0 0 0 0 0 2 0 0]
 [0 0 0 0 0 0 1 0 0 0 1 1 0 1 1 0]
 [0 0 2 1 0 0 0 0 0 0 1 0 0 2 0 1]
 [0 0 1 0 0 0 1 0 0 0 0 0 0 1 2 0]
 [0 1 0 0 0 1 0 0 0 0 0 0 0 1 1 0]
 [0 0 1 1 2 0 1 0 0 0 1 0 0 0 0 0]
 [0 0 1 0 0 0 1 0 0 0 2 1 0 1 0 0]
 [0 1 0 0 0 1 1 0 1 0 0 0 1 0 0 0]
 [0 1 0 0 0 0 0 0 0 0 0 0 0 1 0 0]
 [0 1 1 1 1 2 0 0 0 0 0 0 0 0 0 1]
 [0 1 0 2 0 0 0 0 0 0 0 1 0 1 4 1]
 [0 0 2 1 0 0 0 0 0 0 0 0 0 1 1 0]]
Accuracy Score = 0.13953488372093023
Epoch: 71, Loss:  1.4574652910232544
Epoch: 71, Loss:  1.5190513134002686
Epoch: 71, Loss:  1.437422275543213
Epoch: 71, Loss:  1.3735923767089844
Epoch: 71, Loss:  1.2556393146514893
Epoch: 71, Loss:  1.4044126272201538
Epoch: 71, Loss:  1.8417757749557495
Accuracy Score = 0.1875
Accuracy Score = 0.16279069767441862
plotting cm
[[0 0 0 1 0 0 0 0 0 0 0 0 0 1 1 0]
 [0 1 0 0 0 0 0 0 0 0 0 2 0 0 0 0]
 [0 0 3 0 0 1 1 0 0 0 2 0 0 1 0 0]
 [0 0 2 2 0 0 0 0 0 0 0 1 0 1 0 0]
 [1 0 0 0 2 0 0 0 0 0 0 0 0 1 0 0]
 [0 0 0 0 0 0 1 0 0 0 1 2 0 1 0 0]
 [0 0 2 2 0 0 0 0 0 0 1 0 0 1 0 1]
 [0 0 1 0 1 0 1 0 0 0 0 0 0 0 2 0]
 [0 1 0 0 0 0 0 0 1 0 0 1 0 0 0 1]
 [0 0 1 0 3 0 1 0 0 0 0 1 0 0 0 0]
 [0 0 1 0 1 0 0 0 0 0 1 1 0 1 1 0]
 [0 2 0 0 0 0 0 0 1 0 0 1 1 0 0 0]
 [0 0 0 0 0 0 0 0 0 0 0 1 0 1 0 0]
 [0 0 1 0 2 0 0 0 0 0 0 2 0 0 0 2]
 [0 1 0 1 1 0 0 0 1 0 0 2 0 0 3 1]
 [0 0 2 1 0 1 0 0 1 0 0 0 0 0 0 0]]
Accuracy Score = 0.16279069767441862
Epoch: 72, Loss:  1.4581856727600098
Epoch: 72, Loss:  1.25425386428833
Epoch: 72, Loss:  1.396726131439209
Epoch: 72, Loss:  1.3936654329299927
Epoch: 72, Loss:  1.4798920154571533
Epoch: 72, Loss:  1.3724472522735596
Epoch: 72, Loss:  0.9572380781173706
Accuracy Score = 0.140625
Accuracy Score = 0.1511627906976744
plotting cm
[[0 0 0 1 0 0 0 0 0 0 0 0 0 1 1 0]
 [0 1 0 0 0 0 0 0 0 0 0 2 0 0 0 0]
 [0 0 3 0 0 1 1 0 0 0 2 0 0 1 0 0]
 [0 0 2 2 0 0 0 0 0 0 0 1 0 1 0 0]
 [1 0 0 0 0 0 1 0 0 0 0 0 0 2 0 0]
 [0 0 0 0 0 0 2 0 0 0 1 0 0 1 1 0]
 [0 0 2 2 0 0 0 0 0 0 0 0 0 2 0 1]
 [0 0 1 0 0 0 1 0 0 0 0 0 0 1 2 0]
 [0 1 0 0 0 1 0 0 0 0 0 0 0 0 1 1]
 [0 0 1 2 1 0 1 0 0 0 1 0 0 0 0 0]
 [0 0 1 0 0 0 1 0 0 1 1 1 0 1 0 0]
 [0 0 0 0 0 1 1 0 1 0 2 0 0 0 0 0]
 [0 0 0 0 0 0 1 0 0 0 0 0 0 1 0 0]
 [0 0 1 2 0 2 0 0 0 0 0 0 0 1 1 0]
 [0 0 0 2 0 0 1 0 0 0 0 1 0 1 5 0]
 [0 0 2 1 0 1 0 0 0 0 0 0 0 0 1 0]]
Accuracy Score = 0.1511627906976744
Epoch: 73, Loss:  1.397350788116455
Epoch: 73, Loss:  1.274336576461792
Epoch: 73, Loss:  1.4438340663909912
Epoch: 73, Loss:  1.3366892337799072
Epoch: 73, Loss:  1.302250623703003
Epoch: 73, Loss:  1.3921549320220947
Epoch: 73, Loss:  1.7136117219924927
Accuracy Score = 0.140625
Accuracy Score = 0.1511627906976744
plotting cm
[[0 0 1 0 0 0 0 0 0 0 0 0 0 1 1 0]
 [0 1 0 0 0 0 0 0 0 0 0 2 0 0 0 0]
 [0 0 3 0 0 1 1 0 0 0 2 0 0 1 0 0]
 [0 0 2 2 0 0 0 0 0 0 0 1 0 1 0 0]
 [0 0 1 0 0 0 1 0 0 0 0 0 0 1 0 1]
 [0 0 0 0 0 0 2 0 0 0 1 0 0 1 1 0]
 [0 0 2 2 0 0 0 0 0 0 1 0 0 1 0 1]
 [0 0 1 0 0 0 1 0 0 0 0 0 0 0 2 1]
 [0 1 1 0 0 0 0 0 0 0 0 0 0 0 1 1]
 [0 0 1 2 1 0 1 0 0 0 1 0 0 0 0 0]
 [0 0 2 0 0 0 1 0 0 0 1 1 0 1 0 0]
 [0 1 0 0 0 1 1 0 1 0 1 0 0 0 0 0]
 [0 0 0 0 0 0 0 0 0 0 0 1 0 1 0 0]
 [0 0 1 2 0 2 0 0 0 0 0 0 0 1 1 0]
 [0 0 0 2 0 0 2 0 0 0 0 1 0 0 5 0]
 [0 0 2 1 0 0 0 0 0 0 0 0 0 1 1 0]]
Accuracy Score = 0.1511627906976744
Epoch: 74, Loss:  1.338742971420288
Epoch: 74, Loss:  1.2973992824554443
Epoch: 74, Loss:  1.286365270614624
Epoch: 74, Loss:  1.3906278610229492
Epoch: 74, Loss:  1.3584659099578857
Epoch: 74, Loss:  1.3496097326278687
Epoch: 74, Loss:  0.903876543045044
Accuracy Score = 0.1875
Accuracy Score = 0.1511627906976744
plotting cm
[[0 0 0 1 0 0 0 0 0 0 0 0 0 1 1 0]
 [0 1 0 0 0 0 0 0 1 0 0 1 0 0 0 0]
 [0 0 3 1 0 0 1 0 0 0 2 0 0 1 0 0]
 [0 0 2 2 0 0 0 0 0 0 0 2 0 0 0 0]
 [0 0 1 0 0 0 1 0 0 0 0 0 0 1 0 1]
 [0 0 1 0 0 0 1 0 1 0 1 1 0 0 0 0]
 [0 0 2 2 0 0 0 0 0 0 1 0 0 1 0 1]
 [0 0 1 0 0 0 1 0 0 0 0 0 0 0 2 1]
 [0 1 1 0 0 0 0 0 0 0 0 0 0 0 1 1]
 [0 0 1 0 3 0 1 0 0 0 1 0 0 0 0 0]
 [0 1 1 0 1 0 0 0 0 0 2 1 0 0 0 0]
 [0 1 0 0 0 1 1 0 1 0 1 0 0 0 0 0]
 [0 0 0 0 0 0 0 0 0 0 0 1 0 1 0 0]
 [0 0 1 1 1 2 0 0 0 0 0 0 0 1 1 0]
 [0 0 0 2 0 0 0 0 0 0 0 3 0 0 4 1]
 [0 0 2 2 0 0 0 0 1 0 0 0 0 0 0 0]]
Accuracy Score = 0.1511627906976744
Epoch: 75, Loss:  1.2699613571166992
Epoch: 75, Loss:  1.2537360191345215
Epoch: 75, Loss:  1.3576805591583252
Epoch: 75, Loss:  1.283355712890625
Epoch: 75, Loss:  1.420846700668335
Epoch: 75, Loss:  1.3201440572738647
Epoch: 75, Loss:  0.7444546818733215
Accuracy Score = 0.171875
Accuracy Score = 0.1511627906976744
plotting cm
[[1 0 1 0 0 0 0 0 0 0 0 0 0 1 0 0]
 [0 1 0 0 0 0 0 0 1 0 0 1 0 0 0 0]
 [0 0 3 0 0 1 1 0 0 0 2 0 0 1 0 0]
 [0 0 2 2 0 0 0 0 0 0 0 1 0 1 0 0]
 [1 0 0 0 0 0 1 0 0 0 0 0 0 2 0 0]
 [0 0 0 0 0 0 2 0 0 0 1 0 0 1 1 0]
 [0 0 2 1 0 0 0 0 0 0 0 0 0 3 0 1]
 [0 0 1 0 0 0 1 0 0 0 0 0 0 1 2 0]
 [0 1 1 0 0 0 0 0 0 0 0 0 0 1 1 0]
 [0 0 1 0 2 0 2 0 0 0 0 0 0 0 1 0]
 [0 1 1 0 0 0 1 0 0 0 1 0 0 1 1 0]
 [0 1 0 0 0 0 1 0 1 0 0 0 1 0 1 0]
 [0 1 0 0 0 0 0 0 0 0 0 0 0 1 0 0]
 [0 0 1 1 1 2 0 0 0 0 0 0 0 1 1 0]
 [0 1 0 2 0 0 2 0 0 0 0 1 0 0 4 0]
 [0 0 2 1 0 0 0 0 0 0 0 0 0 1 1 0]]
Accuracy Score = 0.1511627906976744
Epoch: 76, Loss:  1.3102879524230957
Epoch: 76, Loss:  1.3334931135177612
Epoch: 76, Loss:  1.262843132019043
Epoch: 76, Loss:  1.2593817710876465
Epoch: 76, Loss:  1.3698382377624512
Epoch: 76, Loss:  1.2449133396148682
Epoch: 76, Loss:  1.0851950645446777
Accuracy Score = 0.140625
Accuracy Score = 0.1511627906976744
plotting cm
[[0 0 0 1 0 0 0 0 0 0 0 0 0 1 1 0]
 [0 1 0 0 0 0 0 0 1 0 0 1 0 0 0 0]
 [0 0 3 0 0 1 2 0 0 0 2 0 0 0 0 0]
 [0 0 2 2 0 0 0 0 0 0 0 1 0 1 0 0]
 [1 0 0 1 0 0 1 0 0 0 0 0 0 0 0 1]
 [0 1 0 0 0 0 1 0 0 0 1 2 0 0 0 0]
 [0 0 2 2 0 0 0 0 0 0 1 0 0 1 0 1]
 [0 0 1 0 0 0 1 0 0 0 0 0 0 0 2 1]
 [0 1 0 0 0 0 0 0 1 0 0 1 0 0 0 1]
 [0 0 1 0 3 0 1 0 0 0 0 1 0 0 0 0]
 [0 1 1 0 0 0 1 0 0 0 2 1 0 0 0 0]
 [0 2 0 0 0 0 1 0 1 0 1 0 0 0 0 0]
 [0 0 0 0 0 0 0 0 0 0 0 1 0 1 0 0]
 [0 0 1 1 2 1 1 0 0 0 0 0 0 0 1 0]
 [0 1 0 3 0 0 0 0 0 0 0 2 0 0 4 0]
 [0 0 2 1 0 1 0 0 0 0 0 0 0 0 1 0]]
Accuracy Score = 0.1511627906976744
Epoch: 77, Loss:  1.2517064809799194
Epoch: 77, Loss:  1.205980896949768
Epoch: 77, Loss:  1.2652125358581543
Epoch: 77, Loss:  1.2003369331359863
Epoch: 77, Loss:  1.3173742294311523
Epoch: 77, Loss:  1.1758873462677002
Epoch: 77, Loss:  1.0576056241989136
Accuracy Score = 0.140625
Accuracy Score = 0.16279069767441862
plotting cm
[[0 0 1 0 0 0 0 0 0 0 0 0 0 1 1 0]
 [0 1 0 0 0 0 0 0 1 0 0 1 0 0 0 0]
 [0 0 3 0 0 1 1 0 0 0 2 0 0 1 0 0]
 [0 0 2 2 0 0 0 0 0 0 0 1 0 1 0 0]
 [1 0 0 1 0 0 1 0 0 0 0 0 0 0 0 1]
 [0 0 0 0 0 0 1 0 0 0 1 2 0 1 0 0]
 [0 0 2 2 0 0 0 0 0 0 1 0 0 1 0 1]
 [0 0 1 0 0 0 1 0 0 0 0 0 0 0 2 1]
 [0 1 0 0 0 0 0 0 1 0 0 0 0 0 1 1]
 [0 0 1 0 3 0 1 0 0 0 0 0 0 0 1 0]
 [0 0 1 0 0 0 1 0 0 0 2 1 0 1 0 0]
 [0 0 0 0 0 1 1 0 1 0 2 0 0 0 0 0]
 [0 0 0 0 0 0 0 0 0 0 0 1 0 1 0 0]
 [0 0 1 1 3 0 0 0 0 0 1 0 0 0 1 0]
 [0 0 0 3 0 0 0 0 0 0 0 1 0 1 5 0]
 [0 0 2 1 0 1 0 0 0 0 0 0 0 0 1 0]]
Accuracy Score = 0.16279069767441862
Epoch: 78, Loss:  1.262933373451233
Epoch: 78, Loss:  1.308542013168335
Epoch: 78, Loss:  1.1199978590011597
Epoch: 78, Loss:  1.2558529376983643
Epoch: 78, Loss:  1.1014480590820312
Epoch: 78, Loss:  1.2346400022506714
Epoch: 78, Loss:  1.3832683563232422
Accuracy Score = 0.171875
Accuracy Score = 0.16279069767441862
plotting cm
[[0 0 0 1 0 0 0 0 0 0 0 0 0 1 1 0]
 [0 1 0 0 0 0 0 0 1 0 0 1 0 0 0 0]
 [0 0 3 0 0 1 1 0 0 0 2 0 0 1 0 0]
 [0 0 2 2 0 0 0 0 0 0 0 1 0 1 0 0]
 [1 0 0 1 0 0 1 0 0 0 0 0 0 0 0 1]
 [0 0 0 0 0 0 1 0 0 0 1 2 0 1 0 0]
 [0 0 2 2 0 0 0 0 0 0 1 0 0 1 0 1]
 [0 0 1 0 0 0 1 0 0 0 0 0 0 0 2 1]
 [0 1 0 0 0 0 0 0 1 0 0 0 0 0 1 1]
 [0 0 1 1 2 0 1 0 0 0 0 1 0 0 0 0]
 [0 0 1 0 0 0 1 0 1 0 1 1 0 0 1 0]
 [0 1 0 0 0 1 1 0 1 0 1 0 0 0 0 0]
 [0 0 0 0 0 0 0 0 0 0 0 1 0 1 0 0]
 [0 0 1 1 2 0 0 0 0 0 1 0 0 1 1 0]
 [0 0 0 2 0 0 1 0 0 0 0 2 0 0 5 0]
 [0 0 2 1 0 1 0 0 0 0 0 0 0 0 1 0]]
Accuracy Score = 0.16279069767441862
Epoch: 79, Loss:  1.1118113994598389
Epoch: 79, Loss:  1.2681858539581299
Epoch: 79, Loss:  1.1886072158813477
Epoch: 79, Loss:  1.2476226091384888
Epoch: 79, Loss:  1.244724154472351
Epoch: 79, Loss:  1.0432071685791016
Epoch: 79, Loss:  1.2350631952285767
Accuracy Score = 0.15625
Accuracy Score = 0.13953488372093023
plotting cm
[[0 0 0 1 0 0 0 0 0 0 0 0 0 1 1 0]
 [0 1 0 0 0 0 0 0 0 0 0 2 0 0 0 0]
 [0 0 3 0 0 1 1 0 0 0 2 0 0 1 0 0]
 [0 0 2 2 0 0 0 0 0 0 0 1 0 1 0 0]
 [1 0 0 1 0 0 1 0 0 0 0 0 0 0 0 1]
 [0 0 0 0 0 0 1 0 0 0 1 1 0 1 1 0]
 [0 0 2 2 0 0 0 0 0 0 1 0 0 1 0 1]
 [0 0 1 0 0 0 1 0 0 0 0 0 0 0 2 1]
 [0 2 0 0 0 0 0 0 0 0 0 0 0 0 1 1]
 [0 0 1 2 1 0 1 0 0 0 0 0 0 0 1 0]
 [0 0 1 1 0 0 1 0 1 0 1 1 0 0 0 0]
 [0 2 0 0 0 0 1 0 1 0 0 0 1 0 0 0]
 [0 0 0 0 0 0 0 0 0 0 0 1 0 1 0 0]
 [0 0 1 2 1 0 0 0 0 0 1 0 0 1 1 0]
 [0 1 0 2 1 0 0 0 0 0 0 2 0 0 4 0]
 [0 0 2 1 0 1 0 0 0 0 0 0 0 0 1 0]]
Accuracy Score = 0.13953488372093023
Epoch: 80, Loss:  1.1081403493881226
Epoch: 80, Loss:  1.203056812286377
Epoch: 80, Loss:  1.1526834964752197
Epoch: 80, Loss:  1.1506166458129883
Epoch: 80, Loss:  1.0587749481201172
Epoch: 80, Loss:  1.190431833267212
Epoch: 80, Loss:  1.359994649887085
Accuracy Score = 0.1875
Accuracy Score = 0.16279069767441862
plotting cm
[[0 0 1 0 0 0 0 0 0 0 0 0 0 1 1 0]
 [0 2 0 0 0 0 0 0 0 0 0 1 0 0 0 0]
 [0 0 3 0 0 1 1 0 0 0 2 0 0 1 0 0]
 [0 0 2 2 0 0 0 0 0 0 0 1 0 1 0 0]
 [1 0 0 0 0 0 1 0 0 0 0 0 0 0 0 2]
 [0 0 0 0 0 0 1 1 0 0 1 1 0 0 1 0]
 [0 0 2 2 0 0 0 0 0 0 1 0 0 1 0 1]
 [0 0 1 0 0 0 1 0 0 0 0 0 0 0 2 1]
 [0 1 0 0 0 0 0 0 1 0 0 0 0 0 1 1]
 [0 0 1 1 2 0 1 0 0 0 0 0 0 0 1 0]
 [0 0 1 0 0 0 1 0 0 1 1 1 0 1 0 0]
 [0 1 0 0 0 0 1 0 1 0 0 0 1 0 1 0]
 [0 0 0 0 0 0 0 0 0 0 0 1 0 1 0 0]
 [0 0 1 2 0 0 0 0 1 0 1 0 0 1 1 0]
 [0 1 0 1 0 0 0 0 0 0 0 2 0 1 4 1]
 [0 0 2 2 0 0 0 0 0 0 0 0 0 0 1 0]]
Accuracy Score = 0.16279069767441862
Epoch: 81, Loss:  1.1775612831115723
Epoch: 81, Loss:  1.1121375560760498
Epoch: 81, Loss:  1.0876520872116089
Epoch: 81, Loss:  1.1271101236343384
Epoch: 81, Loss:  1.192229986190796
Epoch: 81, Loss:  1.1863811016082764
Epoch: 81, Loss:  1.2255654335021973
Accuracy Score = 0.125
Accuracy Score = 0.13953488372093023
plotting cm
[[1 0 1 0 0 0 0 0 0 0 0 0 0 1 0 0]
 [0 1 0 0 0 0 0 0 0 0 0 2 0 0 0 0]
 [0 0 3 1 0 0 1 0 0 0 2 0 0 1 0 0]
 [0 0 2 2 0 0 0 0 0 0 0 1 0 1 0 0]
 [1 0 0 1 0 0 1 0 0 0 0 0 0 1 0 0]
 [0 0 0 0 0 0 2 1 0 0 1 0 0 0 1 0]
 [0 0 2 1 0 0 0 0 0 0 1 0 0 2 0 1]
 [0 0 1 0 0 0 1 0 0 0 0 0 0 1 2 0]
 [0 2 0 0 0 0 0 0 0 0 0 1 0 0 0 1]
 [0 0 1 2 1 0 1 0 0 0 0 0 0 0 1 0]
 [0 0 1 0 0 0 1 0 0 0 2 1 0 1 0 0]
 [0 2 0 0 0 0 1 0 1 0 0 0 1 0 0 0]
 [0 0 0 0 0 0 0 0 0 0 0 1 0 1 0 0]
 [0 0 1 3 0 1 0 0 0 0 0 0 0 1 1 0]
 [0 2 0 2 0 0 0 0 0 0 0 2 0 1 2 1]
 [0 0 2 2 1 0 0 0 0 0 0 0 0 0 0 0]]
Accuracy Score = 0.13953488372093023
Epoch: 82, Loss:  1.0809246301651
Epoch: 82, Loss:  1.1262450218200684
Epoch: 82, Loss:  1.1165930032730103
Epoch: 82, Loss:  1.1421462297439575
Epoch: 82, Loss:  1.1070187091827393
Epoch: 82, Loss:  1.1332772970199585
Epoch: 82, Loss:  1.835474967956543
Accuracy Score = 0.125
Accuracy Score = 0.11627906976744186
plotting cm
[[0 0 1 0 0 0 0 0 0 0 0 0 0 1 1 0]
 [0 1 0 0 0 0 0 0 0 0 0 2 0 0 0 0]
 [0 0 1 1 0 0 1 0 0 0 4 0 0 1 0 0]
 [0 0 1 2 0 0 0 0 0 0 1 1 0 1 0 0]
 [1 0 0 1 0 0 1 0 0 0 0 0 0 0 0 1]
 [0 0 0 0 0 0 2 0 0 0 1 0 0 0 2 0]
 [0 0 1 2 0 0 1 0 0 0 2 0 0 0 0 1]
 [0 0 0 0 0 0 1 0 0 0 1 0 0 0 2 1]
 [0 2 0 0 0 0 0 0 0 0 0 0 0 0 1 1]
 [0 0 0 2 1 0 1 0 0 0 1 0 0 0 1 0]
 [0 1 1 0 0 0 1 1 0 1 0 1 0 0 0 0]
 [0 2 0 0 0 0 1 0 1 0 1 0 0 0 0 0]
 [0 0 0 0 0 0 0 0 0 0 0 1 0 1 0 0]
 [0 0 2 3 0 0 0 0 1 0 0 0 0 0 1 0]
 [0 0 0 2 0 0 1 0 0 0 0 2 0 0 5 0]
 [0 0 0 2 1 0 0 0 0 0 2 0 0 0 0 0]]
Accuracy Score = 0.11627906976744186
Epoch: 83, Loss:  1.1028754711151123
Epoch: 83, Loss:  1.1044257879257202
Epoch: 83, Loss:  1.124752163887024
Epoch: 83, Loss:  1.0448447465896606
Epoch: 83, Loss:  1.137515664100647
Epoch: 83, Loss:  1.060082197189331
Epoch: 83, Loss:  1.3214406967163086
Accuracy Score = 0.140625
Accuracy Score = 0.13953488372093023
plotting cm
[[1 0 0 1 0 0 0 0 0 0 0 0 0 1 0 0]
 [0 1 0 0 0 0 0 0 0 0 0 2 0 0 0 0]
 [0 0 3 1 1 0 1 0 0 0 1 0 0 1 0 0]
 [0 0 1 2 0 0 0 0 0 1 0 1 0 1 0 0]
 [1 0 0 1 0 0 1 0 0 0 0 0 0 0 0 1]
 [0 1 0 0 0 0 1 0 0 0 1 1 0 0 1 0]
 [0 0 2 2 0 0 0 0 0 0 1 0 0 1 0 1]
 [0 0 1 0 0 0 1 0 0 0 0 0 0 0 2 1]
 [0 2 0 0 0 0 0 0 0 0 0 1 0 0 0 1]
 [0 0 1 2 1 0 1 0 0 0 1 0 0 0 0 0]
 [1 0 1 0 0 0 1 0 1 0 1 1 0 0 0 0]
 [0 0 0 0 0 0 1 0 2 1 1 0 0 0 0 0]
 [0 0 0 0 0 0 0 0 0 0 0 1 0 1 0 0]
 [0 0 1 4 0 0 1 0 0 0 0 0 0 0 1 0]
 [0 1 0 2 0 0 1 0 0 0 0 2 0 0 4 0]
 [0 0 2 2 1 0 0 0 0 0 0 0 0 0 0 0]]
Accuracy Score = 0.13953488372093023
Epoch: 84, Loss:  1.1501436233520508
Epoch: 84, Loss:  0.9922036528587341
Epoch: 84, Loss:  1.0229017734527588
Epoch: 84, Loss:  1.0633466243743896
Epoch: 84, Loss:  1.009981393814087
Epoch: 84, Loss:  1.1475803852081299
Epoch: 84, Loss:  1.4243061542510986
Accuracy Score = 0.140625
Accuracy Score = 0.1511627906976744
plotting cm
[[0 0 0 1 0 0 0 0 0 0 0 0 0 1 1 0]
 [0 1 0 0 0 0 0 0 0 0 0 2 0 0 0 0]
 [0 0 3 1 1 0 1 0 0 0 1 0 0 1 0 0]
 [0 0 1 2 0 0 0 0 0 1 0 1 0 1 0 0]
 [1 0 0 1 0 0 1 0 0 0 0 0 0 0 0 1]
 [0 1 0 0 0 0 1 0 0 0 1 1 0 0 1 0]
 [0 0 2 2 0 0 0 0 0 0 1 0 0 1 0 1]
 [0 0 1 0 0 0 1 0 0 0 0 0 0 0 2 1]
 [0 1 0 0 0 0 0 0 1 0 0 0 0 0 1 1]
 [0 0 1 1 2 0 1 0 0 0 0 0 0 0 1 0]
 [1 0 1 0 1 0 0 0 1 0 1 1 0 0 0 0]
 [0 0 0 0 0 0 1 0 2 1 1 0 0 0 0 0]
 [0 0 0 0 0 0 0 0 0 0 0 1 0 1 0 0]
 [0 0 1 0 1 0 0 0 1 0 1 0 0 1 1 1]
 [0 1 0 1 0 0 1 0 1 0 0 2 0 0 4 0]
 [0 0 2 1 0 0 0 0 1 0 0 0 0 1 0 0]]
Accuracy Score = 0.1511627906976744
Epoch: 85, Loss:  0.9030945301055908
Epoch: 85, Loss:  1.1439355611801147
Epoch: 85, Loss:  1.0905787944793701
Epoch: 85, Loss:  0.9945482611656189
Epoch: 85, Loss:  1.0488096475601196
Epoch: 85, Loss:  1.056225299835205
Epoch: 85, Loss:  1.1721327304840088
Accuracy Score = 0.140625
Accuracy Score = 0.12790697674418605
plotting cm
[[0 0 1 0 0 0 0 0 0 0 0 0 0 1 1 0]
 [0 2 0 0 0 0 0 0 0 0 0 1 0 0 0 0]
 [0 0 3 1 0 0 1 0 0 0 2 0 0 1 0 0]
 [0 0 1 2 0 0 0 0 0 1 0 1 0 1 0 0]
 [1 0 0 1 0 0 1 0 0 0 0 0 0 0 0 1]
 [0 1 0 0 0 0 2 0 0 0 1 0 0 0 1 0]
 [0 0 2 2 0 0 0 0 0 0 1 0 0 1 0 1]
 [0 0 1 0 0 0 1 0 0 0 0 0 0 0 2 1]
 [0 2 0 0 0 0 0 0 0 0 1 0 0 0 0 1]
 [0 0 1 2 1 0 1 0 0 0 0 0 0 0 1 0]
 [1 0 1 0 0 0 1 0 1 0 1 1 0 0 0 0]
 [0 0 0 1 0 0 1 0 1 1 1 0 0 0 0 0]
 [0 0 0 0 0 0 1 0 0 0 0 0 0 1 0 0]
 [0 0 1 1 1 1 0 0 0 0 0 0 0 1 1 1]
 [0 1 0 2 0 0 1 0 1 0 0 1 0 0 2 2]
 [0 0 2 2 0 0 0 0 0 0 0 0 0 0 1 0]]
Accuracy Score = 0.12790697674418605
Epoch: 86, Loss:  0.9105857014656067
Epoch: 86, Loss:  0.997595489025116
Epoch: 86, Loss:  1.0991442203521729
Epoch: 86, Loss:  0.9849943518638611
Epoch: 86, Loss:  1.0904607772827148
Epoch: 86, Loss:  1.078460454940796
Epoch: 86, Loss:  1.4160138368606567
Accuracy Score = 0.171875
Accuracy Score = 0.12790697674418605
plotting cm
[[0 0 1 0 0 0 0 0 0 0 0 0 0 1 1 0]
 [0 1 0 0 0 0 0 0 0 0 0 2 0 0 0 0]
 [0 0 3 1 1 0 1 0 0 0 1 0 0 1 0 0]
 [0 0 1 2 0 0 0 0 0 1 0 1 0 1 0 0]
 [1 0 0 0 0 0 1 0 0 0 0 0 0 1 0 1]
 [0 1 0 0 0 0 1 1 0 0 1 0 0 0 1 0]
 [0 0 2 1 0 0 0 0 0 0 1 0 0 2 0 1]
 [0 0 1 0 0 0 1 0 0 0 0 0 0 0 2 1]
 [0 2 0 0 0 0 0 0 0 0 0 0 0 0 1 1]
 [0 0 1 2 1 0 1 0 0 0 0 0 0 0 1 0]
 [1 0 1 0 0 0 0 1 1 1 0 1 0 0 0 0]
 [0 0 0 0 0 1 1 0 1 1 0 0 1 0 0 0]
 [0 0 0 0 0 0 0 0 0 0 0 1 0 1 0 0]
 [0 0 1 1 0 1 0 0 1 0 0 0 0 1 1 1]
 [0 1 1 2 0 0 1 0 0 0 0 1 0 0 4 0]
 [0 0 2 1 0 0 0 0 0 0 0 0 0 1 1 0]]
Accuracy Score = 0.12790697674418605
Epoch: 87, Loss:  0.9802045822143555
Epoch: 87, Loss:  1.0106905698776245
Epoch: 87, Loss:  1.0873398780822754
Epoch: 87, Loss:  1.0256314277648926
Epoch: 87, Loss:  0.8996533155441284
Epoch: 87, Loss:  1.0175726413726807
Epoch: 87, Loss:  0.6566616296768188
Accuracy Score = 0.09375
Accuracy Score = 0.10465116279069768
plotting cm
[[0 0 1 0 0 0 0 0 0 0 0 0 0 1 1 0]
 [0 1 0 0 0 0 0 0 0 0 0 2 0 0 0 0]
 [0 0 1 1 1 0 1 0 0 0 1 0 0 3 0 0]
 [0 0 0 2 0 0 0 0 0 1 0 2 0 1 0 0]
 [1 0 0 0 0 0 1 0 0 0 0 0 0 0 0 2]
 [0 1 0 0 0 0 2 0 0 0 1 0 0 0 1 0]
 [0 0 1 2 0 0 0 0 0 0 1 0 0 2 0 1]
 [0 0 0 0 0 0 1 0 0 0 0 0 0 1 2 1]
 [0 1 0 0 0 0 0 0 1 0 0 0 0 0 1 1]
 [0 0 0 2 1 0 0 0 0 0 1 0 0 2 0 0]
 [1 0 1 0 0 0 1 0 1 0 1 1 0 0 0 0]
 [0 1 0 0 0 0 1 0 1 1 1 0 0 0 0 0]
 [0 0 0 0 0 0 0 0 0 0 0 1 0 1 0 0]
 [0 0 1 1 0 1 0 0 1 0 0 0 0 1 1 1]
 [0 1 1 1 0 0 3 0 0 0 0 1 0 0 2 1]
 [0 0 0 2 0 0 0 0 0 0 0 0 0 2 1 0]]
Accuracy Score = 0.10465116279069768
Epoch: 88, Loss:  1.017583966255188
Epoch: 88, Loss:  0.9067164659500122
Epoch: 88, Loss:  0.9347622990608215
Epoch: 88, Loss:  0.9534521102905273
Epoch: 88, Loss:  1.0335060358047485
Epoch: 88, Loss:  0.9666541814804077
Epoch: 88, Loss:  0.626467227935791
Accuracy Score = 0.09375
Accuracy Score = 0.10465116279069768
plotting cm
[[0 0 0 1 0 0 0 0 0 0 0 0 0 1 1 0]
 [0 2 0 0 0 0 0 0 0 0 0 1 0 0 0 0]
 [0 0 1 1 0 0 1 0 0 0 2 0 0 3 0 0]
 [0 0 0 2 0 0 0 0 0 1 0 2 0 1 0 0]
 [1 0 0 1 0 0 1 0 0 0 0 0 0 0 0 1]
 [0 1 0 0 0 0 2 0 0 0 1 0 0 0 1 0]
 [0 0 1 2 0 0 0 0 0 0 1 0 0 2 0 1]
 [0 0 0 0 0 0 1 0 0 0 0 0 0 1 2 1]
 [0 2 0 0 0 0 0 0 0 0 0 0 0 0 1 1]
 [0 0 0 2 1 0 1 0 0 0 0 0 0 1 1 0]
 [1 0 1 0 1 0 0 0 1 0 1 1 0 0 0 0]
 [0 1 0 0 0 0 1 0 1 1 1 0 0 0 0 0]
 [0 0 0 0 0 0 0 0 0 0 0 1 0 1 0 0]
 [0 0 1 1 0 1 0 0 1 0 0 0 0 0 1 2]
 [0 1 1 1 0 0 0 0 0 0 0 2 0 0 3 2]
 [0 0 0 2 0 0 0 0 0 0 0 0 0 2 1 0]]
Accuracy Score = 0.10465116279069768
Epoch: 89, Loss:  0.9455922245979309
Epoch: 89, Loss:  0.9948685169219971
Epoch: 89, Loss:  0.9096080660820007
Epoch: 89, Loss:  0.9413214325904846
Epoch: 89, Loss:  0.8633936643600464
Epoch: 89, Loss:  0.9447512030601501
Epoch: 89, Loss:  1.5197670459747314
Accuracy Score = 0.140625
Accuracy Score = 0.12790697674418605
plotting cm
[[1 0 0 1 0 0 0 0 0 0 0 0 0 1 0 0]
 [0 2 0 0 0 0 0 0 0 0 0 1 0 0 0 0]
 [0 2 1 0 0 1 1 0 0 0 2 0 0 1 0 0]
 [0 1 0 2 0 0 0 0 0 1 0 1 0 1 0 0]
 [1 0 0 0 0 0 1 0 0 0 0 0 0 1 0 1]
 [0 0 0 0 0 0 1 1 0 0 1 1 0 0 1 0]
 [0 1 1 2 0 0 0 0 0 0 1 0 0 1 0 1]
 [0 1 0 0 0 0 1 0 0 0 0 0 0 0 2 1]
 [0 2 0 0 0 0 0 0 0 0 0 0 0 0 1 1]
 [0 1 0 2 1 0 0 0 0 0 0 0 0 1 1 0]
 [1 0 1 0 0 0 1 0 0 0 1 1 0 1 0 0]
 [0 0 0 1 0 0 1 0 1 1 1 0 0 0 0 0]
 [0 0 0 0 0 0 0 0 0 0 0 1 0 1 0 0]
 [0 0 1 2 0 1 0 0 0 0 0 0 0 1 1 1]
 [0 1 1 2 0 0 0 0 0 0 0 2 0 0 3 1]
 [0 2 0 2 0 0 0 0 0 0 0 0 0 0 1 0]]
Accuracy Score = 0.12790697674418605
Epoch: 90, Loss:  0.9305711388587952
Epoch: 90, Loss:  0.8198121786117554
Epoch: 90, Loss:  0.9386018514633179
Epoch: 90, Loss:  1.0836807489395142
Epoch: 90, Loss:  0.9793977737426758
Epoch: 90, Loss:  0.9342746734619141
Epoch: 90, Loss:  1.2585053443908691
Accuracy Score = 0.140625
Accuracy Score = 0.11627906976744186
plotting cm
[[0 0 0 1 0 0 0 0 0 0 0 0 0 1 1 0]
 [0 1 0 0 0 0 0 0 0 0 0 2 0 0 0 0]
 [0 0 3 0 0 1 1 0 0 0 2 0 0 1 0 0]
 [0 0 1 2 0 0 0 0 0 1 0 1 0 1 0 0]
 [1 0 0 1 0 0 1 0 0 0 0 0 0 0 0 1]
 [0 0 0 0 0 0 1 1 0 0 1 1 0 0 1 0]
 [0 0 2 2 0 0 0 0 0 0 1 0 0 1 0 1]
 [0 0 1 0 0 0 1 0 0 0 0 0 0 0 2 1]
 [0 1 0 0 0 0 0 0 1 0 0 1 0 0 0 1]
 [0 0 1 2 1 0 1 0 0 0 0 0 0 0 1 0]
 [0 1 1 0 0 0 1 0 0 1 0 1 0 1 0 0]
 [0 0 0 0 0 0 1 0 2 1 1 0 0 0 0 0]
 [0 0 0 0 0 0 0 0 0 0 0 1 0 1 0 0]
 [0 0 1 1 0 0 0 0 1 0 1 0 0 0 1 2]
 [0 1 1 1 0 0 1 0 0 0 0 3 0 0 3 0]
 [0 0 3 1 0 0 0 0 0 0 0 0 0 0 1 0]]
Accuracy Score = 0.11627906976744186
Epoch: 91, Loss:  0.8770170211791992
Epoch: 91, Loss:  0.9410060048103333
Epoch: 91, Loss:  0.9341287016868591
Epoch: 91, Loss:  1.011557936668396
Epoch: 91, Loss:  0.9259970188140869
Epoch: 91, Loss:  0.9702056646347046
Epoch: 91, Loss:  0.8109931945800781
Accuracy Score = 0.140625
Accuracy Score = 0.11627906976744186
plotting cm
[[0 0 0 1 0 0 0 0 0 0 0 0 0 1 1 0]
 [0 2 0 0 0 0 0 0 0 0 0 1 0 0 0 0]
 [0 0 1 3 2 0 1 0 0 0 1 0 0 0 0 0]
 [0 0 0 3 0 0 0 0 0 1 0 1 0 1 0 0]
 [1 0 0 1 0 0 1 0 0 0 0 0 0 0 0 1]
 [0 0 0 0 0 0 2 1 0 0 1 0 0 0 1 0]
 [0 0 1 3 0 0 0 0 0 0 1 0 0 1 0 1]
 [0 0 0 1 0 0 1 0 0 0 0 0 0 0 2 1]
 [0 2 0 0 0 0 0 0 0 0 1 0 0 0 0 1]
 [0 0 0 3 1 0 1 0 0 0 0 0 0 0 1 0]
 [0 1 1 0 0 0 1 0 0 0 1 1 0 1 0 0]
 [0 0 0 0 0 1 1 0 1 1 1 0 0 0 0 0]
 [0 0 0 0 0 0 0 0 0 0 0 1 0 1 0 0]
 [0 0 1 2 1 2 0 0 0 0 0 0 0 0 1 0]
 [0 1 1 1 0 0 1 0 0 0 0 2 0 0 3 1]
 [0 0 0 4 0 0 0 0 0 0 0 0 0 0 1 0]]
Accuracy Score = 0.11627906976744186
Epoch: 92, Loss:  0.8839722871780396
Epoch: 92, Loss:  1.0027999877929688
Epoch: 92, Loss:  0.9441186785697937
Epoch: 92, Loss:  0.8991411924362183
Epoch: 92, Loss:  0.8408107757568359
Epoch: 92, Loss:  0.9008651971817017
Epoch: 92, Loss:  1.0461828708648682
Accuracy Score = 0.078125
Accuracy Score = 0.10465116279069768
plotting cm
[[0 0 0 1 0 0 0 0 0 0 0 0 0 1 1 0]
 [0 1 0 0 0 0 0 0 0 0 0 2 0 0 0 0]
 [0 0 1 3 0 0 1 0 0 0 2 0 0 1 0 0]
 [0 0 1 3 0 0 0 0 0 0 0 2 0 0 0 0]
 [1 0 0 1 0 0 1 0 0 0 0 0 0 0 0 1]
 [0 0 0 0 0 0 2 1 0 0 1 0 0 0 1 0]
 [0 0 1 3 0 0 0 0 0 0 1 0 0 1 0 1]
 [0 0 0 1 0 0 1 0 0 0 0 0 0 0 2 1]
 [0 2 0 0 0 0 0 0 0 0 0 0 0 0 1 1]
 [0 0 0 3 1 0 1 0 0 0 0 0 0 0 1 0]
 [0 1 1 0 0 0 1 0 0 0 0 1 1 1 0 0]
 [0 0 0 1 0 0 1 0 1 1 1 0 0 0 0 0]
 [0 0 0 0 0 0 0 0 0 0 0 1 0 1 0 0]
 [0 0 1 2 1 0 0 0 0 0 0 0 0 2 1 0]
 [0 1 0 1 0 0 1 0 1 0 0 3 0 0 2 1]
 [0 0 0 4 0 0 0 0 0 0 0 0 0 0 1 0]]
Accuracy Score = 0.10465116279069768
Epoch: 93, Loss:  0.919651448726654
Epoch: 93, Loss:  0.8768394589424133
Epoch: 93, Loss:  0.9347844123840332
Epoch: 93, Loss:  0.8523516654968262
Epoch: 93, Loss:  0.8554844260215759
Epoch: 93, Loss:  0.9286133050918579
Epoch: 93, Loss:  0.9000550508499146
Accuracy Score = 0.109375
Accuracy Score = 0.13953488372093023
plotting cm
[[0 0 0 1 0 0 0 0 0 0 0 0 0 1 1 0]
 [0 0 0 1 0 0 0 0 0 0 0 2 0 0 0 0]
 [0 0 3 1 0 0 1 0 0 0 2 0 0 1 0 0]
 [0 0 1 2 0 0 0 0 0 1 0 1 0 1 0 0]
 [1 0 0 0 0 0 1 0 0 0 0 0 0 1 0 1]
 [0 1 0 0 0 0 1 0 0 0 1 1 0 0 1 0]
 [1 0 2 2 0 0 0 0 0 0 0 0 0 1 0 1]
 [0 0 1 0 0 0 1 0 0 0 0 0 0 0 2 1]
 [0 1 0 0 0 0 0 0 1 0 0 0 0 0 1 1]
 [0 0 1 1 2 0 1 0 0 0 0 0 0 0 1 0]
 [0 1 1 0 0 0 1 0 0 1 0 1 0 1 0 0]
 [0 0 0 0 0 0 1 0 2 1 1 0 0 0 0 0]
 [0 0 0 0 0 0 0 0 0 0 0 1 0 1 0 0]
 [0 0 1 0 2 0 0 0 0 0 0 0 0 2 1 1]
 [0 1 1 1 0 0 1 0 0 0 0 2 0 0 4 0]
 [0 0 3 1 1 0 0 0 0 0 0 0 0 0 0 0]]
Accuracy Score = 0.13953488372093023
Epoch: 94, Loss:  0.8499495983123779
Epoch: 94, Loss:  0.9447961449623108
Epoch: 94, Loss:  0.9240541458129883
Epoch: 94, Loss:  0.8571131825447083
Epoch: 94, Loss:  0.7933549284934998
Epoch: 94, Loss:  0.785969614982605
Epoch: 94, Loss:  0.9636027812957764
Accuracy Score = 0.171875
Accuracy Score = 0.12790697674418605
plotting cm
[[0 0 0 1 0 0 0 0 0 0 0 0 0 1 1 0]
 [0 1 0 0 0 0 0 0 1 0 0 1 0 0 0 0]
 [0 0 3 0 0 1 1 0 0 0 2 0 0 1 0 0]
 [0 0 1 2 0 0 0 0 0 1 0 1 0 1 0 0]
 [1 0 0 1 0 0 1 0 0 0 0 0 0 0 0 1]
 [0 1 0 0 0 0 1 0 0 0 1 1 0 0 1 0]
 [1 0 2 2 0 0 0 0 0 0 1 0 0 0 0 1]
 [0 0 1 0 0 0 1 0 0 0 0 0 0 0 2 1]
 [0 1 0 0 0 0 0 0 1 0 0 0 0 0 1 1]
 [0 0 1 1 2 0 1 0 0 0 1 0 0 0 0 0]
 [0 1 1 0 0 0 1 0 1 1 0 1 0 0 0 0]
 [0 0 0 0 0 0 1 0 2 1 1 0 0 0 0 0]
 [0 0 0 0 0 0 0 0 0 0 0 1 0 1 0 0]
 [0 0 1 0 3 0 0 0 0 0 0 0 0 1 1 1]
 [0 1 0 1 0 0 1 0 1 0 1 2 0 0 3 0]
 [0 0 2 1 1 1 0 0 0 0 0 0 0 0 0 0]]
Accuracy Score = 0.12790697674418605
Epoch: 95, Loss:  0.8361459970474243
Epoch: 95, Loss:  0.8643365502357483
Epoch: 95, Loss:  0.9200916886329651
Epoch: 95, Loss:  0.9325044751167297
Epoch: 95, Loss:  0.8156466484069824
Epoch: 95, Loss:  0.7130852937698364
Epoch: 95, Loss:  0.6655895709991455
Accuracy Score = 0.109375
Accuracy Score = 0.11627906976744186
plotting cm
[[0 0 0 1 0 0 0 0 0 0 0 0 0 1 1 0]
 [0 2 0 0 0 0 0 0 0 0 0 1 0 0 0 0]
 [0 0 1 1 0 0 1 0 0 0 2 0 0 3 0 0]
 [0 0 0 2 0 0 0 0 0 1 0 1 0 2 0 0]
 [1 0 0 1 0 0 1 0 0 0 0 0 0 0 0 1]
 [0 1 0 0 0 0 1 1 0 0 1 0 0 0 1 0]
 [1 0 1 2 0 0 0 0 0 0 1 0 0 1 0 1]
 [0 0 0 0 0 0 1 0 0 0 0 0 0 1 2 1]
 [0 1 0 0 0 0 0 0 1 0 0 0 0 0 1 1]
 [0 0 0 2 1 0 1 0 0 0 1 0 0 1 0 0]
 [0 1 1 0 0 0 1 0 1 0 1 1 0 0 0 0]
 [0 0 0 0 0 0 1 0 2 1 1 0 0 0 0 0]
 [0 0 0 0 0 0 0 0 0 0 0 1 0 1 0 0]
 [0 0 1 1 0 0 0 0 1 0 0 0 0 1 1 2]
 [0 1 1 1 0 0 1 0 0 0 1 2 0 0 2 1]
 [0 0 0 2 0 0 0 0 0 0 0 0 0 2 1 0]]
Accuracy Score = 0.11627906976744186
Epoch: 96, Loss:  0.7873737812042236
Epoch: 96, Loss:  0.7088347673416138
Epoch: 96, Loss:  0.7790305614471436
Epoch: 96, Loss:  0.8966406583786011
Epoch: 96, Loss:  0.8720364570617676
Epoch: 96, Loss:  0.7696385383605957
Epoch: 96, Loss:  1.1248852014541626
Accuracy Score = 0.125
Accuracy Score = 0.12790697674418605
plotting cm
[[0 0 1 0 0 0 0 0 0 0 0 0 0 1 1 0]
 [0 2 0 0 0 0 0 0 0 0 0 1 0 0 0 0]
 [0 0 1 1 0 0 1 0 0 0 2 0 0 3 0 0]
 [0 0 0 2 0 0 0 0 0 1 0 1 0 2 0 0]
 [1 0 0 1 0 0 1 0 0 0 0 0 0 0 0 1]
 [0 0 0 0 0 0 1 2 0 0 1 0 0 0 1 0]
 [1 0 1 2 0 0 0 0 0 0 1 0 0 1 0 1]
 [0 0 0 0 0 0 1 0 0 0 0 0 0 1 2 1]
 [0 1 0 0 0 0 0 0 1 0 0 0 0 0 1 1]
 [0 0 0 2 1 0 1 0 0 0 1 0 0 1 0 0]
 [0 1 1 0 0 0 0 1 0 0 1 1 0 1 0 0]
 [0 0 0 0 0 0 1 0 2 1 1 0 0 0 0 0]
 [0 0 0 0 0 0 0 0 0 0 0 1 0 1 0 0]
 [0 0 1 2 0 0 0 0 1 0 0 1 0 1 1 0]
 [0 1 1 2 0 0 0 0 0 0 1 2 0 0 3 0]
 [0 0 0 1 0 0 0 0 0 0 0 0 0 3 1 0]]
Accuracy Score = 0.12790697674418605
Epoch: 97, Loss:  0.8162248134613037
Epoch: 97, Loss:  0.7410048246383667
Epoch: 97, Loss:  0.9581734538078308
Epoch: 97, Loss:  0.9104081392288208
Epoch: 97, Loss:  0.7160978317260742
Epoch: 97, Loss:  0.71238112449646
Epoch: 97, Loss:  1.070338249206543
Accuracy Score = 0.109375
Accuracy Score = 0.10465116279069768
plotting cm
[[0 0 1 0 0 0 0 0 0 0 0 0 0 1 1 0]
 [0 1 0 0 0 0 0 0 0 0 0 2 0 0 0 0]
 [0 0 3 1 0 0 1 0 0 0 2 0 0 1 0 0]
 [0 0 1 2 0 0 0 0 0 1 0 1 0 1 0 0]
 [1 0 0 1 0 0 1 0 0 0 0 0 0 0 0 1]
 [0 0 0 0 0 0 1 1 1 0 1 0 0 0 1 0]
 [0 0 2 2 0 0 0 0 0 0 1 0 1 0 0 1]
 [0 0 1 0 0 0 1 0 0 0 0 0 0 0 2 1]
 [0 1 0 0 0 0 0 0 1 0 0 1 0 0 0 1]
 [0 0 1 2 1 0 1 0 0 0 1 0 0 0 0 0]
 [0 1 1 0 0 0 1 0 1 0 0 1 1 0 0 0]
 [0 0 0 0 0 0 1 0 2 1 1 0 0 0 0 0]
 [0 0 0 0 0 0 0 0 0 0 0 1 0 1 0 0]
 [0 0 1 2 0 0 0 0 1 0 0 0 0 1 1 1]
 [0 1 1 1 0 0 1 0 0 0 1 3 0 0 1 1]
 [0 0 2 2 0 0 0 0 1 0 0 0 0 0 0 0]]
Accuracy Score = 0.10465116279069768
Epoch: 98, Loss:  0.7163585424423218
Epoch: 98, Loss:  0.768179178237915
Epoch: 98, Loss:  0.7794513702392578
Epoch: 98, Loss:  0.9177408814430237
Epoch: 98, Loss:  0.7612764835357666
Epoch: 98, Loss:  0.7097370624542236
Epoch: 98, Loss:  1.0874344110488892
Accuracy Score = 0.15625
Accuracy Score = 0.13953488372093023
plotting cm
[[0 0 1 0 0 0 0 0 0 0 0 0 0 1 1 0]
 [0 2 0 0 0 0 0 0 0 0 0 1 0 0 0 0]
 [0 0 3 1 0 0 1 0 0 0 2 0 0 1 0 0]
 [0 0 1 2 0 0 0 0 0 1 0 1 0 1 0 0]
 [1 0 0 1 0 0 1 0 0 0 0 0 0 0 0 1]
 [0 1 0 0 0 0 1 0 0 0 1 1 0 0 1 0]
 [0 0 2 2 0 0 0 0 0 0 1 0 1 0 0 1]
 [0 0 1 0 0 0 1 0 0 0 0 0 0 0 2 1]
 [0 1 0 0 0 0 0 0 1 0 0 0 0 0 1 1]
 [0 0 1 2 1 0 1 0 0 0 1 0 0 0 0 0]
 [0 0 1 0 0 0 1 0 1 0 1 1 1 0 0 0]
 [0 0 0 0 0 0 1 0 2 1 1 0 0 0 0 0]
 [0 0 0 0 0 0 0 0 0 0 0 1 0 1 0 0]
 [0 0 1 2 0 1 0 0 0 0 0 0 0 1 1 1]
 [0 1 1 2 0 0 0 0 0 0 1 2 0 0 2 1]
 [0 0 2 2 0 0 0 0 0 0 0 0 0 0 1 0]]
Accuracy Score = 0.13953488372093023
Epoch: 99, Loss:  0.6193154454231262
Epoch: 99, Loss:  0.7063543796539307
Epoch: 99, Loss:  0.7716951370239258
Epoch: 99, Loss:  0.7034758925437927
Epoch: 99, Loss:  0.7851786613464355
Epoch: 99, Loss:  0.835272490978241
Epoch: 99, Loss:  0.6470696926116943
Accuracy Score = 0.140625
Accuracy Score = 0.12790697674418605
plotting cm
[[0 0 1 0 0 0 0 0 0 0 0 0 0 1 1 0]
 [0 2 0 0 0 0 0 0 0 0 0 1 0 0 0 0]
 [0 0 3 1 0 0 1 0 0 0 2 0 0 1 0 0]
 [0 0 1 2 0 0 0 0 0 1 0 1 0 1 0 0]
 [1 0 0 1 0 0 1 0 0 0 0 0 0 0 0 1]
 [0 1 0 0 0 0 1 0 0 0 1 1 0 0 1 0]
 [0 0 2 2 0 0 0 0 0 0 2 0 0 0 0 1]
 [0 0 1 0 0 0 1 0 0 0 0 0 0 0 2 1]
 [0 2 0 0 0 0 0 0 0 0 0 0 0 0 1 1]
 [0 0 1 2 1 0 1 0 0 0 0 0 0 0 1 0]
 [0 1 1 0 0 0 1 0 0 0 1 1 1 0 0 0]
 [0 0 0 1 0 0 1 0 1 1 1 0 0 0 0 0]
 [0 0 0 0 0 0 0 0 0 0 0 1 0 1 0 0]
 [0 0 1 1 0 1 0 0 0 0 0 0 0 1 1 2]
 [0 1 1 2 0 0 0 0 0 0 0 3 0 0 2 1]
 [0 0 2 2 0 0 0 0 0 0 0 0 0 0 1 0]]
Accuracy Score = 0.12790697674418605
plotting cm
[[0 0 1 0 0 0 0 0 0 0 0 0 0 1 1 0]
 [0 2 0 0 0 0 0 0 0 0 0 1 0 0 0 0]
 [0 0 3 1 0 0 1 0 0 0 2 0 0 1 0 0]
 [0 0 1 2 0 0 0 0 0 1 0 1 0 1 0 0]
 [1 0 0 1 0 0 1 0 0 0 0 0 0 0 0 1]
 [0 1 0 0 0 0 1 0 0 0 1 1 0 0 1 0]
 [0 0 2 2 0 0 0 0 0 0 2 0 0 0 0 1]
 [0 0 1 0 0 0 1 0 0 0 0 0 0 0 2 1]
 [0 2 0 0 0 0 0 0 0 0 0 0 0 0 1 1]
 [0 0 1 2 1 0 1 0 0 0 0 0 0 0 1 0]
 [0 1 1 0 0 0 1 0 0 0 1 1 1 0 0 0]
 [0 0 0 1 0 0 1 0 1 1 1 0 0 0 0 0]
 [0 0 0 0 0 0 0 0 0 0 0 1 0 1 0 0]
 [0 0 1 1 0 1 0 0 0 0 0 0 0 1 1 2]
 [0 1 1 2 0 0 0 0 0 0 0 3 0 0 2 1]
 [0 0 2 2 0 0 0 0 0 0 0 0 0 0 1 0]]

