Original file = data/sdk_converted/anim_explorer_idle
Animation anim_explorer_idle_02 clip 2/21
---------------------------------------
Process lift height
---------------------------------------
---------------------------------------
Process Head angle animations
---------------------------------------
Trigger time ms = 132 --> set_head_angle(-1, duration=0.165)
Trigger time ms = 297 --> set_head_angle(5, duration=0.132)
Trigger time ms = 429 --> set_head_angle(6, duration=0.099)
Trigger time ms = 1716 --> set_head_angle(0, duration=0.132)
---------------------------------------
Process body motion animations
---------------------------------------
