Original file = data/sdk_converted/anim_explorer_idle
Animation anim_explorer_idle_03_head_angle_10 clip 18/21
---------------------------------------
Process lift height
---------------------------------------
---------------------------------------
Process Head angle animations
---------------------------------------
Trigger time ms = 825 --> set_head_angle(9, duration=0.099)
Trigger time ms = 3003 --> set_head_angle(10, duration=0.132)
---------------------------------------
Process body motion animations
---------------------------------------
