Original file = data/sdk_converted/anim_memorymatch_failgame_v01
Animation anim_memorymatch_failgame_cozmo_03 clip 3/6
---------------------------------------
Process lift height
---------------------------------------
Trigger time ms = 33 --> set_lift_height(0, duration=0.594)
Trigger time ms = 5082 --> set_lift_height(0, duration=0.495)
Trigger time ms = 5610 --> set_lift_height(0, duration=0.033)
---------------------------------------
Process Head angle animations
---------------------------------------
Trigger time ms = 33 --> set_head_angle(-12, duration=0.033)
Trigger time ms = 66 --> set_head_angle(-1, duration=0.165)
Trigger time ms = 231 --> set_head_angle(13, duration=0.693)
Trigger time ms = 924 --> set_head_angle(9, duration=1.056)
Trigger time ms = 1980 --> set_head_angle(11, duration=0.033)
Trigger time ms = 2013 --> set_head_angle(9, duration=0.033)
Trigger time ms = 2046 --> set_head_angle(10, duration=0.033)
Trigger time ms = 2079 --> set_head_angle(8, duration=0.033)
Trigger time ms = 2112 --> set_head_angle(10, duration=0.033)
Trigger time ms = 2145 --> set_head_angle(7, duration=0.033)
Trigger time ms = 2178 --> set_head_angle(9, duration=0.033)
Trigger time ms = 2211 --> set_head_angle(6, duration=0.033)
Trigger time ms = 2244 --> set_head_angle(8, duration=0.033)
Trigger time ms = 2277 --> set_head_angle(5, duration=0.033)
Trigger time ms = 2310 --> set_head_angle(7, duration=0.033)
Trigger time ms = 2343 --> set_head_angle(3, duration=0.033)
Trigger time ms = 2376 --> set_head_angle(6, duration=0.033)
Trigger time ms = 2409 --> set_head_angle(2, duration=0.033)
Trigger time ms = 2442 --> set_head_angle(4, duration=0.033)
Trigger time ms = 2475 --> set_head_angle(0, duration=0.033)
Trigger time ms = 2508 --> set_head_angle(3, duration=0.033)
Trigger time ms = 2541 --> set_head_angle(-2, duration=0.033)
Trigger time ms = 2574 --> set_head_angle(1, duration=0.033)
Trigger time ms = 2607 --> set_head_angle(-4, duration=0.033)
Trigger time ms = 2640 --> set_head_angle(0, duration=0.033)
Trigger time ms = 2673 --> set_head_angle(-6, duration=0.066)
Trigger time ms = 2739 --> set_head_angle(-2, duration=0.033)
Trigger time ms = 2772 --> set_head_angle(-7, duration=0.033)
Trigger time ms = 2805 --> set_head_angle(-5, duration=0.033)
Trigger time ms = 2838 --> set_head_angle(-8, duration=0.033)
Trigger time ms = 2871 --> set_head_angle(-7, duration=0.066)
Trigger time ms = 2937 --> set_head_angle(-10, duration=0.033)
Trigger time ms = 2970 --> set_head_angle(-9, duration=0.033)
Trigger time ms = 3003 --> set_head_angle(-10, duration=0.066)
Trigger time ms = 3069 --> set_head_angle(-8, duration=0.033)
Trigger time ms = 3102 --> set_head_angle(-11, duration=0.033)
Trigger time ms = 3135 --> set_head_angle(-9, duration=0.033)
Trigger time ms = 3168 --> set_head_angle(-11, duration=0.033)
Trigger time ms = 3201 --> set_head_angle(-9, duration=0.033)
Trigger time ms = 3234 --> set_head_angle(-10, duration=0.033)
Trigger time ms = 3267 --> set_head_angle(-9, duration=0.033)
Trigger time ms = 3300 --> set_head_angle(-10, duration=0.033)
Trigger time ms = 3333 --> set_head_angle(-9, duration=0.033)
Trigger time ms = 3366 --> set_head_angle(-10, duration=0.033)
Trigger time ms = 3399 --> set_head_angle(-8, duration=0.033)
Trigger time ms = 3432 --> set_head_angle(-11, duration=0.033)
Trigger time ms = 3465 --> set_head_angle(-9, duration=0.033)
Trigger time ms = 3498 --> set_head_angle(-11, duration=0.033)
Trigger time ms = 3531 --> set_head_angle(-9, duration=0.033)
Trigger time ms = 3564 --> set_head_angle(-10, duration=0.033)
Trigger time ms = 3597 --> set_head_angle(-9, duration=0.033)
Trigger time ms = 3630 --> set_head_angle(-10, duration=0.033)
Trigger time ms = 3663 --> set_head_angle(-9, duration=0.033)
Trigger time ms = 3696 --> set_head_angle(22, duration=0.165)
Trigger time ms = 3861 --> set_head_angle(-2, duration=0.033)
Trigger time ms = 3894 --> set_head_angle(21, duration=0.033)
Trigger time ms = 3927 --> set_head_angle(4, duration=0.033)
Trigger time ms = 3960 --> set_head_angle(17, duration=0.033)
Trigger time ms = 3993 --> set_head_angle(6, duration=0.033)
Trigger time ms = 4026 --> set_head_angle(13, duration=0.033)
Trigger time ms = 4059 --> set_head_angle(4, duration=0.033)
Trigger time ms = 4092 --> set_head_angle(8, duration=0.033)
Trigger time ms = 4125 --> set_head_angle(0, duration=0.033)
Trigger time ms = 4158 --> set_head_angle(4, duration=0.033)
Trigger time ms = 4191 --> set_head_angle(-4, duration=0.033)
Trigger time ms = 4224 --> set_head_angle(1, duration=0.033)
Trigger time ms = 4257 --> set_head_angle(-6, duration=0.033)
Trigger time ms = 4290 --> set_head_angle(-4, duration=0.033)
Trigger time ms = 4323 --> set_head_angle(-10, duration=0.033)
Trigger time ms = 4356 --> set_head_angle(-7, duration=0.033)
Trigger time ms = 4389 --> set_head_angle(-10, duration=0.033)
Trigger time ms = 4422 --> set_head_angle(-8, duration=0.033)
Trigger time ms = 4455 --> set_head_angle(-10, duration=0.033)
Trigger time ms = 4488 --> set_head_angle(-9, duration=0.033)
Trigger time ms = 4521 --> set_head_angle(-10, duration=0.033)
Trigger time ms = 4554 --> set_head_angle(-9, duration=0.033)
Trigger time ms = 4587 --> set_head_angle(-10, duration=0.033)
Trigger time ms = 4620 --> set_head_angle(-9, duration=0.033)
Trigger time ms = 4653 --> set_head_angle(-10, duration=0.033)
Trigger time ms = 4686 --> set_head_angle(-9, duration=0.297)
Trigger time ms = 4983 --> set_head_angle(-8, duration=0.165)
Trigger time ms = 5148 --> set_head_angle(-11, duration=0.066)
Trigger time ms = 5214 --> set_head_angle(0, duration=0.198)
Trigger time ms = 5412 --> set_head_angle(1, duration=0.165)
Trigger time ms = 5577 --> set_head_angle(0, duration=0.165)
---------------------------------------
Process body motion animations
---------------------------------------
Trigger time ms = 33 --> drive_wheels(l_wheel_speed=-48, r_wheel_speed=-48, duration=0.132)
Trigger time ms = 165 --> drive_wheels(l_wheel_speed=35, r_wheel_speed=35, duration=0.198)
