Original file = data/sdk_converted/anim_freeplay_reacttoface_unidentified
Animation anim_reacttoface_unidentified_03_head_angle_20 clip 11/12
---------------------------------------
Process lift height
---------------------------------------
---------------------------------------
Process Head angle animations
---------------------------------------
Trigger time ms = 0 --> set_head_angle(21, duration=0.066)
Trigger time ms = 66 --> set_head_angle(20, duration=0.66)
Trigger time ms = 726 --> set_head_angle(8, duration=0.231)
Trigger time ms = 1221 --> set_head_angle(39, duration=0.165)
Trigger time ms = 1386 --> set_head_angle(40, duration=0.264)
Trigger time ms = 1650 --> set_head_angle(39, duration=0.264)
Trigger time ms = 1914 --> set_head_angle(27, duration=0.066)
Trigger time ms = 1980 --> set_head_angle(23, duration=0.099)
Trigger time ms = 2079 --> set_head_angle(21, duration=0.132)
---------------------------------------
Process body motion animations
---------------------------------------
