Original file = data/sdk_converted/anim_explorer_idle
Animation anim_explorer_idle_01_head_angle_-10 clip 5/21
---------------------------------------
Process lift height
---------------------------------------
---------------------------------------
Process Head angle animations
---------------------------------------
Trigger time ms = 528 --> set_head_angle(-7, duration=0.066)
Trigger time ms = 990 --> set_head_angle(-5, duration=0.066)
Trigger time ms = 1650 --> set_head_angle(-10, duration=0.099)
---------------------------------------
Process body motion animations
---------------------------------------
