Original file = data/sdk_converted/anim_reacttocliff_turtleroll_01
Animation anim_reacttocliff_turtlerollfail_01 clip 5/9
---------------------------------------
Process lift height
---------------------------------------
Trigger time ms = 891 --> set_lift_height(92, duration=0.132)
Trigger time ms = 1023 --> set_lift_height(0, duration=0.066)
Trigger time ms = 1419 --> set_lift_height(92, duration=0.132)
Trigger time ms = 1551 --> set_lift_height(32, duration=0.198)
Trigger time ms = 1749 --> set_lift_height(30, duration=0.297)
Trigger time ms = 2046 --> set_lift_height(62, duration=0.066)
Trigger time ms = 2112 --> set_lift_height(13, duration=0.099)
Trigger time ms = 2211 --> set_lift_height(51, duration=0.132)
Trigger time ms = 2343 --> set_lift_height(16, duration=0.099)
Trigger time ms = 2442 --> set_lift_height(50, duration=0.066)
Trigger time ms = 2508 --> set_lift_height(23, duration=0.066)
Trigger time ms = 2574 --> set_lift_height(60, duration=0.066)
Trigger time ms = 2640 --> set_lift_height(36, duration=0.099)
Trigger time ms = 2739 --> set_lift_height(50, duration=0.132)
Trigger time ms = 2871 --> set_lift_height(0, duration=0.198)
Trigger time ms = 3069 --> set_lift_height(1, duration=0.132)
Trigger time ms = 3201 --> set_lift_height(85, duration=0.132)
Trigger time ms = 3853 --> set_lift_height(92, duration=0.099)
Trigger time ms = 3952 --> set_lift_height(85, duration=0.074)
Trigger time ms = 4026 --> set_lift_height(0, duration=0.066)
Trigger time ms = 4092 --> set_lift_height(0, duration=0.363)
Trigger time ms = 4455 --> set_lift_height(4, duration=0.489)
Trigger time ms = 4944 --> set_lift_height(80, duration=0.165)
---------------------------------------
Process Head angle animations
---------------------------------------
Trigger time ms = 0 --> set_head_angle(0, duration=0.066)
Trigger time ms = 66 --> set_head_angle(45, duration=0.099)
Trigger time ms = 462 --> set_head_angle(-12, duration=0.198)
Trigger time ms = 660 --> set_head_angle(-15, duration=0.033)
Trigger time ms = 693 --> set_head_angle(-12, duration=0.165)
Trigger time ms = 921 --> set_head_angle(16, duration=0.099)
Trigger time ms = 1020 --> set_head_angle(-7, duration=0.066)
Trigger time ms = 1086 --> set_head_angle(-12, duration=0.102)
Trigger time ms = 1188 --> set_head_angle(-13, duration=0.099)
Trigger time ms = 1287 --> set_head_angle(-13, duration=0.132)
Trigger time ms = 1452 --> set_head_angle(18, duration=0.066)
Trigger time ms = 1518 --> set_head_angle(14, duration=0.033)
Trigger time ms = 1551 --> set_head_angle(0, duration=0.066)
Trigger time ms = 1617 --> set_head_angle(-10, duration=0.19)
Trigger time ms = 1981 --> set_head_angle(-11, duration=0.247)
Trigger time ms = 2228 --> set_head_angle(12, duration=0.159)
Trigger time ms = 2387 --> set_head_angle(-14, duration=0.105)
Trigger time ms = 2492 --> set_head_angle(22, duration=0.107)
Trigger time ms = 2599 --> set_head_angle(-8, duration=0.105)
Trigger time ms = 2705 --> set_head_angle(18, duration=0.053)
Trigger time ms = 2758 --> set_head_angle(-5, duration=0.052)
Trigger time ms = 2810 --> set_head_angle(5, duration=0.053)
Trigger time ms = 2863 --> set_head_angle(-4, duration=0.054)
Trigger time ms = 2917 --> set_head_angle(3, duration=0.052)
Trigger time ms = 2969 --> set_head_angle(-2, duration=0.053)
Trigger time ms = 3022 --> set_head_angle(0, duration=0.054)
Trigger time ms = 3075 --> set_head_angle(-20, duration=0.093)
Trigger time ms = 3168 --> set_head_angle(37, duration=0.105)
Trigger time ms = 3273 --> set_head_angle(29, duration=0.205)
Trigger time ms = 3478 --> set_head_angle(31, duration=0.23)
Trigger time ms = 3708 --> set_head_angle(43, duration=0.153)
Trigger time ms = 3861 --> set_head_angle(12, duration=0.209)
Trigger time ms = 4070 --> set_head_angle(-8, duration=0.187)
Trigger time ms = 4257 --> set_head_angle(4, duration=0.099)
Trigger time ms = 4356 --> set_head_angle(-8, duration=0.099)
Trigger time ms = 4455 --> set_head_angle(4, duration=0.066)
Trigger time ms = 4521 --> set_head_angle(-7, duration=0.033)
Trigger time ms = 4554 --> set_head_angle(1, duration=0.066)
Trigger time ms = 4620 --> set_head_angle(-6, duration=0.033)
Trigger time ms = 4653 --> set_head_angle(1, duration=0.066)
Trigger time ms = 4719 --> set_head_angle(-6, duration=0.066)
Trigger time ms = 4785 --> set_head_angle(0, duration=0.033)
Trigger time ms = 4818 --> set_head_angle(-5, duration=0.066)
Trigger time ms = 4884 --> set_head_angle(0, duration=0.066)
Trigger time ms = 4950 --> set_head_angle(31, duration=0.177)
Trigger time ms = 5127 --> set_head_angle(41, duration=0.233)
Trigger time ms = 5361 --> set_head_angle(37, duration=0.232)
Trigger time ms = 5593 --> set_head_angle(37, duration=0.017)
Trigger time ms = 5610 --> set_head_angle(38, duration=0.396)
---------------------------------------
Process body motion animations
---------------------------------------
Trigger time ms = 2046 --> turn_in_place(degrees(-45))
Trigger time ms = 2112 --> turn_in_place(degrees(76))
Trigger time ms = 2178 --> turn_in_place(degrees(-121))
Trigger time ms = 2211 --> turn_in_place(degrees(121))
Trigger time ms = 2244 --> turn_in_place(degrees(-61))
Trigger time ms = 2310 --> turn_in_place(degrees(152))
Trigger time ms = 2343 --> turn_in_place(degrees(-121))
Trigger time ms = 2376 --> turn_in_place(degrees(30))
