Original file = data/sdk_converted/anim_petdetection_02
Animation anim_petdetection_cat_01 clip 1/8
---------------------------------------
Process lift height
---------------------------------------
Trigger time ms = 2277 --> set_lift_height(56, duration=0.099)
Trigger time ms = 2376 --> set_lift_height(49, duration=0.099)
Trigger time ms = 2475 --> set_lift_height(56, duration=0.099)
Trigger time ms = 2574 --> set_lift_height(0, duration=0.132)
Trigger time ms = 2805 --> set_lift_height(32, duration=0.099)
Trigger time ms = 2904 --> set_lift_height(0, duration=0.099)
Trigger time ms = 6105 --> set_lift_height(45, duration=0.132)
Trigger time ms = 6237 --> set_lift_height(25, duration=0.132)
Trigger time ms = 6369 --> set_lift_height(41, duration=0.198)
Trigger time ms = 6567 --> set_lift_height(0, duration=0.198)
---------------------------------------
Process Head angle animations
---------------------------------------
Trigger time ms = 132 --> set_head_angle(19, duration=0.264)
Trigger time ms = 396 --> set_head_angle(26, duration=0.165)
Trigger time ms = 561 --> set_head_angle(29, duration=0.363)
Trigger time ms = 924 --> set_head_angle(18, duration=0.066)
Trigger time ms = 990 --> set_head_angle(28, duration=0.099)
Trigger time ms = 1089 --> set_head_angle(29, duration=0.132)
Trigger time ms = 1650 --> set_head_angle(18, duration=0.165)
Trigger time ms = 1815 --> set_head_angle(19, duration=0.099)
Trigger time ms = 2310 --> set_head_angle(25, duration=0.099)
Trigger time ms = 2409 --> set_head_angle(-6, duration=0.165)
Trigger time ms = 2574 --> set_head_angle(-15, duration=0.165)
Trigger time ms = 2739 --> set_head_angle(11, duration=0.132)
Trigger time ms = 2871 --> set_head_angle(-12, duration=0.264)
Trigger time ms = 3135 --> set_head_angle(-5, duration=0.198)
Trigger time ms = 3498 --> set_head_angle(-9, duration=0.165)
Trigger time ms = 3663 --> set_head_angle(30, duration=0.198)
Trigger time ms = 3861 --> set_head_angle(24, duration=0.165)
Trigger time ms = 4158 --> set_head_angle(23, duration=0.132)
Trigger time ms = 4290 --> set_head_angle(15, duration=0.198)
Trigger time ms = 4488 --> set_head_angle(-15, duration=0.165)
Trigger time ms = 4653 --> set_head_angle(-22, duration=0.231)
Trigger time ms = 4884 --> set_head_angle(-15, duration=0.165)
Trigger time ms = 5049 --> set_head_angle(38, duration=0.165)
Trigger time ms = 5214 --> set_head_angle(25, duration=0.165)
Trigger time ms = 5709 --> set_head_angle(29, duration=0.198)
Trigger time ms = 5907 --> set_head_angle(-2, duration=0.165)
Trigger time ms = 6072 --> set_head_angle(-16, duration=0.165)
Trigger time ms = 6237 --> set_head_angle(23, duration=0.231)
Trigger time ms = 6468 --> set_head_angle(22, duration=0.396)
Trigger time ms = 7194 --> set_head_angle(6, duration=0.066)
Trigger time ms = 7260 --> set_head_angle(17, duration=0.099)
Trigger time ms = 7359 --> set_head_angle(5, duration=0.066)
Trigger time ms = 7425 --> set_head_angle(21, duration=0.099)
Trigger time ms = 7524 --> set_head_angle(-3, duration=0.099)
Trigger time ms = 7623 --> set_head_angle(-5, duration=0.066)
Trigger time ms = 7755 --> set_head_angle(-9, duration=0.066)
Trigger time ms = 7821 --> set_head_angle(-2, duration=0.066)
Trigger time ms = 7887 --> set_head_angle(-9, duration=0.066)
Trigger time ms = 7953 --> set_head_angle(-2, duration=0.066)
Trigger time ms = 8019 --> set_head_angle(-9, duration=0.099)
Trigger time ms = 8118 --> set_head_angle(-2, duration=0.066)
Trigger time ms = 8184 --> set_head_angle(-9, duration=0.066)
Trigger time ms = 8250 --> set_head_angle(-2, duration=0.066)
Trigger time ms = 8316 --> set_head_angle(0, duration=0.066)
Trigger time ms = 8382 --> set_head_angle(0, duration=0.066)
---------------------------------------
Process body motion animations
---------------------------------------
Trigger time ms = 132 --> drive_wheels(l_wheel_speed=-4, r_wheel_speed=-4, duration=0.132)
Trigger time ms = 264 --> drive_wheels(l_wheel_speed=-29, r_wheel_speed=-29, duration=0.858)
Trigger time ms = 2310 --> drive_wheels(l_wheel_speed=52, r_wheel_speed=52, duration=0.099)
Trigger time ms = 2409 --> drive_wheels(l_wheel_speed=51, r_wheel_speed=51, duration=0.099)
Trigger time ms = 2508 --> drive_wheels(l_wheel_speed=-147, r_wheel_speed=-147, duration=0.231)
Trigger time ms = 2739 --> drive_wheels(l_wheel_speed=22, r_wheel_speed=22, duration=0.099)
Trigger time ms = 2838 --> drive_wheels(l_wheel_speed=28, r_wheel_speed=28, duration=0.132)
Trigger time ms = 3729 --> drive_wheels(l_wheel_speed=-96, r_wheel_speed=-96, duration=0.264)
Trigger time ms = 3993 --> drive_wheels(l_wheel_speed=-44, r_wheel_speed=-44, duration=0.165)
Trigger time ms = 4158 --> drive_wheels(l_wheel_speed=-18, r_wheel_speed=-18, duration=0.066)
Trigger time ms = 4224 --> drive_wheels(l_wheel_speed=-16, r_wheel_speed=-16, duration=0.165)
Trigger time ms = 4389 --> drive_wheels(l_wheel_speed=-9, r_wheel_speed=-9, duration=0.099)
Trigger time ms = 4488 --> drive_wheels(l_wheel_speed=30, r_wheel_speed=30, duration=0.099)
Trigger time ms = 4587 --> drive_wheels(l_wheel_speed=113, r_wheel_speed=113, duration=0.099)
Trigger time ms = 4686 --> drive_wheels(l_wheel_speed=38, r_wheel_speed=38, duration=0.033)
Trigger time ms = 4719 --> drive_wheels(l_wheel_speed=71, r_wheel_speed=71, duration=0.264)
Trigger time ms = 4983 --> drive_wheels(l_wheel_speed=-38, r_wheel_speed=-38, duration=0.429)
Trigger time ms = 5412 --> drive_wheels(l_wheel_speed=-4, r_wheel_speed=-4, duration=0.396)
Trigger time ms = 6006 --> turn_in_place(degrees(-97))
Trigger time ms = 6171 --> turn_in_place(degrees(126))
Trigger time ms = 6369 --> turn_in_place(degrees(-35))
Trigger time ms = 6600 --> turn_in_place(degrees(-3))
Trigger time ms = 7260 --> drive_wheels(l_wheel_speed=110.0, r_wheel_speed=-70.0, duration=0.066)
Trigger time ms = 7326 --> drive_wheels(l_wheel_speed=256.5, r_wheel_speed=-598.5, duration=0.066)
Trigger time ms = 7392 --> drive_wheels(l_wheel_speed=1104.0, r_wheel_speed=-336.0, duration=0.066)
Trigger time ms = 7458 --> drive_wheels(l_wheel_speed=402.5, r_wheel_speed=-1172.5, duration=0.066)
Trigger time ms = 7524 --> drive_wheels(l_wheel_speed=255.0, r_wheel_speed=-195.0, duration=0.066)
Trigger time ms = 7590 --> drive_wheels(l_wheel_speed=-1202.5, r_wheel_speed=462.5, duration=0.033)
Trigger time ms = 7623 --> drive_wheels(l_wheel_speed=403.0, r_wheel_speed=-767.0, duration=0.033)
Trigger time ms = 7656 --> drive_wheels(l_wheel_speed=3150.0, r_wheel_speed=-1350.0, duration=0.033)
Trigger time ms = 7689 --> drive_wheels(l_wheel_speed=1387.5, r_wheel_speed=-3607.5, duration=0.033)
Trigger time ms = 7722 --> drive_wheels(l_wheel_speed=-585.0, r_wheel_speed=765.0, duration=0.033)
Trigger time ms = 7755 --> drive_wheels(l_wheel_speed=-1254.0, r_wheel_speed=726.0, duration=0.033)
Trigger time ms = 7788 --> drive_wheels(l_wheel_speed=26.5, r_wheel_speed=-18.5, duration=0.231)
