Original file = data/sdk_converted/anim_energy_idles
Animation anim_energy_idlel2_03_nohead clip 15/15
---------------------------------------
Process lift height
---------------------------------------
---------------------------------------
Process Head angle animations
---------------------------------------
---------------------------------------
Process body motion animations
---------------------------------------
