Original file = data/sdk_converted/anim_sparking_driving
Animation anim_sparking_driving_loop_03 clip 4/5
---------------------------------------
Process lift height
---------------------------------------
---------------------------------------
Process Head angle animations
---------------------------------------
Trigger time ms = 1056 --> set_head_angle(-16, duration=0.132)
Trigger time ms = 1188 --> set_head_angle(-10, duration=0.198)
---------------------------------------
Process body motion animations
---------------------------------------
