Original file = data/sdk_converted/anim_explorer_driving_01
Animation anim_explorer_driving01_start_01_head_angle_30 clip 12/49
---------------------------------------
Process lift height
---------------------------------------
---------------------------------------
Process Head angle animations
---------------------------------------
---------------------------------------
Process body motion animations
---------------------------------------
