Original file = data/sdk_converted/anim_energy_eating_lv1_03
Animation anim_energy_eat_lvl1_06 clip 1/4
---------------------------------------
Process lift height
---------------------------------------
Trigger time ms = 0 --> set_lift_height(77, duration=1.056)
Trigger time ms = 2970 --> set_lift_height(32, duration=0.132)
Trigger time ms = 3102 --> set_lift_height(39, duration=0.066)
Trigger time ms = 3168 --> set_lift_height(32, duration=0.066)
---------------------------------------
Process Head angle animations
---------------------------------------
Trigger time ms = 0 --> set_head_angle(0, duration=0.198)
Trigger time ms = 198 --> set_head_angle(12, duration=0.099)
Trigger time ms = 297 --> set_head_angle(-3, duration=0.132)
Trigger time ms = 429 --> set_head_angle(-6, duration=0.257)
Trigger time ms = 686 --> set_head_angle(22, duration=0.634)
Trigger time ms = 1320 --> set_head_angle(40, duration=0.66)
Trigger time ms = 1980 --> set_head_angle(37, duration=0.033)
Trigger time ms = 2013 --> set_head_angle(45, duration=0.033)
Trigger time ms = 2046 --> set_head_angle(40, duration=0.033)
Trigger time ms = 2079 --> set_head_angle(45, duration=0.033)
Trigger time ms = 2112 --> set_head_angle(40, duration=0.033)
Trigger time ms = 2145 --> set_head_angle(45, duration=0.033)
Trigger time ms = 2178 --> set_head_angle(40, duration=0.033)
Trigger time ms = 2211 --> set_head_angle(45, duration=0.033)
Trigger time ms = 2244 --> set_head_angle(41, duration=0.033)
Trigger time ms = 2277 --> set_head_angle(45, duration=0.033)
Trigger time ms = 2310 --> set_head_angle(41, duration=0.033)
Trigger time ms = 2343 --> set_head_angle(45, duration=0.033)
Trigger time ms = 2376 --> set_head_angle(42, duration=0.033)
Trigger time ms = 2409 --> set_head_angle(45, duration=0.033)
Trigger time ms = 2442 --> set_head_angle(42, duration=0.033)
Trigger time ms = 2475 --> set_head_angle(45, duration=0.033)
Trigger time ms = 2508 --> set_head_angle(42, duration=0.033)
Trigger time ms = 2541 --> set_head_angle(44, duration=0.033)
Trigger time ms = 2574 --> set_head_angle(42, duration=0.033)
Trigger time ms = 2607 --> set_head_angle(45, duration=0.033)
Trigger time ms = 2640 --> set_head_angle(41, duration=0.231)
Trigger time ms = 2871 --> set_head_angle(-7, duration=0.066)
Trigger time ms = 2937 --> set_head_angle(9, duration=0.099)
Trigger time ms = 3036 --> set_head_angle(2, duration=0.495)
Trigger time ms = 3927 --> set_head_angle(-2, duration=0.033)
Trigger time ms = 3960 --> set_head_angle(8, duration=0.066)
Trigger time ms = 4026 --> set_head_angle(-1, duration=0.033)
Trigger time ms = 4059 --> set_head_angle(2, duration=0.132)
Trigger time ms = 4818 --> set_head_angle(-1, duration=0.066)
Trigger time ms = 4884 --> set_head_angle(7, duration=0.132)
Trigger time ms = 5445 --> set_head_angle(3, duration=0.066)
Trigger time ms = 5511 --> set_head_angle(8, duration=0.132)
Trigger time ms = 5907 --> set_head_angle(-17, duration=0.099)
Trigger time ms = 6006 --> set_head_angle(11, duration=0.231)
Trigger time ms = 6237 --> set_head_angle(8, duration=0.66)
Trigger time ms = 6897 --> set_head_angle(-4, duration=0.264)
Trigger time ms = 7161 --> set_head_angle(0, duration=0.33)
Trigger time ms = 7755 --> set_head_angle(6, duration=0.066)
Trigger time ms = 7920 --> set_head_angle(-3, duration=0.066)
Trigger time ms = 8613 --> set_head_angle(-11, duration=0.132)
Trigger time ms = 8745 --> set_head_angle(0, duration=0.165)
---------------------------------------
Process body motion animations
---------------------------------------
Trigger time ms = 2838 --> drive_wheels(l_wheel_speed=29810.0, r_wheel_speed=19910.0, duration=0.165)
Trigger time ms = 3003 --> drive_wheels(l_wheel_speed=-7562.0, r_wheel_speed=-4142.0, duration=0.231)
Trigger time ms = 4950 --> turn_in_place(degrees(24))
Trigger time ms = 5907 --> drive_wheels(l_wheel_speed=-144, r_wheel_speed=-144, duration=0.066)
Trigger time ms = 6039 --> turn_in_place(degrees(-300))
Trigger time ms = 6105 --> turn_in_place(degrees(300))
Trigger time ms = 6171 --> turn_in_place(degrees(-283))
Trigger time ms = 6237 --> turn_in_place(degrees(242))
Trigger time ms = 6303 --> turn_in_place(degrees(-206))
Trigger time ms = 6369 --> drive_wheels(l_wheel_speed=-64.5, r_wheel_speed=70.5, duration=0.066)
Trigger time ms = 6435 --> drive_wheels(l_wheel_speed=82.0, r_wheel_speed=-98.0, duration=0.066)
Trigger time ms = 6501 --> turn_in_place(degrees(128))
Trigger time ms = 6567 --> turn_in_place(degrees(-61))
Trigger time ms = 6666 --> drive_wheels(l_wheel_speed=-21.5, r_wheel_speed=23.5, duration=0.099)
Trigger time ms = 7722 --> drive_wheels(l_wheel_speed=-17.5, r_wheel_speed=-1592.5, duration=0.099)
Trigger time ms = 7953 --> drive_wheels(l_wheel_speed=17.5, r_wheel_speed=1592.5, duration=0.099)
