Original file = data/sdk_converted/anim_dancing_mambo_02
Animation anim_endmambo clip 2/2
---------------------------------------
Process lift height
---------------------------------------
Trigger time ms = 99 --> set_lift_height(32, duration=0.396)
Trigger time ms = 495 --> set_lift_height(61, duration=0.132)
Trigger time ms = 627 --> set_lift_height(32, duration=0.231)
Trigger time ms = 1221 --> set_lift_height(61, duration=0.132)
Trigger time ms = 1353 --> set_lift_height(32, duration=0.231)
Trigger time ms = 1716 --> set_lift_height(76, duration=0.264)
Trigger time ms = 1980 --> set_lift_height(32, duration=0.528)
Trigger time ms = 2508 --> set_lift_height(34, duration=0.264)
Trigger time ms = 2772 --> set_lift_height(46, duration=0.132)
Trigger time ms = 2904 --> set_lift_height(33, duration=0.099)
Trigger time ms = 3003 --> set_lift_height(32, duration=0.231)
---------------------------------------
Process Head angle animations
---------------------------------------
Trigger time ms = 99 --> set_head_angle(0, duration=0.132)
Trigger time ms = 231 --> set_head_angle(-19, duration=0.132)
Trigger time ms = 363 --> set_head_angle(19, duration=0.132)
Trigger time ms = 495 --> set_head_angle(-11, duration=0.132)
Trigger time ms = 627 --> set_head_angle(19, duration=0.231)
Trigger time ms = 858 --> set_head_angle(-1, duration=0.132)
Trigger time ms = 990 --> set_head_angle(28, duration=0.132)
Trigger time ms = 1122 --> set_head_angle(38, duration=0.132)
Trigger time ms = 1254 --> set_head_angle(41, duration=0.33)
Trigger time ms = 1584 --> set_head_angle(19, duration=0.297)
Trigger time ms = 1881 --> set_head_angle(42, duration=0.264)
Trigger time ms = 2145 --> set_head_angle(31, duration=0.099)
Trigger time ms = 2244 --> set_head_angle(42, duration=0.099)
Trigger time ms = 2343 --> set_head_angle(31, duration=0.099)
Trigger time ms = 2442 --> set_head_angle(41, duration=0.066)
Trigger time ms = 2508 --> set_head_angle(19, duration=0.165)
Trigger time ms = 2673 --> set_head_angle(2, duration=0.066)
Trigger time ms = 2739 --> set_head_angle(6, duration=0.066)
Trigger time ms = 2805 --> set_head_angle(12, duration=0.132)
Trigger time ms = 2937 --> set_head_angle(-1, duration=0.132)
Trigger time ms = 3069 --> set_head_angle(0, duration=0.165)
---------------------------------------
Process body motion animations
---------------------------------------
Trigger time ms = 0 --> drive_wheels(l_wheel_speed=2327.5, r_wheel_speed=752.5, duration=0.066)
Trigger time ms = 66 --> drive_wheels(l_wheel_speed=-2700.0, r_wheel_speed=-900.0, duration=0.33)
Trigger time ms = 396 --> drive_wheels(l_wheel_speed=-14445.0, r_wheel_speed=-4815.0, duration=0.066)
Trigger time ms = 462 --> drive_wheels(l_wheel_speed=12825.0, r_wheel_speed=4275.0, duration=0.033)
Trigger time ms = 495 --> drive_wheels(l_wheel_speed=12825.0, r_wheel_speed=4275.0, duration=0.033)
Trigger time ms = 528 --> drive_wheels(l_wheel_speed=-14850.0, r_wheel_speed=-4950.0, duration=0.066)
Trigger time ms = 594 --> drive_wheels(l_wheel_speed=3982.5, r_wheel_speed=1327.5, duration=0.132)
Trigger time ms = 726 --> drive_wheels(l_wheel_speed=-6644.5, r_wheel_speed=-2279.5, duration=0.099)
Trigger time ms = 825 --> drive_wheels(l_wheel_speed=-6644.5, r_wheel_speed=-2279.5, duration=0.033)
Trigger time ms = 858 --> drive_wheels(l_wheel_speed=8905.0, r_wheel_speed=3055.0, duration=0.099)
Trigger time ms = 957 --> drive_wheels(l_wheel_speed=8631.0, r_wheel_speed=2961.0, duration=0.198)
Trigger time ms = 1155 --> drive_wheels(l_wheel_speed=-8973.5, r_wheel_speed=-3078.5, duration=0.264)
Trigger time ms = 1419 --> drive_wheels(l_wheel_speed=4795.0, r_wheel_speed=1645.0, duration=0.264)
Trigger time ms = 1683 --> drive_wheels(l_wheel_speed=5000.5, r_wheel_speed=1715.5, duration=0.033)
Trigger time ms = 1716 --> drive_wheels(l_wheel_speed=-6507.5, r_wheel_speed=-2232.5, duration=0.363)
Trigger time ms = 2079 --> drive_wheels(l_wheel_speed=2945.5, r_wheel_speed=1010.5, duration=0.297)
Trigger time ms = 2376 --> drive_wheels(l_wheel_speed=3082.5, r_wheel_speed=1057.5, duration=0.198)
Trigger time ms = 2574 --> drive_wheels(l_wheel_speed=1644.0, r_wheel_speed=564.0, duration=0.099)
Trigger time ms = 2706 --> drive_wheels(l_wheel_speed=20, r_wheel_speed=20, duration=0.099)
Trigger time ms = 2805 --> drive_wheels(l_wheel_speed=-61, r_wheel_speed=-61, duration=0.066)
Trigger time ms = 2871 --> drive_wheels(l_wheel_speed=-30, r_wheel_speed=-30, duration=0.033)
Trigger time ms = 2904 --> drive_wheels(l_wheel_speed=11, r_wheel_speed=11, duration=0.264)
