Original file = data/sdk_converted/anim_energy_eating_lv1_03
Animation anim_energy_eat_lvl1_08 clip 3/4
---------------------------------------
Process lift height
---------------------------------------
Trigger time ms = 0 --> set_lift_height(77, duration=0.165)
Trigger time ms = 1980 --> set_lift_height(77, duration=6.138)
Trigger time ms = 8118 --> set_lift_height(87, duration=0.627)
Trigger time ms = 8745 --> set_lift_height(32, duration=0.297)
Trigger time ms = 13530 --> set_lift_height(44, duration=0.066)
Trigger time ms = 13596 --> set_lift_height(32, duration=0.066)
---------------------------------------
Process Head angle animations
---------------------------------------
Trigger time ms = 0 --> set_head_angle(0, duration=0.198)
Trigger time ms = 198 --> set_head_angle(12, duration=0.132)
Trigger time ms = 330 --> set_head_angle(-6, duration=0.264)
Trigger time ms = 594 --> set_head_angle(-10, duration=0.396)
Trigger time ms = 990 --> set_head_angle(0, duration=0.099)
Trigger time ms = 1089 --> set_head_angle(-11, duration=0.066)
Trigger time ms = 1155 --> set_head_angle(-4, duration=0.099)
Trigger time ms = 1254 --> set_head_angle(-11, duration=0.066)
Trigger time ms = 1683 --> set_head_angle(-9, duration=0.297)
Trigger time ms = 1980 --> set_head_angle(6, duration=0.726)
Trigger time ms = 2706 --> set_head_angle(32, duration=0.132)
Trigger time ms = 2838 --> set_head_angle(-12, duration=0.198)
Trigger time ms = 3036 --> set_head_angle(15, duration=0.396)
Trigger time ms = 3432 --> set_head_angle(-8, duration=0.132)
Trigger time ms = 3564 --> set_head_angle(14, duration=0.099)
Trigger time ms = 3663 --> set_head_angle(-7, duration=0.198)
Trigger time ms = 3861 --> set_head_angle(13, duration=0.528)
Trigger time ms = 4389 --> set_head_angle(-7, duration=0.495)
Trigger time ms = 4884 --> set_head_angle(13, duration=0.33)
Trigger time ms = 5214 --> set_head_angle(-10, duration=0.297)
Trigger time ms = 5511 --> set_head_angle(17, duration=0.297)
Trigger time ms = 5808 --> set_head_angle(-11, duration=0.264)
Trigger time ms = 6072 --> set_head_angle(19, duration=0.231)
Trigger time ms = 6303 --> set_head_angle(-12, duration=0.264)
Trigger time ms = 6567 --> set_head_angle(25, duration=0.297)
Trigger time ms = 6864 --> set_head_angle(-12, duration=0.165)
Trigger time ms = 7029 --> set_head_angle(26, duration=0.198)
Trigger time ms = 7227 --> set_head_angle(-11, duration=0.165)
Trigger time ms = 7392 --> set_head_angle(29, duration=0.165)
Trigger time ms = 7557 --> set_head_angle(-9, duration=0.165)
Trigger time ms = 7722 --> set_head_angle(29, duration=0.165)
Trigger time ms = 7887 --> set_head_angle(-6, duration=0.132)
Trigger time ms = 8019 --> set_head_angle(32, duration=0.198)
Trigger time ms = 8217 --> set_head_angle(-3, duration=0.165)
Trigger time ms = 8382 --> set_head_angle(37, duration=0.132)
Trigger time ms = 8514 --> set_head_angle(-1, duration=0.099)
Trigger time ms = 8613 --> set_head_angle(38, duration=0.099)
Trigger time ms = 8712 --> set_head_angle(2, duration=0.099)
Trigger time ms = 8811 --> set_head_angle(40, duration=0.099)
Trigger time ms = 8910 --> set_head_angle(6, duration=0.066)
Trigger time ms = 8976 --> set_head_angle(43, duration=0.066)
Trigger time ms = 9042 --> set_head_angle(10, duration=0.066)
Trigger time ms = 9108 --> set_head_angle(45, duration=0.066)
Trigger time ms = 9174 --> set_head_angle(13, duration=0.066)
Trigger time ms = 9240 --> set_head_angle(45, duration=0.066)
Trigger time ms = 9306 --> set_head_angle(15, duration=0.066)
Trigger time ms = 9372 --> set_head_angle(45, duration=0.066)
Trigger time ms = 9438 --> set_head_angle(16, duration=0.066)
Trigger time ms = 9504 --> set_head_angle(45, duration=0.066)
Trigger time ms = 9570 --> set_head_angle(18, duration=0.066)
Trigger time ms = 9636 --> set_head_angle(45, duration=0.132)
Trigger time ms = 9834 --> set_head_angle(44, duration=0.099)
Trigger time ms = 9933 --> set_head_angle(45, duration=0.066)
Trigger time ms = 9999 --> set_head_angle(38, duration=0.066)
Trigger time ms = 10065 --> set_head_angle(41, duration=0.066)
Trigger time ms = 10131 --> set_head_angle(31, duration=0.033)
Trigger time ms = 10164 --> set_head_angle(36, duration=0.033)
Trigger time ms = 10197 --> set_head_angle(29, duration=0.033)
Trigger time ms = 10230 --> set_head_angle(34, duration=0.033)
Trigger time ms = 10263 --> set_head_angle(27, duration=0.033)
Trigger time ms = 10296 --> set_head_angle(31, duration=0.033)
Trigger time ms = 10329 --> set_head_angle(25, duration=0.033)
Trigger time ms = 10362 --> set_head_angle(29, duration=0.033)
Trigger time ms = 10395 --> set_head_angle(23, duration=0.033)
Trigger time ms = 10428 --> set_head_angle(28, duration=0.033)
Trigger time ms = 10461 --> set_head_angle(22, duration=0.033)
Trigger time ms = 10494 --> set_head_angle(27, duration=0.033)
Trigger time ms = 10527 --> set_head_angle(22, duration=0.033)
Trigger time ms = 10560 --> set_head_angle(27, duration=0.033)
Trigger time ms = 10593 --> set_head_angle(21, duration=0.033)
Trigger time ms = 10626 --> set_head_angle(26, duration=0.033)
Trigger time ms = 10659 --> set_head_angle(21, duration=0.033)
Trigger time ms = 10692 --> set_head_angle(26, duration=0.033)
Trigger time ms = 10725 --> set_head_angle(20, duration=0.033)
Trigger time ms = 10758 --> set_head_angle(24, duration=0.033)
Trigger time ms = 10791 --> set_head_angle(18, duration=0.033)
Trigger time ms = 10824 --> set_head_angle(22, duration=0.033)
Trigger time ms = 10857 --> set_head_angle(16, duration=0.033)
Trigger time ms = 10890 --> set_head_angle(19, duration=0.033)
Trigger time ms = 10923 --> set_head_angle(-9, duration=0.033)
Trigger time ms = 10956 --> set_head_angle(-25, duration=0.033)
Trigger time ms = 10989 --> set_head_angle(8, duration=0.165)
Trigger time ms = 11154 --> set_head_angle(-10, duration=0.165)
Trigger time ms = 11319 --> set_head_angle(5, duration=0.231)
Trigger time ms = 11550 --> set_head_angle(-9, duration=0.231)
Trigger time ms = 11781 --> set_head_angle(7, duration=0.297)
Trigger time ms = 12078 --> set_head_angle(1, duration=0.231)
Trigger time ms = 12309 --> set_head_angle(-11, duration=0.099)
Trigger time ms = 12408 --> set_head_angle(13, duration=0.132)
Trigger time ms = 12540 --> set_head_angle(10, duration=0.132)
Trigger time ms = 12672 --> set_head_angle(-5, duration=0.066)
Trigger time ms = 12738 --> set_head_angle(5, duration=0.099)
Trigger time ms = 12837 --> set_head_angle(-1, duration=0.099)
Trigger time ms = 12936 --> set_head_angle(10, duration=0.198)
Trigger time ms = 13431 --> set_head_angle(9, duration=0.033)
Trigger time ms = 13464 --> set_head_angle(4, duration=0.033)
Trigger time ms = 13497 --> set_head_angle(-7, duration=0.066)
Trigger time ms = 13563 --> set_head_angle(6, duration=0.132)
Trigger time ms = 13695 --> set_head_angle(0, duration=0.165)
---------------------------------------
Process body motion animations
---------------------------------------
Trigger time ms = 7227 --> drive_wheels(l_wheel_speed=-42210.0, r_wheel_speed=-43110.0, duration=1.65)
Trigger time ms = 10956 --> drive_wheels(l_wheel_speed=-199, r_wheel_speed=-199, duration=0.066)
Trigger time ms = 11022 --> drive_wheels(l_wheel_speed=100, r_wheel_speed=100, duration=0.132)
Trigger time ms = 12672 --> drive_wheels(l_wheel_speed=-48, r_wheel_speed=-48, duration=0.099)
Trigger time ms = 12771 --> drive_wheels(l_wheel_speed=48, r_wheel_speed=48, duration=0.099)
Trigger time ms = 12870 --> drive_wheels(l_wheel_speed=-29, r_wheel_speed=-29, duration=0.132)
Trigger time ms = 13002 --> drive_wheels(l_wheel_speed=27, r_wheel_speed=27, duration=0.132)
Trigger time ms = 13464 --> drive_wheels(l_wheel_speed=-3417.0, r_wheel_speed=1173.0, duration=0.132)
