Original file = data/sdk_converted/anim_explorer_driving_01
Animation anim_explorer_driving01_end_01_head_angle_-10 clip 27/49
---------------------------------------
Process lift height
---------------------------------------
---------------------------------------
Process Head angle animations
---------------------------------------
---------------------------------------
Process body motion animations
---------------------------------------
