Original file = data/sdk_converted/anim_codelab_lightshow_idle
Animation anim_codelab_lightshow_idle clip 1/1
---------------------------------------
Process lift height
---------------------------------------
Trigger time ms = 0 --> set_lift_height(32, duration=3.003)
Trigger time ms = 3003 --> set_lift_height(44, duration=0.264)
Trigger time ms = 3267 --> set_lift_height(45, duration=0.099)
Trigger time ms = 3366 --> set_lift_height(32, duration=0.165)
Trigger time ms = 4158 --> set_lift_height(44, duration=0.297)
Trigger time ms = 4455 --> set_lift_height(45, duration=0.099)
Trigger time ms = 4554 --> set_lift_height(32, duration=0.132)
Trigger time ms = 4917 --> set_lift_height(38, duration=0.132)
Trigger time ms = 5049 --> set_lift_height(32, duration=0.066)
Trigger time ms = 5214 --> set_lift_height(38, duration=0.132)
Trigger time ms = 5346 --> set_lift_height(32, duration=0.066)
Trigger time ms = 5511 --> set_lift_height(38, duration=0.132)
Trigger time ms = 5643 --> set_lift_height(32, duration=0.066)
Trigger time ms = 5808 --> set_lift_height(38, duration=0.132)
Trigger time ms = 5940 --> set_lift_height(32, duration=0.066)
Trigger time ms = 6105 --> set_lift_height(38, duration=0.132)
Trigger time ms = 6237 --> set_lift_height(32, duration=0.066)
Trigger time ms = 6402 --> set_lift_height(38, duration=0.132)
Trigger time ms = 6534 --> set_lift_height(32, duration=0.066)
Trigger time ms = 8448 --> set_lift_height(75, duration=0.132)
Trigger time ms = 9306 --> set_lift_height(32, duration=0.264)
---------------------------------------
Process Head angle animations
---------------------------------------
Trigger time ms = 0 --> set_head_angle(6, duration=0.165)
Trigger time ms = 165 --> set_head_angle(2, duration=0.132)
Trigger time ms = 297 --> set_head_angle(14, duration=0.099)
Trigger time ms = 396 --> set_head_angle(20, duration=0.198)
Trigger time ms = 594 --> set_head_angle(6, duration=0.165)
Trigger time ms = 759 --> set_head_angle(2, duration=0.132)
Trigger time ms = 891 --> set_head_angle(14, duration=0.099)
Trigger time ms = 990 --> set_head_angle(20, duration=0.198)
Trigger time ms = 1188 --> set_head_angle(6, duration=0.165)
Trigger time ms = 1353 --> set_head_angle(2, duration=0.132)
Trigger time ms = 1485 --> set_head_angle(14, duration=0.099)
Trigger time ms = 1584 --> set_head_angle(20, duration=0.198)
Trigger time ms = 1782 --> set_head_angle(6, duration=0.165)
Trigger time ms = 1947 --> set_head_angle(2, duration=0.132)
Trigger time ms = 2079 --> set_head_angle(14, duration=0.099)
Trigger time ms = 2178 --> set_head_angle(20, duration=0.198)
Trigger time ms = 2376 --> set_head_angle(-1, duration=0.198)
Trigger time ms = 2574 --> set_head_angle(-6, duration=0.396)
Trigger time ms = 2970 --> set_head_angle(28, duration=0.297)
Trigger time ms = 3267 --> set_head_angle(32, duration=0.297)
Trigger time ms = 3564 --> set_head_angle(-1, duration=0.198)
Trigger time ms = 3762 --> set_head_angle(-6, duration=0.396)
Trigger time ms = 4158 --> set_head_angle(28, duration=0.297)
Trigger time ms = 4455 --> set_head_angle(32, duration=0.297)
Trigger time ms = 4785 --> set_head_angle(5, duration=0.132)
Trigger time ms = 4917 --> set_head_angle(18, duration=0.198)
Trigger time ms = 5115 --> set_head_angle(7, duration=0.099)
Trigger time ms = 5214 --> set_head_angle(15, duration=0.132)
Trigger time ms = 5346 --> set_head_angle(7, duration=0.165)
Trigger time ms = 5511 --> set_head_angle(15, duration=0.165)
Trigger time ms = 5676 --> set_head_angle(7, duration=0.099)
Trigger time ms = 5775 --> set_head_angle(15, duration=0.132)
Trigger time ms = 5907 --> set_head_angle(7, duration=0.165)
Trigger time ms = 6072 --> set_head_angle(15, duration=0.165)
Trigger time ms = 6237 --> set_head_angle(7, duration=0.099)
Trigger time ms = 6336 --> set_head_angle(15, duration=0.132)
Trigger time ms = 6468 --> set_head_angle(-4, duration=0.198)
Trigger time ms = 6666 --> set_head_angle(36, duration=0.33)
Trigger time ms = 6996 --> set_head_angle(29, duration=0.132)
Trigger time ms = 7128 --> set_head_angle(12, duration=0.099)
Trigger time ms = 7227 --> set_head_angle(19, duration=0.099)
Trigger time ms = 7326 --> set_head_angle(22, duration=0.066)
Trigger time ms = 7392 --> set_head_angle(11, duration=0.066)
Trigger time ms = 7458 --> set_head_angle(6, duration=0.066)
Trigger time ms = 7524 --> set_head_angle(19, duration=0.132)
Trigger time ms = 7656 --> set_head_angle(22, duration=0.066)
Trigger time ms = 7722 --> set_head_angle(11, duration=0.066)
Trigger time ms = 7788 --> set_head_angle(6, duration=0.066)
Trigger time ms = 7854 --> set_head_angle(19, duration=0.132)
Trigger time ms = 7986 --> set_head_angle(22, duration=0.066)
Trigger time ms = 8052 --> set_head_angle(11, duration=0.066)
Trigger time ms = 8118 --> set_head_angle(6, duration=0.066)
Trigger time ms = 8184 --> set_head_angle(19, duration=0.099)
Trigger time ms = 8283 --> set_head_angle(22, duration=0.033)
Trigger time ms = 8382 --> set_head_angle(9, duration=0.099)
Trigger time ms = 8481 --> set_head_angle(25, duration=0.066)
Trigger time ms = 8547 --> set_head_angle(18, duration=0.066)
Trigger time ms = 8613 --> set_head_angle(30, duration=0.066)
Trigger time ms = 8679 --> set_head_angle(21, duration=0.066)
Trigger time ms = 8745 --> set_head_angle(33, duration=0.066)
Trigger time ms = 8811 --> set_head_angle(24, duration=0.066)
Trigger time ms = 8877 --> set_head_angle(34, duration=0.066)
Trigger time ms = 8943 --> set_head_angle(26, duration=0.066)
Trigger time ms = 9009 --> set_head_angle(36, duration=0.066)
Trigger time ms = 9075 --> set_head_angle(32, duration=0.099)
Trigger time ms = 9174 --> set_head_angle(38, duration=0.297)
Trigger time ms = 9471 --> set_head_angle(-10, duration=0.231)
Trigger time ms = 9702 --> set_head_angle(0, duration=0.297)
---------------------------------------
Process body motion animations
---------------------------------------
Trigger time ms = 0 --> drive_wheels(l_wheel_speed=-48, r_wheel_speed=-48, duration=0.165)
Trigger time ms = 231 --> drive_wheels(l_wheel_speed=48, r_wheel_speed=48, duration=0.165)
Trigger time ms = 594 --> drive_wheels(l_wheel_speed=-48, r_wheel_speed=-48, duration=0.165)
Trigger time ms = 825 --> drive_wheels(l_wheel_speed=48, r_wheel_speed=48, duration=0.165)
Trigger time ms = 1188 --> drive_wheels(l_wheel_speed=-48, r_wheel_speed=-48, duration=0.165)
Trigger time ms = 1419 --> drive_wheels(l_wheel_speed=48, r_wheel_speed=48, duration=0.165)
Trigger time ms = 1716 --> drive_wheels(l_wheel_speed=-35, r_wheel_speed=-35, duration=0.231)
Trigger time ms = 2013 --> drive_wheels(l_wheel_speed=48, r_wheel_speed=48, duration=0.165)
Trigger time ms = 2310 --> drive_wheels(l_wheel_speed=-54, r_wheel_speed=-54, duration=0.297)
Trigger time ms = 2607 --> drive_wheels(l_wheel_speed=-24, r_wheel_speed=-24, duration=0.165)
Trigger time ms = 2904 --> drive_wheels(l_wheel_speed=54, r_wheel_speed=54, duration=0.297)
Trigger time ms = 3201 --> drive_wheels(l_wheel_speed=24, r_wheel_speed=24, duration=0.165)
Trigger time ms = 3498 --> drive_wheels(l_wheel_speed=-54, r_wheel_speed=-54, duration=0.297)
Trigger time ms = 3795 --> drive_wheels(l_wheel_speed=-24, r_wheel_speed=-24, duration=0.165)
Trigger time ms = 4092 --> drive_wheels(l_wheel_speed=54, r_wheel_speed=54, duration=0.297)
Trigger time ms = 4389 --> drive_wheels(l_wheel_speed=24, r_wheel_speed=24, duration=0.165)
Trigger time ms = 4785 --> drive_wheels(l_wheel_speed=-97.5, r_wheel_speed=127.5, duration=0.165)
Trigger time ms = 4950 --> drive_wheels(l_wheel_speed=-58.5, r_wheel_speed=76.5, duration=0.099)
Trigger time ms = 5049 --> drive_wheels(l_wheel_speed=253.5, r_wheel_speed=-331.5, duration=0.132)
Trigger time ms = 5181 --> drive_wheels(l_wheel_speed=58.5, r_wheel_speed=-76.5, duration=0.165)
Trigger time ms = 5346 --> drive_wheels(l_wheel_speed=-195.0, r_wheel_speed=255.0, duration=0.198)
Trigger time ms = 5544 --> drive_wheels(l_wheel_speed=-58.5, r_wheel_speed=76.5, duration=0.099)
Trigger time ms = 5643 --> drive_wheels(l_wheel_speed=253.5, r_wheel_speed=-331.5, duration=0.132)
Trigger time ms = 5775 --> drive_wheels(l_wheel_speed=58.5, r_wheel_speed=-76.5, duration=0.165)
Trigger time ms = 5940 --> drive_wheels(l_wheel_speed=-195.0, r_wheel_speed=255.0, duration=0.198)
Trigger time ms = 6138 --> drive_wheels(l_wheel_speed=-58.5, r_wheel_speed=76.5, duration=0.099)
Trigger time ms = 6237 --> drive_wheels(l_wheel_speed=253.5, r_wheel_speed=-331.5, duration=0.132)
Trigger time ms = 6369 --> drive_wheels(l_wheel_speed=58.5, r_wheel_speed=-76.5, duration=0.165)
Trigger time ms = 6534 --> drive_wheels(l_wheel_speed=-195.0, r_wheel_speed=255.0, duration=0.198)
Trigger time ms = 6732 --> drive_wheels(l_wheel_speed=-58.5, r_wheel_speed=76.5, duration=0.099)
Trigger time ms = 6831 --> drive_wheels(l_wheel_speed=58.5, r_wheel_speed=-76.5, duration=0.198)
Trigger time ms = 7128 --> drive_wheels(l_wheel_speed=-83, r_wheel_speed=-83, duration=0.132)
Trigger time ms = 7260 --> drive_wheels(l_wheel_speed=-20, r_wheel_speed=-20, duration=0.099)
Trigger time ms = 7359 --> drive_wheels(l_wheel_speed=-30, r_wheel_speed=-30, duration=0.066)
Trigger time ms = 7425 --> drive_wheels(l_wheel_speed=91, r_wheel_speed=91, duration=0.132)
Trigger time ms = 7557 --> drive_wheels(l_wheel_speed=24, r_wheel_speed=24, duration=0.165)
Trigger time ms = 7722 --> drive_wheels(l_wheel_speed=-91, r_wheel_speed=-91, duration=0.132)
Trigger time ms = 7854 --> drive_wheels(l_wheel_speed=-24, r_wheel_speed=-24, duration=0.165)
Trigger time ms = 8019 --> drive_wheels(l_wheel_speed=91, r_wheel_speed=91, duration=0.132)
Trigger time ms = 8151 --> drive_wheels(l_wheel_speed=24, r_wheel_speed=24, duration=0.165)
Trigger time ms = 8382 --> drive_wheels(l_wheel_speed=-91, r_wheel_speed=-91, duration=0.132)
Trigger time ms = 8514 --> drive_wheels(l_wheel_speed=-32, r_wheel_speed=-32, duration=0.693)
Trigger time ms = 9273 --> drive_wheels(l_wheel_speed=-30, r_wheel_speed=-30, duration=0.132)
Trigger time ms = 9405 --> drive_wheels(l_wheel_speed=-20, r_wheel_speed=-20, duration=0.099)
Trigger time ms = 9504 --> drive_wheels(l_wheel_speed=73, r_wheel_speed=73, duration=0.33)
