Original file = data/sdk_converted/anim_explorer_drvback
Animation anim_explorer_drvback_start_01 clip 1/6
---------------------------------------
Process lift height
---------------------------------------
---------------------------------------
Process Head angle animations
---------------------------------------
---------------------------------------
Process body motion animations
---------------------------------------
