Original file = data/sdk_converted/anim_singlepose_01
Animation anim_neutral_eyes_01 clip 1/1
---------------------------------------
Process lift height
---------------------------------------
---------------------------------------
Process Head angle animations
---------------------------------------
---------------------------------------
Process body motion animations
---------------------------------------
