Original file = data/sdk_converted/anim_loco_driving_01
Animation anim_loco_driving01_start_01 clip 1/6
---------------------------------------
Process lift height
---------------------------------------
---------------------------------------
Process Head angle animations
---------------------------------------
Trigger time ms = 0 --> set_head_angle(-12, duration=0.231)
Trigger time ms = 924 --> set_head_angle(-7, duration=0.165)
Trigger time ms = 3300 --> set_head_angle(-12, duration=0.231)
Trigger time ms = 3564 --> set_head_angle(-7, duration=0.099)
Trigger time ms = 3663 --> set_head_angle(-7, duration=0.132)
---------------------------------------
Process body motion animations
---------------------------------------
