Original file = data/sdk_converted/anim_loco_driving_upset
Animation anim_driving_upset_loop_03 clip 4/5
---------------------------------------
Process lift height
---------------------------------------
---------------------------------------
Process Head angle animations
---------------------------------------
---------------------------------------
Process body motion animations
---------------------------------------
