Original file = data/sdk_converted/anim_reacttocliff_turtleroll_01
Animation anim_reacttocliff_turtlerollfail_03 clip 6/9
---------------------------------------
Process lift height
---------------------------------------
Trigger time ms = 462 --> set_lift_height(92, duration=0.132)
Trigger time ms = 594 --> set_lift_height(52, duration=0.066)
Trigger time ms = 1089 --> set_lift_height(92, duration=0.099)
Trigger time ms = 1188 --> set_lift_height(30, duration=0.175)
Trigger time ms = 1363 --> set_lift_height(30, duration=0.023)
Trigger time ms = 1386 --> set_lift_height(62, duration=0.066)
Trigger time ms = 1452 --> set_lift_height(13, duration=0.099)
Trigger time ms = 1551 --> set_lift_height(51, duration=0.132)
Trigger time ms = 1683 --> set_lift_height(16, duration=0.099)
Trigger time ms = 1782 --> set_lift_height(50, duration=0.066)
Trigger time ms = 1848 --> set_lift_height(23, duration=0.066)
Trigger time ms = 1914 --> set_lift_height(60, duration=0.066)
Trigger time ms = 1980 --> set_lift_height(36, duration=0.099)
Trigger time ms = 2079 --> set_lift_height(50, duration=0.132)
Trigger time ms = 2211 --> set_lift_height(0, duration=0.198)
Trigger time ms = 2409 --> set_lift_height(1, duration=0.726)
Trigger time ms = 3135 --> set_lift_height(71, duration=0.297)
Trigger time ms = 3432 --> set_lift_height(66, duration=0.396)
Trigger time ms = 5346 --> set_lift_height(0, duration=0.099)
---------------------------------------
Process Head angle animations
---------------------------------------
Trigger time ms = 165 --> set_head_angle(-15, duration=0.099)
Trigger time ms = 264 --> set_head_angle(-12, duration=0.165)
Trigger time ms = 492 --> set_head_angle(16, duration=0.099)
Trigger time ms = 591 --> set_head_angle(-7, duration=0.066)
Trigger time ms = 657 --> set_head_angle(-12, duration=0.102)
Trigger time ms = 759 --> set_head_angle(-13, duration=0.33)
Trigger time ms = 1089 --> set_head_angle(0, duration=0.099)
Trigger time ms = 1188 --> set_head_angle(-10, duration=0.175)
Trigger time ms = 1363 --> set_head_angle(-11, duration=0.206)
Trigger time ms = 1568 --> set_head_angle(12, duration=0.159)
Trigger time ms = 1727 --> set_head_angle(-14, duration=0.105)
Trigger time ms = 1832 --> set_head_angle(22, duration=0.107)
Trigger time ms = 1939 --> set_head_angle(-14, duration=0.105)
Trigger time ms = 2045 --> set_head_angle(12, duration=0.053)
Trigger time ms = 2098 --> set_head_angle(-17, duration=0.052)
Trigger time ms = 2150 --> set_head_angle(-6, duration=0.053)
Trigger time ms = 2203 --> set_head_angle(-18, duration=0.054)
Trigger time ms = 2257 --> set_head_angle(-14, duration=0.052)
Trigger time ms = 2309 --> set_head_angle(-19, duration=0.053)
Trigger time ms = 2362 --> set_head_angle(-17, duration=0.054)
Trigger time ms = 2415 --> set_head_angle(-17, duration=0.159)
Trigger time ms = 2574 --> set_head_angle(-18, duration=0.297)
Trigger time ms = 2871 --> set_head_angle(-4, duration=0.132)
Trigger time ms = 3003 --> set_head_angle(37, duration=0.297)
Trigger time ms = 3300 --> set_head_angle(29, duration=0.264)
Trigger time ms = 3564 --> set_head_angle(29, duration=0.033)
Trigger time ms = 3597 --> set_head_angle(29, duration=0.132)
Trigger time ms = 3729 --> set_head_angle(29, duration=0.099)
Trigger time ms = 3828 --> set_head_angle(29, duration=0.924)
Trigger time ms = 4752 --> set_head_angle(23, duration=0.099)
Trigger time ms = 4851 --> set_head_angle(29, duration=0.198)
Trigger time ms = 5049 --> set_head_angle(29, duration=0.297)
Trigger time ms = 5346 --> set_head_angle(0, duration=0.099)
---------------------------------------
Process body motion animations
---------------------------------------
Trigger time ms = 1386 --> turn_in_place(degrees(-197))
Trigger time ms = 1452 --> turn_in_place(degrees(348))
Trigger time ms = 1518 --> turn_in_place(degrees(-318))
Trigger time ms = 1584 --> turn_in_place(degrees(303))
Trigger time ms = 1650 --> turn_in_place(degrees(-258))
Trigger time ms = 1716 --> turn_in_place(degrees(424))
Trigger time ms = 1749 --> turn_in_place(degrees(-197))
Trigger time ms = 1815 --> turn_in_place(degrees(333))
Trigger time ms = 1848 --> turn_in_place(degrees(-182))
Trigger time ms = 1881 --> turn_in_place(degrees(91))
Trigger time ms = 1947 --> turn_in_place(degrees(-152))
Trigger time ms = 1980 --> turn_in_place(degrees(152))
Trigger time ms = 2013 --> turn_in_place(degrees(-152))
Trigger time ms = 2046 --> turn_in_place(degrees(91))
Trigger time ms = 2079 --> turn_in_place(degrees(-91))
Trigger time ms = 2112 --> turn_in_place(degrees(30))
Trigger time ms = 2970 --> drive_wheels(l_wheel_speed=-45, r_wheel_speed=-45, duration=0.33)
Trigger time ms = 3300 --> drive_wheels(l_wheel_speed=3, r_wheel_speed=3, duration=0.264)
Trigger time ms = 3564 --> drive_wheels(l_wheel_speed=2, r_wheel_speed=2, duration=0.165)
Trigger time ms = 5346 --> drive_wheels(l_wheel_speed=40, r_wheel_speed=40, duration=0.099)
