Original file = data/sdk_converted/anim_laser_drive_01
Animation anim_laser_drive_01 clip 1/3
---------------------------------------
Process lift height
---------------------------------------
---------------------------------------
Process Head angle animations
---------------------------------------
Trigger time ms = 0 --> set_head_angle(-25, duration=0.132)
---------------------------------------
Process body motion animations
---------------------------------------
