Original file = data/sdk_converted/anim_reacttoblock_audioblockcrash
Animation anim_reacttoblock_audioblockcrash clip 1/1
---------------------------------------
Process lift height
---------------------------------------
---------------------------------------
Process Head angle animations
---------------------------------------
---------------------------------------
Process body motion animations
---------------------------------------
