Original file = data/sdk_converted/anim_repair_severe_state_01
Animation anim_repair_severe_idle_02 clip 3/7
---------------------------------------
Process lift height
---------------------------------------
---------------------------------------
Process Head angle animations
---------------------------------------
Trigger time ms = 0 --> set_head_angle(0, duration=1.386)
Trigger time ms = 1386 --> set_head_angle(-6, duration=0.132)
Trigger time ms = 1518 --> set_head_angle(-2, duration=0.198)
Trigger time ms = 1716 --> set_head_angle(0, duration=0.726)
---------------------------------------
Process body motion animations
---------------------------------------
