Original file = data/sdk_converted/anim_fistbump_success_01
Animation anim_fistbump_success_03 clip 3/3
---------------------------------------
Process lift height
---------------------------------------
Trigger time ms = 0 --> set_lift_height(80, duration=0.264)
Trigger time ms = 396 --> set_lift_height(73, duration=0.066)
Trigger time ms = 462 --> set_lift_height(80, duration=0.132)
Trigger time ms = 594 --> set_lift_height(72, duration=0.198)
Trigger time ms = 858 --> set_lift_height(31, duration=0.099)
Trigger time ms = 957 --> set_lift_height(47, duration=0.165)
Trigger time ms = 1122 --> set_lift_height(78, duration=0.132)
Trigger time ms = 1254 --> set_lift_height(75, duration=0.132)
Trigger time ms = 1386 --> set_lift_height(89, duration=0.132)
Trigger time ms = 1518 --> set_lift_height(79, duration=0.066)
Trigger time ms = 1584 --> set_lift_height(81, duration=0.066)
Trigger time ms = 1650 --> set_lift_height(83, duration=0.066)
Trigger time ms = 1716 --> set_lift_height(74, duration=0.099)
Trigger time ms = 1815 --> set_lift_height(85, duration=0.066)
Trigger time ms = 1881 --> set_lift_height(76, duration=0.099)
Trigger time ms = 1980 --> set_lift_height(84, duration=0.066)
Trigger time ms = 2046 --> set_lift_height(78, duration=0.066)
Trigger time ms = 2112 --> set_lift_height(85, duration=0.099)
Trigger time ms = 2211 --> set_lift_height(80, duration=0.099)
Trigger time ms = 2310 --> set_lift_height(87, duration=0.099)
Trigger time ms = 2409 --> set_lift_height(5, duration=0.132)
Trigger time ms = 2541 --> set_lift_height(0, duration=0.033)
Trigger time ms = 2574 --> set_lift_height(45, duration=0.066)
Trigger time ms = 2640 --> set_lift_height(6, duration=0.066)
Trigger time ms = 2706 --> set_lift_height(0, duration=0.066)
---------------------------------------
Process Head angle animations
---------------------------------------
Trigger time ms = 0 --> set_head_angle(30, duration=0.198)
Trigger time ms = 363 --> set_head_angle(16, duration=0.066)
Trigger time ms = 429 --> set_head_angle(29, duration=0.132)
Trigger time ms = 561 --> set_head_angle(30, duration=0.198)
Trigger time ms = 759 --> set_head_angle(22, duration=0.066)
Trigger time ms = 825 --> set_head_angle(4, duration=0.099)
Trigger time ms = 924 --> set_head_angle(41, duration=0.099)
Trigger time ms = 1023 --> set_head_angle(45, duration=0.396)
Trigger time ms = 1419 --> set_head_angle(27, duration=0.198)
Trigger time ms = 1617 --> set_head_angle(39, duration=0.198)
Trigger time ms = 1815 --> set_head_angle(45, duration=0.099)
Trigger time ms = 1914 --> set_head_angle(20, duration=0.165)
Trigger time ms = 2079 --> set_head_angle(34, duration=0.132)
Trigger time ms = 2211 --> set_head_angle(45, duration=0.132)
Trigger time ms = 2343 --> set_head_angle(-25, duration=0.165)
Trigger time ms = 2508 --> set_head_angle(0, duration=0.165)
Trigger time ms = 2805 --> set_head_angle(-11, duration=0.066)
Trigger time ms = 2871 --> set_head_angle(7, duration=0.132)
Trigger time ms = 3003 --> set_head_angle(-4, duration=0.099)
---------------------------------------
Process body motion animations
---------------------------------------
Trigger time ms = 396 --> turn_in_place(degrees(-172))
Trigger time ms = 594 --> turn_in_place(degrees(-91))
Trigger time ms = 627 --> turn_in_place(degrees(-76))
Trigger time ms = 825 --> turn_in_place(degrees(3508))
Trigger time ms = 957 --> turn_in_place(degrees(3485))
Trigger time ms = 990 --> turn_in_place(degrees(3515))
Trigger time ms = 1089 --> drive_wheels(l_wheel_speed=-2193.5, r_wheel_speed=2621.5, duration=0.396)
Trigger time ms = 1485 --> drive_wheels(l_wheel_speed=-3139.5, r_wheel_speed=4105.5, duration=0.066)
Trigger time ms = 1551 --> drive_wheels(l_wheel_speed=-3977.5, r_wheel_speed=5697.5, duration=0.297)
Trigger time ms = 1848 --> drive_wheels(l_wheel_speed=-1785.0, r_wheel_speed=2805.0, duration=0.231)
Trigger time ms = 2079 --> drive_wheels(l_wheel_speed=332.5, r_wheel_speed=-522.5, duration=0.066)
Trigger time ms = 2376 --> drive_wheels(l_wheel_speed=-6835.5, r_wheel_speed=13009.5, duration=0.132)
Trigger time ms = 2508 --> drive_wheels(l_wheel_speed=1581.0, r_wheel_speed=-3009.0, duration=0.066)
Trigger time ms = 2574 --> drive_wheels(l_wheel_speed=-806.0, r_wheel_speed=1534.0, duration=0.066)
