Original file = data/sdk_converted/anim_energy_idles
Animation anim_energy_idlel2_search_03 clip 12/15
---------------------------------------
Process lift height
---------------------------------------
---------------------------------------
Process Head angle animations
---------------------------------------
Trigger time ms = 0 --> set_head_angle(-17, duration=0.66)
Trigger time ms = 660 --> set_head_angle(-23, duration=0.099)
Trigger time ms = 759 --> set_head_angle(-15, duration=0.132)
Trigger time ms = 891 --> set_head_angle(-13, duration=0.132)
Trigger time ms = 1023 --> set_head_angle(-17, duration=0.198)
Trigger time ms = 2739 --> set_head_angle(-23, duration=0.066)
Trigger time ms = 2805 --> set_head_angle(-17, duration=0.132)
---------------------------------------
Process body motion animations
---------------------------------------
