Original file = data/sdk_converted/anim_loco_driving_upset
Animation anim_driving_upset_loop_01 clip 2/5
---------------------------------------
Process lift height
---------------------------------------
---------------------------------------
Process Head angle animations
---------------------------------------
Trigger time ms = 495 --> set_head_angle(-1, duration=0.099)
Trigger time ms = 594 --> set_head_angle(-1, duration=0.297)
Trigger time ms = 891 --> set_head_angle(-12, duration=0.132)
---------------------------------------
Process body motion animations
---------------------------------------
