Original file = data/sdk_converted/anim_hiking_driving_01
Animation anim_hiking_driving_loop_02 clip 3/6
---------------------------------------
Process lift height
---------------------------------------
---------------------------------------
Process Head angle animations
---------------------------------------
Trigger time ms = 1518 --> set_head_angle(-6, duration=0.099)
Trigger time ms = 1980 --> set_head_angle(-7, duration=0.231)
---------------------------------------
Process body motion animations
---------------------------------------
