Original file = data/sdk_converted/anim_hiking_edgesquint
Animation anim_hiking_edgesquintgetin_01 clip 1/3
---------------------------------------
Process lift height
---------------------------------------
---------------------------------------
Process Head angle animations
---------------------------------------
---------------------------------------
Process body motion animations
---------------------------------------
