Original file = data/sdk_converted/anim_dizzy_reaction_medium
Animation anim_dizzy_reaction_medium_03 clip 3/3
---------------------------------------
Process lift height
---------------------------------------
Trigger time ms = 0 --> set_lift_height(59, duration=3.036)
Trigger time ms = 3036 --> set_lift_height(0, duration=0.132)
Trigger time ms = 3168 --> set_lift_height(46, duration=0.132)
Trigger time ms = 3300 --> set_lift_height(0, duration=0.132)
Trigger time ms = 3432 --> set_lift_height(0, duration=0.033)
Trigger time ms = 3465 --> set_lift_height(0, duration=0.396)
Trigger time ms = 3861 --> set_lift_height(0, duration=0.264)
Trigger time ms = 4125 --> set_lift_height(0, duration=0.561)
Trigger time ms = 4752 --> set_lift_height(0, duration=0.033)
Trigger time ms = 4983 --> set_lift_height(37, duration=0.066)
Trigger time ms = 5049 --> set_lift_height(34, duration=0.066)
Trigger time ms = 5115 --> set_lift_height(40, duration=0.066)
Trigger time ms = 5181 --> set_lift_height(33, duration=0.066)
Trigger time ms = 5247 --> set_lift_height(40, duration=0.066)
Trigger time ms = 5313 --> set_lift_height(33, duration=0.066)
Trigger time ms = 5379 --> set_lift_height(41, duration=0.066)
Trigger time ms = 5445 --> set_lift_height(33, duration=0.066)
Trigger time ms = 5511 --> set_lift_height(42, duration=0.066)
Trigger time ms = 5577 --> set_lift_height(33, duration=0.066)
Trigger time ms = 5643 --> set_lift_height(43, duration=0.066)
Trigger time ms = 5709 --> set_lift_height(34, duration=0.066)
Trigger time ms = 5775 --> set_lift_height(43, duration=0.066)
Trigger time ms = 5841 --> set_lift_height(34, duration=0.066)
Trigger time ms = 5907 --> set_lift_height(42, duration=0.066)
Trigger time ms = 5973 --> set_lift_height(34, duration=0.066)
Trigger time ms = 6039 --> set_lift_height(39, duration=0.066)
Trigger time ms = 6105 --> set_lift_height(0, duration=0.066)
Trigger time ms = 6336 --> set_lift_height(49, duration=0.165)
Trigger time ms = 6501 --> set_lift_height(0, duration=0.099)
---------------------------------------
Process Head angle animations
---------------------------------------
Trigger time ms = 0 --> set_head_angle(0, duration=0.033)
Trigger time ms = 33 --> set_head_angle(9, duration=0.066)
Trigger time ms = 99 --> set_head_angle(-1, duration=0.066)
Trigger time ms = 165 --> set_head_angle(9, duration=0.066)
Trigger time ms = 231 --> set_head_angle(-1, duration=0.066)
Trigger time ms = 297 --> set_head_angle(10, duration=0.066)
Trigger time ms = 363 --> set_head_angle(-1, duration=0.066)
Trigger time ms = 429 --> set_head_angle(12, duration=0.066)
Trigger time ms = 495 --> set_head_angle(2, duration=0.066)
Trigger time ms = 561 --> set_head_angle(19, duration=0.066)
Trigger time ms = 627 --> set_head_angle(8, duration=0.066)
Trigger time ms = 693 --> set_head_angle(23, duration=0.099)
Trigger time ms = 792 --> set_head_angle(12, duration=0.099)
Trigger time ms = 891 --> set_head_angle(25, duration=0.099)
Trigger time ms = 990 --> set_head_angle(14, duration=0.099)
Trigger time ms = 1089 --> set_head_angle(26, duration=0.099)
Trigger time ms = 1188 --> set_head_angle(16, duration=0.099)
Trigger time ms = 1287 --> set_head_angle(28, duration=0.099)
Trigger time ms = 1386 --> set_head_angle(18, duration=0.132)
Trigger time ms = 1518 --> set_head_angle(30, duration=0.132)
Trigger time ms = 1650 --> set_head_angle(20, duration=0.165)
Trigger time ms = 1815 --> set_head_angle(31, duration=0.165)
Trigger time ms = 1980 --> set_head_angle(22, duration=0.198)
Trigger time ms = 2178 --> set_head_angle(33, duration=0.198)
Trigger time ms = 2376 --> set_head_angle(25, duration=0.198)
Trigger time ms = 2574 --> set_head_angle(35, duration=0.198)
Trigger time ms = 2772 --> set_head_angle(27, duration=0.198)
Trigger time ms = 2970 --> set_head_angle(25, duration=0.066)
Trigger time ms = 3036 --> set_head_angle(38, duration=0.033)
Trigger time ms = 3069 --> set_head_angle(-25, duration=0.066)
Trigger time ms = 3135 --> set_head_angle(21, duration=0.066)
Trigger time ms = 3201 --> set_head_angle(-24, duration=0.099)
Trigger time ms = 3300 --> set_head_angle(2, duration=0.099)
Trigger time ms = 3399 --> set_head_angle(3, duration=0.759)
Trigger time ms = 4158 --> set_head_angle(-4, duration=0.066)
Trigger time ms = 4224 --> set_head_angle(2, duration=0.099)
Trigger time ms = 4323 --> set_head_angle(-5, duration=0.033)
Trigger time ms = 4356 --> set_head_angle(0, duration=0.132)
Trigger time ms = 4752 --> set_head_angle(3, duration=0.066)
Trigger time ms = 4818 --> set_head_angle(-2, duration=0.099)
Trigger time ms = 4917 --> set_head_angle(-9, duration=0.099)
Trigger time ms = 5016 --> set_head_angle(-9, duration=0.033)
Trigger time ms = 5049 --> set_head_angle(-7, duration=0.053)
Trigger time ms = 5102 --> set_head_angle(-10, duration=0.053)
Trigger time ms = 5154 --> set_head_angle(-7, duration=0.093)
Trigger time ms = 5247 --> set_head_angle(-12, duration=0.066)
Trigger time ms = 5313 --> set_head_angle(-10, duration=0.066)
Trigger time ms = 5379 --> set_head_angle(-12, duration=0.066)
Trigger time ms = 5445 --> set_head_angle(-10, duration=0.066)
Trigger time ms = 5511 --> set_head_angle(-16, duration=0.066)
Trigger time ms = 5577 --> set_head_angle(-10, duration=0.066)
Trigger time ms = 5643 --> set_head_angle(-15, duration=0.066)
Trigger time ms = 5709 --> set_head_angle(-10, duration=0.066)
Trigger time ms = 5775 --> set_head_angle(-15, duration=0.066)
Trigger time ms = 5841 --> set_head_angle(-11, duration=0.066)
Trigger time ms = 5907 --> set_head_angle(-15, duration=0.066)
Trigger time ms = 5973 --> set_head_angle(-12, duration=0.066)
Trigger time ms = 6039 --> set_head_angle(-10, duration=0.33)
Trigger time ms = 6369 --> set_head_angle(-24, duration=0.099)
Trigger time ms = 6468 --> set_head_angle(12, duration=0.099)
Trigger time ms = 6567 --> set_head_angle(-20, duration=0.099)
Trigger time ms = 6666 --> set_head_angle(-22, duration=0.528)
Trigger time ms = 7953 --> set_head_angle(-25, duration=0.066)
Trigger time ms = 8019 --> set_head_angle(-19, duration=0.132)
Trigger time ms = 8778 --> set_head_angle(0, duration=0.198)
---------------------------------------
Process body motion animations
---------------------------------------
Trigger time ms = 0 --> drive_wheels(l_wheel_speed=-29, r_wheel_speed=-29, duration=3.036)
Trigger time ms = 3135 --> turn_in_place(degrees(621))
Trigger time ms = 3201 --> turn_in_place(degrees(-273))
Trigger time ms = 4983 --> turn_in_place(degrees(15))
Trigger time ms = 5049 --> turn_in_place(degrees(-45))
Trigger time ms = 5115 --> turn_in_place(degrees(45))
Trigger time ms = 5181 --> turn_in_place(degrees(-45))
Trigger time ms = 5247 --> turn_in_place(degrees(61))
Trigger time ms = 5313 --> turn_in_place(degrees(-61))
Trigger time ms = 5379 --> turn_in_place(degrees(61))
Trigger time ms = 5445 --> turn_in_place(degrees(-61))
Trigger time ms = 5511 --> turn_in_place(degrees(61))
Trigger time ms = 5577 --> turn_in_place(degrees(-61))
Trigger time ms = 5643 --> turn_in_place(degrees(45))
Trigger time ms = 5709 --> turn_in_place(degrees(-45))
Trigger time ms = 5775 --> turn_in_place(degrees(45))
Trigger time ms = 5841 --> turn_in_place(degrees(-45))
Trigger time ms = 5907 --> turn_in_place(degrees(45))
Trigger time ms = 5973 --> turn_in_place(degrees(-30))
Trigger time ms = 6039 --> turn_in_place(degrees(30))
Trigger time ms = 6105 --> turn_in_place(degrees(-30))
Trigger time ms = 6237 --> drive_wheels(l_wheel_speed=-2, r_wheel_speed=-2, duration=0.165)
Trigger time ms = 6402 --> drive_wheels(l_wheel_speed=-15, r_wheel_speed=-15, duration=0.099)
Trigger time ms = 6501 --> drive_wheels(l_wheel_speed=17, r_wheel_speed=17, duration=0.132)
Trigger time ms = 8844 --> turn_in_place(degrees(-45))
