Original file = data/sdk_converted/anim_freeplay_reacttoface_unidentified
Animation anim_reacttoface_unidentified_03_head_angle_40 clip 10/12
---------------------------------------
Process lift height
---------------------------------------
---------------------------------------
Process Head angle animations
---------------------------------------
Trigger time ms = 0 --> set_head_angle(41, duration=0.066)
Trigger time ms = 66 --> set_head_angle(40, duration=0.66)
Trigger time ms = 726 --> set_head_angle(28, duration=0.231)
Trigger time ms = 1221 --> set_head_angle(45, duration=0.165)
Trigger time ms = 1980 --> set_head_angle(43, duration=0.099)
Trigger time ms = 2079 --> set_head_angle(41, duration=0.132)
---------------------------------------
Process body motion animations
---------------------------------------
