Original file = data/sdk_converted/anim_explorer_driving_01
Animation anim_explorer_driving01_loop_01_head_angle_10 clip 16/49
---------------------------------------
Process lift height
---------------------------------------
---------------------------------------
Process Head angle animations
---------------------------------------
---------------------------------------
Process body motion animations
---------------------------------------
