Original file = data/sdk_converted/anim_hiking_driving_01
Animation anim_hiking_driving_end_01 clip 4/6
---------------------------------------
Process lift height
---------------------------------------
---------------------------------------
Process Head angle animations
---------------------------------------
Trigger time ms = 0 --> set_head_angle(-2, duration=0.066)
Trigger time ms = 66 --> set_head_angle(-9, duration=0.165)
Trigger time ms = 231 --> set_head_angle(-8, duration=0.099)
---------------------------------------
Process body motion animations
---------------------------------------
