Original file = data/sdk_converted/anim_reacttocliff_turtleroll_02
Animation anim_reacttocliff_turtleroll_05 clip 2/3
---------------------------------------
Process lift height
---------------------------------------
Trigger time ms = 462 --> set_lift_height(54, duration=0.132)
Trigger time ms = 1188 --> set_lift_height(86, duration=0.297)
Trigger time ms = 3465 --> set_lift_height(92, duration=0.396)
Trigger time ms = 4455 --> set_lift_height(65, duration=0.099)
Trigger time ms = 4686 --> set_lift_height(86, duration=0.132)
Trigger time ms = 4884 --> set_lift_height(65, duration=0.066)
Trigger time ms = 5082 --> set_lift_height(86, duration=0.132)
Trigger time ms = 5280 --> set_lift_height(65, duration=0.066)
Trigger time ms = 5478 --> set_lift_height(86, duration=0.132)
Trigger time ms = 5676 --> set_lift_height(65, duration=0.066)
Trigger time ms = 5841 --> set_lift_height(86, duration=0.099)
Trigger time ms = 6006 --> set_lift_height(65, duration=0.033)
Trigger time ms = 6171 --> set_lift_height(86, duration=0.099)
Trigger time ms = 6336 --> set_lift_height(65, duration=0.033)
Trigger time ms = 6534 --> set_lift_height(86, duration=0.099)
Trigger time ms = 6699 --> set_lift_height(65, duration=0.033)
Trigger time ms = 6831 --> set_lift_height(86, duration=0.165)
Trigger time ms = 7062 --> set_lift_height(65, duration=0.033)
Trigger time ms = 7260 --> set_lift_height(86, duration=0.165)
Trigger time ms = 7524 --> set_lift_height(0, duration=0.066)
Trigger time ms = 7854 --> set_lift_height(38, duration=0.066)
Trigger time ms = 8019 --> set_lift_height(0, duration=0.099)
---------------------------------------
Process Head angle animations
---------------------------------------
Trigger time ms = 0 --> set_head_angle(0, duration=0.33)
Trigger time ms = 330 --> set_head_angle(-25, duration=0.066)
Trigger time ms = 396 --> set_head_angle(20, duration=0.132)
Trigger time ms = 1089 --> set_head_angle(-25, duration=0.231)
Trigger time ms = 1782 --> set_head_angle(-18, duration=0.033)
Trigger time ms = 1815 --> set_head_angle(-25, duration=0.066)
Trigger time ms = 3069 --> set_head_angle(-2, duration=0.165)
Trigger time ms = 3300 --> set_head_angle(-25, duration=0.066)
Trigger time ms = 3366 --> set_head_angle(-13, duration=0.099)
Trigger time ms = 3762 --> set_head_angle(21, duration=0.363)
Trigger time ms = 4125 --> set_head_angle(25, duration=0.264)
Trigger time ms = 4389 --> set_head_angle(-13, duration=0.198)
Trigger time ms = 4719 --> set_head_angle(0, duration=0.132)
Trigger time ms = 4917 --> set_head_angle(-13, duration=0.066)
Trigger time ms = 5115 --> set_head_angle(0, duration=0.132)
Trigger time ms = 5313 --> set_head_angle(-13, duration=0.066)
Trigger time ms = 5511 --> set_head_angle(0, duration=0.132)
Trigger time ms = 5709 --> set_head_angle(-13, duration=0.066)
Trigger time ms = 5874 --> set_head_angle(0, duration=0.099)
Trigger time ms = 6039 --> set_head_angle(-13, duration=0.033)
Trigger time ms = 6204 --> set_head_angle(0, duration=0.099)
Trigger time ms = 6369 --> set_head_angle(-13, duration=0.033)
Trigger time ms = 6567 --> set_head_angle(0, duration=0.099)
Trigger time ms = 6732 --> set_head_angle(-13, duration=0.033)
Trigger time ms = 6864 --> set_head_angle(0, duration=0.165)
Trigger time ms = 7095 --> set_head_angle(-13, duration=0.033)
Trigger time ms = 7293 --> set_head_angle(0, duration=0.165)
Trigger time ms = 7524 --> set_head_angle(-6, duration=0.066)
Trigger time ms = 7590 --> set_head_angle(21, duration=0.165)
Trigger time ms = 7755 --> set_head_angle(25, duration=0.066)
Trigger time ms = 7821 --> set_head_angle(5, duration=0.231)
Trigger time ms = 8052 --> set_head_angle(0, duration=0.198)
Trigger time ms = 8547 --> set_head_angle(23, duration=0.165)
Trigger time ms = 8778 --> set_head_angle(-12, duration=0.066)
Trigger time ms = 8844 --> set_head_angle(0, duration=0.099)
---------------------------------------
Process body motion animations
---------------------------------------
Trigger time ms = 4554 --> drive_wheels(l_wheel_speed=-530.0, r_wheel_speed=9010.0, duration=0.165)
Trigger time ms = 4950 --> drive_wheels(l_wheel_speed=-9010.0, r_wheel_speed=530.0, duration=0.165)
Trigger time ms = 5346 --> drive_wheels(l_wheel_speed=-530.0, r_wheel_speed=9010.0, duration=0.165)
Trigger time ms = 5742 --> drive_wheels(l_wheel_speed=-9010.0, r_wheel_speed=530.0, duration=0.165)
Trigger time ms = 6072 --> drive_wheels(l_wheel_speed=-530.0, r_wheel_speed=9010.0, duration=0.165)
Trigger time ms = 6402 --> drive_wheels(l_wheel_speed=-9010.0, r_wheel_speed=530.0, duration=0.165)
Trigger time ms = 6765 --> drive_wheels(l_wheel_speed=-530.0, r_wheel_speed=9010.0, duration=0.165)
Trigger time ms = 7095 --> drive_wheels(l_wheel_speed=-9010.0, r_wheel_speed=530.0, duration=0.165)
Trigger time ms = 7557 --> drive_wheels(l_wheel_speed=500, r_wheel_speed=500, duration=0.099)
Trigger time ms = 7656 --> drive_wheels(l_wheel_speed=-1500, r_wheel_speed=-1500, duration=0.264)
Trigger time ms = 7953 --> drive_wheels(l_wheel_speed=70, r_wheel_speed=70, duration=0.132)
Trigger time ms = 8085 --> drive_wheels(l_wheel_speed=-42, r_wheel_speed=-42, duration=0.099)
Trigger time ms = 8184 --> drive_wheels(l_wheel_speed=22, r_wheel_speed=22, duration=0.132)
Trigger time ms = 8316 --> drive_wheels(l_wheel_speed=-16, r_wheel_speed=-16, duration=0.198)
