Original file = data/sdk_converted/anim_codelab_chicken_01
Animation anim_codelab_chicken_01_head_angle_20 clip 3/4
---------------------------------------
Process lift height
---------------------------------------
Trigger time ms = 0 --> set_lift_height(0, duration=0.033)
Trigger time ms = 33 --> set_lift_height(45, duration=0.132)
Trigger time ms = 165 --> set_lift_height(8, duration=0.099)
Trigger time ms = 264 --> set_lift_height(0, duration=0.165)
Trigger time ms = 561 --> set_lift_height(49, duration=0.132)
Trigger time ms = 693 --> set_lift_height(11, duration=0.099)
Trigger time ms = 792 --> set_lift_height(45, duration=0.099)
Trigger time ms = 891 --> set_lift_height(10, duration=0.099)
Trigger time ms = 990 --> set_lift_height(53, duration=0.099)
Trigger time ms = 1089 --> set_lift_height(15, duration=0.066)
Trigger time ms = 1155 --> set_lift_height(48, duration=0.099)
Trigger time ms = 1254 --> set_lift_height(0, duration=0.132)
Trigger time ms = 2013 --> set_lift_height(52, duration=0.066)
Trigger time ms = 2079 --> set_lift_height(0, duration=0.099)
Trigger time ms = 2178 --> set_lift_height(0, duration=0.561)
Trigger time ms = 2739 --> set_lift_height(0, duration=0.033)
Trigger time ms = 2772 --> set_lift_height(50, duration=0.099)
Trigger time ms = 2871 --> set_lift_height(10, duration=0.099)
Trigger time ms = 2970 --> set_lift_height(0, duration=0.033)
---------------------------------------
Process Head angle animations
---------------------------------------
Trigger time ms = 0 --> set_head_angle(20, duration=0.066)
Trigger time ms = 66 --> set_head_angle(16, duration=0.099)
Trigger time ms = 165 --> set_head_angle(45, duration=0.165)
Trigger time ms = 330 --> set_head_angle(37, duration=0.099)
Trigger time ms = 429 --> set_head_angle(45, duration=0.099)
Trigger time ms = 528 --> set_head_angle(35, duration=0.099)
Trigger time ms = 627 --> set_head_angle(44, duration=0.132)
Trigger time ms = 759 --> set_head_angle(35, duration=0.099)
Trigger time ms = 858 --> set_head_angle(43, duration=0.099)
Trigger time ms = 957 --> set_head_angle(33, duration=0.099)
Trigger time ms = 1056 --> set_head_angle(43, duration=0.099)
Trigger time ms = 1155 --> set_head_angle(32, duration=0.066)
Trigger time ms = 1221 --> set_head_angle(44, duration=0.099)
Trigger time ms = 1320 --> set_head_angle(40, duration=0.132)
Trigger time ms = 1551 --> set_head_angle(45, duration=0.066)
Trigger time ms = 1617 --> set_head_angle(32, duration=0.066)
Trigger time ms = 1683 --> set_head_angle(44, duration=0.066)
Trigger time ms = 1749 --> set_head_angle(32, duration=0.066)
Trigger time ms = 1815 --> set_head_angle(44, duration=0.066)
Trigger time ms = 1881 --> set_head_angle(32, duration=0.066)
Trigger time ms = 1947 --> set_head_angle(40, duration=0.066)
Trigger time ms = 2013 --> set_head_angle(45, duration=0.066)
Trigger time ms = 2079 --> set_head_angle(20, duration=0.099)
Trigger time ms = 2178 --> set_head_angle(24, duration=0.198)
Trigger time ms = 2376 --> set_head_angle(24, duration=0.132)
Trigger time ms = 2508 --> set_head_angle(24, duration=0.033)
Trigger time ms = 2541 --> set_head_angle(24, duration=0.066)
Trigger time ms = 2607 --> set_head_angle(24, duration=0.132)
Trigger time ms = 2739 --> set_head_angle(24, duration=0.066)
Trigger time ms = 2805 --> set_head_angle(-4, duration=0.132)
Trigger time ms = 2937 --> set_head_angle(-3, duration=0.033)
Trigger time ms = 2970 --> set_head_angle(4, duration=0.132)
---------------------------------------
Process body motion animations
---------------------------------------
Trigger time ms = 66 --> drive_wheels(l_wheel_speed=-108, r_wheel_speed=-108, duration=0.132)
Trigger time ms = 198 --> drive_wheels(l_wheel_speed=1, r_wheel_speed=1, duration=0.231)
Trigger time ms = 462 --> drive_wheels(l_wheel_speed=-1220.0, r_wheel_speed=580.0, duration=0.066)
Trigger time ms = 528 --> drive_wheels(l_wheel_speed=-335.5, r_wheel_speed=2409.5, duration=0.132)
Trigger time ms = 660 --> drive_wheels(l_wheel_speed=-1354.5, r_wheel_speed=580.5, duration=0.099)
Trigger time ms = 759 --> drive_wheels(l_wheel_speed=-575.0, r_wheel_speed=1495.0, duration=0.099)
Trigger time ms = 858 --> drive_wheels(l_wheel_speed=-6858.0, r_wheel_speed=-1998.0, duration=0.099)
Trigger time ms = 957 --> drive_wheels(l_wheel_speed=6009.5, r_wheel_speed=10554.5, duration=0.099)
Trigger time ms = 1056 --> drive_wheels(l_wheel_speed=12390.0, r_wheel_speed=6090.0, duration=0.066)
Trigger time ms = 1122 --> drive_wheels(l_wheel_speed=-1855.0, r_wheel_speed=-6625.0, duration=0.099)
Trigger time ms = 1221 --> drive_wheels(l_wheel_speed=422.5, r_wheel_speed=-162.5, duration=0.165)
Trigger time ms = 1551 --> drive_wheels(l_wheel_speed=-220, r_wheel_speed=-220, duration=0.066)
Trigger time ms = 1617 --> drive_wheels(l_wheel_speed=220, r_wheel_speed=220, duration=0.066)
Trigger time ms = 1683 --> drive_wheels(l_wheel_speed=-220, r_wheel_speed=-220, duration=0.066)
Trigger time ms = 1749 --> drive_wheels(l_wheel_speed=220, r_wheel_speed=220, duration=0.066)
Trigger time ms = 1815 --> drive_wheels(l_wheel_speed=-180, r_wheel_speed=-180, duration=0.066)
Trigger time ms = 2013 --> drive_wheels(l_wheel_speed=151, r_wheel_speed=151, duration=0.132)
Trigger time ms = 2145 --> drive_wheels(l_wheel_speed=-1, r_wheel_speed=-1, duration=0.033)
Trigger time ms = 2178 --> drive_wheels(l_wheel_speed=-8, r_wheel_speed=-8, duration=0.198)
Trigger time ms = 2376 --> drive_wheels(l_wheel_speed=-2, r_wheel_speed=-2, duration=0.132)
Trigger time ms = 2772 --> turn_in_place(degrees(300))
