Original file = data/sdk_converted/anim_play_04
Animation anim_play_requestplay_level1_02 clip 1/2
---------------------------------------
Process lift height
---------------------------------------
Trigger time ms = 0 --> set_lift_height(32, duration=0.033)
Trigger time ms = 132 --> set_lift_height(35, duration=0.033)
Trigger time ms = 165 --> set_lift_height(38, duration=0.033)
Trigger time ms = 198 --> set_lift_height(34, duration=0.033)
Trigger time ms = 231 --> set_lift_height(32, duration=0.033)
Trigger time ms = 792 --> set_lift_height(35, duration=0.033)
Trigger time ms = 825 --> set_lift_height(40, duration=0.033)
Trigger time ms = 858 --> set_lift_height(43, duration=0.033)
Trigger time ms = 891 --> set_lift_height(42, duration=0.033)
Trigger time ms = 924 --> set_lift_height(38, duration=0.033)
Trigger time ms = 957 --> set_lift_height(34, duration=0.033)
Trigger time ms = 990 --> set_lift_height(32, duration=0.033)
Trigger time ms = 1749 --> set_lift_height(32, duration=0.165)
Trigger time ms = 1914 --> set_lift_height(51, duration=0.099)
Trigger time ms = 2013 --> set_lift_height(43, duration=0.099)
Trigger time ms = 2112 --> set_lift_height(50, duration=0.066)
Trigger time ms = 2178 --> set_lift_height(41, duration=0.066)
Trigger time ms = 2244 --> set_lift_height(47, duration=0.066)
Trigger time ms = 2310 --> set_lift_height(35, duration=0.099)
Trigger time ms = 2409 --> set_lift_height(32, duration=0.561)
Trigger time ms = 2970 --> set_lift_height(42, duration=0.132)
Trigger time ms = 3102 --> set_lift_height(35, duration=0.132)
Trigger time ms = 3234 --> set_lift_height(32, duration=0.396)
Trigger time ms = 4125 --> set_lift_height(38, duration=0.066)
Trigger time ms = 4191 --> set_lift_height(32, duration=0.099)
---------------------------------------
Process Head angle animations
---------------------------------------
Trigger time ms = 0 --> set_head_angle(0, duration=0.033)
Trigger time ms = 99 --> set_head_angle(-5, duration=0.066)
Trigger time ms = 165 --> set_head_angle(5, duration=0.099)
Trigger time ms = 264 --> set_head_angle(7, duration=0.066)
Trigger time ms = 759 --> set_head_angle(-8, duration=0.099)
Trigger time ms = 858 --> set_head_angle(9, duration=0.132)
Trigger time ms = 990 --> set_head_angle(15, duration=0.033)
Trigger time ms = 1023 --> set_head_angle(19, duration=0.033)
Trigger time ms = 1815 --> set_head_angle(22, duration=0.132)
Trigger time ms = 1947 --> set_head_angle(32, duration=0.297)
Trigger time ms = 2244 --> set_head_angle(21, duration=0.264)
Trigger time ms = 2970 --> set_head_angle(28, duration=0.099)
Trigger time ms = 3069 --> set_head_angle(-6, duration=0.132)
Trigger time ms = 3201 --> set_head_angle(-7, duration=0.264)
Trigger time ms = 4059 --> set_head_angle(-12, duration=0.066)
Trigger time ms = 4125 --> set_head_angle(0, duration=0.165)
---------------------------------------
Process body motion animations
---------------------------------------
Trigger time ms = 99 --> drive_wheels(l_wheel_speed=-30, r_wheel_speed=-30, duration=0.033)
Trigger time ms = 132 --> drive_wheels(l_wheel_speed=-54, r_wheel_speed=-54, duration=0.033)
Trigger time ms = 165 --> drive_wheels(l_wheel_speed=34, r_wheel_speed=34, duration=0.033)
Trigger time ms = 198 --> drive_wheels(l_wheel_speed=43, r_wheel_speed=43, duration=0.033)
Trigger time ms = 231 --> drive_wheels(l_wheel_speed=8, r_wheel_speed=8, duration=0.033)
Trigger time ms = 693 --> drive_wheels(l_wheel_speed=-74, r_wheel_speed=-74, duration=0.033)
Trigger time ms = 726 --> drive_wheels(l_wheel_speed=-74, r_wheel_speed=-74, duration=0.033)
Trigger time ms = 759 --> drive_wheels(l_wheel_speed=17, r_wheel_speed=17, duration=0.033)
Trigger time ms = 792 --> drive_wheels(l_wheel_speed=22165.0, r_wheel_speed=24955.0, duration=0.033)
Trigger time ms = 825 --> drive_wheels(l_wheel_speed=37407.5, r_wheel_speed=40332.5, duration=0.033)
Trigger time ms = 858 --> drive_wheels(l_wheel_speed=37407.5, r_wheel_speed=40332.5, duration=0.033)
Trigger time ms = 891 --> drive_wheels(l_wheel_speed=36832.0, r_wheel_speed=39712.0, duration=0.033)
Trigger time ms = 924 --> drive_wheels(l_wheel_speed=42587.0, r_wheel_speed=45917.0, duration=0.033)
Trigger time ms = 957 --> drive_wheels(l_wheel_speed=32746.5, r_wheel_speed=35311.5, duration=0.033)
Trigger time ms = 990 --> drive_wheels(l_wheel_speed=8113.0, r_wheel_speed=8743.0, duration=0.033)
Trigger time ms = 1023 --> drive_wheels(l_wheel_speed=-5795.0, r_wheel_speed=-6245.0, duration=0.033)
Trigger time ms = 1056 --> drive_wheels(l_wheel_speed=-24171.0, r_wheel_speed=-26061.0, duration=0.066)
Trigger time ms = 1881 --> drive_wheels(l_wheel_speed=1350.5, r_wheel_speed=-314.5, duration=0.066)
Trigger time ms = 1947 --> drive_wheels(l_wheel_speed=429.0, r_wheel_speed=-741.0, duration=0.099)
Trigger time ms = 2046 --> drive_wheels(l_wheel_speed=-370.0, r_wheel_speed=530.0, duration=0.099)
Trigger time ms = 2145 --> drive_wheels(l_wheel_speed=-1128.5, r_wheel_speed=536.5, duration=0.099)
Trigger time ms = 2244 --> drive_wheels(l_wheel_speed=-1037.5, r_wheel_speed=2697.5, duration=0.066)
Trigger time ms = 2310 --> drive_wheels(l_wheel_speed=390.0, r_wheel_speed=-510.0, duration=0.066)
Trigger time ms = 2376 --> drive_wheels(l_wheel_speed=1827.5, r_wheel_speed=-107.5, duration=0.066)
Trigger time ms = 2970 --> drive_wheels(l_wheel_speed=40, r_wheel_speed=40, duration=0.066)
Trigger time ms = 3036 --> drive_wheels(l_wheel_speed=-48, r_wheel_speed=-48, duration=0.231)
Trigger time ms = 4125 --> drive_wheels(l_wheel_speed=-70.5, r_wheel_speed=64.5, duration=0.132)
