Original file = data/sdk_converted/anim_memorymatch_successhand_v01
Animation anim_memorymatch_successhand_cozmo_04 clip 4/7
---------------------------------------
Process lift height
---------------------------------------
Trigger time ms = 1485 --> set_lift_height(89, duration=0.171)
Trigger time ms = 1656 --> set_lift_height(74, duration=0.107)
Trigger time ms = 1763 --> set_lift_height(90, duration=0.105)
Trigger time ms = 1868 --> set_lift_height(70, duration=0.107)
Trigger time ms = 1975 --> set_lift_height(90, duration=0.104)
Trigger time ms = 2079 --> set_lift_height(71, duration=0.109)
Trigger time ms = 2188 --> set_lift_height(90, duration=0.107)
Trigger time ms = 2295 --> set_lift_height(72, duration=0.104)
Trigger time ms = 2399 --> set_lift_height(88, duration=0.108)
Trigger time ms = 2507 --> set_lift_height(74, duration=0.1)
Trigger time ms = 2607 --> set_lift_height(86, duration=0.106)
Trigger time ms = 2713 --> set_lift_height(76, duration=0.109)
Trigger time ms = 2822 --> set_lift_height(86, duration=0.104)
Trigger time ms = 2927 --> set_lift_height(77, duration=0.107)
Trigger time ms = 3034 --> set_lift_height(81, duration=0.101)
Trigger time ms = 3135 --> set_lift_height(81, duration=0.088)
Trigger time ms = 3223 --> set_lift_height(88, duration=0.083)
Trigger time ms = 3306 --> set_lift_height(91, duration=0.026)
Trigger time ms = 3332 --> set_lift_height(91, duration=0.005)
Trigger time ms = 3337 --> set_lift_height(74, duration=0.148)
Trigger time ms = 3484 --> set_lift_height(90, duration=0.088)
Trigger time ms = 3572 --> set_lift_height(76, duration=0.089)
Trigger time ms = 3662 --> set_lift_height(90, duration=0.087)
Trigger time ms = 3749 --> set_lift_height(74, duration=0.132)
Trigger time ms = 3881 --> set_lift_height(92, duration=0.086)
Trigger time ms = 3967 --> set_lift_height(72, duration=0.132)
Trigger time ms = 4099 --> set_lift_height(92, duration=0.088)
Trigger time ms = 4187 --> set_lift_height(72, duration=0.089)
Trigger time ms = 4276 --> set_lift_height(92, duration=0.129)
Trigger time ms = 4405 --> set_lift_height(72, duration=0.087)
Trigger time ms = 4492 --> set_lift_height(92, duration=0.133)
Trigger time ms = 4625 --> set_lift_height(73, duration=0.087)
Trigger time ms = 4713 --> set_lift_height(92, duration=0.129)
Trigger time ms = 4842 --> set_lift_height(75, duration=0.089)
Trigger time ms = 4931 --> set_lift_height(89, duration=0.088)
Trigger time ms = 5019 --> set_lift_height(88, duration=0.162)
Trigger time ms = 5181 --> set_lift_height(34, duration=0.099)
Trigger time ms = 5280 --> set_lift_height(54, duration=0.088)
Trigger time ms = 5368 --> set_lift_height(0, duration=0.11)
---------------------------------------
Process Head angle animations
---------------------------------------
Trigger time ms = 264 --> set_head_angle(-8, duration=0.056)
Trigger time ms = 320 --> set_head_angle(20, duration=0.208)
Trigger time ms = 528 --> set_head_angle(18, duration=0.462)
Trigger time ms = 990 --> set_head_angle(17, duration=0.33)
Trigger time ms = 1320 --> set_head_angle(15, duration=0.066)
Trigger time ms = 1386 --> set_head_angle(17, duration=0.165)
Trigger time ms = 5108 --> set_head_angle(21, duration=0.099)
Trigger time ms = 5207 --> set_head_angle(17, duration=0.066)
Trigger time ms = 5273 --> set_head_angle(21, duration=0.082)
Trigger time ms = 5354 --> set_head_angle(13, duration=0.061)
Trigger time ms = 5415 --> set_head_angle(42, duration=0.074)
Trigger time ms = 5490 --> set_head_angle(40, duration=0.064)
Trigger time ms = 5554 --> set_head_angle(37, duration=0.452)
Trigger time ms = 6006 --> set_head_angle(3, duration=0.198)
---------------------------------------
Process body motion animations
---------------------------------------
Trigger time ms = 297 --> turn_in_place(degrees(11))
Trigger time ms = 391 --> turn_in_place(degrees(-25))
Trigger time ms = 470 --> turn_in_place(degrees(25))
Trigger time ms = 550 --> turn_in_place(degrees(-38))
Trigger time ms = 629 --> turn_in_place(degrees(50))
Trigger time ms = 709 --> turn_in_place(degrees(-50))
Trigger time ms = 788 --> turn_in_place(degrees(51))
Trigger time ms = 868 --> turn_in_place(degrees(-51))
Trigger time ms = 947 --> turn_in_place(degrees(38))
Trigger time ms = 1026 --> turn_in_place(degrees(-25))
Trigger time ms = 1106 --> turn_in_place(degrees(25))
Trigger time ms = 1185 --> turn_in_place(degrees(-25))
Trigger time ms = 1264 --> turn_in_place(degrees(25))
Trigger time ms = 1344 --> turn_in_place(degrees(-13))
Trigger time ms = 1463 --> drive_wheels(l_wheel_speed=-63, r_wheel_speed=-63, duration=0.154)
Trigger time ms = 1650 --> drive_wheels(l_wheel_speed=-937.5, r_wheel_speed=2437.5, duration=1.65)
Trigger time ms = 3346 --> drive_wheels(l_wheel_speed=-2307.5, r_wheel_speed=887.5, duration=1.736)
