Original file = data/sdk_converted/anim_play_03
Animation anim_play_getin_01 clip 2/12
---------------------------------------
Process lift height
---------------------------------------
Trigger time ms = 0 --> set_lift_height(32, duration=0.132)
Trigger time ms = 726 --> set_lift_height(36, duration=0.033)
Trigger time ms = 759 --> set_lift_height(42, duration=0.033)
Trigger time ms = 792 --> set_lift_height(46, duration=0.033)
Trigger time ms = 825 --> set_lift_height(34, duration=0.066)
Trigger time ms = 891 --> set_lift_height(32, duration=0.033)
Trigger time ms = 2013 --> set_lift_height(41, duration=0.495)
Trigger time ms = 2508 --> set_lift_height(50, duration=0.33)
Trigger time ms = 2838 --> set_lift_height(51, duration=0.165)
Trigger time ms = 3003 --> set_lift_height(52, duration=0.066)
Trigger time ms = 3069 --> set_lift_height(50, duration=0.066)
Trigger time ms = 3135 --> set_lift_height(32, duration=0.066)
Trigger time ms = 3729 --> set_lift_height(40, duration=0.033)
Trigger time ms = 3762 --> set_lift_height(32, duration=0.066)
---------------------------------------
Process Head angle animations
---------------------------------------
Trigger time ms = 0 --> set_head_angle(0, duration=0.132)
Trigger time ms = 132 --> set_head_angle(0, duration=0.165)
Trigger time ms = 297 --> set_head_angle(0, duration=0.033)
Trigger time ms = 330 --> set_head_angle(0, duration=0.198)
Trigger time ms = 528 --> set_head_angle(-5, duration=0.066)
Trigger time ms = 594 --> set_head_angle(0, duration=0.066)
Trigger time ms = 660 --> set_head_angle(0, duration=0.033)
Trigger time ms = 693 --> set_head_angle(0, duration=0.033)
Trigger time ms = 726 --> set_head_angle(-5, duration=0.033)
Trigger time ms = 759 --> set_head_angle(-10, duration=0.033)
Trigger time ms = 792 --> set_head_angle(-7, duration=0.033)
Trigger time ms = 825 --> set_head_angle(0, duration=0.066)
Trigger time ms = 1155 --> set_head_angle(0, duration=0.198)
Trigger time ms = 1353 --> set_head_angle(0, duration=0.033)
Trigger time ms = 1386 --> set_head_angle(-5, duration=0.132)
Trigger time ms = 1947 --> set_head_angle(-3, duration=0.099)
Trigger time ms = 2046 --> set_head_angle(25, duration=0.462)
Trigger time ms = 2508 --> set_head_angle(41, duration=0.33)
Trigger time ms = 2838 --> set_head_angle(45, duration=0.165)
Trigger time ms = 3003 --> set_head_angle(-14, duration=0.198)
Trigger time ms = 3201 --> set_head_angle(1, duration=0.099)
Trigger time ms = 3300 --> set_head_angle(-9, duration=0.099)
Trigger time ms = 3729 --> set_head_angle(-7, duration=0.066)
Trigger time ms = 5049 --> set_head_angle(-4, duration=0.066)
Trigger time ms = 5577 --> set_head_angle(-6, duration=0.066)
Trigger time ms = 5643 --> set_head_angle(-13, duration=0.066)
Trigger time ms = 5709 --> set_head_angle(-8, duration=0.033)
Trigger time ms = 5742 --> set_head_angle(-3, duration=0.033)
Trigger time ms = 5775 --> set_head_angle(0, duration=0.066)
---------------------------------------
Process body motion animations
---------------------------------------
Trigger time ms = 0 --> drive_wheels(l_wheel_speed=0.0, r_wheel_speed=0.0, duration=0.132)
Trigger time ms = 132 --> drive_wheels(l_wheel_speed=-0.0, r_wheel_speed=-0.0, duration=0.231)
Trigger time ms = 363 --> drive_wheels(l_wheel_speed=8, r_wheel_speed=8, duration=0.033)
Trigger time ms = 396 --> drive_wheels(l_wheel_speed=8, r_wheel_speed=8, duration=0.198)
Trigger time ms = 594 --> drive_wheels(l_wheel_speed=-29, r_wheel_speed=-29, duration=0.066)
Trigger time ms = 726 --> drive_wheels(l_wheel_speed=-61, r_wheel_speed=-61, duration=0.033)
Trigger time ms = 759 --> drive_wheels(l_wheel_speed=-61, r_wheel_speed=-61, duration=0.033)
Trigger time ms = 792 --> drive_wheels(l_wheel_speed=128, r_wheel_speed=128, duration=0.033)
Trigger time ms = 825 --> drive_wheels(l_wheel_speed=128, r_wheel_speed=128, duration=0.033)
Trigger time ms = 858 --> drive_wheels(l_wheel_speed=-67, r_wheel_speed=-67, duration=0.066)
Trigger time ms = 2013 --> drive_wheels(l_wheel_speed=26, r_wheel_speed=26, duration=0.495)
Trigger time ms = 2508 --> drive_wheels(l_wheel_speed=18, r_wheel_speed=18, duration=0.33)
Trigger time ms = 2838 --> drive_wheels(l_wheel_speed=6, r_wheel_speed=6, duration=0.165)
Trigger time ms = 3003 --> drive_wheels(l_wheel_speed=-85, r_wheel_speed=-85, duration=0.132)
Trigger time ms = 3135 --> drive_wheels(l_wheel_speed=-25, r_wheel_speed=-25, duration=0.132)
Trigger time ms = 3267 --> drive_wheels(l_wheel_speed=-12, r_wheel_speed=-12, duration=0.132)
Trigger time ms = 3399 --> drive_wheels(l_wheel_speed=-4, r_wheel_speed=-4, duration=0.165)
Trigger time ms = 3696 --> drive_wheels(l_wheel_speed=-12.5, r_wheel_speed=-1137.5, duration=0.066)
Trigger time ms = 4983 --> drive_wheels(l_wheel_speed=91.0, r_wheel_speed=1.0, duration=0.099)
Trigger time ms = 5082 --> drive_wheels(l_wheel_speed=819.0, r_wheel_speed=9.0, duration=0.066)
Trigger time ms = 5676 --> drive_wheels(l_wheel_speed=109471.5, r_wheel_speed=111766.5, duration=0.066)
