Original file = data/sdk_converted/anim_meetcozmo
Animation anim_meetcozmo_celebration clip 4/30
---------------------------------------
Process lift height
---------------------------------------
Trigger time ms = 0 --> set_lift_height(0, duration=2.376)
Trigger time ms = 2376 --> set_lift_height(81, duration=0.132)
Trigger time ms = 2508 --> set_lift_height(68, duration=0.165)
Trigger time ms = 2673 --> set_lift_height(92, duration=0.132)
Trigger time ms = 3003 --> set_lift_height(86, duration=0.165)
Trigger time ms = 3168 --> set_lift_height(92, duration=0.33)
Trigger time ms = 3498 --> set_lift_height(90, duration=0.231)
Trigger time ms = 3729 --> set_lift_height(57, duration=0.363)
Trigger time ms = 4092 --> set_lift_height(87, duration=0.264)
Trigger time ms = 4356 --> set_lift_height(83, duration=0.297)
Trigger time ms = 4653 --> set_lift_height(88, duration=0.231)
Trigger time ms = 4884 --> set_lift_height(92, duration=0.891)
Trigger time ms = 5775 --> set_lift_height(47, duration=0.165)
Trigger time ms = 5940 --> set_lift_height(31, duration=0.264)
Trigger time ms = 6204 --> set_lift_height(63, duration=0.198)
Trigger time ms = 6402 --> set_lift_height(7, duration=0.264)
Trigger time ms = 6666 --> set_lift_height(92, duration=1.32)
Trigger time ms = 7986 --> set_lift_height(55, duration=0.132)
Trigger time ms = 8217 --> set_lift_height(84, duration=0.198)
Trigger time ms = 8415 --> set_lift_height(92, duration=0.099)
Trigger time ms = 8514 --> set_lift_height(46, duration=0.198)
Trigger time ms = 8712 --> set_lift_height(79, duration=0.297)
Trigger time ms = 9009 --> set_lift_height(0, duration=0.132)
Trigger time ms = 9141 --> set_lift_height(25, duration=0.165)
Trigger time ms = 9306 --> set_lift_height(76, duration=0.132)
Trigger time ms = 9438 --> set_lift_height(92, duration=0.297)
Trigger time ms = 9735 --> set_lift_height(0, duration=0.099)
---------------------------------------
Process Head angle animations
---------------------------------------
Trigger time ms = 0 --> set_head_angle(9, duration=0.231)
Trigger time ms = 231 --> set_head_angle(7, duration=0.066)
Trigger time ms = 297 --> set_head_angle(9, duration=0.297)
Trigger time ms = 594 --> set_head_angle(11, duration=0.198)
Trigger time ms = 792 --> set_head_angle(-4, duration=0.528)
Trigger time ms = 1320 --> set_head_angle(-5, duration=0.264)
Trigger time ms = 1584 --> set_head_angle(22, duration=0.297)
Trigger time ms = 1881 --> set_head_angle(23, duration=0.231)
Trigger time ms = 2112 --> set_head_angle(17, duration=0.165)
Trigger time ms = 2277 --> set_head_angle(15, duration=0.132)
Trigger time ms = 2409 --> set_head_angle(15, duration=0.132)
Trigger time ms = 5973 --> set_head_angle(-5, duration=0.264)
Trigger time ms = 6237 --> set_head_angle(17, duration=0.198)
Trigger time ms = 6435 --> set_head_angle(-6, duration=0.264)
Trigger time ms = 6699 --> set_head_angle(-12, duration=0.264)
Trigger time ms = 6963 --> set_head_angle(14, duration=1.023)
Trigger time ms = 7986 --> set_head_angle(-5, duration=0.231)
Trigger time ms = 8217 --> set_head_angle(10, duration=0.198)
Trigger time ms = 8415 --> set_head_angle(-16, duration=0.429)
Trigger time ms = 9273 --> set_head_angle(15, duration=0.264)
Trigger time ms = 9702 --> set_head_angle(-3, duration=0.132)
Trigger time ms = 9834 --> set_head_angle(4, duration=0.132)
---------------------------------------
Process body motion animations
---------------------------------------
Trigger time ms = 594 --> drive_wheels(l_wheel_speed=-53, r_wheel_speed=-53, duration=0.165)
Trigger time ms = 759 --> drive_wheels(l_wheel_speed=50, r_wheel_speed=50, duration=0.297)
Trigger time ms = 1056 --> drive_wheels(l_wheel_speed=3, r_wheel_speed=3, duration=0.891)
Trigger time ms = 3036 --> turn_in_place(degrees(-167))
Trigger time ms = 3498 --> drive_wheels(l_wheel_speed=81, r_wheel_speed=81, duration=0.462)
Trigger time ms = 4059 --> drive_wheels(l_wheel_speed=110, r_wheel_speed=110, duration=0.231)
Trigger time ms = 4290 --> drive_wheels(l_wheel_speed=-100, r_wheel_speed=-100, duration=0.363)
Trigger time ms = 4851 --> turn_in_place(degrees(-1031))
Trigger time ms = 6171 --> turn_in_place(degrees(422))
Trigger time ms = 6699 --> drive_wheels(l_wheel_speed=-27, r_wheel_speed=-27, duration=1.419)
Trigger time ms = 8151 --> turn_in_place(degrees(379))
Trigger time ms = 9339 --> drive_wheels(l_wheel_speed=-38, r_wheel_speed=-38, duration=0.198)
Trigger time ms = 9537 --> drive_wheels(l_wheel_speed=-37, r_wheel_speed=-37, duration=0.165)
Trigger time ms = 9867 --> drive_wheels(l_wheel_speed=-75, r_wheel_speed=-75, duration=0.132)
