Original file = data/sdk_converted/anim_lookinplaceforface_keepalive
Animation anim_lookinplaceforfaces_keepalive_short clip 3/12
---------------------------------------
Process lift height
---------------------------------------
---------------------------------------
Process Head angle animations
---------------------------------------
---------------------------------------
Process body motion animations
---------------------------------------
