Original file = data/sdk_converted/id_rollblock_fail_01
Animation anim_rollblock_fail_01 clip 1/1
---------------------------------------
Process lift height
---------------------------------------
---------------------------------------
Process Head angle animations
---------------------------------------
Trigger time ms = 0 --> set_head_angle(-13, duration=0.099)
Trigger time ms = 825 --> set_head_angle(0, duration=0.363)
---------------------------------------
Process body motion animations
---------------------------------------
