Original file = data/sdk_converted/launch
Animation anim_launch_startsleeping_01 clip 11/11
---------------------------------------
Process lift height
---------------------------------------
Trigger time ms = 0 --> set_lift_height(0, duration=0.33)
---------------------------------------
Process Head angle animations
---------------------------------------
Trigger time ms = 0 --> set_head_angle(-19, duration=0.33)
---------------------------------------
Process body motion animations
---------------------------------------
