Original file = data/sdk_converted/launch
Animation anim_launch_wakeup_enddriving_01 clip 10/11
---------------------------------------
Process lift height
---------------------------------------
---------------------------------------
Process Head angle animations
---------------------------------------
---------------------------------------
Process body motion animations
---------------------------------------
