Original file = data/sdk_converted/launch
Animation anim_launch_wakeup_drivingloop_01 clip 8/11
---------------------------------------
Process lift height
---------------------------------------
---------------------------------------
Process Head angle animations
---------------------------------------
Trigger time ms = 0 --> set_head_angle(2, duration=0.231)
Trigger time ms = 660 --> set_head_angle(0, duration=0.165)
---------------------------------------
Process body motion animations
---------------------------------------
