Original file = data/sdk_converted/vs_speedtap_gamereact_02
Animation anim_speedtap_losegame_intensity02_03 clip 2/4
---------------------------------------
Process lift height
---------------------------------------
Trigger time ms = 0 --> set_lift_height(92, duration=0.363)
Trigger time ms = 363 --> set_lift_height(78, duration=0.198)
Trigger time ms = 561 --> set_lift_height(79, duration=0.198)
Trigger time ms = 759 --> set_lift_height(92, duration=0.165)
Trigger time ms = 2310 --> set_lift_height(76, duration=0.132)
Trigger time ms = 2442 --> set_lift_height(86, duration=0.099)
Trigger time ms = 2541 --> set_lift_height(76, duration=0.099)
Trigger time ms = 2640 --> set_lift_height(84, duration=0.132)
Trigger time ms = 2772 --> set_lift_height(76, duration=0.132)
Trigger time ms = 2904 --> set_lift_height(92, duration=0.066)
Trigger time ms = 2970 --> set_lift_height(92, duration=0.132)
Trigger time ms = 3102 --> set_lift_height(92, duration=0.198)
Trigger time ms = 3300 --> set_lift_height(92, duration=0.297)
Trigger time ms = 3597 --> set_lift_height(75, duration=0.132)
Trigger time ms = 3729 --> set_lift_height(86, duration=0.099)
Trigger time ms = 3828 --> set_lift_height(75, duration=0.099)
Trigger time ms = 3927 --> set_lift_height(92, duration=0.165)
Trigger time ms = 4917 --> set_lift_height(75, duration=0.132)
Trigger time ms = 5049 --> set_lift_height(92, duration=0.099)
Trigger time ms = 5148 --> set_lift_height(92, duration=0.396)
Trigger time ms = 5544 --> set_lift_height(92, duration=0.429)
Trigger time ms = 5973 --> set_lift_height(32, duration=1.089)
Trigger time ms = 11187 --> set_lift_height(45, duration=0.066)
Trigger time ms = 11253 --> set_lift_height(32, duration=0.099)
Trigger time ms = 11517 --> set_lift_height(92, duration=0.033)
---------------------------------------
Process Head angle animations
---------------------------------------
Trigger time ms = 0 --> set_head_angle(-10, duration=0.231)
Trigger time ms = 231 --> set_head_angle(-25, duration=0.066)
Trigger time ms = 297 --> set_head_angle(29, duration=0.132)
Trigger time ms = 429 --> set_head_angle(30, duration=0.363)
Trigger time ms = 792 --> set_head_angle(-3, duration=0.132)
Trigger time ms = 924 --> set_head_angle(-5, duration=1.947)
Trigger time ms = 2871 --> set_head_angle(30, duration=0.099)
Trigger time ms = 3102 --> set_head_angle(-15, duration=0.297)
Trigger time ms = 4125 --> set_head_angle(-3, duration=0.132)
Trigger time ms = 5973 --> set_head_angle(29, duration=1.188)
Trigger time ms = 7161 --> set_head_angle(21, duration=0.132)
Trigger time ms = 7293 --> set_head_angle(39, duration=0.099)
Trigger time ms = 7392 --> set_head_angle(28, duration=0.132)
Trigger time ms = 7524 --> set_head_angle(22, duration=0.033)
Trigger time ms = 7557 --> set_head_angle(27, duration=0.033)
Trigger time ms = 7590 --> set_head_angle(20, duration=0.033)
Trigger time ms = 7623 --> set_head_angle(26, duration=0.033)
Trigger time ms = 7656 --> set_head_angle(18, duration=0.033)
Trigger time ms = 7689 --> set_head_angle(23, duration=0.033)
Trigger time ms = 7722 --> set_head_angle(16, duration=0.033)
Trigger time ms = 7755 --> set_head_angle(21, duration=0.033)
Trigger time ms = 7788 --> set_head_angle(13, duration=0.033)
Trigger time ms = 7821 --> set_head_angle(18, duration=0.033)
Trigger time ms = 7854 --> set_head_angle(8, duration=0.033)
Trigger time ms = 7887 --> set_head_angle(17, duration=0.033)
Trigger time ms = 7920 --> set_head_angle(8, duration=0.033)
Trigger time ms = 7953 --> set_head_angle(14, duration=0.033)
Trigger time ms = 7986 --> set_head_angle(5, duration=0.033)
Trigger time ms = 8019 --> set_head_angle(11, duration=0.033)
Trigger time ms = 8052 --> set_head_angle(3, duration=0.033)
Trigger time ms = 8085 --> set_head_angle(9, duration=0.033)
Trigger time ms = 8118 --> set_head_angle(0, duration=0.033)
Trigger time ms = 8151 --> set_head_angle(7, duration=0.033)
Trigger time ms = 8184 --> set_head_angle(-1, duration=0.033)
Trigger time ms = 8217 --> set_head_angle(6, duration=0.033)
Trigger time ms = 8250 --> set_head_angle(-4, duration=0.033)
Trigger time ms = 8283 --> set_head_angle(4, duration=0.033)
Trigger time ms = 8316 --> set_head_angle(-6, duration=0.033)
Trigger time ms = 8349 --> set_head_angle(2, duration=0.033)
Trigger time ms = 8382 --> set_head_angle(-9, duration=0.033)
Trigger time ms = 8415 --> set_head_angle(0, duration=0.033)
Trigger time ms = 8448 --> set_head_angle(-11, duration=0.033)
Trigger time ms = 8481 --> set_head_angle(-2, duration=0.033)
Trigger time ms = 8514 --> set_head_angle(-13, duration=0.033)
Trigger time ms = 8547 --> set_head_angle(-4, duration=0.033)
Trigger time ms = 8580 --> set_head_angle(-15, duration=0.033)
Trigger time ms = 8613 --> set_head_angle(-6, duration=0.033)
Trigger time ms = 8646 --> set_head_angle(-17, duration=0.033)
Trigger time ms = 8679 --> set_head_angle(-7, duration=0.033)
Trigger time ms = 8712 --> set_head_angle(-18, duration=0.033)
Trigger time ms = 8745 --> set_head_angle(-9, duration=0.033)
Trigger time ms = 8778 --> set_head_angle(-20, duration=0.033)
Trigger time ms = 8811 --> set_head_angle(-10, duration=0.033)
Trigger time ms = 8844 --> set_head_angle(-21, duration=0.033)
Trigger time ms = 8877 --> set_head_angle(-12, duration=0.033)
Trigger time ms = 8910 --> set_head_angle(-21, duration=0.033)
Trigger time ms = 8943 --> set_head_angle(-13, duration=0.033)
Trigger time ms = 8976 --> set_head_angle(-22, duration=0.033)
Trigger time ms = 9009 --> set_head_angle(-14, duration=0.033)
Trigger time ms = 9042 --> set_head_angle(-23, duration=0.033)
Trigger time ms = 9075 --> set_head_angle(-16, duration=0.033)
Trigger time ms = 9108 --> set_head_angle(-24, duration=0.033)
Trigger time ms = 9141 --> set_head_angle(-17, duration=0.033)
Trigger time ms = 9174 --> set_head_angle(-24, duration=0.033)
Trigger time ms = 9207 --> set_head_angle(-17, duration=0.033)
Trigger time ms = 9240 --> set_head_angle(-25, duration=0.033)
Trigger time ms = 9273 --> set_head_angle(-18, duration=0.033)
Trigger time ms = 9306 --> set_head_angle(-25, duration=0.033)
Trigger time ms = 9339 --> set_head_angle(-19, duration=0.033)
Trigger time ms = 9372 --> set_head_angle(-25, duration=0.033)
Trigger time ms = 9405 --> set_head_angle(-19, duration=0.033)
Trigger time ms = 9438 --> set_head_angle(-25, duration=0.033)
Trigger time ms = 9471 --> set_head_angle(-19, duration=0.033)
Trigger time ms = 9504 --> set_head_angle(-25, duration=0.033)
Trigger time ms = 9537 --> set_head_angle(-20, duration=0.033)
Trigger time ms = 9570 --> set_head_angle(-25, duration=0.033)
Trigger time ms = 9603 --> set_head_angle(-20, duration=0.033)
Trigger time ms = 9636 --> set_head_angle(-25, duration=0.033)
Trigger time ms = 9669 --> set_head_angle(-21, duration=0.033)
Trigger time ms = 9702 --> set_head_angle(-25, duration=0.033)
Trigger time ms = 9735 --> set_head_angle(-21, duration=0.033)
Trigger time ms = 9768 --> set_head_angle(-25, duration=0.033)
Trigger time ms = 9801 --> set_head_angle(-21, duration=0.033)
Trigger time ms = 9834 --> set_head_angle(-25, duration=0.033)
Trigger time ms = 9867 --> set_head_angle(-21, duration=0.033)
Trigger time ms = 9900 --> set_head_angle(-25, duration=0.033)
Trigger time ms = 9933 --> set_head_angle(-21, duration=0.033)
Trigger time ms = 9966 --> set_head_angle(-25, duration=0.033)
Trigger time ms = 9999 --> set_head_angle(-22, duration=0.033)
Trigger time ms = 10032 --> set_head_angle(-25, duration=0.033)
Trigger time ms = 10065 --> set_head_angle(-22, duration=0.033)
Trigger time ms = 10098 --> set_head_angle(-25, duration=0.033)
Trigger time ms = 10131 --> set_head_angle(-22, duration=0.033)
Trigger time ms = 10164 --> set_head_angle(-25, duration=0.033)
Trigger time ms = 10197 --> set_head_angle(-22, duration=0.033)
Trigger time ms = 10230 --> set_head_angle(-25, duration=0.033)
Trigger time ms = 10263 --> set_head_angle(-23, duration=0.033)
Trigger time ms = 10296 --> set_head_angle(-25, duration=0.033)
Trigger time ms = 10329 --> set_head_angle(-23, duration=0.033)
Trigger time ms = 10362 --> set_head_angle(-25, duration=0.033)
Trigger time ms = 10395 --> set_head_angle(-23, duration=0.033)
Trigger time ms = 10428 --> set_head_angle(-25, duration=0.033)
Trigger time ms = 10461 --> set_head_angle(-23, duration=0.033)
Trigger time ms = 10494 --> set_head_angle(-25, duration=0.033)
Trigger time ms = 10527 --> set_head_angle(-24, duration=0.033)
Trigger time ms = 10560 --> set_head_angle(-25, duration=0.033)
Trigger time ms = 10593 --> set_head_angle(-24, duration=0.033)
Trigger time ms = 10626 --> set_head_angle(-25, duration=0.033)
Trigger time ms = 10659 --> set_head_angle(-24, duration=0.033)
Trigger time ms = 10692 --> set_head_angle(-25, duration=0.033)
Trigger time ms = 10725 --> set_head_angle(-25, duration=0.033)
Trigger time ms = 10758 --> set_head_angle(-25, duration=0.363)
Trigger time ms = 11121 --> set_head_angle(18, duration=0.198)
Trigger time ms = 11319 --> set_head_angle(0, duration=0.165)
Trigger time ms = 11517 --> set_head_angle(-13, duration=0.033)
---------------------------------------
Process body motion animations
---------------------------------------
Trigger time ms = 0 --> drive_wheels(l_wheel_speed=-113, r_wheel_speed=-113, duration=0.165)
Trigger time ms = 165 --> drive_wheels(l_wheel_speed=24, r_wheel_speed=24, duration=0.165)
Trigger time ms = 1023 --> drive_wheels(l_wheel_speed=26, r_wheel_speed=26, duration=0.561)
Trigger time ms = 2838 --> drive_wheels(l_wheel_speed=-1329538.5, r_wheel_speed=-1331473.5, duration=0.132)
Trigger time ms = 3135 --> drive_wheels(l_wheel_speed=1051399.0, r_wheel_speed=1052929.0, duration=0.165)
Trigger time ms = 5775 --> drive_wheels(l_wheel_speed=-19, r_wheel_speed=-19, duration=1.287)
Trigger time ms = 7392 --> drive_wheels(l_wheel_speed=-21.5, r_wheel_speed=23.5, duration=2.805)
Trigger time ms = 10197 --> drive_wheels(l_wheel_speed=-0.0, r_wheel_speed=0.0, duration=0.891)
Trigger time ms = 11088 --> drive_wheels(l_wheel_speed=12619.5, r_wheel_speed=6274.5, duration=0.132)
Trigger time ms = 11517 --> drive_wheels(l_wheel_speed=-7590.0, r_wheel_speed=2310.0, duration=0.033)
