Original file = data/sdk_converted/vs_speedtap_game
Animation anim_speedtap_lookatplayer clip 4/8
---------------------------------------
Process lift height
---------------------------------------
---------------------------------------
Process Head angle animations
---------------------------------------
Trigger time ms = 0 --> set_head_angle(-5, duration=0.132)
Trigger time ms = 495 --> set_head_angle(-12, duration=0.165)
---------------------------------------
Process body motion animations
---------------------------------------
