Original file = data/sdk_converted/vs_speedtap_driving
Animation anim_speedtap_drivingloop_02 clip 3/4
---------------------------------------
Process lift height
---------------------------------------
---------------------------------------
Process Head angle animations
---------------------------------------
Trigger time ms = 1518 --> set_head_angle(-8, duration=0.099)
Trigger time ms = 1980 --> set_head_angle(-7, duration=0.231)
---------------------------------------
Process body motion animations
---------------------------------------
